{
    "id": "884",
    "cataloglink": "https://webvoyage.carli.illinois.edu/nby/cgi-bin/Pwebrecon.cgi?DB=local&v1=1&BBRecID=154600",
    "pages": [
        {
            "pageid": 55939,
            "pagefilename": "1ed8e17f049ee41cdccf2760e6e7d854.jpg",
            "pageorigfilename": "GR_938_0001_o2.jpg",
            "transcription": "Sioux City\nSteamer Robert Campbell June 9th 56\nMy Dear Daughter\nFrom my last you would infer that I had intended to return but circumstances since that has changed my course we are now on our way to the Mountains - on the arrival at St Lo? of the Steamer Robert Campbell for I met on her Col Vaughan with numerous friends who were anxious that I should accompany the Exploration? that with the Capt offering"
        },
        {
            "pageid": 55940,
            "pagefilename": "f850b2a8d0a7fbceab69ea39b56c8481.jpg",
            "pageorigfilename": "GR_938_0002_o2.jpg",
            "transcription": "us a free passige to Fort Benton you must not be with Fany be disappointed but bear up - and endeavour to pass usefully once as pleasantly as circumstances will permit untill I return which will be in the fall when I shall pass through Palmira - in the mean spare no pains to ? to facilitate the Education of give every good advice to study - at the same time I want you to be careful of her health as you know she is not over strong"
        },
        {
            "pageid": 55941,
            "pagefilename": "4a5b4243a44c6114fbf415ca37559f4c.jpg",
            "pageorigfilename": "GR_938_0003_o2.jpg",
            "transcription": "Keep up a corrispondance with Jane and let her know the contents of my Letter - your Mother says tell Jane she must keep that Little Girl go constanly to School\nyou will hear from me frequently before I reach Fort Benton\nGive our kind Regards to Uncle & Aunt\nYourself & Fany\naccept our Affection\nYour Affectionate\nFather\nAlex Culbertson"
        }
    ]
}