{
    "id": "834",
    "cataloglink": "https://webvoyage.carli.illinois.edu/nby/cgi-bin/Pwebrecon.cgi?DB=local&v1=1&BBRecID=123286",
    "pages": [
        {
            "pageid": 54647,
            "pagefilename": "f35794da1b902dbf5fb39c4239c61635.jpg",
            "pageorigfilename": "GR_5459_0001_o2.jpg",
            "transcription": "? Wm. P. Duvall\n\n                                                 City of Washington\n\nMy dear Friend,\nI arrived here this morning, & have learnt from the Sec of War that he had on yesterday protested a draft drawn on him by you for the outfit & expences of the Boyes which he authorised to be sent on last winter to the Choctaw academy\nI was astonished at this information & immediately run over to the Bank hoping, that the draft had not been sent back but was mistaken"
        },
        {
            "pageid": 54648,
            "pagefilename": "6e7923b5adc9045204fbfb24abccfa3e.jpg",
            "pageorigfilename": "GR_5459_0002_o2.jpg",
            "transcription": "But rely upon it that I shall immediately attend to this matter & have the measure sanctioned & your draft paid -- Majr Eaton had forgotten the circumstance of your conversation & mine with him several times on the subject & had supposed it had been done by McKinney alone.  It is probable that he may require the chiefs to sanction sending the Boys to Kentucky school or rather to get them to express a wish of that kind, to justify their education among the whites as the treaty contemplated that the school should be at the agency.  Rest assured my friend that I shall not neglect this unpleasant business -- Can I serve you?\nas ever truly yours\n(In haste)\nRh. M. Johnson\nGov. Wm. P. Duvall\nTallahasee\nFlorida\nNo 47"
        }
    ]
}