{
    "id": "964",
    "cataloglink": "https://webvoyage.carli.illinois.edu/nby/cgi-bin/Pwebrecon.cgi?DB=local&v1=1&BBRecID=145782",
    "pages": [
        {
            "pageid": 61692,
            "pagefilename": "5965c8247be77fe80038def8992edf2c.jpg",
            "pageorigfilename": "Ayer_MS_722_00002_o2.jpg",
            "transcription": "A Talk Delivered General Joseph Martin by Piamingo Chief Warrier of the Chickasaw Nation the 28th of Sept 1789 for his Exccellency Samuel Johnson Esq. Governor of the State of North Carolina  I am now at my Friends House at the long Island of Holson on my way to see the Great Warrier at New Yark, my Friend tells me that your Great Council is about to meet shortly and Says he will bring this Talk Safe to you - Now Brother listen to what I am going to say to you last Spring when your People was about to meet the Cherokee Indians to treat with them at Swaran - no Two of my Men was on their way there in Company with Some of your People, On the way they were attacked by the Creeks, boath of my men were killed and Two of yours, we boath fell and Bled on the Same Ground, it is no Strange thing with you to have your men killed by the Creek, but it is to me and am determined to take Satisfaction for it, you have a great many men and can Spare them better than I can  what few I have I love them and when they are struck I feel the Blow and as we are a people that love the White People we have always been at peace with them we never Shed the Blood of the White People and many times when we have known that the Creeks have been on their way to ware against your people at Cumberland we have give them notice - I often go to Cumberland to see my"
        },
        {
            "pageid": 61693,
            "pagefilename": "406c5fdde6c6fd3ad9e33b364b3a2016.jpg",
            "pageorigfilename": "Ayer_MS_722_00003_o2.jpg",
            "transcription": "Friends there and am sorry to see so many people there wounded by them Rogues the Creeks but as you look over it I have nothing to say more about that - only beg that my Elder Brothers of North Carolina will give me Some assistance that I may take Satisfaction, all I Request of you my Brother is Two Thousand Weight of powder and Bullits to Shoot with - The Chocktaws say as soon as I can get amunition they well Join me I hope the great Warrior of new York will do something for me I hope you will also and hope to hear some good news from you by my Friend as I Expect to be at his House on my Way home by the time he comes from your great council - I am no Beggar I do not want your powder and Bullits for nothing I am willing to pay you Skins Furs or Horses which is all the Trade we have wee Red People have no money, my Talk is short I hope well Remember me and my people we are not able to help ourselves without you as we do not know how to make Powder and are verry unwilling to apply to the Spaniards for it, they are people we never loved they have sent us often to come to them but we will not if we can help it I am Sir Your Friend & Brother Piamingo"
        }
    ]
}