{
    "id": "894",
    "cataloglink": "https://webvoyage.carli.illinois.edu/nby/cgi-bin/Pwebrecon.cgi?DB=local&v1=1&BBRecID=154533",
    "pages": [
        {
            "pageid": 56484,
            "pagefilename": "bd097ac5aeba82cb6096ff211e23b00c.jpg",
            "pageorigfilename": "GR_1664-0001_o2.jpg",
            "transcription": "Carthage, IL Nov. 26th 1906\nMr. Luther A Brewer\nDear Sir\nPardon my delay. the Ice Storm prevents my getting out. Yours of the 15th came to hand the 17th. Your sign your name Luther A. Brewer, but give no personal address therefore I will answer your questions and send some Notices of the book which will cost you 2,14. Two dollars & the postage which has never been lower than fourteen cents. The Publisher managed to make way with the Steriotyped plates, so I took all the books remaining and now hold them at 2.00 & postage. When I have to Mail them as the book is out of print. \nMr Earl G. Swem has in his hands to sell for me anything I may have on"
        },
        {
            "pageid": 56485,
            "pagefilename": "d4017eda83a4647042510327903a0a16.jpg",
            "pageorigfilename": "GR_1664-0002_o2.jpg",
            "transcription": "Iowa.  My Father Thomas Gregg author\nof the book in question published\na paper where Montrose now stands\nbefore Iowa was even Iowa Territory.\nHe moved into the old barracks of the\nold Fort Des Moines, for his dwelling.  his nearest\nwhite neighbors were the Killbournes & a Mr. Austin\nof N. Y. later of Kentuck, who were land speculator\nof what was known as the Half Breed Tract,\nand Father printed the hand bills, & advertized\nin said paper the first sale of lots for\nthe City of Keokuk.  His place of residence\nsoon changed from old Fort Des Moines Wisconsin\nTerritory to Montrose Iowa Territory, which is now\nMontrose Iowa.  Father lived there & published said\npaper about three possibly more years, & during\nthat time acted as Justice of the Peace & mail\ncarrier, which latter was quite dangerous as he made\ndaily trips to Nauvoo, which was then known as\nCommerce, across the river by Idian Canoe.\nand now it is Nov 21st P.M. & still storming.\nAs I am left alone in the world as"
        },
        {
            "pageid": 56486,
            "pagefilename": "b35afe53f40f51e2c3d3c7be3f7c07ec.jpg",
            "pageorigfilename": "GR_1664-0003_o2.jpg",
            "transcription": "regards family or near Relatives it\nbecomes quite imperative, that I take\ngood care of my health, therefore I cannot\ntell at this hour when I will be able to\nget but any.  Will not mail book however\nuntil I hear from you again.\nYours Truly Stella D. Gregg,\nP. O. Box 634        Carthage, Illinois"
        }
    ]
}