{
    "id": "1325",
    "cataloglink": "https://i-share-nby.primo.exlibrisgroup.com/permalink/01CARLI_NBY/i5mcb2/alma991230488805867",
    "pages": [
        {
            "pageid": 109301,
            "pagefilename": "71f701a59674a7cb472dc2e9afdcc4ad.jpg",
            "pageorigfilename": "Ayer_MS_1193-1_VL01_000170r_o2.jpg",
            "transcription": "mada, se ambos para remetir a su Eso.a?? y otra assi-??\nmismo, firmada para mi R.P Guardian.\n\tAssimismo le hice patente por el Libro\nSe huestro Hermano Sindico como los Micióneros\nhavian aplicado la limosna se todas las Misas \nque seles havian? en comendado al fondo selas\nMiciones, haciendo un cuerpo con el ingreso se los\nunclear que por el Libro contaba??, importar di-\nchas, Limosnas selos cinco años que la Adminis-\ntramos, Un mil seiscentos quarenta y un pesos \nconque havian los Micioneros álludado amante [-]\nner, las Miciones amar seque todo loque so-\nbraba, selos Sinodos havia venido se Mexico\némpleado, en ropas, y Herramientas; por\ncuya cauza contaria en los los Imbentarios parti -\nculares, se las Miciones, el aumentos sela Herra-\nmientas, Utencilios?? se Cassa??, y tambien se Igle-\ncia, y sacristía sinque por lodicho faltaro??\na los Indios el socorro ánual seropa, y elsoco-\nrro, sela Comida Ordinaria, Conferando los\nmismo Indios que jamas havian comido ni\nVestido mejor.\n\tLe entregue tambien como Arriva dije\nLa memoria selas Bestias, Mulas, y caballos\n\n\n\nmada, from both to send of their (Spouse?), and others of the \nlike, to sign for my Reverend Father Guardian.\n\tLikewise I’ve made it clear by the book\nby our Brother Sindico how the missionaries \nmake use of the alms of all the Masses\nthat they have been given at the end(bottom, back) of the \nmissions, they are making a (body) with the ingest of the\n[unclear] that ic counted by the Book for \nsaid alms of the five years that we have administrated \n1641 pesos \nwith which the Missionaries have helped to (maintain, collect),\ntheir Missions (care?) for everything that is left over,\nof the synods coming from Mexico\nemployed, in clothing, and tools;\nfor which cause it counted in the inventories parti-\ncularly, of the missions, the increase of the tools,\nutensils of house, and also of the Church,\nand sacristy without what has been said of depriving \nthe Indians the annual aid of clothes, and aid, of ordinary food, Conferring with the Indians themselves, that they had never eaten nor \ndressed better.\n\tI’ve submitted like I’ve said above\nthe record of Beasts, Mules, and horses"
        },
        {
            "pageid": 109302,
            "pagefilename": "54280bfed545d3c155b24bded803f2bd.jpg",
            "pageorigfilename": "Ayer_MS_1193-1_VL01_000170_o2.jpg",
            "transcription": ""
        },
        {
            "pageid": 109303,
            "pagefilename": "1efddb057e85006c5780bbfb501d6779.jpg",
            "pageorigfilename": "Ayer_MS_1193-1_VL01_000171r_o2.jpg",
            "transcription": ""
        },
        {
            "pageid": 109304,
            "pagefilename": "0b7dbadc04b7eb0b475530fff8085d8c.jpg",
            "pageorigfilename": "Ayer_MS_1193-1_VL01_000171_o2.jpg",
            "transcription": ""
        },
        {
            "pageid": 109305,
            "pagefilename": "cd03e74a5cefec533a77410a038d1680.jpg",
            "pageorigfilename": "Ayer_MS_1193-1_VL01_000172r_o2.jpg",
            "transcription": ""
        },
        {
            "pageid": 109306,
            "pagefilename": "9fe7b3b2de7469146503f97f208a6053.jpg",
            "pageorigfilename": "Ayer_MS_1193-1_VL01_000172_o2.jpg",
            "transcription": ""
        },
        {
            "pageid": 109307,
            "pagefilename": "6b073ab21fe74b6a465aa5a18e5bb6d5.jpg",
            "pageorigfilename": "Ayer_MS_1193-1_VL01_000173r_o2.jpg",
            "transcription": ""
        },
        {
            "pageid": 109308,
            "pagefilename": "4e24843c281a6d5392614e2995746fce.jpg",
            "pageorigfilename": "Ayer_MS_1193-1_VL01_000173_o2.jpg",
            "transcription": ""
        },
        {
            "pageid": 109309,
            "pagefilename": "3e5958bc4e240f04c1eed777b4a65e1a.jpg",
            "pageorigfilename": "Ayer_MS_1193-1_VL01_000174r_o2.jpg",
            "transcription": ""
        },
        {
            "pageid": 109310,
            "pagefilename": "41280a42a17345c119a85fabc34bd4dc.jpg",
            "pageorigfilename": "Ayer_MS_1193-1_VL01_000174_o2.jpg",
            "transcription": ""
        },
        {
            "pageid": 109311,
            "pagefilename": "93864bfeda344ed57af2c27b5a0659c3.jpg",
            "pageorigfilename": "Ayer_MS_1193-1_VL01_000175r_o2.jpg",
            "transcription": ""
        },
        {
            "pageid": 109312,
            "pagefilename": "e250c81ea77c04116b4a260270b415e3.jpg",
            "pageorigfilename": "Ayer_MS_1193-1_VL01_000175_o2.jpg",
            "transcription": ""
        },
        {
            "pageid": 109313,
            "pagefilename": "cd5c3baf927073076b7c81bcfad4ae9f.jpg",
            "pageorigfilename": "Ayer_MS_1193-1_VL01_000176r_o2.jpg",
            "transcription": ""
        },
        {
            "pageid": 109314,
            "pagefilename": "21d1e8f63934c03de99a806a7746cf69.jpg",
            "pageorigfilename": "Ayer_MS_1193-1_VL01_000176_o2.jpg",
            "transcription": ""
        },
        {
            "pageid": 109315,
            "pagefilename": "35ae4fe5f73461e8741d77d09397d369.jpg",
            "pageorigfilename": "Ayer_MS_1193-1_VL01_000177r_o2.jpg",
            "transcription": ""
        },
        {
            "pageid": 109316,
            "pagefilename": "0fac12c267ff81dfb17cb0e97195286b.jpg",
            "pageorigfilename": "Ayer_MS_1193-1_VL01_000177_o2.jpg",
            "transcription": ""
        },
        {
            "pageid": 109317,
            "pagefilename": "f5cc673dc8bbd6890745bd3efcd0d8cb.jpg",
            "pageorigfilename": "Ayer_MS_1193-1_VL01_000178r_o2.jpg",
            "transcription": ""
        },
        {
            "pageid": 109318,
            "pagefilename": "01d86918b2116b608c09e4ab71fed7ab.jpg",
            "pageorigfilename": "Ayer_MS_1193-1_VL01_000178_o2.jpg",
            "transcription": ""
        },
        {
            "pageid": 109319,
            "pagefilename": "eb3ef3431ca66c883dab7d039b1f55c3.jpg",
            "pageorigfilename": "Ayer_MS_1193-1_VL01_000179r_o2.jpg",
            "transcription": ""
        },
        {
            "pageid": 109320,
            "pagefilename": "e6cf7ffe6787076dd88d84da8d7b677d.jpg",
            "pageorigfilename": "Ayer_MS_1193-1_VL01_000179_o2.jpg",
            "transcription": ""
        },
        {
            "pageid": 109321,
            "pagefilename": "1c755e87689968f187caef88cd71616f.jpg",
            "pageorigfilename": "Ayer_MS_1193-1_VL01_000180r_o2.jpg",
            "transcription": ""
        },
        {
            "pageid": 109322,
            "pagefilename": "434b15b5d3c884cade8eb59a00cee5ad.jpg",
            "pageorigfilename": "Ayer_MS_1193-1_VL01_000180_o2.jpg",
            "transcription": ""
        },
        {
            "pageid": 109323,
            "pagefilename": "7acfff5abd2e70f5692c421f593fd2c4.jpg",
            "pageorigfilename": "Ayer_MS_1193-1_VL01_000181r_o2.jpg",
            "transcription": ""
        },
        {
            "pageid": 109324,
            "pagefilename": "7119f384d6d95ba32826d721de9d4d1e.jpg",
            "pageorigfilename": "Ayer_MS_1193-1_VL01_000181_o2.jpg",
            "transcription": ""
        },
        {
            "pageid": 109325,
            "pagefilename": "b71088bc13fe69ce6fa4a114e9c82c6a.jpg",
            "pageorigfilename": "Ayer_MS_1193-1_VL01_000182r_o2.jpg",
            "transcription": ""
        },
        {
            "pageid": 109326,
            "pagefilename": "f9eb660d9f809d28d72dc3a6ff8661d0.jpg",
            "pageorigfilename": "Ayer_MS_1193-1_VL01_000182_o2.jpg",
            "transcription": ""
        },
        {
            "pageid": 109327,
            "pagefilename": "34fcab2f0f02b5adc8eb6f4f600f8480.jpg",
            "pageorigfilename": "Ayer_MS_1193-1_VL01_000183r_o2.jpg",
            "transcription": ""
        },
        {
            "pageid": 109328,
            "pagefilename": "f2b061f33e243b675e310268e47d838b.jpg",
            "pageorigfilename": "Ayer_MS_1193-1_VL01_000183_o2.jpg",
            "transcription": ""
        },
        {
            "pageid": 109329,
            "pagefilename": "dd179b77865484ba001078e495547295.jpg",
            "pageorigfilename": "Ayer_MS_1193-1_VL01_000184r_o2.jpg",
            "transcription": ""
        },
        {
            "pageid": 109330,
            "pagefilename": "d8920e451d916852bc193a75eae6bcc8.jpg",
            "pageorigfilename": "Ayer_MS_1193-1_VL01_000184_o2.jpg",
            "transcription": ""
        },
        {
            "pageid": 109331,
            "pagefilename": "e1903c9f632bc099503ae6f6f70f75f6.jpg",
            "pageorigfilename": "Ayer_MS_1193-1_VL01_000185r_o2.jpg",
            "transcription": ""
        },
        {
            "pageid": 109332,
            "pagefilename": "670d26172a391d5f102e61620fa1853b.jpg",
            "pageorigfilename": "Ayer_MS_1193-1_VL01_000185_o2.jpg",
            "transcription": ""
        },
        {
            "pageid": 109333,
            "pagefilename": "93f1c4d9c0978a6459afcdc2cacaa51d.jpg",
            "pageorigfilename": "Ayer_MS_1193-1_VL01_000186r_o2.jpg",
            "transcription": ""
        },
        {
            "pageid": 109334,
            "pagefilename": "ebc11cdece0edc305358af97ff08b37d.jpg",
            "pageorigfilename": "Ayer_MS_1193-1_VL01_000186_o2.jpg",
            "transcription": ""
        },
        {
            "pageid": 109335,
            "pagefilename": "7f8ba79407cd8fc8bad6c316ee6f2032.jpg",
            "pageorigfilename": "Ayer_MS_1193-1_VL01_000187r_o2.jpg",
            "transcription": ""
        },
        {
            "pageid": 109336,
            "pagefilename": "b554aec124175f444d9cd56c68f563f1.jpg",
            "pageorigfilename": "Ayer_MS_1193-1_VL01_000187_o2.jpg",
            "transcription": ""
        },
        {
            "pageid": 109337,
            "pagefilename": "521e8642b9aef5336682af60ef22023d.jpg",
            "pageorigfilename": "Ayer_MS_1193-1_VL01_000188r_o2.jpg",
            "transcription": ""
        },
        {
            "pageid": 109338,
            "pagefilename": "775f31d8decf9afb16d50e1c663160bf.jpg",
            "pageorigfilename": "Ayer_MS_1193-1_VL01_000188_o2.jpg",
            "transcription": ""
        },
        {
            "pageid": 109339,
            "pagefilename": "b365b2e18876075752f5351c1857b1ce.jpg",
            "pageorigfilename": "Ayer_MS_1193-1_VL01_000189r_o2.jpg",
            "transcription": ""
        },
        {
            "pageid": 109340,
            "pagefilename": "b7235d41834871b8b03a62c3a2dc89df.jpg",
            "pageorigfilename": "Ayer_MS_1193-1_VL01_000189_o2.jpg",
            "transcription": ""
        },
        {
            "pageid": 109341,
            "pagefilename": "0792b3fd48a522acde78b92b4942a787.jpg",
            "pageorigfilename": "Ayer_MS_1193-1_VL01_000190r_o2.jpg",
            "transcription": ""
        },
        {
            "pageid": 109342,
            "pagefilename": "3f12683d4b1318252bea888e2d026f57.jpg",
            "pageorigfilename": "Ayer_MS_1193-1_VL01_000190_o2.jpg",
            "transcription": ""
        },
        {
            "pageid": 109343,
            "pagefilename": "d98f4f57985dad567f212e32d33fb1f6.jpg",
            "pageorigfilename": "Ayer_MS_1193-1_VL01_000191r_o2.jpg",
            "transcription": ""
        },
        {
            "pageid": 109344,
            "pagefilename": "16cab9f7ef87a64c54625c57a0335503.jpg",
            "pageorigfilename": "Ayer_MS_1193-1_VL01_000191_o2.jpg",
            "transcription": ""
        },
        {
            "pageid": 109345,
            "pagefilename": "4bf991970c659d38c8977cf73c05c7cd.jpg",
            "pageorigfilename": "Ayer_MS_1193-1_VL01_000192r_o2.jpg",
            "transcription": ""
        },
        {
            "pageid": 109346,
            "pagefilename": "3d0c05a153dfb032e3d6e37a8aa58a2b.jpg",
            "pageorigfilename": "Ayer_MS_1193-1_VL01_000192_o2.jpg",
            "transcription": ""
        },
        {
            "pageid": 109347,
            "pagefilename": "3ded19ccf1722abbe3267fb4a46188b9.jpg",
            "pageorigfilename": "Ayer_MS_1193-1_VL01_000193r_o2.jpg",
            "transcription": ""
        },
        {
            "pageid": 109348,
            "pagefilename": "1034f21c46b3ba62a9d61fe937ac06b1.jpg",
            "pageorigfilename": "Ayer_MS_1193-1_VL01_000193_o2.jpg",
            "transcription": ""
        },
        {
            "pageid": 109349,
            "pagefilename": "7d84c02d7946b59f4bde41f5d59585c0.jpg",
            "pageorigfilename": "Ayer_MS_1193-1_VL01_000194r_o2.jpg",
            "transcription": ""
        },
        {
            "pageid": 109350,
            "pagefilename": "1c0f5db34b7532c59473238e7aca19a0.jpg",
            "pageorigfilename": "Ayer_MS_1193-1_VL01_000194_o2.jpg",
            "transcription": ""
        },
        {
            "pageid": 109351,
            "pagefilename": "0151f32d120d3f9fbbd21dd12155d431.jpg",
            "pageorigfilename": "Ayer_MS_1193-1_VL01_000195r_o2.jpg",
            "transcription": ""
        },
        {
            "pageid": 109352,
            "pagefilename": "d17e02a01c0f3b7f157bb742b9279633.jpg",
            "pageorigfilename": "Ayer_MS_1193-1_VL01_000195_o2.jpg",
            "transcription": ""
        },
        {
            "pageid": 109353,
            "pagefilename": "6dbf3b7180a6023a40b2e26dc645c5df.jpg",
            "pageorigfilename": "Ayer_MS_1193-1_VL01_000196r_o2.jpg",
            "transcription": ""
        },
        {
            "pageid": 109354,
            "pagefilename": "38b1a26355a88e6e6475a3ea49429236.jpg",
            "pageorigfilename": "Ayer_MS_1193-1_VL01_000196_o2.jpg",
            "transcription": ""
        },
        {
            "pageid": 109355,
            "pagefilename": "23b7ba5f8484b094816f36c42981e11f.jpg",
            "pageorigfilename": "Ayer_MS_1193-1_VL01_000197r_o2.jpg",
            "transcription": ""
        },
        {
            "pageid": 109356,
            "pagefilename": "fa124b7ca6b36e65c202cd9de28a8f9d.jpg",
            "pageorigfilename": "Ayer_MS_1193-1_VL01_000197_o2.jpg",
            "transcription": ""
        },
        {
            "pageid": 109357,
            "pagefilename": "73f7a6fe02f9c4626e605d948a1e523f.jpg",
            "pageorigfilename": "Ayer_MS_1193-1_VL01_000198r_o2.jpg",
            "transcription": ""
        },
        {
            "pageid": 109358,
            "pagefilename": "32e3cf06b2f90e6bbb3b787f10ab8a04.jpg",
            "pageorigfilename": "Ayer_MS_1193-1_VL01_000198_o2.jpg",
            "transcription": ""
        },
        {
            "pageid": 109359,
            "pagefilename": "c94556bcd9d22642f89a31382b04541d.jpg",
            "pageorigfilename": "Ayer_MS_1193-1_VL01_000199r_o2.jpg",
            "transcription": ""
        },
        {
            "pageid": 109360,
            "pagefilename": "cc738e73ac847484ccaaaa78bec0cb12.jpg",
            "pageorigfilename": "Ayer_MS_1193-1_VL01_000199_o2.jpg",
            "transcription": ""
        },
        {
            "pageid": 109361,
            "pagefilename": "8b982d6caa0af3e3884c398d095ed180.jpg",
            "pageorigfilename": "Ayer_MS_1193-1_VL01_000200r_o2.jpg",
            "transcription": ""
        },
        {
            "pageid": 109362,
            "pagefilename": "cb06d2c6d88319bc225a5b1449493917.jpg",
            "pageorigfilename": "Ayer_MS_1193-1_VL01_000200_o2.jpg",
            "transcription": ""
        },
        {
            "pageid": 109363,
            "pagefilename": "9c86d42e5f658c0b1623384e293d2617.jpg",
            "pageorigfilename": "Ayer_MS_1193-1_VL01_000201r_o2.jpg",
            "transcription": ""
        },
        {
            "pageid": 109364,
            "pagefilename": "41bc0d7b0270a6075ef0a4446abecc34.jpg",
            "pageorigfilename": "Ayer_MS_1193-1_VL01_000201_o2.jpg",
            "transcription": ""
        },
        {
            "pageid": 109365,
            "pagefilename": "0c06d6b7d189f0d84734deefd98eefc8.jpg",
            "pageorigfilename": "Ayer_MS_1193-1_VL01_000202r_o2.jpg",
            "transcription": ""
        },
        {
            "pageid": 109366,
            "pagefilename": "7cd9621ad5438a8eb053837ac17e5980.jpg",
            "pageorigfilename": "Ayer_MS_1193-1_VL01_000202_o2.jpg",
            "transcription": ""
        },
        {
            "pageid": 109367,
            "pagefilename": "f2b0c50cde4f99061640c5ae112d9be9.jpg",
            "pageorigfilename": "Ayer_MS_1193-1_VL01_000203r_o2.jpg",
            "transcription": ""
        },
        {
            "pageid": 109368,
            "pagefilename": "62f36fb3a1b6395ef7dfc4b698d1d4d0.jpg",
            "pageorigfilename": "Ayer_MS_1193-1_VL01_000203_o2.jpg",
            "transcription": ""
        },
        {
            "pageid": 109369,
            "pagefilename": "1ded094719b8bda089a5918bb5793d07.jpg",
            "pageorigfilename": "Ayer_MS_1193-1_VL01_000204r_o2.jpg",
            "transcription": ""
        },
        {
            "pageid": 109370,
            "pagefilename": "59b4476db378efba0c2c6a7461d38561.jpg",
            "pageorigfilename": "Ayer_MS_1193-1_VL01_000204_o2.jpg",
            "transcription": ""
        },
        {
            "pageid": 109371,
            "pagefilename": "1d293f16492a60709c157d77b6dbde7e.jpg",
            "pageorigfilename": "Ayer_MS_1193-1_VL01_000205r_o2.jpg",
            "transcription": ""
        },
        {
            "pageid": 109372,
            "pagefilename": "b7ac78e7599447e02b7b3e2e5185711f.jpg",
            "pageorigfilename": "Ayer_MS_1193-1_VL01_000205_o2.jpg",
            "transcription": ""
        },
        {
            "pageid": 109373,
            "pagefilename": "16af2e35b43611b1882ba9eb69abb7b8.jpg",
            "pageorigfilename": "Ayer_MS_1193-1_VL01_000206r_o2.jpg",
            "transcription": ""
        },
        {
            "pageid": 109374,
            "pagefilename": "7f2bcf80fcdb16256e5a9843f56deeca.jpg",
            "pageorigfilename": "Ayer_MS_1193-1_VL01_000206_o2.jpg",
            "transcription": ""
        },
        {
            "pageid": 109375,
            "pagefilename": "3f2cbc27b912ee847112a51aa2ffaa4d.jpg",
            "pageorigfilename": "Ayer_MS_1193-1_VL01_000207r_o2.jpg",
            "transcription": ""
        },
        {
            "pageid": 109376,
            "pagefilename": "99143259eef099950a610481ae719fc0.jpg",
            "pageorigfilename": "Ayer_MS_1193-1_VL01_000207_o2.jpg",
            "transcription": ""
        },
        {
            "pageid": 109377,
            "pagefilename": "c41d520198c90c5e242894ee17a379b8.jpg",
            "pageorigfilename": "Ayer_MS_1193-1_VL01_000208r_o2.jpg",
            "transcription": ""
        },
        {
            "pageid": 109378,
            "pagefilename": "ea8a3fb78c21bb2acc00214ff3866dca.jpg",
            "pageorigfilename": "Ayer_MS_1193-1_VL01_000208_o2.jpg",
            "transcription": ""
        },
        {
            "pageid": 109379,
            "pagefilename": "ecf26d237bc75125def73830e6e86a32.jpg",
            "pageorigfilename": "Ayer_MS_1193-1_VL01_000209r_o2.jpg",
            "transcription": ""
        },
        {
            "pageid": 109380,
            "pagefilename": "398732e38e7b3b67c37d6fc018eba4f8.jpg",
            "pageorigfilename": "Ayer_MS_1193-1_VL01_000209_o2.jpg",
            "transcription": ""
        },
        {
            "pageid": 109381,
            "pagefilename": "c9310d9791c295d4bf91d5cc7715a8e2.jpg",
            "pageorigfilename": "Ayer_MS_1193-1_VL01_000210r_o2.jpg",
            "transcription": ""
        },
        {
            "pageid": 109382,
            "pagefilename": "e4063f85dcb2dea9f72f471c4b9eda9f.jpg",
            "pageorigfilename": "Ayer_MS_1193-1_VL01_000210_o2.jpg",
            "transcription": ""
        },
        {
            "pageid": 109383,
            "pagefilename": "664077e2b20938ea3b848b792bf26dc2.jpg",
            "pageorigfilename": "Ayer_MS_1193-1_VL01_000211r_o2.jpg",
            "transcription": ""
        },
        {
            "pageid": 109384,
            "pagefilename": "f3b81bd4a3950576c2a580d611328395.jpg",
            "pageorigfilename": "Ayer_MS_1193-1_VL01_000211_o2.jpg",
            "transcription": ""
        },
        {
            "pageid": 109385,
            "pagefilename": "3f67f1504d12bdbfb22f0ddc57962f94.jpg",
            "pageorigfilename": "Ayer_MS_1193-1_VL01_000212r_o2.jpg",
            "transcription": ""
        },
        {
            "pageid": 109386,
            "pagefilename": "391b75b8854b65135df7d2f08a343592.jpg",
            "pageorigfilename": "Ayer_MS_1193-1_VL01_000212_o2.jpg",
            "transcription": ""
        },
        {
            "pageid": 109387,
            "pagefilename": "a6c0ccad4486241eaabc6df01834be18.jpg",
            "pageorigfilename": "Ayer_MS_1193-1_VL01_000213r_o2.jpg",
            "transcription": ""
        },
        {
            "pageid": 109388,
            "pagefilename": "ed381959fc08bc8b4ca942f7254faf34.jpg",
            "pageorigfilename": "Ayer_MS_1193-1_VL01_000213_o2.jpg",
            "transcription": ""
        },
        {
            "pageid": 109389,
            "pagefilename": "3164bdec84638cf6a2faadf8dbf83695.jpg",
            "pageorigfilename": "Ayer_MS_1193-1_VL01_000214r_o2.jpg",
            "transcription": ""
        },
        {
            "pageid": 109390,
            "pagefilename": "6e40161e2e6f468885e41b72c7381c71.jpg",
            "pageorigfilename": "Ayer_MS_1193-1_VL01_000214_o2.jpg",
            "transcription": ""
        },
        {
            "pageid": 109391,
            "pagefilename": "f93ad8abbb3da158855699830fe6b09e.jpg",
            "pageorigfilename": "Ayer_MS_1193-1_VL01_000215r_o2.jpg",
            "transcription": ""
        },
        {
            "pageid": 109392,
            "pagefilename": "d254424805e8c77ce8e81b613f771d48.jpg",
            "pageorigfilename": "Ayer_MS_1193-1_VL01_000215_o2.jpg",
            "transcription": ""
        },
        {
            "pageid": 109393,
            "pagefilename": "a51911ac1f77e59b1b46020defce479a.jpg",
            "pageorigfilename": "Ayer_MS_1193-1_VL01_000216r_o2.jpg",
            "transcription": ""
        },
        {
            "pageid": 109394,
            "pagefilename": "89f9df589871121d36b87ead1fbfceda.jpg",
            "pageorigfilename": "Ayer_MS_1193-1_VL01_000216_o2.jpg",
            "transcription": ""
        },
        {
            "pageid": 109395,
            "pagefilename": "100d8ae9d8e50e8d67d8e517d5090e9a.jpg",
            "pageorigfilename": "Ayer_MS_1193-1_VL01_000217r_o2.jpg",
            "transcription": ""
        },
        {
            "pageid": 109396,
            "pagefilename": "5c9faa4ab66681959b14bf911ea56cc2.jpg",
            "pageorigfilename": "Ayer_MS_1193-1_VL01_000217_o2.jpg",
            "transcription": ""
        },
        {
            "pageid": 109397,
            "pagefilename": "354e62a27387ae15b97742516e3d8735.jpg",
            "pageorigfilename": "Ayer_MS_1193-1_VL01_000218r_o2.jpg",
            "transcription": ""
        },
        {
            "pageid": 109398,
            "pagefilename": "6b3a908f2f29ba13c619a280fd3b719d.jpg",
            "pageorigfilename": "Ayer_MS_1193-1_VL01_000218_o2.jpg",
            "transcription": ""
        },
        {
            "pageid": 109399,
            "pagefilename": "28d9e2dcaf9455aff97c89117e3fbad7.jpg",
            "pageorigfilename": "Ayer_MS_1193-1_VL01_000219r_o2.jpg",
            "transcription": ""
        },
        {
            "pageid": 109400,
            "pagefilename": "87d89c4f782668937f14fbc6c6aa2bf3.jpg",
            "pageorigfilename": "Ayer_MS_1193-1_VL01_000219_o2.jpg",
            "transcription": ""
        },
        {
            "pageid": 109401,
            "pagefilename": "2f2564f26f4e93b06b5b7d29a99506d5.jpg",
            "pageorigfilename": "Ayer_MS_1193-1_VL01_000220r_o2.jpg",
            "transcription": ""
        },
        {
            "pageid": 109402,
            "pagefilename": "8c68f23dcaf8d07d909a097da3ccfa80.jpg",
            "pageorigfilename": "Ayer_MS_1193-1_VL01_000220_o2.jpg",
            "transcription": ""
        },
        {
            "pageid": 109403,
            "pagefilename": "ed4120f6c19cb16d6a6517725374a62c.jpg",
            "pageorigfilename": "Ayer_MS_1193-1_VL01_000221r_o2.jpg",
            "transcription": ""
        },
        {
            "pageid": 109404,
            "pagefilename": "9583817ab9937421495dbdf67f5b1c54.jpg",
            "pageorigfilename": "Ayer_MS_1193-1_VL01_000221_o2.jpg",
            "transcription": ""
        },
        {
            "pageid": 109405,
            "pagefilename": "24117c88e1313a224502ec91be084922.jpg",
            "pageorigfilename": "Ayer_MS_1193-1_VL01_000222r_o2.jpg",
            "transcription": ""
        },
        {
            "pageid": 109406,
            "pagefilename": "73de44ca0ea296824515e2be7d85b1c0.jpg",
            "pageorigfilename": "Ayer_MS_1193-1_VL01_000222_o2.jpg",
            "transcription": ""
        },
        {
            "pageid": 109407,
            "pagefilename": "bacd8ee848f7a80651948240fccdfb5d.jpg",
            "pageorigfilename": "Ayer_MS_1193-1_VL01_000223r_o2.jpg",
            "transcription": ""
        },
        {
            "pageid": 109408,
            "pagefilename": "4e0cd637a65db288cc3a5873e744a1fd.jpg",
            "pageorigfilename": "Ayer_MS_1193-1_VL01_000223_o2.jpg",
            "transcription": ""
        },
        {
            "pageid": 109409,
            "pagefilename": "b16660be9f219149139f0174046d94bf.jpg",
            "pageorigfilename": "Ayer_MS_1193-1_VL01_000224r_o2.jpg",
            "transcription": ""
        },
        {
            "pageid": 109410,
            "pagefilename": "5fcd3828dd019968176a183980530310.jpg",
            "pageorigfilename": "Ayer_MS_1193-1_VL01_000224_o2.jpg",
            "transcription": ""
        },
        {
            "pageid": 109411,
            "pagefilename": "c85ae35dca3e57df2e2a1ccde531d479.jpg",
            "pageorigfilename": "Ayer_MS_1193-1_VL01_000225r_o2.jpg",
            "transcription": ""
        },
        {
            "pageid": 109412,
            "pagefilename": "2ac2924009ea3b096be41fd06b1eae7b.jpg",
            "pageorigfilename": "Ayer_MS_1193-1_VL01_000225_o2.jpg",
            "transcription": ""
        },
        {
            "pageid": 109413,
            "pagefilename": "5035c401b19c5814546785c7ce40cd3a.jpg",
            "pageorigfilename": "Ayer_MS_1193-1_VL01_000226r_o2.jpg",
            "transcription": ""
        },
        {
            "pageid": 109414,
            "pagefilename": "df0cb4aff10e974f6df9a9c6cccb781a.jpg",
            "pageorigfilename": "Ayer_MS_1193-1_VL01_000226_o2.jpg",
            "transcription": ""
        },
        {
            "pageid": 109415,
            "pagefilename": "1af0395a83e26605dc9dea97077b31d9.jpg",
            "pageorigfilename": "Ayer_MS_1193-1_VL01_000227r_o2.jpg",
            "transcription": ""
        },
        {
            "pageid": 109416,
            "pagefilename": "d6172bb4119978e33844acd28d24abc3.jpg",
            "pageorigfilename": "Ayer_MS_1193-1_VL01_000227_o2.jpg",
            "transcription": ""
        },
        {
            "pageid": 109417,
            "pagefilename": "bdf03a94214d8551c45c2831cee41b98.jpg",
            "pageorigfilename": "Ayer_MS_1193-1_VL01_000228r_o2.jpg",
            "transcription": ""
        },
        {
            "pageid": 109418,
            "pagefilename": "a5c8e54d93f43d324826b868a8ccce84.jpg",
            "pageorigfilename": "Ayer_MS_1193-1_VL01_000228_o2.jpg",
            "transcription": ""
        },
        {
            "pageid": 109419,
            "pagefilename": "3b6a97b6e2ab58544603aaf7e508d16c.jpg",
            "pageorigfilename": "Ayer_MS_1193-1_VL01_000229r_o2.jpg",
            "transcription": ""
        },
        {
            "pageid": 109420,
            "pagefilename": "1ba525bc2232657311a290ef4474a385.jpg",
            "pageorigfilename": "Ayer_MS_1193-1_VL01_000229_o2.jpg",
            "transcription": ""
        },
        {
            "pageid": 109421,
            "pagefilename": "5b88d65f1eea093314bf85df7a405092.jpg",
            "pageorigfilename": "Ayer_MS_1193-1_VL01_000230r_o2.jpg",
            "transcription": ""
        },
        {
            "pageid": 109422,
            "pagefilename": "b29edc7838756cabc1f77cddfe152cd3.jpg",
            "pageorigfilename": "Ayer_MS_1193-1_VL01_000230_o2.jpg",
            "transcription": ""
        },
        {
            "pageid": 109423,
            "pagefilename": "d43860cfe5ed5c4b5984616c3ca060cb.jpg",
            "pageorigfilename": "Ayer_MS_1193-1_VL01_000231r_o2.jpg",
            "transcription": ""
        },
        {
            "pageid": 109424,
            "pagefilename": "baaf8473d234c5250c17b5e2ed34955c.jpg",
            "pageorigfilename": "Ayer_MS_1193-1_VL01_000231_o2.jpg",
            "transcription": ""
        },
        {
            "pageid": 109425,
            "pagefilename": "5025279f8f69409eb18d0d51c3cdf0a3.jpg",
            "pageorigfilename": "Ayer_MS_1193-1_VL01_000232r_o2.jpg",
            "transcription": ""
        },
        {
            "pageid": 109426,
            "pagefilename": "b9b11b70e61119a910e06980263ea803.jpg",
            "pageorigfilename": "Ayer_MS_1193-1_VL01_000232_o2.jpg",
            "transcription": ""
        },
        {
            "pageid": 109427,
            "pagefilename": "0db4ed42483c95f47c83e8c59024a8ac.jpg",
            "pageorigfilename": "Ayer_MS_1193-1_VL01_000233r_o2.jpg",
            "transcription": ""
        },
        {
            "pageid": 109428,
            "pagefilename": "02780869bd222e2fcd9aebfb7729b148.jpg",
            "pageorigfilename": "Ayer_MS_1193-1_VL01_000233_o2.jpg",
            "transcription": ""
        },
        {
            "pageid": 109429,
            "pagefilename": "fdae9a37bc4788c3fa7cb7837bca1a73.jpg",
            "pageorigfilename": "Ayer_MS_1193-1_VL01_000234r_o2.jpg",
            "transcription": ""
        },
        {
            "pageid": 109430,
            "pagefilename": "83482de7880f6edd4de38e0860ccd5fd.jpg",
            "pageorigfilename": "Ayer_MS_1193-1_VL01_000234_o2.jpg",
            "transcription": ""
        },
        {
            "pageid": 109431,
            "pagefilename": "4beceeec52e07fd46aaa4d44b81baef2.jpg",
            "pageorigfilename": "Ayer_MS_1193-1_VL01_000235r_o2.jpg",
            "transcription": ""
        },
        {
            "pageid": 109432,
            "pagefilename": "06998168107efc5d56380d8049836da7.jpg",
            "pageorigfilename": "Ayer_MS_1193-1_VL01_000235_o2.jpg",
            "transcription": ""
        },
        {
            "pageid": 109433,
            "pagefilename": "2686b3867d3054947c87c552dfe45445.jpg",
            "pageorigfilename": "Ayer_MS_1193-1_VL01_000236r_o2.jpg",
            "transcription": ""
        },
        {
            "pageid": 109434,
            "pagefilename": "4872c05c35c57893bf49bcec84510158.jpg",
            "pageorigfilename": "Ayer_MS_1193-1_VL01_000236_o2.jpg",
            "transcription": ""
        },
        {
            "pageid": 109435,
            "pagefilename": "9712743bf7db7fb074ba62ca68f36856.jpg",
            "pageorigfilename": "Ayer_MS_1193-1_VL01_000237r_o2.jpg",
            "transcription": ""
        },
        {
            "pageid": 109436,
            "pagefilename": "6475a649e23b116a7230873d51119974.jpg",
            "pageorigfilename": "Ayer_MS_1193-1_VL01_000237_o2.jpg",
            "transcription": ""
        },
        {
            "pageid": 109437,
            "pagefilename": "3657c7029af367562438b786d29e3606.jpg",
            "pageorigfilename": "Ayer_MS_1193-1_VL01_000238r_o2.jpg",
            "transcription": ""
        },
        {
            "pageid": 109438,
            "pagefilename": "c32b708ca55dd804040761e7df54264a.jpg",
            "pageorigfilename": "Ayer_MS_1193-1_VL01_000238_o2.jpg",
            "transcription": ""
        },
        {
            "pageid": 109439,
            "pagefilename": "66b50fd9388a5b06fe24d9b286cde5cb.jpg",
            "pageorigfilename": "Ayer_MS_1193-1_VL01_000239r_o2.jpg",
            "transcription": ""
        },
        {
            "pageid": 109440,
            "pagefilename": "9136be3ec18e8a110ca18ac82133a6f1.jpg",
            "pageorigfilename": "Ayer_MS_1193-1_VL01_000239_o2.jpg",
            "transcription": ""
        },
        {
            "pageid": 109441,
            "pagefilename": "4cf515b4fd333eeca1b6d99f0a28073d.jpg",
            "pageorigfilename": "Ayer_MS_1193-1_VL01_000240r_o2.jpg",
            "transcription": ""
        },
        {
            "pageid": 109442,
            "pagefilename": "d0549408b6751a9c88096850d36c8abc.jpg",
            "pageorigfilename": "Ayer_MS_1193-1_VL01_000240_o2.jpg",
            "transcription": ""
        },
        {
            "pageid": 109443,
            "pagefilename": "d23ed4d1a948854a0f593ea9199384eb.jpg",
            "pageorigfilename": "Ayer_MS_1193-1_VL01_000241r_o2.jpg",
            "transcription": ""
        },
        {
            "pageid": 109444,
            "pagefilename": "de7b3caf2607545e75407fc4f81828fe.jpg",
            "pageorigfilename": "Ayer_MS_1193-1_VL01_000241_o2.jpg",
            "transcription": ""
        },
        {
            "pageid": 109445,
            "pagefilename": "117ccc61c14e380c8cfd02b976d1809c.jpg",
            "pageorigfilename": "Ayer_MS_1193-1_VL01_000242r_o2.jpg",
            "transcription": ""
        },
        {
            "pageid": 109446,
            "pagefilename": "eed6141e92f894d544c72c73d03fdd44.jpg",
            "pageorigfilename": "Ayer_MS_1193-1_VL01_000242_o2.jpg",
            "transcription": ""
        },
        {
            "pageid": 109447,
            "pagefilename": "cbc146e8222e39b6a280bce6974bef74.jpg",
            "pageorigfilename": "Ayer_MS_1193-1_VL01_000243r_o2.jpg",
            "transcription": ""
        },
        {
            "pageid": 109448,
            "pagefilename": "cded2745ec1761d9b98922f4a91e6be1.jpg",
            "pageorigfilename": "Ayer_MS_1193-1_VL01_000243_o2.jpg",
            "transcription": ""
        },
        {
            "pageid": 109449,
            "pagefilename": "3dc73ce2ce911d0a942efc08627a189c.jpg",
            "pageorigfilename": "Ayer_MS_1193-1_VL01_000244r_o2.jpg",
            "transcription": ""
        },
        {
            "pageid": 109450,
            "pagefilename": "b852d2e0490950f2eda0e048c782050f.jpg",
            "pageorigfilename": "Ayer_MS_1193-1_VL01_000244_o2.jpg",
            "transcription": ""
        },
        {
            "pageid": 109451,
            "pagefilename": "5e1bded28c968f707e775de47fd86b08.jpg",
            "pageorigfilename": "Ayer_MS_1193-1_VL01_000245r_o2.jpg",
            "transcription": ""
        },
        {
            "pageid": 109452,
            "pagefilename": "8672f0d2d5f1df11f48a10e473d061a7.jpg",
            "pageorigfilename": "Ayer_MS_1193-1_VL01_000245_o2.jpg",
            "transcription": ""
        },
        {
            "pageid": 109453,
            "pagefilename": "18aeddce50825fc57aebadbe8a969267.jpg",
            "pageorigfilename": "Ayer_MS_1193-1_VL01_000246r_o2.jpg",
            "transcription": ""
        },
        {
            "pageid": 109454,
            "pagefilename": "4e54b8045d85bc332647bab2aabaf416.jpg",
            "pageorigfilename": "Ayer_MS_1193-1_VL01_000246_o2.jpg",
            "transcription": ""
        },
        {
            "pageid": 109455,
            "pagefilename": "ae4040dea4f53a1545f8aa36571a8334.jpg",
            "pageorigfilename": "Ayer_MS_1193-1_VL01_000247r_o2.jpg",
            "transcription": ""
        },
        {
            "pageid": 109456,
            "pagefilename": "5707bf9a0b95366225653985468d8506.jpg",
            "pageorigfilename": "Ayer_MS_1193-1_VL01_000247_o2.jpg",
            "transcription": ""
        },
        {
            "pageid": 109457,
            "pagefilename": "4d615265a017e81dc0ace0fe74e250e3.jpg",
            "pageorigfilename": "Ayer_MS_1193-1_VL01_000248r_o2.jpg",
            "transcription": ""
        },
        {
            "pageid": 109458,
            "pagefilename": "9be3aab5444a268f9fba7b62d306b808.jpg",
            "pageorigfilename": "Ayer_MS_1193-1_VL01_000248_o2.jpg",
            "transcription": ""
        },
        {
            "pageid": 109459,
            "pagefilename": "9a2e49f999a977a59c9b15f822dd1bce.jpg",
            "pageorigfilename": "Ayer_MS_1193-1_VL01_000249r_o2.jpg",
            "transcription": ""
        },
        {
            "pageid": 109460,
            "pagefilename": "e5a490f43df8b7951688402d32731266.jpg",
            "pageorigfilename": "Ayer_MS_1193-1_VL01_000249_o2.jpg",
            "transcription": ""
        },
        {
            "pageid": 109461,
            "pagefilename": "73b10bde47f40b000a9a8e53a1765848.jpg",
            "pageorigfilename": "Ayer_MS_1193-1_VL01_000250r_o2.jpg",
            "transcription": ""
        },
        {
            "pageid": 109462,
            "pagefilename": "9068823eb71fa4f91bc9708db79136dd.jpg",
            "pageorigfilename": "Ayer_MS_1193-1_VL01_000250_o2.jpg",
            "transcription": ""
        },
        {
            "pageid": 109463,
            "pagefilename": "e1aba581f83a451cdaa3b74d28529b46.jpg",
            "pageorigfilename": "Ayer_MS_1193-1_VL01_000251r_o2.jpg",
            "transcription": ""
        },
        {
            "pageid": 109464,
            "pagefilename": "0e7f22d440360a8099e474cbb9ac59a3.jpg",
            "pageorigfilename": "Ayer_MS_1193-1_VL01_000251_o2.jpg",
            "transcription": ""
        },
        {
            "pageid": 109465,
            "pagefilename": "0d837fbcbb7b0deefb75f1ce11da9303.jpg",
            "pageorigfilename": "Ayer_MS_1193-1_VL01_000252r_o2.jpg",
            "transcription": ""
        },
        {
            "pageid": 109466,
            "pagefilename": "826b804000c3b77acda768985413c95e.jpg",
            "pageorigfilename": "Ayer_MS_1193-1_VL01_000252_o2.jpg",
            "transcription": ""
        },
        {
            "pageid": 109467,
            "pagefilename": "027193dd3890098ba52a1651e4378021.jpg",
            "pageorigfilename": "Ayer_MS_1193-1_VL01_000253r_o2.jpg",
            "transcription": ""
        },
        {
            "pageid": 109468,
            "pagefilename": "b96ebd18eeb85f18c5b3963d8609e0c9.jpg",
            "pageorigfilename": "Ayer_MS_1193-1_VL01_000253_o2.jpg",
            "transcription": ""
        },
        {
            "pageid": 109469,
            "pagefilename": "4b4c898e880b0fb512a21a0b5932392b.jpg",
            "pageorigfilename": "Ayer_MS_1193-1_VL01_000254r_o2.jpg",
            "transcription": ""
        },
        {
            "pageid": 109470,
            "pagefilename": "d0ec00ffc17b886bc84c7420a562295e.jpg",
            "pageorigfilename": "Ayer_MS_1193-1_VL01_000254_o2.jpg",
            "transcription": ""
        },
        {
            "pageid": 109471,
            "pagefilename": "bfb0b96abf87596ca6ad8a1720a25161.jpg",
            "pageorigfilename": "Ayer_MS_1193-1_VL01_000255r_o2.jpg",
            "transcription": ""
        },
        {
            "pageid": 109472,
            "pagefilename": "3298b0b09d363327e20cb31bba77fbdc.jpg",
            "pageorigfilename": "Ayer_MS_1193-1_VL01_000255_o2.jpg",
            "transcription": ""
        },
        {
            "pageid": 109473,
            "pagefilename": "a3b9fe7cd399f7a52cfd979c68bc480e.jpg",
            "pageorigfilename": "Ayer_MS_1193-1_VL01_000256r_o2.jpg",
            "transcription": ""
        },
        {
            "pageid": 109474,
            "pagefilename": "e4c20d9299bd7d4f156006d176f4ef7b.jpg",
            "pageorigfilename": "Ayer_MS_1193-1_VL01_000256_o2.jpg",
            "transcription": ""
        },
        {
            "pageid": 109475,
            "pagefilename": "9045bee87ef64b980a7936ae5dd7e7fe.jpg",
            "pageorigfilename": "Ayer_MS_1193-1_VL01_000257r_o2.jpg",
            "transcription": ""
        },
        {
            "pageid": 109476,
            "pagefilename": "93ac8585f28c1c9e3bff68e2b589f83e.jpg",
            "pageorigfilename": "Ayer_MS_1193-1_VL01_000257_o2.jpg",
            "transcription": ""
        },
        {
            "pageid": 109477,
            "pagefilename": "c7ed7c0e5c79f3dc87ffb4047d5f1f07.jpg",
            "pageorigfilename": "Ayer_MS_1193-1_VL01_000258r_o2.jpg",
            "transcription": ""
        },
        {
            "pageid": 109478,
            "pagefilename": "7f7f5602d33368daacbb007ced8c32ed.jpg",
            "pageorigfilename": "Ayer_MS_1193-1_VL01_000258_o2.jpg",
            "transcription": ""
        },
        {
            "pageid": 109479,
            "pagefilename": "db4eafaf8af599fde6d472416b44b415.jpg",
            "pageorigfilename": "Ayer_MS_1193-1_VL01_000259r_o2.jpg",
            "transcription": ""
        },
        {
            "pageid": 109480,
            "pagefilename": "32b57acbebeaeb2ad37cfd92cfe20452.jpg",
            "pageorigfilename": "Ayer_MS_1193-1_VL01_000259_o2.jpg",
            "transcription": ""
        },
        {
            "pageid": 109481,
            "pagefilename": "79c0e6564d8609de64ae2ee9a41aab5a.jpg",
            "pageorigfilename": "Ayer_MS_1193-1_VL01_000260r_o2.jpg",
            "transcription": ""
        },
        {
            "pageid": 109482,
            "pagefilename": "a7f5fc37e9eac01261a72f9382f9b375.jpg",
            "pageorigfilename": "Ayer_MS_1193-1_VL01_000260_o2.jpg",
            "transcription": ""
        },
        {
            "pageid": 109483,
            "pagefilename": "6d25b8974232c36f3912467c1de43f6b.jpg",
            "pageorigfilename": "Ayer_MS_1193-1_VL01_000261r_o2.jpg",
            "transcription": ""
        },
        {
            "pageid": 109484,
            "pagefilename": "1480f263fd3cce9e82fcb3fba44a4e98.jpg",
            "pageorigfilename": "Ayer_MS_1193-1_VL01_000261_o2.jpg",
            "transcription": ""
        },
        {
            "pageid": 109485,
            "pagefilename": "e49c58a947f59c58ed2885115049a168.jpg",
            "pageorigfilename": "Ayer_MS_1193-1_VL01_000262r_o2.jpg",
            "transcription": ""
        },
        {
            "pageid": 109486,
            "pagefilename": "b6358a75d3c79af10e760dc1785c79ed.jpg",
            "pageorigfilename": "Ayer_MS_1193-1_VL01_000262_o2.jpg",
            "transcription": ""
        },
        {
            "pageid": 109487,
            "pagefilename": "7c13a0a3137e1d8e2c97447e8807f7b4.jpg",
            "pageorigfilename": "Ayer_MS_1193-1_VL01_000263r_o2.jpg",
            "transcription": ""
        },
        {
            "pageid": 109488,
            "pagefilename": "860a89327ef46541799dea64548a49cb.jpg",
            "pageorigfilename": "Ayer_MS_1193-1_VL01_000263_o2.jpg",
            "transcription": ""
        },
        {
            "pageid": 109489,
            "pagefilename": "bdad7b14b3ae5b0f16488d3ba8ea34dd.jpg",
            "pageorigfilename": "Ayer_MS_1193-1_VL01_000264r_o2.jpg",
            "transcription": ""
        },
        {
            "pageid": 109490,
            "pagefilename": "a3b940562724f7c33677674f20f44130.jpg",
            "pageorigfilename": "Ayer_MS_1193-1_VL01_000264_o2.jpg",
            "transcription": ""
        },
        {
            "pageid": 109491,
            "pagefilename": "4ac86644307c2a7ead2dd4d77b7e722c.jpg",
            "pageorigfilename": "Ayer_MS_1193-1_VL01_000265r_o2.jpg",
            "transcription": ""
        },
        {
            "pageid": 109492,
            "pagefilename": "0da313805e7eb6e843545674e72ce19c.jpg",
            "pageorigfilename": "Ayer_MS_1193-1_VL01_000265_o2.jpg",
            "transcription": ""
        },
        {
            "pageid": 109493,
            "pagefilename": "214af625f0c4d981d049f8cd9a85693f.jpg",
            "pageorigfilename": "Ayer_MS_1193-1_VL01_000266r_o2.jpg",
            "transcription": ""
        },
        {
            "pageid": 109494,
            "pagefilename": "47e8da804f5ff116fa7143a950b84b92.jpg",
            "pageorigfilename": "Ayer_MS_1193-1_VL01_000266_o2.jpg",
            "transcription": ""
        },
        {
            "pageid": 109495,
            "pagefilename": "021a7d29177f7b68d738a0683cea1e5c.jpg",
            "pageorigfilename": "Ayer_MS_1193-1_VL01_000267r_o2.jpg",
            "transcription": ""
        },
        {
            "pageid": 109496,
            "pagefilename": "97a71ae169b80de67b324023713f0ba9.jpg",
            "pageorigfilename": "Ayer_MS_1193-1_VL01_000267_o2.jpg",
            "transcription": ""
        },
        {
            "pageid": 109497,
            "pagefilename": "16ff7a241b580d383573a88ee9e609d9.jpg",
            "pageorigfilename": "Ayer_MS_1193-1_VL01_000268r_o2.jpg",
            "transcription": ""
        },
        {
            "pageid": 109498,
            "pagefilename": "466d9933d0af03031d3f2669d0ffd678.jpg",
            "pageorigfilename": "Ayer_MS_1193-1_VL01_000268_o2.jpg",
            "transcription": ""
        },
        {
            "pageid": 109499,
            "pagefilename": "007c28ac1e3864e6c7ae3e57ae0e67d1.jpg",
            "pageorigfilename": "Ayer_MS_1193-1_VL01_000269r_o2.jpg",
            "transcription": ""
        },
        {
            "pageid": 109500,
            "pagefilename": "cfb19a7fbf80c6e65a2a9d7a64fa44d0.jpg",
            "pageorigfilename": "Ayer_MS_1193-1_VL01_000269_o2.jpg",
            "transcription": ""
        },
        {
            "pageid": 109501,
            "pagefilename": "e567955f11dd16ac21c2c96a30edb437.jpg",
            "pageorigfilename": "Ayer_MS_1193-1_VL01_000270r_o2.jpg",
            "transcription": ""
        },
        {
            "pageid": 109502,
            "pagefilename": "42cdf048cc696027f4b0bb5a56172e8d.jpg",
            "pageorigfilename": "Ayer_MS_1193-1_VL01_000270_o2.jpg",
            "transcription": ""
        },
        {
            "pageid": 109503,
            "pagefilename": "0685a37c7651732fe7c642d9c21460e5.jpg",
            "pageorigfilename": "Ayer_MS_1193-1_VL01_000271r_o2.jpg",
            "transcription": ""
        },
        {
            "pageid": 109504,
            "pagefilename": "8b19878c2b1a30ba2dbe5817777b43a8.jpg",
            "pageorigfilename": "Ayer_MS_1193-1_VL01_000271_o2.jpg",
            "transcription": ""
        },
        {
            "pageid": 109505,
            "pagefilename": "99d512a3aca5cdff6dfb8d58d3326cd8.jpg",
            "pageorigfilename": "Ayer_MS_1193-1_VL01_000272r_o2.jpg",
            "transcription": ""
        },
        {
            "pageid": 109506,
            "pagefilename": "abc917360c8b16e22bbf88030e415007.jpg",
            "pageorigfilename": "Ayer_MS_1193-1_VL01_000272_o2.jpg",
            "transcription": ""
        },
        {
            "pageid": 109507,
            "pagefilename": "3f69b1b86746a9449a05ea8bc9aab669.jpg",
            "pageorigfilename": "Ayer_MS_1193-1_VL01_000273r_o2.jpg",
            "transcription": ""
        },
        {
            "pageid": 109508,
            "pagefilename": "0e3a9d28e84aa019b7eeee9bdd32c75a.jpg",
            "pageorigfilename": "Ayer_MS_1193-1_VL01_000273_o2.jpg",
            "transcription": ""
        },
        {
            "pageid": 109509,
            "pagefilename": "a655f8023f5cca884698de7b18b93d66.jpg",
            "pageorigfilename": "Ayer_MS_1193-1_VL01_000274r_o2.jpg",
            "transcription": ""
        },
        {
            "pageid": 109510,
            "pagefilename": "8c9306747238e143307083a448aad0d5.jpg",
            "pageorigfilename": "Ayer_MS_1193-1_VL01_000274_o2.jpg",
            "transcription": ""
        },
        {
            "pageid": 109511,
            "pagefilename": "f1a0098d29d2d1197fb997377ca1d302.jpg",
            "pageorigfilename": "Ayer_MS_1193-1_VL01_000275r_o2.jpg",
            "transcription": ""
        },
        {
            "pageid": 109512,
            "pagefilename": "475a1e42a8ce2e9bb728b8898cdbe08e.jpg",
            "pageorigfilename": "Ayer_MS_1193-1_VL01_000275_o2.jpg",
            "transcription": ""
        },
        {
            "pageid": 109513,
            "pagefilename": "6bef9ebce1f9855bc5707d8ee29cab82.jpg",
            "pageorigfilename": "Ayer_MS_1193-1_VL01_000276r_o2.jpg",
            "transcription": ""
        },
        {
            "pageid": 109514,
            "pagefilename": "f42ff86d6b3a1d5adb24c98b85960889.jpg",
            "pageorigfilename": "Ayer_MS_1193-1_VL01_000276_o2.jpg",
            "transcription": ""
        },
        {
            "pageid": 109515,
            "pagefilename": "ec29a31bafa16dd35d8eac84c93d0168.jpg",
            "pageorigfilename": "Ayer_MS_1193-1_VL01_000277r_o2.jpg",
            "transcription": ""
        },
        {
            "pageid": 109516,
            "pagefilename": "90363298316fe984a98bf117063b60fc.jpg",
            "pageorigfilename": "Ayer_MS_1193-1_VL01_000277_o2.jpg",
            "transcription": ""
        },
        {
            "pageid": 109517,
            "pagefilename": "eed6073d066cd158d539c0318b3038c7.jpg",
            "pageorigfilename": "Ayer_MS_1193-1_VL01_000278r_o2.jpg",
            "transcription": ""
        },
        {
            "pageid": 109518,
            "pagefilename": "0359a7362e1d65cec81331c45a6e0fb6.jpg",
            "pageorigfilename": "Ayer_MS_1193-1_VL01_000278_o2.jpg",
            "transcription": ""
        },
        {
            "pageid": 109519,
            "pagefilename": "3285aa567bbe00cdd3dfe9624cb5674b.jpg",
            "pageorigfilename": "Ayer_MS_1193-1_VL01_000279r_o2.jpg",
            "transcription": ""
        },
        {
            "pageid": 109520,
            "pagefilename": "fd0ca8a3eadab8185b05c80644c72e78.jpg",
            "pageorigfilename": "Ayer_MS_1193-1_VL01_000279_o2.jpg",
            "transcription": ""
        },
        {
            "pageid": 109521,
            "pagefilename": "b36573fdd102323e2311fae21b5b51fd.jpg",
            "pageorigfilename": "Ayer_MS_1193-1_VL01_000280r_o2.jpg",
            "transcription": ""
        },
        {
            "pageid": 109522,
            "pagefilename": "5f1141a7d8855437b37498e4de3451c5.jpg",
            "pageorigfilename": "Ayer_MS_1193-1_VL01_000280_o2.jpg",
            "transcription": ""
        },
        {
            "pageid": 109523,
            "pagefilename": "05edb72d9f5a3af4a828c4e921d2b15a.jpg",
            "pageorigfilename": "Ayer_MS_1193-1_VL01_000281r_o2.jpg",
            "transcription": ""
        },
        {
            "pageid": 109524,
            "pagefilename": "aacbdf2c30d7574adf7d06af3e40c5b8.jpg",
            "pageorigfilename": "Ayer_MS_1193-1_VL01_000281_o2.jpg",
            "transcription": ""
        },
        {
            "pageid": 109525,
            "pagefilename": "d237cdcb0af4c8bb97bfb96bce41674a.jpg",
            "pageorigfilename": "Ayer_MS_1193-1_VL01_000282r_o2.jpg",
            "transcription": ""
        },
        {
            "pageid": 109526,
            "pagefilename": "d8d00be6aa7bb475b7f4fa65c0e7cca6.jpg",
            "pageorigfilename": "Ayer_MS_1193-1_VL01_000282_o2.jpg",
            "transcription": ""
        },
        {
            "pageid": 109527,
            "pagefilename": "605867e749827573b0a716c9b545dd35.jpg",
            "pageorigfilename": "Ayer_MS_1193-1_VL01_000283r_o2.jpg",
            "transcription": ""
        },
        {
            "pageid": 109528,
            "pagefilename": "a9465db01fac4434a4ecc0e05f4bdef0.jpg",
            "pageorigfilename": "Ayer_MS_1193-1_VL01_000283_o2.jpg",
            "transcription": ""
        },
        {
            "pageid": 109529,
            "pagefilename": "96e658eb61e479925135efcc2adc46b9.jpg",
            "pageorigfilename": "Ayer_MS_1193-1_VL01_000284r_o2.jpg",
            "transcription": ""
        },
        {
            "pageid": 109530,
            "pagefilename": "a27d7a0345670f1670feabb7d501fb99.jpg",
            "pageorigfilename": "Ayer_MS_1193-1_VL01_000284_o2.jpg",
            "transcription": ""
        },
        {
            "pageid": 109531,
            "pagefilename": "4c2ea87de01f5d930f3a95f0731c785e.jpg",
            "pageorigfilename": "Ayer_MS_1193-1_VL01_000285r_o2.jpg",
            "transcription": ""
        },
        {
            "pageid": 109532,
            "pagefilename": "dd6dc477aa941078e828a5eb16562e73.jpg",
            "pageorigfilename": "Ayer_MS_1193-1_VL01_000285_o2.jpg",
            "transcription": ""
        },
        {
            "pageid": 109533,
            "pagefilename": "b008b4c0923b9cbd2e2748b689db7794.jpg",
            "pageorigfilename": "Ayer_MS_1193-1_VL01_000286r_o2.jpg",
            "transcription": ""
        },
        {
            "pageid": 109534,
            "pagefilename": "1c58c2a2a2bb3328e3185eb5e548ee42.jpg",
            "pageorigfilename": "Ayer_MS_1193-1_VL01_000286_o2.jpg",
            "transcription": ""
        },
        {
            "pageid": 109535,
            "pagefilename": "914ff8e13fbcddb3fa6ac3217ac2832f.jpg",
            "pageorigfilename": "Ayer_MS_1193-1_VL01_000287r_o2.jpg",
            "transcription": ""
        },
        {
            "pageid": 109536,
            "pagefilename": "c49e47341dbbeaf77780292c0cdd63dc.jpg",
            "pageorigfilename": "Ayer_MS_1193-1_VL01_000287_o2.jpg",
            "transcription": ""
        },
        {
            "pageid": 109537,
            "pagefilename": "8b131d97e9a05056b551e34a958f5929.jpg",
            "pageorigfilename": "Ayer_MS_1193-1_VL01_000288r_o2.jpg",
            "transcription": ""
        },
        {
            "pageid": 109538,
            "pagefilename": "67346140b13dfdac35d6b964e3e4209a.jpg",
            "pageorigfilename": "Ayer_MS_1193-1_VL01_000288_o2.jpg",
            "transcription": ""
        },
        {
            "pageid": 109539,
            "pagefilename": "7786fae1b024b9cb001d3d67cfe71bbd.jpg",
            "pageorigfilename": "Ayer_MS_1193-1_VL01_000289r_o2.jpg",
            "transcription": ""
        },
        {
            "pageid": 109540,
            "pagefilename": "0089791120cde813d739820337dccd52.jpg",
            "pageorigfilename": "Ayer_MS_1193-1_VL01_000289_o2.jpg",
            "transcription": ""
        },
        {
            "pageid": 109541,
            "pagefilename": "12f010ebfb3b5a820b1bdfed10f3963a.jpg",
            "pageorigfilename": "Ayer_MS_1193-1_VL01_000290r_o2.jpg",
            "transcription": ""
        },
        {
            "pageid": 109542,
            "pagefilename": "6f55b13bfe86ce05e899e20e50089c06.jpg",
            "pageorigfilename": "Ayer_MS_1193-1_VL01_000290_o2.jpg",
            "transcription": ""
        },
        {
            "pageid": 109543,
            "pagefilename": "c8be348d1bc4fc0df85638f5f4563e44.jpg",
            "pageorigfilename": "Ayer_MS_1193-1_VL01_000291r_o2.jpg",
            "transcription": ""
        },
        {
            "pageid": 109544,
            "pagefilename": "d218b8872890c0f5ca60dd96c252ee62.jpg",
            "pageorigfilename": "Ayer_MS_1193-1_VL01_000291_o2.jpg",
            "transcription": ""
        },
        {
            "pageid": 109545,
            "pagefilename": "899a9093faf29c69ff2e471e747503d8.jpg",
            "pageorigfilename": "Ayer_MS_1193-1_VL01_000292r_o2.jpg",
            "transcription": ""
        },
        {
            "pageid": 109546,
            "pagefilename": "9e58a538b2acd2317142ec33d89a3105.jpg",
            "pageorigfilename": "Ayer_MS_1193-1_VL01_000292_o2.jpg",
            "transcription": ""
        },
        {
            "pageid": 109547,
            "pagefilename": "caa792d74c49a5dd78140546668809ad.jpg",
            "pageorigfilename": "Ayer_MS_1193-1_VL01_000293r_o2.jpg",
            "transcription": ""
        },
        {
            "pageid": 109548,
            "pagefilename": "d0fa72a4ce243b368c3cbf42627d7dd7.jpg",
            "pageorigfilename": "Ayer_MS_1193-1_VL01_000293_o2.jpg",
            "transcription": ""
        },
        {
            "pageid": 109549,
            "pagefilename": "e68c6296a7721da63e2d691823ce5eaa.jpg",
            "pageorigfilename": "Ayer_MS_1193-1_VL01_000294r_o2.jpg",
            "transcription": ""
        },
        {
            "pageid": 109550,
            "pagefilename": "02140a0415f5a9f4ae15b54c655698de.jpg",
            "pageorigfilename": "Ayer_MS_1193-1_VL01_000294_o2.jpg",
            "transcription": ""
        },
        {
            "pageid": 109551,
            "pagefilename": "5b3ddbe48fa986b65c71584d15261d07.jpg",
            "pageorigfilename": "Ayer_MS_1193-1_VL01_000295r_o2.jpg",
            "transcription": ""
        },
        {
            "pageid": 109552,
            "pagefilename": "bcd30d0a4abad4397150868f0bbe2a31.jpg",
            "pageorigfilename": "Ayer_MS_1193-1_VL01_000295_o2.jpg",
            "transcription": ""
        },
        {
            "pageid": 109553,
            "pagefilename": "bd6bded534f17160e61c039925dea076.jpg",
            "pageorigfilename": "Ayer_MS_1193-1_VL01_000296r_o2.jpg",
            "transcription": ""
        },
        {
            "pageid": 109554,
            "pagefilename": "10ad9402c86128d7dd2affc7e2ae17aa.jpg",
            "pageorigfilename": "Ayer_MS_1193-1_VL01_000296_o2.jpg",
            "transcription": ""
        },
        {
            "pageid": 109555,
            "pagefilename": "e7cb44804d75c3666227096b30aed64c.jpg",
            "pageorigfilename": "Ayer_MS_1193-1_VL01_000297r_o2.jpg",
            "transcription": ""
        },
        {
            "pageid": 109556,
            "pagefilename": "e065a9de387fcd413fc8d2a4d799ceba.jpg",
            "pageorigfilename": "Ayer_MS_1193-1_VL01_000297_o2.jpg",
            "transcription": ""
        },
        {
            "pageid": 109557,
            "pagefilename": "0adac906b960632616d0ff6029a226ad.jpg",
            "pageorigfilename": "Ayer_MS_1193-1_VL01_000298r_o2.jpg",
            "transcription": ""
        },
        {
            "pageid": 109558,
            "pagefilename": "89c33a31900aef5867daa359e721247f.jpg",
            "pageorigfilename": "Ayer_MS_1193-1_VL01_000298_o2.jpg",
            "transcription": ""
        },
        {
            "pageid": 109559,
            "pagefilename": "e5b32c02f2371931c8a3198045d8583a.jpg",
            "pageorigfilename": "Ayer_MS_1193-1_VL01_000299r_o2.jpg",
            "transcription": ""
        },
        {
            "pageid": 109560,
            "pagefilename": "5b4a90a88302d32b1777e2b91a8b334e.jpg",
            "pageorigfilename": "Ayer_MS_1193-1_VL01_000299_o2.jpg",
            "transcription": ""
        },
        {
            "pageid": 109561,
            "pagefilename": "9b5917453799e3d5a967ae8de3b824d5.jpg",
            "pageorigfilename": "Ayer_MS_1193-1_VL01_000300r_o2.jpg",
            "transcription": ""
        },
        {
            "pageid": 109562,
            "pagefilename": "4822f12f1f14cd28fa8ca83ab4d8d425.jpg",
            "pageorigfilename": "Ayer_MS_1193-1_VL01_000300_o2.jpg",
            "transcription": ""
        },
        {
            "pageid": 109563,
            "pagefilename": "c76165e437a89d0399d23bb3da545451.jpg",
            "pageorigfilename": "Ayer_MS_1193-1_VL01_000301r_o2.jpg",
            "transcription": ""
        },
        {
            "pageid": 109564,
            "pagefilename": "d82b0750a6140f206e8ba13e4da9d035.jpg",
            "pageorigfilename": "Ayer_MS_1193-1_VL01_000301_o2.jpg",
            "transcription": ""
        },
        {
            "pageid": 109565,
            "pagefilename": "782f96e4ef6433a186e6febb8c2107ec.jpg",
            "pageorigfilename": "Ayer_MS_1193-1_VL01_000302r_o2.jpg",
            "transcription": ""
        },
        {
            "pageid": 109566,
            "pagefilename": "e49a07caebc4663e3ed64eacbf56cb94.jpg",
            "pageorigfilename": "Ayer_MS_1193-1_VL01_000302_o2.jpg",
            "transcription": ""
        },
        {
            "pageid": 109567,
            "pagefilename": "f6b46f072fc6f135e14d883238fa5fc3.jpg",
            "pageorigfilename": "Ayer_MS_1193-1_VL01_000303r_o2.jpg",
            "transcription": ""
        },
        {
            "pageid": 109568,
            "pagefilename": "8e4506990f63188c47f276bcb4168cf5.jpg",
            "pageorigfilename": "Ayer_MS_1193-1_VL01_000303_o2.jpg",
            "transcription": ""
        },
        {
            "pageid": 109569,
            "pagefilename": "15a0e0cbbc033e400de83d4958f0e051.jpg",
            "pageorigfilename": "Ayer_MS_1193-1_VL01_000304r_o2.jpg",
            "transcription": ""
        },
        {
            "pageid": 109570,
            "pagefilename": "3b6f5c736d6e5f1fde5c1cf7a7086b2f.jpg",
            "pageorigfilename": "Ayer_MS_1193-1_VL01_000304_o2.jpg",
            "transcription": ""
        },
        {
            "pageid": 109571,
            "pagefilename": "43d61d41655ed3f7908c2b32e7c15a87.jpg",
            "pageorigfilename": "Ayer_MS_1193-1_VL01_000305r_o2.jpg",
            "transcription": ""
        },
        {
            "pageid": 109572,
            "pagefilename": "171503a1d323f56b539202da3184917e.jpg",
            "pageorigfilename": "Ayer_MS_1193-1_VL01_000305_o2.jpg",
            "transcription": ""
        },
        {
            "pageid": 109573,
            "pagefilename": "1c3baffad9e9731615614f8cf00851b4.jpg",
            "pageorigfilename": "Ayer_MS_1193-1_VL01_000306r_o2.jpg",
            "transcription": ""
        },
        {
            "pageid": 109574,
            "pagefilename": "dbf8e4e74cc9ee7c1638b5e0127180a0.jpg",
            "pageorigfilename": "Ayer_MS_1193-1_VL01_000306_o2.jpg",
            "transcription": ""
        },
        {
            "pageid": 109575,
            "pagefilename": "ad727a24b7c3ec66aef5d26121e11b94.jpg",
            "pageorigfilename": "Ayer_MS_1193-1_VL01_000307r_o2.jpg",
            "transcription": ""
        },
        {
            "pageid": 109576,
            "pagefilename": "bc82bb406c22d193cf0404536ff295b0.jpg",
            "pageorigfilename": "Ayer_MS_1193-1_VL01_000307_o2.jpg",
            "transcription": ""
        },
        {
            "pageid": 109577,
            "pagefilename": "196a0656cf3de0bffc7fc8d12361990b.jpg",
            "pageorigfilename": "Ayer_MS_1193-1_VL01_000308r_o2.jpg",
            "transcription": ""
        },
        {
            "pageid": 109578,
            "pagefilename": "6fbd6c33bc6c3731e617798cd1a137ef.jpg",
            "pageorigfilename": "Ayer_MS_1193-1_VL01_000308_o2.jpg",
            "transcription": ""
        },
        {
            "pageid": 109579,
            "pagefilename": "70972178b5e8444b3daded2886610f50.jpg",
            "pageorigfilename": "Ayer_MS_1193-1_VL01_000309r_o2.jpg",
            "transcription": ""
        },
        {
            "pageid": 109580,
            "pagefilename": "7118ea8ba8820a96f0f36d090cfefd02.jpg",
            "pageorigfilename": "Ayer_MS_1193-1_VL01_000309_o2.jpg",
            "transcription": ""
        },
        {
            "pageid": 109581,
            "pagefilename": "ca20f693a2e9048128aa67d12f958b08.jpg",
            "pageorigfilename": "Ayer_MS_1193-1_VL01_000310r_o2.jpg",
            "transcription": ""
        },
        {
            "pageid": 109582,
            "pagefilename": "055b695f9447ea454050335d3a6a7ce3.jpg",
            "pageorigfilename": "Ayer_MS_1193-1_VL01_000310_o2.jpg",
            "transcription": ""
        },
        {
            "pageid": 109583,
            "pagefilename": "ba64fa814db6619bc95f18d5124fff56.jpg",
            "pageorigfilename": "Ayer_MS_1193-1_VL01_000311r_o2.jpg",
            "transcription": ""
        },
        {
            "pageid": 109584,
            "pagefilename": "ff460231f2f01d67eb197de2d27844e0.jpg",
            "pageorigfilename": "Ayer_MS_1193-1_VL01_000311_o2.jpg",
            "transcription": ""
        },
        {
            "pageid": 109585,
            "pagefilename": "495a9a5fb267a23725bd3be223ea42eb.jpg",
            "pageorigfilename": "Ayer_MS_1193-1_VL01_000312r_o2.jpg",
            "transcription": ""
        },
        {
            "pageid": 109586,
            "pagefilename": "2cb2788826c920eb31387e6c985e0f2c.jpg",
            "pageorigfilename": "Ayer_MS_1193-1_VL01_000312_o2.jpg",
            "transcription": ""
        },
        {
            "pageid": 109587,
            "pagefilename": "8724198dfdc0b736e0dba5231c5e7bcf.jpg",
            "pageorigfilename": "Ayer_MS_1193-1_VL01_000313r_o2.jpg",
            "transcription": ""
        },
        {
            "pageid": 109588,
            "pagefilename": "169733dd0ba6e9cd3590db466388f389.jpg",
            "pageorigfilename": "Ayer_MS_1193-1_VL01_000313_o2.jpg",
            "transcription": ""
        },
        {
            "pageid": 109589,
            "pagefilename": "a2de99297c8e5a37f488399c1cc74f6e.jpg",
            "pageorigfilename": "Ayer_MS_1193-1_VL01_000314r_o2.jpg",
            "transcription": ""
        },
        {
            "pageid": 109590,
            "pagefilename": "959441986f3e5d30c438cd7ab1aa3515.jpg",
            "pageorigfilename": "Ayer_MS_1193-1_VL01_000314_o2.jpg",
            "transcription": ""
        },
        {
            "pageid": 109591,
            "pagefilename": "9eee9d7fd3cfde4c14b56d9240810b14.jpg",
            "pageorigfilename": "Ayer_MS_1193-1_VL01_000315r_o2.jpg",
            "transcription": ""
        },
        {
            "pageid": 109592,
            "pagefilename": "f0c1504045ec93d47c926973689fdf05.jpg",
            "pageorigfilename": "Ayer_MS_1193-1_VL01_000315_o2.jpg",
            "transcription": ""
        },
        {
            "pageid": 109593,
            "pagefilename": "55ffe346c7e0d1f05c074f7d7d854366.jpg",
            "pageorigfilename": "Ayer_MS_1193-1_VL01_000316r_o2.jpg",
            "transcription": ""
        },
        {
            "pageid": 109594,
            "pagefilename": "0e5414337454292fc291d6a7085a3031.jpg",
            "pageorigfilename": "Ayer_MS_1193-1_VL01_000316_o2.jpg",
            "transcription": ""
        },
        {
            "pageid": 109595,
            "pagefilename": "a39697417e4addf6f6ef3cb143e8a7ca.jpg",
            "pageorigfilename": "Ayer_MS_1193-1_VL01_000317r_o2.jpg",
            "transcription": ""
        },
        {
            "pageid": 109596,
            "pagefilename": "55fdf8dabe63d5ed79fed3cfc872cfc3.jpg",
            "pageorigfilename": "Ayer_MS_1193-1_VL01_000317_o2.jpg",
            "transcription": ""
        },
        {
            "pageid": 109597,
            "pagefilename": "8961a82f4343177760d985dce146595d.jpg",
            "pageorigfilename": "Ayer_MS_1193-1_VL01_000318r_o2.jpg",
            "transcription": ""
        },
        {
            "pageid": 109598,
            "pagefilename": "4b6d22863251fee76b1fc9771f7c26ef.jpg",
            "pageorigfilename": "Ayer_MS_1193-1_VL01_000318_o2.jpg",
            "transcription": ""
        },
        {
            "pageid": 109599,
            "pagefilename": "8b8f35d4c5064b00a2f980d1914c0a49.jpg",
            "pageorigfilename": "Ayer_MS_1193-1_VL01_000319r_o2.jpg",
            "transcription": ""
        },
        {
            "pageid": 109600,
            "pagefilename": "12ec6837a3b8e608d0874923659d0d19.jpg",
            "pageorigfilename": "Ayer_MS_1193-1_VL01_000319_o2.jpg",
            "transcription": ""
        },
        {
            "pageid": 109601,
            "pagefilename": "f450f2ace4182f11d627df2281244b7d.jpg",
            "pageorigfilename": "Ayer_MS_1193-1_VL01_000320r_o2.jpg",
            "transcription": ""
        },
        {
            "pageid": 109602,
            "pagefilename": "dc90bbe841087c4057b9da9a1d92de2b.jpg",
            "pageorigfilename": "Ayer_MS_1193-1_VL01_000320_o2.jpg",
            "transcription": ""
        },
        {
            "pageid": 109603,
            "pagefilename": "da0e092376d3ed5fe81e56265f01e6cc.jpg",
            "pageorigfilename": "Ayer_MS_1193-1_VL01_000321r_o2.jpg",
            "transcription": ""
        },
        {
            "pageid": 109604,
            "pagefilename": "c5e0ae1933beea247d984e73c8e00697.jpg",
            "pageorigfilename": "Ayer_MS_1193-1_VL01_000321_o2.jpg",
            "transcription": ""
        },
        {
            "pageid": 109605,
            "pagefilename": "9eb86d4807e60999b237c22821cff7f0.jpg",
            "pageorigfilename": "Ayer_MS_1193-1_VL01_000322r_o2.jpg",
            "transcription": ""
        },
        {
            "pageid": 109606,
            "pagefilename": "233e70c8b33500bb0ce3484919c2777f.jpg",
            "pageorigfilename": "Ayer_MS_1193-1_VL01_000322_o2.jpg",
            "transcription": ""
        },
        {
            "pageid": 109607,
            "pagefilename": "ca57a90be13a9204c2059738ab9af969.jpg",
            "pageorigfilename": "Ayer_MS_1193-1_VL01_000323r_o2.jpg",
            "transcription": ""
        },
        {
            "pageid": 109608,
            "pagefilename": "7973d977336be7f0ac825ed47a6669fd.jpg",
            "pageorigfilename": "Ayer_MS_1193-1_VL01_000323_o2.jpg",
            "transcription": ""
        },
        {
            "pageid": 109609,
            "pagefilename": "61aaeb13601cc05e83c2f58279f33ffb.jpg",
            "pageorigfilename": "Ayer_MS_1193-1_VL01_000324r_o2.jpg",
            "transcription": ""
        },
        {
            "pageid": 109610,
            "pagefilename": "7ce070016a45a18b27a26f5b0fdb377a.jpg",
            "pageorigfilename": "Ayer_MS_1193-1_VL01_000324_o2.jpg",
            "transcription": ""
        },
        {
            "pageid": 109611,
            "pagefilename": "bb6be0bc0cb2a1f4365896628769d2e1.jpg",
            "pageorigfilename": "Ayer_MS_1193-1_VL01_000325r_o2.jpg",
            "transcription": ""
        },
        {
            "pageid": 109612,
            "pagefilename": "3981fa06e9dad1380490c97f4a286b8c.jpg",
            "pageorigfilename": "Ayer_MS_1193-1_VL01_000325_o2.jpg",
            "transcription": ""
        },
        {
            "pageid": 109613,
            "pagefilename": "477440ee39ab12346a338e948172e552.jpg",
            "pageorigfilename": "Ayer_MS_1193-1_VL01_000326r_o2.jpg",
            "transcription": ""
        },
        {
            "pageid": 109614,
            "pagefilename": "70a861af944d74dfcad21246cdcb932b.jpg",
            "pageorigfilename": "Ayer_MS_1193-1_VL01_000326_o2.jpg",
            "transcription": ""
        },
        {
            "pageid": 109615,
            "pagefilename": "54fd2af1aa80a7b6185f0451bbfcec35.jpg",
            "pageorigfilename": "Ayer_MS_1193-1_VL01_000327r_o2.jpg",
            "transcription": ""
        },
        {
            "pageid": 109616,
            "pagefilename": "ce3e9b3780c8cbb548c466c26eaa7032.jpg",
            "pageorigfilename": "Ayer_MS_1193-1_VL01_000327_o2.jpg",
            "transcription": ""
        },
        {
            "pageid": 109617,
            "pagefilename": "b89992f3a674db9f0d805241b716db71.jpg",
            "pageorigfilename": "Ayer_MS_1193-1_VL01_000328r_o2.jpg",
            "transcription": ""
        },
        {
            "pageid": 109618,
            "pagefilename": "b15651f89d0f266e3f44454902d62c07.jpg",
            "pageorigfilename": "Ayer_MS_1193-1_VL01_000328_o2.jpg",
            "transcription": ""
        },
        {
            "pageid": 109619,
            "pagefilename": "832ac0c6d7aa108e072d5a1f0ded693d.jpg",
            "pageorigfilename": "Ayer_MS_1193-1_VL01_000329r_o2.jpg",
            "transcription": ""
        },
        {
            "pageid": 109620,
            "pagefilename": "9d58b9d3ee139aff9abca469dd39c1bb.jpg",
            "pageorigfilename": "Ayer_MS_1193-1_VL01_000329_o2.jpg",
            "transcription": ""
        },
        {
            "pageid": 109621,
            "pagefilename": "b9978e4a8ecd23a2d762da3d8650adc0.jpg",
            "pageorigfilename": "Ayer_MS_1193-1_VL01_000330r_o2.jpg",
            "transcription": ""
        },
        {
            "pageid": 109622,
            "pagefilename": "8ee901324cebe468cf2ee1f8898528fe.jpg",
            "pageorigfilename": "Ayer_MS_1193-1_VL01_000330_o2.jpg",
            "transcription": ""
        },
        {
            "pageid": 109623,
            "pagefilename": "ae92f289730fb7e041f619491dba7646.jpg",
            "pageorigfilename": "Ayer_MS_1193-1_VL01_000331r_o2.jpg",
            "transcription": ""
        },
        {
            "pageid": 109624,
            "pagefilename": "e79989dd2be714538a37060d6f16f532.jpg",
            "pageorigfilename": "Ayer_MS_1193-1_VL01_000331_o2.jpg",
            "transcription": ""
        },
        {
            "pageid": 109625,
            "pagefilename": "bd262a31f30f18f7d6e34da60a11f0a6.jpg",
            "pageorigfilename": "Ayer_MS_1193-1_VL01_000332r_o2.jpg",
            "transcription": ""
        },
        {
            "pageid": 109626,
            "pagefilename": "782226e9e9cbf5756a60701cc61ead3c.jpg",
            "pageorigfilename": "Ayer_MS_1193-1_VL01_000332_o2.jpg",
            "transcription": ""
        },
        {
            "pageid": 109627,
            "pagefilename": "70c646eedd666d03a2406537f9b69794.jpg",
            "pageorigfilename": "Ayer_MS_1193-1_VL01_000333r_o2.jpg",
            "transcription": ""
        },
        {
            "pageid": 109628,
            "pagefilename": "3e3dce1afa9bbbe7e3dea159e6ce5e8c.jpg",
            "pageorigfilename": "Ayer_MS_1193-1_VL01_000333_o2.jpg",
            "transcription": ""
        },
        {
            "pageid": 109629,
            "pagefilename": "c1cd077b877d430f2254be2e53726408.jpg",
            "pageorigfilename": "Ayer_MS_1193-1_VL01_000334r_o2.jpg",
            "transcription": ""
        },
        {
            "pageid": 109630,
            "pagefilename": "6c796ac2862b48430974ebf81042b435.jpg",
            "pageorigfilename": "Ayer_MS_1193-1_VL01_000336r_o2.jpg",
            "transcription": ""
        }
    ]
}