{
    "id": "848",
    "cataloglink": "https://webvoyage.carli.illinois.edu/nby/cgi-bin/Pwebrecon.cgi?DB=local&v1=1&BBRecID=154601",
    "pages": [
        {
            "pageid": 54816,
            "pagefilename": "948adc1089c964c69cee38c98cef1282.jpg",
            "pageorigfilename": "GR_939_0001_o2.jpg",
            "transcription": "Fort Belknap M. T\nSept 4\" /75\nGen. George H Roberts\nMy Dear Son\nI have the pleasure of rec your kind and much esteemed Letter - but owing to my absence did not rec until a few days since - and I need not tell you how overjoyed I was to hear from you and your dear family - The expressions of Kindness contained in your Letter more and more increased my anxiety to be once more and have that pleasure of being in your midst - which now at most could not be a very long time for notwithstanding I as yet do not to any great extent feel the infirmities of old age I am still aware? of being on the"
        },
        {
            "pageid": 54817,
            "pagefilename": "8e94c8c12ed8bfb1072f3a16062e1627.jpg",
            "pageorigfilename": "GR_939_0002_o2.jpg",
            "transcription": "down hill of Life - another to Man I was so much pleased to hear of your fine Country Seat - and only not being there to help Dear Julia to make Guarden? - we have no Guardens? here - we plant plenty but the Grass Hoppers Reap I suppose you hear a great deal about - Indians - and their deprecations but most of rumors? of that kind is as a general falsehoods upon the Indians - they are here perfectly peaceable and quiet - they have greater reasons for complaint than we have\nWell George I am still tied here with the two boys - who are both doing as well as I could expect - but not very anxious I should leave? them - this with other minor matters makes my Visit indefinant - but wont be long so -- Fanny is gon East some where I have been trying to get to Visit you"
        },
        {
            "pageid": 54818,
            "pagefilename": "0ff1139a106358f99feff4c7d83f6814.jpg",
            "pageorigfilename": "GR_939_0003_o2.jpg",
            "transcription": "but she as yet made no reply Siter Magge I suppose will soon be a young Lady - she must write to me\nI have been expecting a Letter from my Dear Julia - I hope however she is still in good health\nI hope you and Julia will wright often for I am so anxious to hear from you\nGive a Kiss to all? with Kind and affectionate Remembrance to you and with Gods Blessing\nYour Affectionate\nFather\nAlex Culbertson"
        }
    ]
}