{
    "id": "860",
    "cataloglink": "https://webvoyage.carli.illinois.edu/nby/cgi-bin/Pwebrecon.cgi?DB=local&v1=1&BBRecID=154421",
    "pages": [
        {
            "pageid": 54872,
            "pagefilename": "1d38290fa39b975646c9ef11687c3596.jpg",
            "pageorigfilename": "GR_497_0001_o2.jpg",
            "transcription": "1801   Philip Nolan Esqr. to Mr. Burney\nTo account of Expences for training and feeding\nhorses up to the 20th January as pr. accot. rendered                161\"\nTo 3 horses 11 days @ 6 dol. pr. month                                       6\"0\nTo 1 Bald race horse keeping 11 days                                          5\"0\nTo keeping the race Mare 1 month from 1st Jan. to 31                 15.0\nTo Cash pd. entrance & subscription                                           11.0\n\n                                                                                            ---------------\n                                                                                Dollars?   198\n\nSupra Cr\nBy 1 Roan bald faced horse wt. white feet                         70.0\nby Cash pd ballance by Wm. Dunbar                              128.0\n\n                                                                                  ---------------  198\"0\n                                                                                                   ======\n                                                                                                  00.0\"?\n\nReceived the 2d March 1801 of Wm. Dunbar payment of the \nabove account, declaring the same to be perfectly conformed?\nto Mr. Nolan's agreement with me\n\n                                                         David Burney"
        },
        {
            "pageid": 54874,
            "pagefilename": "79860dd14e9f19701d8d9ce92f187228.jpg",
            "pageorigfilename": "GR_497_0002_o2.jpg",
            "transcription": "Philip Nolan\nEsqr pd. Mr. Burney\n128 Dollars"
        }
    ]
}