{
    "id": "1293",
    "cataloglink": "https://i-share-nby.primo.exlibrisgroup.com/permalink/01CARLI_NBY/i5mcb2/alma991574828805867",
    "pages": [
        {
            "pageid": 103999,
            "pagefilename": "588a5211d5015fa279e7a8889b8f0992.jpg",
            "pageorigfilename": "GR_4099-2_0293_o2.jpg",
            "transcription": "[George M. Templeton in uniform portrait]"
        },
        {
            "pageid": 104000,
            "pagefilename": "ed7a45b167ef61208d8ce649158b0c57.jpg",
            "pageorigfilename": "GR_4099-4_0002_o2.jpg",
            "transcription": "of passengers.  unclear got unclear Pawnee Res Mr Egan on board got sleeping berth - unclear-nom? de guerre - got Maura/Maurice? to buy them The [?] people were saving some for ladies - Mr. Hand on board used to know him as Sanders  Introduced"
        },
        {
            "pageid": 104001,
            "pagefilename": "165ff6e4876567c7509da07fa4574b92.jpg",
            "pageorigfilename": "GR_4099-4_0003_o2.jpg",
            "transcription": "all night  - lost my pipe  -  & a bot of whiskey leaked out - also  left my big knife.  Extremely hot day  May 7- Passed a poor night from heat - Luckily a norther sprang up & about 3 oclk I crept under a blanket  Breakfast at Sidney   Met Egan - & others"
        },
        {
            "pageid": 104002,
            "pagefilename": "6e5a8b92a8d21d4f9cdf1d2bedccc461.jpg",
            "pageorigfilename": "GR_4099-4_0004_o2.jpg",
            "transcription": "8th - Went down to Ben  Moore & got my horses both of all right.  Moore very accommodating - Long talk on hunting - wrote to Fasteu  Ma P & to Tooty  - went to Town & saw Mr Jenney - also the Herald reporter Mr Davenport - Telegraphed to Genl Crook about guides & packers - Mr Jenney seems very good man. appa"
        },
        {
            "pageid": 104003,
            "pagefilename": "f7dc70a02860e13874434cf30a2ee7e0.jpg",
            "pageorigfilename": "GR_4099-4_0005_o2.jpg",
            "transcription": "9th  Bade good by our Kicco? entertainers at 8.00AM  Took Genl Bradleys spring wagon.  Mules look badly but travel wonderfully or the distances are greatly overrated - Arrived Horse Creek 25 miles 12.15 or 3 3/4 hours - Left H Creek at 1.45 & reached Phillips ranch on Chey at 5.15 - 25 miles -Total distance said to be 50 miles made it in 7.15 - don't?"
        },
        {
            "pageid": 104004,
            "pagefilename": "c27ad00f79b955763b664a2831c9a36f.jpg",
            "pageorigfilename": "GR_4099-4_0006r_o2.jpg",
            "transcription": "10th - Started 7.35.  Twenty one miles at 10.20 - arrived at Fort Laramie- 1.45 pm Road bad along the unclear but good over the hills -  Disappointed in appearance of post.  Went to Genl Bradleys reported - stop with Spaulding. Met many Officers & old Col Bullock a 4th Cos. of mine from Virginia. Settler here from time immemorial to the advent of Belknap - Called on Genl Bradley at night - much"
        },
        {
            "pageid": 104005,
            "pagefilename": "9742d4855db31512e09887712ed115a9.jpg",
            "pageorigfilename": "GR_4099-4_0006_o2.jpg",
            "transcription": "what was left in Harney? City - Must have a guide & if possible one or two Indians. Most not go by the Agencies?)  Informed persons all tell me\nit is far out of the way. - Bed at 10 pm slept well - Phillips is a Portugese from the Azores"
        },
        {
            "pageid": 104006,
            "pagefilename": "70ef7191acc1040c58a9a0de4fc636d6.jpg",
            "pageorigfilename": "GR_4099-4_0007r_o2.jpg",
            "transcription": "walk when he arrived -Saw all the offs - played Billiards.  Had talk with Collins post Trader - Breakfasted with Nix   12. Telegrams from all parts - One from John Adair, wanting to go with me - answered by tel - also by letter - Tel from Secy of War about Collins & his spirituous outfit -  Yesterday rec'd tel from Tooty & answered it   Telegraphed to Jenney"
        },
        {
            "pageid": 104007,
            "pagefilename": "876f18a88b7d152ab1ae1969bcb42f52.jpg",
            "pageorigfilename": "GR_4099-4_0007_o2.jpg",
            "transcription": "his two sisters in law: Misses Dewey - nice girls - went over to see Nix - Little Lady as charming as ever.  Met lots of Officers - Dont even know their names yet.  11th - Slept well - up at 8 am paid Official call on Comdg Offr He has no orders for me - Telegraphed to Ruggles?) about guides & packers - Recd answer that Genl C would attend"
        },
        {
            "pageid": 104008,
            "pagefilename": "1b8c9eeca0938eb7c98ec3e0867a9f07.jpg",
            "pageorigfilename": "GR_4099-4_0008r_o2.jpg",
            "transcription": "Platte - Capt Hawley & 4 col ordered our scout - ferry very bad - all day getting over - Telegram from Trout saying he can be here by 20th- answered by telegram.  Am doing nothing here - can do nothing until Trout & Genl C arrive -  13th - Did a larger amt of nothing today  visited Mrs Nix in Evening"
        },
        {
            "pageid": 104009,
            "pagefilename": "671442568ce7e2824c4a54930cf820a5.jpg",
            "pageorigfilename": "GR_4099-4_0008_o2.jpg",
            "transcription": "about horses.  Tomorro is mail day.  Wrote letters to Tooty Father & others- Dined with Genl Bradley- today - But did not stop long after dinner. Played billiards & went to bed\n\nlate   12 - went after the Qt Mr about my outfit   Rode up to the Cavalry Camp, a mile up the"
        },
        {
            "pageid": 104010,
            "pagefilename": "3980ec609c74326674fc73f1dcdc6836.jpg",
            "pageorigfilename": "GR_4099-4_0009r_o2.jpg",
            "transcription": "top line cut off in scan\nto ranch of latter.  15.  same routine Genl Crook to arrive  tomorro -   16 - about 2pm   Genl ? Nickerson? & Burke arrived - went over to see Genl in afternoon - Had a very satisfactory interview -& got pretty nearly all I wanted from him   Called on him at night-   17 - Saw Genl again got a few more things"
        },
        {
            "pageid": 104011,
            "pagefilename": "5c73ee21e6731886ff0aeb0d29c1ad81.jpg",
            "pageorigfilename": "GR_4099-4_0009_o2.jpg",
            "transcription": "met many offs - played  billiards - gassed & went to bed late -  14th, moved my horses to Spaulding's stable Got my things together-  Qt Mr has only 50 wagons\nfor me - very scant supply for such a trip -  Saw Genl B about ammunition - Spaulding & Col Bullock went"
        },
        {
            "pageid": 104012,
            "pagefilename": "c8c5e16e7da8c6a30aea8bb786f18216.jpg",
            "pageorigfilename": "GR_4099-4_0010r_o2.jpg",
            "transcription": "18 - Front arrived - Too sick with cold to do much today.  Tho I went to the Genl Bradley & got my ordnance - 12 Howitzer or Gatling guns got my mess chief started, but a tortoise is rapid to that workman Tel - from Jenney - His party will be here on Thursday  or Friday Am to get my comd?"
        },
        {
            "pageid": 104013,
            "pagefilename": "31fabb57a9d8c6b0a5eeb9f6f1d7ae47.jpg",
            "pageorigfilename": "GR_4099-4_0010_o2.jpg",
            "transcription": "Genl left for Robinson about 12 m - Burke going with me as topographical officer- Took a bad cold somehow - Nothing new - A good deal of excitement about 4th of course - Got 10 wagons more out of the  qmur - am pretty well fixed now -"
        },
        {
            "pageid": 104014,
            "pagefilename": "b21df2256e841123791a269e266f8e8e.jpg",
            "pageorigfilename": "GR_4099-4_0011r_o2.jpg",
            "transcription": "up - Trout at work like a man - Visited Mrs Nix? at night - also called on Genl Bradley - Passed a rather stupid? birth day - Mail arrived bringing several letters One from Tooty, another from Father & Mother  Wrote letters in evening to both them & several friends - wrote to (unclear) telling him not to come"
        },
        {
            "pageid": 104015,
            "pagefilename": "7c6447fb80a95cc0f9771b5087a0c6ad.jpg",
            "pageorigfilename": "GR_4099-4_0011_o2.jpg",
            "transcription": "tomorro - Commence work in unclear on my birth day - & hope to be ready to get away before 25th   19th woke up with the terrible cold still hanging on - Order was issued designating the Cos to go with me.  Spaulding packing"
        },
        {
            "pageid": 104016,
            "pagefilename": "a73110e863ec60b7c12395a8a9559407.jpg",
            "pageorigfilename": "GR_4099-4_0012r_o2.jpg",
            "transcription": "Gave my attention to the men working at my unclear: box-? - very slow. [crossed out:  Genl Bradley issued orders [?]]  Chairs nearly done - Stop at night - did not go - spent evening writing letter to Tooty then went to Collins to get him to take it - He promised to call on her at Omaha Nka - She is en route to Washington on the Indian question"
        },
        {
            "pageid": 104017,
            "pagefilename": "d22e3f556519392e2b502458bb7bede2.jpg",
            "pageorigfilename": "GR_4099-4_0012_o2.jpg",
            "transcription": "one to Blackman? telling him to come sure -   20th - Still suffering from an awful cold - Jenney & party arrived quite early - put them in the camp above ?post?\nTrout at work - all the forage loaded or put across river."
        },
        {
            "pageid": 104018,
            "pagefilename": "db19aa41bd6aeba816585cd0b4583873.jpg",
            "pageorigfilename": "GR_4099-4_0013r_o2.jpg",
            "transcription": "& can start in an hour  No news of guide - Hired \"California Joe\" as packer   Staff of Expedition   Lieut Foote? 9th Inf unclear  St Trout 23 unclear  St Burke 3 Cavy Engr    22 - Slept better but cold still very bad racking me with cough.  Loaded up my ordnance & got the guns in order also got my Sub--?? stores"
        },
        {
            "pageid": 104019,
            "pagefilename": "890d969703d4c9e613e11e38cf8e7e26.jpg",
            "pageorigfilename": "GR_4099-4_0013_o2.jpg",
            "transcription": "21 - Terribly racked with cough during night & in morning - Genl B issued order relieving all my Cos from duty at post   Trout loaded & got all the Com'p stores over river .\nIssued orders [[---ing?}} Comd Cattle over river - Bad job - hard work - but finally all swam but two (2) which had to be killed -- Packed up my things"
        },
        {
            "pageid": 104020,
            "pagefilename": "423291dec7f3e27864f8839565f9f9db.jpg",
            "pageorigfilename": "GR_4099-4_0014r_o2.jpg",
            "transcription": "am.\" for one compy Burke paid $30 toward Com'p Bill -- Wrote to Tooty at night. A mail goes off tomorro.   23rd sent off letters early cold bad, but better --  Paymaster & all visitors went east. Orders for the Cos to move in the morning. across river.  Guide to be here tonight"
        },
        {
            "pageid": 104021,
            "pagefilename": "996d5023e92ace1c3274df4e102d5bbe.jpg",
            "pageorigfilename": "GR_4099-4_0014_o2.jpg",
            "transcription": "Called on all the Ladies in evening - My unclear pay-t - & uncleararrived.  Drew $10.50 for exps from Omaha to Ft Laramie - Got all my ambulances - Everything ready except Guide. My potatoes?, Trout's?? clothing & some"
        },
        {
            "pageid": 104022,
            "pagefilename": "3202e9d47f0e29a57e95a149ff1ad13b.jpg",
            "pageorigfilename": "GR_4099-4_0015r_o2.jpg",
            "transcription": "Guide arrived yesterday. Discharged \"California Joe\" for drunkenness -  Hired a man named Duffele --camped on bank of Platte 1/2 mile above ferry - very good camp. Got everything over. Issued my marching & camp order. Had a pleasant evening & went to bed early - Jenney & scientists got over about 5 pm - all ready for start in the morning - except that the photographer has not arrived?"
        },
        {
            "pageid": 104023,
            "pagefilename": "eeea05063dfd9b2b1cf84fa2427dce53.jpg",
            "pageorigfilename": "GR_4099-4_0015_o2.jpg",
            "transcription": "Can't hear of potatoes etc.? Geologist Jenney will be ready to start Tuesday  25 - visited Genl Bradley & all the ladies at night -   24th - up pretty early & got all packed. Infy Co got over river quiet early. I went down with Spaulding Co. Nix wife & sister came to see us off - also Genl B & many of the officers."
        },
        {
            "pageid": 104024,
            "pagefilename": "48510b4f690b8ee2b11bf2b433f7b942.jpg",
            "pageorigfilename": "GR_4099-4_0016r_o2.jpg",
            "transcription": "second plain . plenty of sand & some mud from rain on 23d.  Heavy hauling for animals- most delightful day for marching. Camped on Rawhide at 1.30 pm. 17 miles from last camp - Everything travelled well - caught some chubs? & late in evening went out & shot some doves -- Officers very agreeable & efficient - Had nice evening - Several officers visiting me - Good camp. Water grass & wood."
        },
        {
            "pageid": 104025,
            "pagefilename": "e7639272d311374a39ee6b8d3e89fd3c.jpg",
            "pageorigfilename": "GR_4099-4_0016_o2.jpg",
            "transcription": "neither have Trout's baggage or my potatoes & onions - Left unclear 6 men & wagon to bring up Phot & mail   25th  up at 4 am.  Fred's first night in tent - got scared during sleep - accused his Dad of snoring  Broke camp 6 am. Cavy (3rd) wagons heavily loaded & took a long time to get started - good march over an undulating country - unclear"
        },
        {
            "pageid": 104026,
            "pagefilename": "386cc8806ba70bef7864ae632c21ffe4.jpg",
            "pageorigfilename": "GR_4099-4_0017r_o2.jpg",
            "transcription": "build a bridge - Followed up Rawhide by a trail hugging the hills - a good deal of work necessary on road - At crossing of the other stream Joe Merivale told me that it was the Main Rawhide, that this stream we followed was a dry fork, that the main stream made a great bend & we would save some miles by the cut off, & camp"
        },
        {
            "pageid": 104027,
            "pagefilename": "6590ff9b899de2f0fb923162e22274e3.jpg",
            "pageorigfilename": "GR_4099-4_0017_o2.jpg",
            "transcription": "26th  Broke camp 6 am Adv guard left 5.45 & I went with it. Merivale left road & passed to the west over a sandy cactus prairie & had to come back to road again to cross creek - crossed with little work  at 8.20 crossed a tributary from north  - part of wagons crossed on natural bottom which cut deep & we had to"
        },
        {
            "pageid": 104028,
            "pagefilename": "6bb63a91dbed3a0eb994dd0f5f253d17.jpg",
            "pageorigfilename": "GR_4099-4_0018r_o2.jpg",
            "transcription": "Sent courier to stop wagons & sending the adv front took 9th Infy to make camp on Rawhide.  I took a couple of orderlies & went on the divide to look for a proper crossing.  My faith in Merivale is gone & I must myself play guide.  Followed divide to Rawhide Butte Struck Mix? trail & followed it back to camp.  Saw"
        },
        {
            "pageid": 104029,
            "pagefilename": "90187bf052d5f0f0497158a15d9bf5ef.jpg",
            "pageorigfilename": "GR_4099-4_0018_o2.jpg",
            "transcription": "on main Rawhide - left trail & struck up a dry fork from the north - sand deep & travelling abominable  2 1/2 miles up Jo came to me & said he was mistaken & that we had passed the water on which we ought to camp - & that the nearest water north? was the Niobrara 15 miles at least  I turned back at once"
        },
        {
            "pageid": 104030,
            "pagefilename": "5e6cbf7fd4dceca41d0cec7e6bd4efa5.jpg",
            "pageorigfilename": "GR_4099-4_0019r_o2.jpg",
            "transcription": "wagon I left behind for photographer - potatoes & onions & Trout's clothes.  Brought mail.  Letter fr. Tooty - very comforting - wrote to her, to Father & Mother - private report to Genls Crook & Bradley - Bush-hunter killed antelope & sent us the saddle.  Rain in evening.  Having a nice time every way. my Comd very fine --"
        },
        {
            "pageid": 104031,
            "pagefilename": "70bb90ab7318287e096ff80484087175.jpg",
            "pageorigfilename": "GR_4099-4_0019_o2.jpg",
            "transcription": "the lay of the land & shall have no difficulty tomorro except in crossing ravines - Joe feels very badly so I did not blow him up - Nice camp at junction of Dry fork with main Rawhide  Good wood water & grass. Distance made 7 1/2 miles, distance lost 5 miles - total march only 12 1/2 mi and very trying on the mules.  Men arrived with the"
        },
        {
            "pageid": 104032,
            "pagefilename": "1ea24ed9d9a9c407ff126b0e76331eb6.jpg",
            "pageorigfilename": "GR_4099-4_0020r_o2.jpg",
            "transcription": "by compass. Merivale said I could not get through -- Found a splendid route except a few bad ravines which had to be worked.  The Rawhide range of hills is very fine & we passed through a lovely & most picturesque country  None of the maps even indicate the characteristics of the range & the water shed.  About 11 struck an old trail"
        },
        {
            "pageid": 104033,
            "pagefilename": "c753fb9573a2ab7a64252c4b8432ac3c.jpg",
            "pageorigfilename": "GR_4099-4_0020_o2.jpg",
            "transcription": "27th  Started with Adv gd. 5:30 am - Camp broke at 545 - Followed Mix Trail to the great disgust of Joe Menivale who wanted to experiment? with me & Comd on divide - I knew both & took trail.  Excellent route to Rawhide Butte - Then some pretty rough ravines were crossed - As soon as I had fairly turned the Butte I struck north"
        },
        {
            "pageid": 104034,
            "pagefilename": "bd256d797bc2ae0365e7de803a188104.jpg",
            "pageorigfilename": "GR_4099-4_0021r_o2.jpg",
            "transcription": "nothing but brush - The day has been very cold - wore my Canada over coat all day with comfort  Country passed through today very attractive - Sent off mail by Baptiste  the Ft Laramie guide who was sent out to me for that purpose by Genl Bradley - who had done all that could be done in kindness & consideration for our comfort -"
        },
        {
            "pageid": 104035,
            "pagefilename": "f3061add9dfdb682321bfcfe273c806b.jpg",
            "pageorigfilename": "GR_4099-4_0021_o2.jpg",
            "transcription": "supposed to be Raynold's of Engrs?-- If so it is exactly what I want. Reached the Niobrara by a most excellent route at 12.40.  Every one is delighted with the route and I have had many congratulations on my performance as guide.  Distance 20 miles.  Excellent camp fine water & grass but wood very scarce."
        },
        {
            "pageid": 104036,
            "pagefilename": "06deb50d6efb58118a00f98c8adc0fe7.jpg",
            "pageorigfilename": "GR_4099-4_0022r_o2.jpg",
            "transcription": "that I went to bed at 8.30 to keep warm -  28th - Camp 5. Slept well. Very cold during night- Heavy frost & ice formed in tents - Adv Guard & I started at 5.30 am - Comp 6 - followed old Indian trail which led in direction wanted.  The wagon trail followed yesterday gave out. Discovered that Raynold's Engrs? was never in this country"
        },
        {
            "pageid": 104037,
            "pagefilename": "da7d18bb866baef8fdced0d8225ddcd1.jpg",
            "pageorigfilename": "GR_4099-4_0022_o2.jpg",
            "transcription": "to make my expedition a success - Everything is going on admirably & my officers seem to vie with each other in doing all I desire - Niobrara belies its name \"running water\" where I struck it, but soon begins to run in a nice little stream. It has been very cold all day & towards evening it became so much worse"
        },
        {
            "pageid": 104038,
            "pagefilename": "dba1db1a869f10ec386ed4252cdd97f0.jpg",
            "pageorigfilename": "GR_4099-4_0023r_o2.jpg",
            "transcription": "got very high at last. When we suddenly came to a steep pitch from the top of which is one of the most splendid views I have seen - the whole valley of \"Old Woman\" creek spread out at our feet bounded by steep crags high rounded hills covered with pine & in the distance the haven of our hopes \"The Black HIlls\""
        },
        {
            "pageid": 104039,
            "pagefilename": "b46251c0638e51687d6bafe6798be57f.jpg",
            "pageorigfilename": "GR_4099-4_0023_o2.jpg",
            "transcription": "but marked the route on this map from description of a guide at Ft Laramie.  No wagons have ever been here except small light affairs traving with Indians.  For 9 miles this am the road was very fine passing over long divides seperating waters of the Niabrara.  The ground"
        },
        {
            "pageid": 104040,
            "pagefilename": "306c15dd356f5ccffdcfa618271c7334.jpg",
            "pageorigfilename": "GR_4099-4_0024r_o2.jpg",
            "transcription": "our troubles began. A few days ago, there was a very severe rain storm here & the overlower? valley is now in most places a bog.  While the little creek which one can step across looms with formidable force? perilous for a wagon train, requiring to be bridged every little way. Our work was slow & tedious in the extreme.  Going down in this way for about four miles"
        },
        {
            "pageid": 104041,
            "pagefilename": "6608bf14c1d7d1c1bd4e67ae15c173d1.jpg",
            "pageorigfilename": "GR_4099-4_0024_o2.jpg",
            "transcription": "The country is most lovely and I don't blame the Indians for wishing to hold on to it.  The route was most difficult & it required no little engineering skill to get down.  My pioneering & Trout's wagon management finally got us down without accident or delay - Once in the bottom however"
        },
        {
            "pageid": 104042,
            "pagefilename": "44ac46c4f71da5658b71823af1f0aa58.jpg",
            "pageorigfilename": "GR_4099-4_0025r_o2.jpg",
            "transcription": "& go into camp - on a beautiful spot with good wood & water & splendid grass.  Unusually careful about stock today.  We are in the home of the Redman & where where we came into the valley passed the camp of a war party of about 100 strong bound west, probably for Fetterman & the R.R. The camp was about three days old.  Distance today 14 miles.  Total 58 1/2 mi."
        },
        {
            "pageid": 104043,
            "pagefilename": "ffdcb0a4aa62fb0540a354d6ec85d1b2.jpg",
            "pageorigfilename": "GR_4099-4_0025_o2.jpg",
            "transcription": "We were finally stuck  The bog of the valley becoming impassible - the steep hills on each being broken into bad ravines - almost impossible to cross or turn - after a deal of work & hauling myself over every route which gave scope of practicability,  I at last determined at 1.20 to stop"
        },
        {
            "pageid": 104044,
            "pagefilename": "1db6da63d33bf26a659cbf54c6e7075c.jpg",
            "pageorigfilename": "GR_4099-4_0026r_o2.jpg",
            "transcription": "by crossing near stream sometimes one, other times the other was resorted to.  Crossed river three times & made two long stretches with the hills -- Crossings abominable- no bottom - bog everywhere.  Made five corduroy & one brush bridge besides a good log bridge over a side stream.  The Comd did not get out of camp until after 7 am."
        },
        {
            "pageid": 104045,
            "pagefilename": "e46e81c01956b0c4d9d455e0ca742cbd.jpg",
            "pageorigfilename": "GR_4099-4_0026_o2.jpg",
            "transcription": "My cavalry is very finely mounted & my transportation as good as I have ever seen -  29th - Camp 6 - Out early 5.15. looking for route. Pioneer Co out on foot. Had d'l of a time.  Ravines had to be unclear by going into the hills or turned"
        },
        {
            "pageid": 104046,
            "pagefilename": "14977c3a5ab594d18910e4bbe3214bd6.jpg",
            "pageorigfilename": "GR_4099-4_0027r_o2.jpg",
            "transcription": "down. As it was a very bad crossing I did not expect the wagons to get over for two hours.  So I sent the adj? to pick out a camp below the junction of the two branches of the stream. This had so stimulating an effect on all concerned that the whole comd was safely over & in camp by 3 1/2 pm.  Country"
        },
        {
            "pageid": 104047,
            "pagefilename": "5bd47b6e83443051f8f606790686816c.jpg",
            "pageorigfilename": "GR_4099-4_0027_o2.jpg",
            "transcription": "& has had a series of long rests so that men & animals have had an easy day except the pioneer Co, & the wagon mules. On these it has been tough enough - About 2 1/2  a shower came up while I was building the last bridge on the branch of Old Woman we have been following"
        },
        {
            "pageid": 104048,
            "pagefilename": "c6247a9330b7ace4ce4d2c3f731109a6.jpg",
            "pageorigfilename": "GR_4099-4_0028r_o2.jpg",
            "transcription": "of sign - very warm today until shower - Nice camp water & wood plenty grass excellent - Distance 15 miles Total 73 1/2 mi     30th - Camp 7 - got out early 5.20 with pioneer company everything following soon after - Had a splendid march over long rolling slopes. having only to"
        },
        {
            "pageid": 104049,
            "pagefilename": "5756c134cb16ddee9e3f174d0ce35fe2.jpg",
            "pageorigfilename": "GR_4099-4_0028_o2.jpg",
            "transcription": "not so beautiful as yesterday.  Tertiary deposit entirely- very little timber on stream which is a broad shallow Bed 75 ft wide filled with mud or quick sand - No Indians or signs of any except the war party which went west spoken of yesterday.  They came up this creek & left plenty"
        },
        {
            "pageid": 104050,
            "pagefilename": "f7a313e78b85e1d58926cccf358b4c86.jpg",
            "pageorigfilename": "GR_4099-4_0029r_o2.jpg",
            "transcription": "\"Old Woman Fork' of which we have not many pleasant remembrances so far as route is concerned  By a good trail & with only one cutting we came to the South Cheyenne which I immediately crossed - It is a nasty stream of thirty feet in width - bottom sandy - banks mud - Had to corduroy both banks for fifty feet from water"
        },
        {
            "pageid": 104051,
            "pagefilename": "cbf7e3b137b1568d4f8c645dcd22d9e2.jpg",
            "pageorigfilename": "GR_4099-4_0029_o2.jpg",
            "transcription": "bridge an occasional ravine or cut a bank.  At 10 1/2 arrived at a crossing of the \"Old Woman\" which tortured us dreadfully.  Had to build a corduroy & bridge over 200 feet long.  It took three solid hours of hard work - at about 2 pm we were ready to cross & got over safely bidding good by to the"
        },
        {
            "pageid": 104052,
            "pagefilename": "ff644dd7c50c0dd14af08bd507da6ce5.jpg",
            "pageorigfilename": "GR_4099-4_0030r_o2.jpg",
            "transcription": "Eleven hours at work or marching & the animals in harness or under the saddle - but it has been really tiresome only to the pioneer co,Trout & myself - I am greatly disappointed in the Cheyenne River - It is a miserable insignificant dirty stream affording however evidence of sometimes getting on"
        },
        {
            "pageid": 104053,
            "pagefilename": "91745077bbd861675af0e9178b00ea88.jpg",
            "pageorigfilename": "GR_4099-4_0030_o2.jpg",
            "transcription": "got over safely without accident & all in camp on North bank by 4 1/2 pm. - Excellent camp wood & grass abundant & fine - Water muddy & very thick.  Cleared with cactus it is very palatable so we have nothing to complain of.  It has been a hard day. All hands having been over"
        },
        {
            "pageid": 104054,
            "pagefilename": "360c68d1f1cbade3ff4a0d70f8cd95c2.jpg",
            "pageorigfilename": "GR_4099-4_0031r_o2.jpg",
            "transcription": "was to his delight dead.  We have been following since yesterday noon the trail of a party of immigrants who in 1865 under the Comd of a man named Sawyer made a route from Sioux City to Montana.  The trail is very plain to be ten years old & is remarkably good considering the country"
        },
        {
            "pageid": 104055,
            "pagefilename": "b49ccb5cf12622822c81adda5fa948c8.jpg",
            "pageorigfilename": "GR_4099-4_0031_o2.jpg",
            "transcription": "the rampage - We are camped in a lovely grassy lawn surrounded on all sides by woods of cottonwood - Country not very beautiful but interesting - plenty of fossils bones etc. - Fred went wild over the lovely flowers & today saw his first rattlesnake, which"
        },
        {
            "pageid": 104056,
            "pagefilename": "5728d2444757b6d073f1a3d989be9b64.jpg",
            "pageorigfilename": "GR_4099-4_0032r_o2.jpg",
            "transcription": "Distance today 18 miles Total 91 1/2  miles.  Total distance travelled on the Old Woman Fork 31 miles.    31 May- Camp 8 - Slept splendidly. Though the camp was aroused partially by a shot about midnight.  Trout came to my tent some what excited.  I told him not to stampede"
        },
        {
            "pageid": 104057,
            "pagefilename": "585038a1664fe27c6a8c6605b428e2e8.jpg",
            "pageorigfilename": "GR_4099-4_0032_o2.jpg",
            "transcription": "I prefer it greatly to the guidance of Joe Merivale who knows nothing of this country - nothing of distance - nothing of road building for wagons - Saw five black tail deer no chance for shot - game very scarce but deer tracks more plenty today than heretofore"
        },
        {
            "pageid": 104058,
            "pagefilename": "5abc51aa4f391d36333d439536470fec.jpg",
            "pageorigfilename": "GR_4099-4_0033r_o2.jpg",
            "transcription": "the alarm. Up at Reville- our roster earlier than usual 5.15 - Went but a short distance before the trail struck to river again  This time the crossing was good & no work was needed.  In half a mile had to cross again.  This time at a very bad place which we had to bridge & corduroy for 50 yds"
        },
        {
            "pageid": 104059,
            "pagefilename": "67acfee1cf24ac097ca60fb86b2c3a96.jpg",
            "pageorigfilename": "GR_4099-4_0033_o2.jpg",
            "transcription": "anybody & he was off after his herd in the darkness.  It appears that one shot is the signal he has established to indicate trouble in the beef herd for which he is responsible.  There was nothing the matter  a \"Doboy\" recruit having got scared at a loose horse & fired to give"
        },
        {
            "pageid": 104060,
            "pagefilename": "02fe4e7e3fec778e5828ec7f7a0498aa.jpg",
            "pageorigfilename": "GR_4099-4_0034r_o2.jpg",
            "transcription": "unclear east of us -- that the larger stream passed was the \"Dry Fork\" - Acting on this I kept down the river making several bridges over ravines until we arrived at the stream which he was sure ought to be west fork & which turned out to be a very small arroyo - The map"
        },
        {
            "pageid": 104061,
            "pagefilename": "c211b302237d3003802b112caa2b2e5e.jpg",
            "pageorigfilename": "GR_4099-4_0034_o2.jpg",
            "transcription": "Merivale the guide soon after this wanted me to cross again but my mad was up & I told him I would not do so.  I therefore struck for the hills and made a good trail - He is no sort of a a guide - He insisted that the great West fork of the Cheyenne"
        },
        {
            "pageid": 104062,
            "pagefilename": "432c62025b2b42bf99fb31822220ad14.jpg",
            "pageorigfilename": "GR_4099-4_0035r_o2.jpg",
            "transcription": "It has been a lovely day for marching - no sun - yet not raining- The Indians have just found us out. Two smokes were sent up today on edge of Black Hills.  I hope some of these will come in tomorro- my course tomorro is due north - Distance 13 - Total Dis 104 1/2 m."
        },
        {
            "pageid": 104063,
            "pagefilename": "a338153d80201028e901a7bab015cfdd.jpg",
            "pageorigfilename": "GR_4099-4_0035_o2.jpg",
            "transcription": "showing that we are as far east as we ought to be & not knowing the distance to Beaver I determined to camp, & at 12 n. went into a fine lovely camp on Cheyenne - splendid wood & grass & good water by digging - river very muddy -"
        },
        {
            "pageid": 104064,
            "pagefilename": "fa73ed7f707b2660f4a56467cc20a1a5.jpg",
            "pageorigfilename": "GR_4099-4_0036r_o2.jpg",
            "transcription": "killed a rattlesnake today - the first our Fred ever saw alive - He  - Master Fred - is extracting a deal of pleasure out of this trip - rides all the time & behaves very well generally - Is getting over his disposition to tantrums"
        },
        {
            "pageid": 104065,
            "pagefilename": "34a22c204cee04d48f302fb41e982d19.jpg",
            "pageorigfilename": "GR_4099-4_0036_o2.jpg",
            "transcription": "Several deer & antelope killed today - Spaulding sent me a nice ham of antelope off which we dined sumptiously - Had camp fire at my tent & nearly all the offs & scientists came around & we had a very pleasant evening - telling stories etc -- --"
        },
        {
            "pageid": 104066,
            "pagefilename": "6cff13af4437fcf31675c4550c297617.jpg",
            "pageorigfilename": "GR_4099-4_0037r_o2.jpg",
            "transcription": "attributed to the Scientific people being rather crude - I laughingly attached Jenney on them - He expressed a great contempt for the reporter  & said that no one had ever made any such statements - A short time after Davenport came in - I sallied? him on his military knowledge - He colored up & said he was told so &"
        },
        {
            "pageid": 104067,
            "pagefilename": "90e129f91115df3a1721cf108e8246e6.jpg",
            "pageorigfilename": "GR_4099-4_0037_o2.jpg",
            "transcription": "There is likely to be trouble between the Herald reporter Davenport & the scientific party. In the Herald of 17th appears a letter of Davenport giving a history of the expedition in advance - the letter being written from Cheyenne - Some of the remarks about the escort"
        },
        {
            "pageid": 104068,
            "pagefilename": "90657e7a5dd0880903cbdf6a6d9a3bd5.jpg",
            "pageorigfilename": "GR_4099-4_0038r_o2.jpg",
            "transcription": "I think Jenney is an aspiring man - ready to do anything for own advancement. I doubt very much whether he makes a fair & candid statement of the facts in regard to the Blk Hills.  He is a very young man - very boyish in manner & that he has been put in charge of such an expedition"
        },
        {
            "pageid": 104069,
            "pagefilename": "cbecef3989940e4301aed28c441a7102.jpg",
            "pageorigfilename": "GR_4099-4_0038_o2.jpg",
            "transcription": "so by a member of the scientific party - No answer was made to this by Jenney who however seemed uncomfortable.  This morning Davenport came to me & said that what he stated in that letter was almost word for word what was told him by Jenney himself & that he did not say so at the time because he wanted to have no trouble"
        },
        {
            "pageid": 104070,
            "pagefilename": "cfd64f2676264ae13c7aa46a8d56fa27.jpg",
            "pageorigfilename": "GR_4099-4_0039r_o2.jpg",
            "transcription": "appointed that he has not military comd of the expedition. I think he is a small man & that he will not only try to arrogate to himself every particle of the credit of the expedition but will cast slurs on every other member of it who he thinks can in any way come in competition with"
        },
        {
            "pageid": 104071,
            "pagefilename": "71b7e07ac1963c92cbfe26c46339693a.jpg",
            "pageorigfilename": "GR_4099-4_0039_o2.jpg",
            "transcription": "indicates a job of some kind My opinion is that the report to be made in regard to gold has been decided upon already at Washington & that the sending him out is the merest blind - He is undoubtedly a man of some ability but very weak, very jealous & very much dis"
        },
        {
            "pageid": 104072,
            "pagefilename": "eb921de2afdd73c56503bbffb8cfbeec.jpg",
            "pageorigfilename": "GR_4099-4_0040r_o2.jpg",
            "transcription": "Gentleman of culture refinement & sense & it would be far better for the expedition if he were the leader of it - He is most unassuming, quite devoted to his work & a most agreeable gentleman.  Dr Macgillicuddy the Topographer is the next in rank & merit. He is smart & bright"
        },
        {
            "pageid": 104073,
            "pagefilename": "330f380523640dcd1b650dbc71857ea2.jpg",
            "pageorigfilename": "GR_4099-4_0040_o2.jpg",
            "transcription": "him. I treat him with the greatest kindness & do everything for him but I feel that I get no thanks & that he will eventually show unclear -- not while we are together but after he leaves me & comes to make out his report.  His astronomer asst Capt Tuttle is a"
        },
        {
            "pageid": 104074,
            "pagefilename": "7f5b0f54e375f2400a628a47e4cba21e.jpg",
            "pageorigfilename": "GR_4099-4_0041r_o2.jpg",
            "transcription": "I think Burke's map will be better than his- that is as a unclear chart - His will be far more fancy - but very much of it will be grim ? green?work.   Davenport the Herald man writes well & has the regular reporters knack of pumping people -but he is as green as"
        },
        {
            "pageid": 104075,
            "pagefilename": "9781f8e4e0e277616e4e27b158b211dc.jpg",
            "pageorigfilename": "GR_4099-4_0041_o2.jpg",
            "transcription": "unclear up in his business as a professional map maker but runs too much to fancy & pretty.  He sticks not at outside work for the sake of embellishment - & I think fails, either in experience or in that knowledge of country which is indispensable for a map maker -"
        },
        {
            "pageid": 104076,
            "pagefilename": "878bc90a9dd20b5a59ee5fb2a6990230.jpg",
            "pageorigfilename": "GR_4099-4_0042r_o2.jpg",
            "transcription": "him that the hooting of an owl was the songs of Indian women over an approaching fight & scared him almost to death by predicting a hard fight today -  Jenney tells a story on him that Davenport told him that he did not know when we might be attacked."
        },
        {
            "pageid": 104077,
            "pagefilename": "7f8c2bcf9fd5296223ffc62bed66d783.jpg",
            "pageorigfilename": "GR_4099-4_0042_o2.jpg",
            "transcription": "a gourd, as credulous as a ninny. The young officers have been stuffing him with the most incredible stories - & lately the men have got at it - He is not blessed with a vast amount of courage & the boys keep him in hot water all the time. Last night they persuaded"
        },
        {
            "pageid": 104078,
            "pagefilename": "762508ed916c7c29e9075795d5490b1f.jpg",
            "pageorigfilename": "GR_4099-4_0043r_o2.jpg",
            "transcription": "MacMillan the man of the Inter Ocean NB: Chicago newspaper is of entirely different stamp, very gentlemanly  hard to stuff & with excellent good sense - & tho this is the first time he has been on the plains he takes to it so kindly & well as to win the liking & respect of every one"
        },
        {
            "pageid": 104079,
            "pagefilename": "560b05ef307aba9f5638f935d8b2dc3f.jpg",
            "pageorigfilename": "GR_4099-4_0043_o2.jpg",
            "transcription": "that he intends to put his \"Herald Flag\" over his tent so that the Indians would know he was a non-combattant --- I told him yesterday that he was being informed? on by these youngsters & to beware of publishing any stories or rumors coming from them -"
        },
        {
            "pageid": 104080,
            "pagefilename": "6d83806965b32d6b5812b6ca640c1252.jpg",
            "pageorigfilename": "GR_4099-4_0044r_o2.jpg",
            "transcription": "top cut off. in camp unclear the astonomer Capt Tuttle to get the Longitude - Fortunately the day gave him the opportunity to see the sun at the proper time tho it was cloudy and showering all day & rained quite hard in afternoon.  The water of Beaver Ck is wretched - alkali"
        },
        {
            "pageid": 104081,
            "pagefilename": "c4c9c83986c5095838c1e7878a8e2376.jpg",
            "pageorigfilename": "GR_4099-4_0044_o2.jpg",
            "transcription": "June 1, 1875 - Camp No. 9. Broke camp 5.20 a - & marched directly north crossed river with little trouble - only two bridges - one so far over tributary of Beaver - struck the latter stream below forks at 9.30 am and went"
        },
        {
            "pageid": 104082,
            "pagefilename": "9e21244d4fdde6aa25728e1221672b7d.jpg",
            "pageorigfilename": "GR_4099-4_0045r_o2.jpg",
            "transcription": "small chum - that is after several patient hours.  I was able to develop only about a dozen of these small fry - I had a talk with Mr Jenney this afternoon & told him we must move camp. the water here would make my men sick very soon"
        },
        {
            "pageid": 104083,
            "pagefilename": "337c239e6eca658f220e24ceabd7ae45.jpg",
            "pageorigfilename": "GR_4099-4_0045_o2.jpg",
            "transcription": "& full of all abominable tastes-  I am grievously disappointed. From the reports of the prior I expected a lovely stream of pure water filled with fine fish.  On the contrary tho a fine full running stream it is about as nasty as Bitter? Creek itself & has no fish except a"
        },
        {
            "pageid": 104084,
            "pagefilename": "87be6c1cae88283a69b1849c0899da49.jpg",
            "pageorigfilename": "GR_4099-4_0046r_o2.jpg",
            "transcription": "Black Hills will I hope be an earmark of our success in hunting - There were killed after getting with this camp 4 elk 3 deer & 1 brown bear about 250 to 300 pounds - So the camp is full of meat & we rejoice in fatness but mourn over the bad water which requires to be mixed -"
        },
        {
            "pageid": 104085,
            "pagefilename": "a5a799fac5e16dfd79befe43a9e4f22a.jpg",
            "pageorigfilename": "GR_4099-4_0046_o2.jpg",
            "transcription": "So we go on North tomorro hoping to find a pure mountain stream - We are just at the door of the great unknown - the Black Hills.  To the North East of us they tower in majesty covered with a fine growth of pines - Our first day in the"
        },
        {
            "pageid": 104086,
            "pagefilename": "a13b8b185581b2fed8538ffc63d5c288.jpg",
            "pageorigfilename": "GR_4099-4_0047r_o2.jpg",
            "transcription": "top cut off /illegible ---- a talk with the Herald man today.  He is intelligent but ignorant of life of human nature & a mere child in his contact with the wild continent of the plains.  Jenney is more sociable today - No Indians yet - They know we are here & their failure to come in is a rather bad sign"
        },
        {
            "pageid": 104087,
            "pagefilename": "e27a7a43993edc73dfff7d9cd024098e.jpg",
            "pageorigfilename": "GR_4099-4_0047_o2.jpg",
            "transcription": "The country passed today is of \"bad-land\" formation that is the ravines have a tendency to cut down very deep with abrupt banks - This is only near the hills. The valleys are broad & covered with excellent grass - It will be some day the grazing ground of miriads? of cattle -"
        },
        {
            "pageid": 104088,
            "pagefilename": "389c97af2f60dd5b17344a32fcabfa25.jpg",
            "pageorigfilename": "GR_4099-4_0048r_o2.jpg",
            "transcription": "top cut off, first line illegible --- by the Doctors of the expedition (there are two (2) military & several civil doctors) & the head & all curious articles carried off.  Dr Macgillicuddy of the scientific got the lower jaw which he proposes to take home as a present for a dear friend to be used as a pen holder \"To what base uses may"
        },
        {
            "pageid": 104089,
            "pagefilename": "e1d39f24e58c3aff6e154aa7bd0407f0.jpg",
            "pageorigfilename": "GR_4099-4_0048_o2.jpg",
            "transcription": "They will get our stock if possible - but I will keep it if I can - Our camp in a thin grove of very old & large cotton wood trees the tops of which have been cut off year after year by the squaws to feed ponies in the winter - In one was an Indian grave which I am sorry to"
        },
        {
            "pageid": 104090,
            "pagefilename": "109c361620f62b644c9be00257cfafcf.jpg",
            "pageorigfilename": "GR_4099-4_0049r_o2.jpg",
            "transcription": "June 2nd - Camp 10. Broke camp 5.20 am  Had to bridge Beaver Ck which occupied about an hour & then to cut down the banks of a large tributary from the North which joins main stream less than a mile from camp - Soon afer struck the great North-South Indian Trail - from"
        },
        {
            "pageid": 104091,
            "pagefilename": "5c14bbc1c2b8650bcd46f7ce3b9d2181.jpg",
            "pageorigfilename": "GR_4099-4_0049_o2.jpg",
            "transcription": "we come at last.\" The jaw bone of a Native Chief to assist in the midnight oil business - Cold & blustery in afternoon & evening - Had fine camp fire - most everybody around it - Distance today 9 2/3  Total 114 1/6 miles from Fort Laramie -"
        },
        {
            "pageid": 104092,
            "pagefilename": "7dcfd3339fe53b5e8158855b337d285d.jpg",
            "pageorigfilename": "GR_4099-4_0050r_o2.jpg",
            "transcription": "top cut off the march westing today.  In doing this we followed up a middle branch of Beaver which resulted in taking us away from the mountains & by 11 am we were at least 1 1/2 miles too far west.  In a conversation at lunch with Prof Tuttle & Dr Macgillicuddy they told me that they had"
        },
        {
            "pageid": 104093,
            "pagefilename": "146d43eee58fd835470f867184fbf1c5.jpg",
            "pageorigfilename": "GR_4099-4_0050_o2.jpg",
            "transcription": "the White River country to the Powder River country.  It is as large & wide worn as a country road- From astronomical observations it was found yesterday that we were 4 1/2 miles too far east - that is we were in Dacotah - Mr Jenney wanted therefore to make"
        },
        {
            "pageid": 104094,
            "pagefilename": "bb911f6fd8aa941520fe86f9855df868.jpg",
            "pageorigfilename": "GR_4099-4_0051r_o2.jpg",
            "transcription": "top cut off/illegible ----- good grass for the comfort of all plenty of wood - In addition he wanted to work in the mountains & he wanted the camp on 104 long - which would not go into the mountains. He must either abandon good wood water & grass & mountain work for 104 - or abandon 104 for these.  He is an indecisive"
        },
        {
            "pageid": 104095,
            "pagefilename": "eecd53206141c8a5885da1d35935b8ba.jpg",
            "pageorigfilename": "GR_4099-4_0051_o2.jpg",
            "transcription": "no orders to run the west line of Dacotah & had not the instruments to do it - On this hint I spoke to Jenney - I told him that there were too many points to his problem - we must for the health of the men have good water for the strength of the"
        },
        {
            "pageid": 104096,
            "pagefilename": "45daad76870550e9b6515613e693eb27.jpg",
            "pageorigfilename": "GR_4099-4_0052r_o2.jpg",
            "transcription": "top line cut off --- in crossing the bad arroyos I immediately moved to the creek & went with camp about 12 n.  The branch of Beaver we are on does not run here but stands in long narrow water holes in which there is no life - not a fish to be caught though I tried faithfully"
        },
        {
            "pageid": 104097,
            "pagefilename": "d56c1a2fb32d721a0cacedc066d9cde3.jpg",
            "pageorigfilename": "GR_4099-4_0052_o2.jpg",
            "transcription": "man & hemmed & hawed on the proposition - He is a mere boy in experience & has still the boyish hope of getting everything just as he desires -  At last however he decided to give up 104 & as we had got a very considerable distance from the mountains & as the train had got"
        },
        {
            "pageid": 104098,
            "pagefilename": "4b37271e149fbf1709227f62bf267595.jpg",
            "pageorigfilename": "GR_4099-4_0053r_o2.jpg",
            "transcription": "[[top line cut off] I must send my train back & promptly - my Comd is rationed to 28th & it will take 20 days for the train to go & come so I have only six days for accidents - He saw it all & tomorrow we strike straight for the mountains for what appears to be a pass & is practicable"
        },
        {
            "pageid": 104099,
            "pagefilename": "67b12afb5432362e829fff7d609b4099.jpg",
            "pageorigfilename": "GR_4099-4_0053_o2.jpg",
            "transcription": "It is not so alkaline as the main Beaver but is not good water - Wood not abundant but enough for camp - Grass good - I am very glad that I finally settled with Mr J - We have been piddling along a few miles a day hoping to suit all his ideas - I told him I"
        },
        {
            "pageid": 104100,
            "pagefilename": "a1a2949e9575b14c3f9b8037160cdc2d.jpg",
            "pageorigfilename": "GR_4099-4_0054r_o2.jpg",
            "transcription": "top line cut off --- to have seen Indians.  All have orders to treat them kindly & bring them in camp if possible - There are very few Indians in vicinity no recent trails have been seen on this creek.  Distance today 10 1/2 miles. Total 124 4/6 -- Day pleasant camp fire & genial evening."
        },
        {
            "pageid": 104101,
            "pagefilename": "2d07c9d8d0538bd11b89acdd12ad3746.jpg",
            "pageorigfilename": "GR_4099-4_0054_o2.jpg",
            "transcription": "for horsemen - I hope to find a decent place for my permanent camp.  Spaulding went hunting today. Saw 5 elk & a mountain lion but got nothing.  Burt killed an Elk & 1 antelope was brought in by one of the men- Game is only tolerably abundant. Some of"
        },
        {
            "pageid": 104102,
            "pagefilename": "383ec8e8aa801cb8f1cea7ae97f8d890.jpg",
            "pageorigfilename": "GR_4099-4_0055r_o2.jpg",
            "transcription": "missing top line?? arroyos to bridge with sap brush - arrived at a gorge of the mountains at 1010 & went into camp in a most beautiful spot on a lovely stream of water - pure for this part of the world - & as defensible as any position I have ever seen -  If I had had the making of the spot I could not have suited?"
        },
        {
            "pageid": 104103,
            "pagefilename": "7f4b148c8afbbe9c3fa9e35abbc0b93f.jpg",
            "pageorigfilename": "GR_4099-4_0055_o2.jpg",
            "transcription": "June 3rd Camp 11.  Broke camp 5.20 am & struck at once for the mountains- as nearly as I could conjecture to a pass from which comes the larger East fork which we forded yesterday - The march was an excellent one - nothing bad to cross & only a"
        },
        {
            "pageid": 104104,
            "pagefilename": "676d404f3e9f93d29933833a947dbf78.jpg",
            "pageorigfilename": "GR_4099-4_0056_o2.jpg",
            "transcription": "better all my ideas of what we want in our permanent camp - Just as I arrived in camp I met with a disaster in the shape of a tumble from my horse which \"bucked\" me off in a moment & finished the job by stepping on me with both fore feet - One gentle pressure on the arm - I will remember"
        },
        {
            "pageid": 104105,
            "pagefilename": "cb35dd55c0a6fc0470190efec6db60cd.jpg",
            "pageorigfilename": "GR_4099-4_0057_o2.jpg",
            "transcription": "for - He is visionary? & so full of vanity that it requires tact to manage him & so disposed to say ill notions & impertinent things that I have hard work not to go back on him -- I wish I could get rid of him - Made the details for work tomorrow - must build my storehouse & also two redoubts ---The geologist is delighted with the place I have"
        },
        {
            "pageid": 104106,
            "pagefilename": "68c81b0fe59b1bfac9d9a0d569a6762e.jpg",
            "pageorigfilename": "GR_4099-4_0058_o2.jpg",
            "transcription": "so far & hope we will get through the night safely. I must again express my delight at the efficiency of my command & the intent? all officers take in my wishes. I am teaching them plains travel & all appreciate my capacity in that particular - One Elk killed today - I went out fishing but had no proper bait & got nothing"
        },
        {
            "pageid": 104107,
            "pagefilename": "90fd16a6cd563e44c350ed4b22eda46d.jpg",
            "pageorigfilename": "GR_4099-4_0059_o2.jpg",
            "transcription": "June 4- Camp 11 - Had revielle an hour late this morning & woke to find Master Fred reading in bed, the extra hour being too much for him - after breakfast went to work on Storehouse - made details illegible"
        },
        {
            "pageid": 104108,
            "pagefilename": "53e380658116529d8e130d61432e7e93.jpg",
            "pageorigfilename": "GR_4099-4_0060_o2.jpg",
            "transcription": "There was a vast amount of work done by all today that is all the working men.  I wrote my reports to Genls Crook & Bradley, letter to Father & Mother then visited Burt & Munson? & bade them good by - came back & wrote a long letter to"
        },
        {
            "pageid": 104109,
            "pagefilename": "ca41932a6b399f46f2a92d2610083895.jpg",
            "pageorigfilename": "GR_4099-4_0061_o2.jpg",
            "transcription": "Camp Jenney - 11 - June 5, 1875. Up pretty early but not soon enough to see the train start - Mr Jenney asked for as escort to to into bottom cut off --hills?"
        },
        {
            "pageid": 104110,
            "pagefilename": "08cacf90105b86069aea341c820dd1bf.jpg",
            "pageorigfilename": "GR_4099-4_0062_o2.jpg",
            "transcription": "elk and three deer - Other parties brought in game. Spaudling's hunter three deer. / So that I do not know how much has been killed today - A great deal however - I moved Hd qr tents this am, & have now got a beautiful bottom line cut off"
        },
        {
            "pageid": 104111,
            "pagefilename": "faebe194663420caba6e1d5a25cc320c.jpg",
            "pageorigfilename": "GR_4099-4_0063_o2.jpg",
            "transcription": "& grouping as can be imagined - I have got out of the draught of the canon & we have now but little wind - I am delighted with the changes except that now lying in my bed & listening to the murmuring of the stream, only fifty feet away, I cannot but"
        },
        {
            "pageid": 104112,
            "pagefilename": "7b240df358d96a47a246cf4863ea84d3.jpg",
            "pageorigfilename": "GR_4099-4_0064_o2.jpg",
            "transcription": "The redoubts are in a fair way but the men have been very slow in getting logs today - I will go for them tomorro but it will take me two days yet to finish them to my satisfaction. Show of gold said to have been found runs off page"
        },
        {
            "pageid": 104113,
            "pagefilename": "6a3b04146547fd321d041161c9a344f7.jpg",
            "pageorigfilename": "GR_4099-4_0065_o2.jpg",
            "transcription": "quiet & allowed himself to be handled & felt of by us all.  I felt sorry for the poor beast, especially as his fur was of no account at this season & persuaded them to turn it loose - we then drove it quietly to the water"
        },
        {
            "pageid": 104114,
            "pagefilename": "fa3f63c153cc296b139dc6a8e8b73f3e.jpg",
            "pageorigfilename": "GR_4099-4_0066_o2.jpg",
            "transcription": "creek - One of his number had come down to where he could see the camp & went back in a hurry.  They were travelling south - another trail of a party of 15 or 20 was found"
        },
        {
            "pageid": 104115,
            "pagefilename": "a01c7215026bebd52a46ad170284e70b.jpg",
            "pageorigfilename": "GR_4099-4_0067_o2.jpg",
            "transcription": "of game and one of his hunters told me that he had never seen so many deer in one day in his life - Six or seven bear were also seen but none killed today - Fred is delighted as"
        },
        {
            "pageid": 104116,
            "pagefilename": "46442e1be4ae19893c09b0bda686c415.jpg",
            "pageorigfilename": "GR_4099-4_0068_o2.jpg",
            "transcription": "Camp Jenney 11 - June 6, 1875 Sunday\nSlept rather late - after breakfast I went up to the redoubt & got the walls unclear started. It is slow work however the logs being hard to get at. They grow well up on"
        },
        {
            "pageid": 104117,
            "pagefilename": "0718600d5722930a3658d9d7b9bcc419.jpg",
            "pageorigfilename": "GR_4099-4_0069_o2.jpg",
            "transcription": "both redoubts in the two days - Quiet lovely day - several deer killed - In fact we are over overloaded with meat. Read & took a nap in afternoon - Joe Merivale the guide returned about 3 1/2 pm"
        },
        {
            "pageid": 104118,
            "pagefilename": "9d83f4a5e7d9183c84786f2816c85ace.jpg",
            "pageorigfilename": "GR_4099-4_0070_o2.jpg",
            "transcription": "is too small for the subdivision which would be required to send all their parties in to Fort Laramie. The weather has been unusually cold & disagreeable"
        },
        {
            "pageid": 104119,
            "pagefilename": "6f50cfd7f46d5341f7b3e44bfe8e0036.jpg",
            "pageorigfilename": "GR_4099-4_0071_o2.jpg",
            "transcription": "& we talked over the route of our scout. I am to go out with him tomrro on a flyer to see how the land lays & whether we can get through the Hills into the"
        },
        {
            "pageid": 104120,
            "pagefilename": "23c329e774f22421353cbd49ef581481.jpg",
            "pageorigfilename": "GR_4099-4_0072_o2.jpg",
            "transcription": "Camp Jenney\nLong 104 ° - 19.' 30\"\nLat 43 ° -50'-12\"\nCamp 11 - \n1st Permanent"
        }
    ]
}