{
    "id": "1329",
    "cataloglink": "https://i-share-nby.primo.exlibrisgroup.com/permalink/01CARLI_NBY/i5mcb2/alma991230498805867",
    "pages": [
        {
            "pageid": 110737,
            "pagefilename": "b76b9e550fff9cc7973d55bcdb50b2f2.jpg",
            "pageorigfilename": "Ayer_MS_1193-2_000195r_o2.jpg",
            "transcription": "de America. Todos los Californios barbaros y civilizados se las comen avados, y aseguran sen de buena sabor. \n\n  Conejos, y Liebres, son mas pequeños que los do otras partes de America. Aubndan en los barrancos, y quebradas, y algunas veses se meten hasta las misma poblaciones. \n  Ratones silvestres son de extraordinario tamaño. Cuentan los Indios civilzados de las misiones de Santiago, y San José que antiguamente los comian de ollandolos, y asandolos al fuego; y que aun hoy son parte del sustento de otras naciones barbaros. \n   Es mui cierto que hay una especie de serpientes cazadoras que con el anhelito atraen las infelices mariposas, y paxarillos hasta su boca, y se las engullen. Acaso en ests circunstancias se pudiera filosofar de este modo: el vas caliente rareface el ayre en linea recta: en esto no hay duda. Ocupada esta linea de ayre mas sutil, las otras particulas aereas violentados aspirando por su elastic umpulso a recuperar su primer lugar arrebatan consigo a las avecillas hasta las fauces de la astuta Serpiente.\n\n\n\n\nfrom America. All barbaric and civilized Californians eat them avidly, and they assure us of their good taste.\n\n  Rabbits, and Hares, are smaller than those in other parts of America. They go up in the ravines, and gullies, and sometimes they enter the towns themselves.\n  Wild rats are of extraordinary size. The civilized Indians of the missions of Santiago and San José recount that formerly they ate them by ollandolos?, and by roasting them on the fire; and that even today they are part of the sustenance of other barbarous nations.\n   It is very true that there is a species of hunting snakes that with the desire attract the unhappy butterflies, and small birds to their mouth, and gobble them up. Perhaps in these circumstances one could philosophize in this way: the hot vao? rarifies the air in a straight line: in this there is no doubt. Once this subtler air line is occupied, the other airborne particles that are violated, aspiring by their elastic impulse to regain their first place, snatch the birds with them to the jaws of the clever Snake."
        },
        {
            "pageid": 110738,
            "pagefilename": "94b7b69144e5238b3b9ec8900d70f53a.jpg",
            "pageorigfilename": "Ayer_MS_1193-2_000196r_o2.jpg",
            "transcription": ""
        },
        {
            "pageid": 110739,
            "pagefilename": "d407bf01f93b619153f3260740ee45bf.jpg",
            "pageorigfilename": "Ayer_MS_1193-2_000196_o2.jpg",
            "transcription": ""
        },
        {
            "pageid": 110740,
            "pagefilename": "4bd849cfe28b22575313764187fd98fa.jpg",
            "pageorigfilename": "Ayer_MS_1193-2_000197r_o2.jpg",
            "transcription": ""
        },
        {
            "pageid": 110741,
            "pagefilename": "8aa95843541b1d257b8d85d7b907ca57.jpg",
            "pageorigfilename": "Ayer_MS_1193-2_000197_o2.jpg",
            "transcription": ""
        },
        {
            "pageid": 110742,
            "pagefilename": "f139c3a81893d334d8e4d484b9667ea0.jpg",
            "pageorigfilename": "Ayer_MS_1193-2_000198r_o2.jpg",
            "transcription": ""
        },
        {
            "pageid": 110743,
            "pagefilename": "c1c420bedea0c6be9faa6bd82ad081a1.jpg",
            "pageorigfilename": "Ayer_MS_1193-2_000198_o2.jpg",
            "transcription": ""
        },
        {
            "pageid": 110744,
            "pagefilename": "055456c79f96333208ef4f7bc0e308ca.jpg",
            "pageorigfilename": "Ayer_MS_1193-2_000199r_o2.jpg",
            "transcription": ""
        },
        {
            "pageid": 110745,
            "pagefilename": "1f960df9b63e369333cda1e394795b22.jpg",
            "pageorigfilename": "Ayer_MS_1193-2_000199_o2.jpg",
            "transcription": ""
        },
        {
            "pageid": 110746,
            "pagefilename": "51caeb727377c67984eeeaf7dc4b4160.jpg",
            "pageorigfilename": "Ayer_MS_1193-2_000200r_o2.jpg",
            "transcription": ""
        },
        {
            "pageid": 110747,
            "pagefilename": "311926b14ca35d09106d1be2a97f48af.jpg",
            "pageorigfilename": "Ayer_MS_1193-2_000200_o2.jpg",
            "transcription": ""
        },
        {
            "pageid": 110748,
            "pagefilename": "34768b31f36b61958af5ddf456e60266.jpg",
            "pageorigfilename": "Ayer_MS_1193-2_000201r_o2.jpg",
            "transcription": ""
        },
        {
            "pageid": 110749,
            "pagefilename": "0b750c4b530ea49390f58d5d0e85fcdd.jpg",
            "pageorigfilename": "Ayer_MS_1193-2_000201_o2.jpg",
            "transcription": ""
        },
        {
            "pageid": 110750,
            "pagefilename": "8d4ea78d35aa5ab9360f12324b8c017f.jpg",
            "pageorigfilename": "Ayer_MS_1193-2_000202r_o2.jpg",
            "transcription": ""
        },
        {
            "pageid": 110751,
            "pagefilename": "2a6b6e8134e60453f3b32fe2e6acd5d5.jpg",
            "pageorigfilename": "Ayer_MS_1193-2_000202_o2.jpg",
            "transcription": ""
        },
        {
            "pageid": 110752,
            "pagefilename": "70d49d692efcbc64efd9ce2d80c33d01.jpg",
            "pageorigfilename": "Ayer_MS_1193-2_000203r_o2.jpg",
            "transcription": ""
        },
        {
            "pageid": 110753,
            "pagefilename": "166014e0d7886d6dec4c6337f8970ade.jpg",
            "pageorigfilename": "Ayer_MS_1193-2_000203_o2.jpg",
            "transcription": ""
        },
        {
            "pageid": 110754,
            "pagefilename": "ccacc8d68f6ba50d61c631007f31d9c2.jpg",
            "pageorigfilename": "Ayer_MS_1193-2_000204r_o2.jpg",
            "transcription": ""
        },
        {
            "pageid": 110755,
            "pagefilename": "54ffbec24c7de925d914bc9e98e6621e.jpg",
            "pageorigfilename": "Ayer_MS_1193-2_000204_o2.jpg",
            "transcription": ""
        },
        {
            "pageid": 110756,
            "pagefilename": "0241afbaa1eee28dbdc62a10d8b3ef02.jpg",
            "pageorigfilename": "Ayer_MS_1193-2_000205r_o2.jpg",
            "transcription": ""
        },
        {
            "pageid": 110757,
            "pagefilename": "5b4e00cff046a9aa6ea5a90bc46811ae.jpg",
            "pageorigfilename": "Ayer_MS_1193-2_000205_o2.jpg",
            "transcription": ""
        },
        {
            "pageid": 110758,
            "pagefilename": "927b9e843e304171d6a7c86a516a8ba4.jpg",
            "pageorigfilename": "Ayer_MS_1193-2_000206r_o2.jpg",
            "transcription": ""
        },
        {
            "pageid": 110759,
            "pagefilename": "664ea393b54b922639ba561833fe9b01.jpg",
            "pageorigfilename": "Ayer_MS_1193-2_000206_o2.jpg",
            "transcription": ""
        },
        {
            "pageid": 110760,
            "pagefilename": "980e687a39b41db1d9909fb88367b260.jpg",
            "pageorigfilename": "Ayer_MS_1193-2_000207r_o2.jpg",
            "transcription": ""
        },
        {
            "pageid": 110761,
            "pagefilename": "765d8a5389ecf4c18767b39f1db2aa78.jpg",
            "pageorigfilename": "Ayer_MS_1193-2_000207_o2.jpg",
            "transcription": ""
        },
        {
            "pageid": 110762,
            "pagefilename": "72e18dfb8e65a0953ac90d5d06b43ba4.jpg",
            "pageorigfilename": "Ayer_MS_1193-2_000208r_o2.jpg",
            "transcription": ""
        },
        {
            "pageid": 110763,
            "pagefilename": "2a0bd6fb7d17966db1b12a481e503e6e.jpg",
            "pageorigfilename": "Ayer_MS_1193-2_000208_o2.jpg",
            "transcription": ""
        },
        {
            "pageid": 110764,
            "pagefilename": "38bfb946021e25ecf2b1a07eccf48739.jpg",
            "pageorigfilename": "Ayer_MS_1193-2_000209r_o2.jpg",
            "transcription": ""
        },
        {
            "pageid": 110765,
            "pagefilename": "ed898c4941405d990adf8c45f16140b1.jpg",
            "pageorigfilename": "Ayer_MS_1193-2_000209_o2.jpg",
            "transcription": ""
        },
        {
            "pageid": 110766,
            "pagefilename": "91c8eb18a580c4bfcf181bccd9d2b798.jpg",
            "pageorigfilename": "Ayer_MS_1193-2_000210r_o2.jpg",
            "transcription": ""
        },
        {
            "pageid": 110767,
            "pagefilename": "3fe11e3b5a36b8d2d60387ea5a0a9ee0.jpg",
            "pageorigfilename": "Ayer_MS_1193-2_000210_o2.jpg",
            "transcription": ""
        },
        {
            "pageid": 110768,
            "pagefilename": "0bd7e2626e71c7bc09e9b26b4390ad2a.jpg",
            "pageorigfilename": "Ayer_MS_1193-2_000211r_o2.jpg",
            "transcription": ""
        },
        {
            "pageid": 110769,
            "pagefilename": "bed94319b5b305f141674f91416fd30c.jpg",
            "pageorigfilename": "Ayer_MS_1193-2_000211_o2.jpg",
            "transcription": ""
        },
        {
            "pageid": 110770,
            "pagefilename": "802e67434bf2437b11dfd72931d17842.jpg",
            "pageorigfilename": "Ayer_MS_1193-2_000212r_o2.jpg",
            "transcription": ""
        },
        {
            "pageid": 110771,
            "pagefilename": "a2039ce712757a4d9fe6f04349de7611.jpg",
            "pageorigfilename": "Ayer_MS_1193-2_000212_o2.jpg",
            "transcription": ""
        },
        {
            "pageid": 110772,
            "pagefilename": "88e3c07da90713193fc9b03e0ca221d4.jpg",
            "pageorigfilename": "Ayer_MS_1193-2_000213r_o2.jpg",
            "transcription": ""
        },
        {
            "pageid": 110773,
            "pagefilename": "d74af8439a7f0120ae2a86585fd352a4.jpg",
            "pageorigfilename": "Ayer_MS_1193-2_000213_o2.jpg",
            "transcription": ""
        },
        {
            "pageid": 110774,
            "pagefilename": "6a83b03a025b8ee7a01129421580deda.jpg",
            "pageorigfilename": "Ayer_MS_1193-2_000214r_o2.jpg",
            "transcription": ""
        },
        {
            "pageid": 110775,
            "pagefilename": "daf622634fcdd9046cb2bf40e46f804b.jpg",
            "pageorigfilename": "Ayer_MS_1193-2_000214_o2.jpg",
            "transcription": ""
        },
        {
            "pageid": 110776,
            "pagefilename": "becee2f260bee8b8c36372bbd4dc2c10.jpg",
            "pageorigfilename": "Ayer_MS_1193-2_000215r_o2.jpg",
            "transcription": ""
        },
        {
            "pageid": 110777,
            "pagefilename": "d1dc888234cd1c552a8924924e2fb3ec.jpg",
            "pageorigfilename": "Ayer_MS_1193-2_000215_o2.jpg",
            "transcription": ""
        },
        {
            "pageid": 110778,
            "pagefilename": "febe63b5e77ea408993b650745f7c8c6.jpg",
            "pageorigfilename": "Ayer_MS_1193-2_000216r_o2.jpg",
            "transcription": ""
        },
        {
            "pageid": 110779,
            "pagefilename": "51e3c99c7b7a7edb06f5215ef72c9108.jpg",
            "pageorigfilename": "Ayer_MS_1193-2_000216_o2.jpg",
            "transcription": ""
        },
        {
            "pageid": 110780,
            "pagefilename": "3a07d62f03fc4050ef29e0102c49f081.jpg",
            "pageorigfilename": "Ayer_MS_1193-2_000217r_o2.jpg",
            "transcription": ""
        },
        {
            "pageid": 110781,
            "pagefilename": "c12543bff646711f4f68fe70bcde91d9.jpg",
            "pageorigfilename": "Ayer_MS_1193-2_000217_o2.jpg",
            "transcription": ""
        },
        {
            "pageid": 110782,
            "pagefilename": "9b938d9e825aed58ad880108d11f3ed2.jpg",
            "pageorigfilename": "Ayer_MS_1193-2_000218r_o2.jpg",
            "transcription": ""
        },
        {
            "pageid": 110783,
            "pagefilename": "54f73469f232eb6500a1235b388fc54e.jpg",
            "pageorigfilename": "Ayer_MS_1193-2_000218_o2.jpg",
            "transcription": ""
        },
        {
            "pageid": 110784,
            "pagefilename": "6e61d6e46477c1400f9686810793f2bb.jpg",
            "pageorigfilename": "Ayer_MS_1193-2_000219r_o2.jpg",
            "transcription": ""
        },
        {
            "pageid": 110785,
            "pagefilename": "8f894c0ca977b2e8025e5556a68100a6.jpg",
            "pageorigfilename": "Ayer_MS_1193-2_000219_o2.jpg",
            "transcription": ""
        },
        {
            "pageid": 110786,
            "pagefilename": "5872da51b7f3060ee51de2225b007c0f.jpg",
            "pageorigfilename": "Ayer_MS_1193-2_000220r_o2.jpg",
            "transcription": ""
        },
        {
            "pageid": 110787,
            "pagefilename": "a5b65e553b048764d39c2258e47ca2bb.jpg",
            "pageorigfilename": "Ayer_MS_1193-2_000220_o2.jpg",
            "transcription": ""
        },
        {
            "pageid": 110788,
            "pagefilename": "6e50757dab4a9413ba7f34346a6a657e.jpg",
            "pageorigfilename": "Ayer_MS_1193-2_000221r_o2.jpg",
            "transcription": ""
        },
        {
            "pageid": 110789,
            "pagefilename": "69b4cf2510de8a97aab874b2c8afda82.jpg",
            "pageorigfilename": "Ayer_MS_1193-2_000221_o2.jpg",
            "transcription": ""
        },
        {
            "pageid": 110790,
            "pagefilename": "d80beada8fed55d216e9b5d157771146.jpg",
            "pageorigfilename": "Ayer_MS_1193-2_000222r_o2.jpg",
            "transcription": ""
        },
        {
            "pageid": 110791,
            "pagefilename": "f2585b0139160c4e6ba90f53e18fd2b4.jpg",
            "pageorigfilename": "Ayer_MS_1193-2_000222_o2.jpg",
            "transcription": ""
        },
        {
            "pageid": 110792,
            "pagefilename": "00e65b6a363d968cd5def19c151a4a08.jpg",
            "pageorigfilename": "Ayer_MS_1193-2_000223r_o2.jpg",
            "transcription": ""
        },
        {
            "pageid": 110793,
            "pagefilename": "1ec09d7a05c0fd4879606968d549a7a1.jpg",
            "pageorigfilename": "Ayer_MS_1193-2_000223_o2.jpg",
            "transcription": ""
        },
        {
            "pageid": 110794,
            "pagefilename": "4f8cf70a151ae60d107ead3f49c9bef2.jpg",
            "pageorigfilename": "Ayer_MS_1193-2_000224r_o2.jpg",
            "transcription": ""
        },
        {
            "pageid": 110795,
            "pagefilename": "11b0775b1e408873e414cc73ef43240d.jpg",
            "pageorigfilename": "Ayer_MS_1193-2_000224_o2.jpg",
            "transcription": ""
        },
        {
            "pageid": 110796,
            "pagefilename": "edfc428ce82ee032f40b809873a68f13.jpg",
            "pageorigfilename": "Ayer_MS_1193-2_000225r_o2.jpg",
            "transcription": ""
        },
        {
            "pageid": 110797,
            "pagefilename": "e1926712374e655bd6b5f2274370fd06.jpg",
            "pageorigfilename": "Ayer_MS_1193-2_000225_o2.jpg",
            "transcription": ""
        },
        {
            "pageid": 110798,
            "pagefilename": "eee9bb4b6a095cc2abb1a3627a7dc311.jpg",
            "pageorigfilename": "Ayer_MS_1193-2_000226r_o2.jpg",
            "transcription": ""
        },
        {
            "pageid": 110799,
            "pagefilename": "833c97dbb2425b2d746485217f8d0bb7.jpg",
            "pageorigfilename": "Ayer_MS_1193-2_000226_o2.jpg",
            "transcription": ""
        },
        {
            "pageid": 110800,
            "pagefilename": "8533f1b9e09b57ce6753a49fe93cf8b3.jpg",
            "pageorigfilename": "Ayer_MS_1193-2_000227r_o2.jpg",
            "transcription": ""
        },
        {
            "pageid": 110801,
            "pagefilename": "d34cfee57ed2786ccab2446acabd1836.jpg",
            "pageorigfilename": "Ayer_MS_1193-2_000227_o2.jpg",
            "transcription": ""
        },
        {
            "pageid": 110802,
            "pagefilename": "8be43978659ece25959abb6d2e778030.jpg",
            "pageorigfilename": "Ayer_MS_1193-2_000228r_o2.jpg",
            "transcription": ""
        },
        {
            "pageid": 110803,
            "pagefilename": "d5e3a17c795d2556600255f38ea4aa14.jpg",
            "pageorigfilename": "Ayer_MS_1193-2_000228_o2.jpg",
            "transcription": ""
        },
        {
            "pageid": 110804,
            "pagefilename": "3eda8ddf76ae5d85e0a920702ab42b09.jpg",
            "pageorigfilename": "Ayer_MS_1193-2_000229r_o2.jpg",
            "transcription": ""
        },
        {
            "pageid": 110805,
            "pagefilename": "cf7dca7e7886715aac6b2c60f1460615.jpg",
            "pageorigfilename": "Ayer_MS_1193-2_000229_o2.jpg",
            "transcription": ""
        },
        {
            "pageid": 110806,
            "pagefilename": "321786911c95b02d5054bb4316482f13.jpg",
            "pageorigfilename": "Ayer_MS_1193-2_000230r_o2.jpg",
            "transcription": ""
        },
        {
            "pageid": 110807,
            "pagefilename": "9568341ae4e60e7391753e65992ddfd8.jpg",
            "pageorigfilename": "Ayer_MS_1193-2_000230_o2.jpg",
            "transcription": ""
        },
        {
            "pageid": 110808,
            "pagefilename": "fc4029c3e0218218d41cc3d095ad2a19.jpg",
            "pageorigfilename": "Ayer_MS_1193-2_000231r_o2.jpg",
            "transcription": ""
        },
        {
            "pageid": 110809,
            "pagefilename": "9cee9b1316e57b430888711a80c2ee38.jpg",
            "pageorigfilename": "Ayer_MS_1193-2_000231_o2.jpg",
            "transcription": ""
        },
        {
            "pageid": 110810,
            "pagefilename": "f687f414d9b12513f8b476bf1755e3a7.jpg",
            "pageorigfilename": "Ayer_MS_1193-2_000232r_o2.jpg",
            "transcription": ""
        },
        {
            "pageid": 110811,
            "pagefilename": "59af62b5ebade6dc1da776412decfde7.jpg",
            "pageorigfilename": "Ayer_MS_1193-2_000232_o2.jpg",
            "transcription": ""
        },
        {
            "pageid": 110812,
            "pagefilename": "5d5fa5eec4964183d657f6a640629963.jpg",
            "pageorigfilename": "Ayer_MS_1193-2_000233r_o2.jpg",
            "transcription": ""
        },
        {
            "pageid": 110813,
            "pagefilename": "41e73f80d8aa59be318f9191e5270bd6.jpg",
            "pageorigfilename": "Ayer_MS_1193-2_000233_o2.jpg",
            "transcription": ""
        },
        {
            "pageid": 110814,
            "pagefilename": "873ba1d822b4129be095786a002b7f73.jpg",
            "pageorigfilename": "Ayer_MS_1193-2_000234r_o2.jpg",
            "transcription": ""
        },
        {
            "pageid": 110815,
            "pagefilename": "2dc9a8573e219fcd3ccbe3d35d495ca0.jpg",
            "pageorigfilename": "Ayer_MS_1193-2_000234_o2.jpg",
            "transcription": ""
        },
        {
            "pageid": 110816,
            "pagefilename": "2fe486a48b122bfa36e3c70fcca03b8f.jpg",
            "pageorigfilename": "Ayer_MS_1193-2_000235r_o2.jpg",
            "transcription": ""
        },
        {
            "pageid": 110817,
            "pagefilename": "dc7b9f718e834dcd463939a78db798bd.jpg",
            "pageorigfilename": "Ayer_MS_1193-2_000235_o2.jpg",
            "transcription": ""
        },
        {
            "pageid": 110818,
            "pagefilename": "5d71eb2007af7297e59dd445e2bec58c.jpg",
            "pageorigfilename": "Ayer_MS_1193-2_000236r_o2.jpg",
            "transcription": ""
        },
        {
            "pageid": 110819,
            "pagefilename": "7e17152fb92dea90b7d8cecc2241a108.jpg",
            "pageorigfilename": "Ayer_MS_1193-2_000236_o2.jpg",
            "transcription": ""
        },
        {
            "pageid": 110820,
            "pagefilename": "c7ffc5217af601f7f553a3db702c3f65.jpg",
            "pageorigfilename": "Ayer_MS_1193-2_000237r_o2.jpg",
            "transcription": ""
        },
        {
            "pageid": 110821,
            "pagefilename": "3608e269d04d4162b2616fea0d67c91e.jpg",
            "pageorigfilename": "Ayer_MS_1193-2_000237_o2.jpg",
            "transcription": ""
        },
        {
            "pageid": 110822,
            "pagefilename": "fbf8f2f9b7b0eb894a332f229844e120.jpg",
            "pageorigfilename": "Ayer_MS_1193-2_000238r_o2.jpg",
            "transcription": ""
        },
        {
            "pageid": 110823,
            "pagefilename": "5cd56808af0ff638ec7d6ed14100abf7.jpg",
            "pageorigfilename": "Ayer_MS_1193-2_000238_o2.jpg",
            "transcription": ""
        },
        {
            "pageid": 110824,
            "pagefilename": "6ed1a4524063f608a05fda64edf87edd.jpg",
            "pageorigfilename": "Ayer_MS_1193-2_000239r_o2.jpg",
            "transcription": ""
        },
        {
            "pageid": 110825,
            "pagefilename": "94808d7876ca49dd7722ed38cac3314b.jpg",
            "pageorigfilename": "Ayer_MS_1193-2_000239_o2.jpg",
            "transcription": ""
        },
        {
            "pageid": 110826,
            "pagefilename": "fb86639e06d49330303ffeb493492cab.jpg",
            "pageorigfilename": "Ayer_MS_1193-2_000240r_o2.jpg",
            "transcription": ""
        },
        {
            "pageid": 110827,
            "pagefilename": "fbf6e9eac187b4fcd004e0dc6de52d37.jpg",
            "pageorigfilename": "Ayer_MS_1193-2_000240_o2.jpg",
            "transcription": ""
        },
        {
            "pageid": 110828,
            "pagefilename": "6e53d927da5886a29b7aef20b658019b.jpg",
            "pageorigfilename": "Ayer_MS_1193-2_000241r_o2.jpg",
            "transcription": ""
        },
        {
            "pageid": 110829,
            "pagefilename": "b528ded8d98b8175282bf3d1e85e6afd.jpg",
            "pageorigfilename": "Ayer_MS_1193-2_000241_o2.jpg",
            "transcription": ""
        },
        {
            "pageid": 110830,
            "pagefilename": "23ec8cb3c5aa5f97b5a096269db2597a.jpg",
            "pageorigfilename": "Ayer_MS_1193-2_000242r_o2.jpg",
            "transcription": ""
        },
        {
            "pageid": 110831,
            "pagefilename": "d6e1f6c4443712eb2927ec391fd81436.jpg",
            "pageorigfilename": "Ayer_MS_1193-2_000242_o2.jpg",
            "transcription": ""
        },
        {
            "pageid": 110832,
            "pagefilename": "648619360c40c494c59a4d6ad6baec64.jpg",
            "pageorigfilename": "Ayer_MS_1193-2_000243r_o2.jpg",
            "transcription": ""
        },
        {
            "pageid": 110833,
            "pagefilename": "a7e21a097ad2f4499546b273fe603c1b.jpg",
            "pageorigfilename": "Ayer_MS_1193-2_000243_o2.jpg",
            "transcription": ""
        },
        {
            "pageid": 110834,
            "pagefilename": "ea727a2c2fd554a490d4867d11f769df.jpg",
            "pageorigfilename": "Ayer_MS_1193-2_000244r_o2.jpg",
            "transcription": ""
        },
        {
            "pageid": 110835,
            "pagefilename": "e9fd4a9e0d1f7d0d3ae4c5c678720396.jpg",
            "pageorigfilename": "Ayer_MS_1193-2_000244_o2.jpg",
            "transcription": ""
        },
        {
            "pageid": 110836,
            "pagefilename": "bf11cbdd7f5a34433d0bbd64fc99c08e.jpg",
            "pageorigfilename": "Ayer_MS_1193-2_000245r_o2.jpg",
            "transcription": ""
        },
        {
            "pageid": 110837,
            "pagefilename": "4fd4b98c855042f791a42629b3481c79.jpg",
            "pageorigfilename": "Ayer_MS_1193-2_000245_o2.jpg",
            "transcription": ""
        },
        {
            "pageid": 110838,
            "pagefilename": "5973b9a1b40bbe4aa720ddd8e9b11315.jpg",
            "pageorigfilename": "Ayer_MS_1193-2_000246r_o2.jpg",
            "transcription": ""
        },
        {
            "pageid": 110839,
            "pagefilename": "a576c6acb27a7807a7a9f088dc2fa84a.jpg",
            "pageorigfilename": "Ayer_MS_1193-2_000246_o2.jpg",
            "transcription": ""
        },
        {
            "pageid": 110840,
            "pagefilename": "ac91afd29d8f2174bd6d3bdc0e21664c.jpg",
            "pageorigfilename": "Ayer_MS_1193-2_000247r_o2.jpg",
            "transcription": ""
        },
        {
            "pageid": 110841,
            "pagefilename": "36717f9bdaede1cb5930aa2bc547d91d.jpg",
            "pageorigfilename": "Ayer_MS_1193-2_000247_o2.jpg",
            "transcription": ""
        },
        {
            "pageid": 110842,
            "pagefilename": "8eec5796826e801289644f3a31c0b968.jpg",
            "pageorigfilename": "Ayer_MS_1193-2_000248r_o2.jpg",
            "transcription": ""
        },
        {
            "pageid": 110843,
            "pagefilename": "fc4e92c9390702fe1bf5a5879be2eee8.jpg",
            "pageorigfilename": "Ayer_MS_1193-2_000248_o2.jpg",
            "transcription": ""
        },
        {
            "pageid": 110844,
            "pagefilename": "f0e649d64d49ea800ae722b3421f9382.jpg",
            "pageorigfilename": "Ayer_MS_1193-2_000249r_o2.jpg",
            "transcription": ""
        },
        {
            "pageid": 110845,
            "pagefilename": "9eaa4643510097d162ce9bc3456e9725.jpg",
            "pageorigfilename": "Ayer_MS_1193-2_000249_o2.jpg",
            "transcription": ""
        },
        {
            "pageid": 110846,
            "pagefilename": "a3766d19df6748416fd6c99f03b24202.jpg",
            "pageorigfilename": "Ayer_MS_1193-2_000250r_o2.jpg",
            "transcription": ""
        },
        {
            "pageid": 110847,
            "pagefilename": "4f428b01a3f45b1db9ad2accf6d567d9.jpg",
            "pageorigfilename": "Ayer_MS_1193-2_000250_o2.jpg",
            "transcription": ""
        },
        {
            "pageid": 110848,
            "pagefilename": "6129e3d0f705ca8a43d3fae4f0bbd875.jpg",
            "pageorigfilename": "Ayer_MS_1193-2_000251r_o2.jpg",
            "transcription": ""
        },
        {
            "pageid": 110849,
            "pagefilename": "058dced6d4e8e8f4ceb1be04708c5a0c.jpg",
            "pageorigfilename": "Ayer_MS_1193-2_000251_o2.jpg",
            "transcription": ""
        },
        {
            "pageid": 110850,
            "pagefilename": "2f6417225969c46c09e224c5bc45ce44.jpg",
            "pageorigfilename": "Ayer_MS_1193-2_000252r_o2.jpg",
            "transcription": ""
        },
        {
            "pageid": 110851,
            "pagefilename": "ee8e7971ced3707faae9014170759479.jpg",
            "pageorigfilename": "Ayer_MS_1193-2_000252_o2.jpg",
            "transcription": ""
        },
        {
            "pageid": 110852,
            "pagefilename": "b37f24ec0faa3dcd825f48593a28a71b.jpg",
            "pageorigfilename": "Ayer_MS_1193-2_000253r_o2.jpg",
            "transcription": ""
        },
        {
            "pageid": 110853,
            "pagefilename": "bf6fcce01a2a5e890b0e98adfee2b488.jpg",
            "pageorigfilename": "Ayer_MS_1193-2_000253_o2.jpg",
            "transcription": ""
        },
        {
            "pageid": 110854,
            "pagefilename": "acbef4bf45be38b9c021f8551eab3a31.jpg",
            "pageorigfilename": "Ayer_MS_1193-2_000254r_o2.jpg",
            "transcription": ""
        },
        {
            "pageid": 110855,
            "pagefilename": "cf2905a6bbfca61cd4815dcfafdc5a7d.jpg",
            "pageorigfilename": "Ayer_MS_1193-2_000254_o2.jpg",
            "transcription": ""
        },
        {
            "pageid": 110856,
            "pagefilename": "4d9a07250458ffe4f42c6597e48010cc.jpg",
            "pageorigfilename": "Ayer_MS_1193-2_000255r_o2.jpg",
            "transcription": ""
        },
        {
            "pageid": 110857,
            "pagefilename": "4938f88d31e7b7d5c2e4810efce90a08.jpg",
            "pageorigfilename": "Ayer_MS_1193-2_000255_o2.jpg",
            "transcription": ""
        },
        {
            "pageid": 110858,
            "pagefilename": "9ab043a10f80e6e19b895ddfd1402840.jpg",
            "pageorigfilename": "Ayer_MS_1193-2_000256r_o2.jpg",
            "transcription": ""
        },
        {
            "pageid": 110859,
            "pagefilename": "7b72f5f4fbebd2ea84db19fd9dabc63c.jpg",
            "pageorigfilename": "Ayer_MS_1193-2_000256_o2.jpg",
            "transcription": ""
        },
        {
            "pageid": 110860,
            "pagefilename": "75778d4c0b019fcb1f423c91f4bea986.jpg",
            "pageorigfilename": "Ayer_MS_1193-2_000257r_o2.jpg",
            "transcription": ""
        },
        {
            "pageid": 110861,
            "pagefilename": "e343b77d79eddc892f3b42bbe2208248.jpg",
            "pageorigfilename": "Ayer_MS_1193-2_000257_o2.jpg",
            "transcription": ""
        },
        {
            "pageid": 110862,
            "pagefilename": "f22d427ffcdf7c81c6a82df711bd4475.jpg",
            "pageorigfilename": "Ayer_MS_1193-2_000258r_o2.jpg",
            "transcription": ""
        },
        {
            "pageid": 110863,
            "pagefilename": "3a62bdfd65f1d2c3647e7f52f1572549.jpg",
            "pageorigfilename": "Ayer_MS_1193-2_000258_o2.jpg",
            "transcription": ""
        },
        {
            "pageid": 110864,
            "pagefilename": "c9d281a980eab0af206cfd93c6ed21d1.jpg",
            "pageorigfilename": "Ayer_MS_1193-2_000259r_o2.jpg",
            "transcription": ""
        },
        {
            "pageid": 110865,
            "pagefilename": "bd1d8a284fd0ac83ceb0a5cebb37153f.jpg",
            "pageorigfilename": "Ayer_MS_1193-2_000259_o2.jpg",
            "transcription": ""
        },
        {
            "pageid": 110866,
            "pagefilename": "2bdfd4d43e9e237b83af9ef4b4f431be.jpg",
            "pageorigfilename": "Ayer_MS_1193-2_000260r_o2.jpg",
            "transcription": ""
        },
        {
            "pageid": 110867,
            "pagefilename": "60e4402894b4ff96f96294456d77f610.jpg",
            "pageorigfilename": "Ayer_MS_1193-2_000260_o2.jpg",
            "transcription": ""
        },
        {
            "pageid": 110868,
            "pagefilename": "395a7479d5a867a3f439ea388d0606a7.jpg",
            "pageorigfilename": "Ayer_MS_1193-2_000261r_o2.jpg",
            "transcription": ""
        },
        {
            "pageid": 110869,
            "pagefilename": "0adb289524cd6edabcad7ad014a87708.jpg",
            "pageorigfilename": "Ayer_MS_1193-2_000261_o2.jpg",
            "transcription": ""
        },
        {
            "pageid": 110870,
            "pagefilename": "c09370e221c2f150a4901880202a1c74.jpg",
            "pageorigfilename": "Ayer_MS_1193-2_000262r_o2.jpg",
            "transcription": ""
        },
        {
            "pageid": 110871,
            "pagefilename": "c200e38939f200360d01229d5c13ccc4.jpg",
            "pageorigfilename": "Ayer_MS_1193-2_000262_o2.jpg",
            "transcription": ""
        },
        {
            "pageid": 110872,
            "pagefilename": "f9b87d22a4f73bc45034c70bbb2ac9dc.jpg",
            "pageorigfilename": "Ayer_MS_1193-2_000263r_o2.jpg",
            "transcription": ""
        },
        {
            "pageid": 110873,
            "pagefilename": "688f14ea25f1feeff7e82bd4d49149ff.jpg",
            "pageorigfilename": "Ayer_MS_1193-2_000263_o2.jpg",
            "transcription": ""
        },
        {
            "pageid": 110874,
            "pagefilename": "7cf1a06c7cfa102bb46eb1c8f4b30bec.jpg",
            "pageorigfilename": "Ayer_MS_1193-2_000264r_o2.jpg",
            "transcription": ""
        },
        {
            "pageid": 110875,
            "pagefilename": "c8cc997ba15d113a4de96008922dbf1a.jpg",
            "pageorigfilename": "Ayer_MS_1193-2_000264_o2.jpg",
            "transcription": ""
        },
        {
            "pageid": 110876,
            "pagefilename": "d2de1724191c35b1d3fd2cfe3916765c.jpg",
            "pageorigfilename": "Ayer_MS_1193-2_000265r_o2.jpg",
            "transcription": ""
        },
        {
            "pageid": 110877,
            "pagefilename": "0c27f3aa4f277a25a9e9ab92a81a884a.jpg",
            "pageorigfilename": "Ayer_MS_1193-2_000265_o2.jpg",
            "transcription": ""
        },
        {
            "pageid": 110878,
            "pagefilename": "7bf765765716c7692d9e10b37eb59f75.jpg",
            "pageorigfilename": "Ayer_MS_1193-2_000266r_o2.jpg",
            "transcription": ""
        },
        {
            "pageid": 110879,
            "pagefilename": "1dbb8bd8b985d4fc29150c029529a4cd.jpg",
            "pageorigfilename": "Ayer_MS_1193-2_000266_o2.jpg",
            "transcription": ""
        },
        {
            "pageid": 110880,
            "pagefilename": "13f1c572916f39ac6b09a70f66be5e98.jpg",
            "pageorigfilename": "Ayer_MS_1193-2_000267r_o2.jpg",
            "transcription": ""
        },
        {
            "pageid": 110881,
            "pagefilename": "4e3f96884fcbb92848834e734cebc4b0.jpg",
            "pageorigfilename": "Ayer_MS_1193-2_000267_o2.jpg",
            "transcription": ""
        },
        {
            "pageid": 110882,
            "pagefilename": "8dab4581785410064c51c9d779b9e20b.jpg",
            "pageorigfilename": "Ayer_MS_1193-2_000268r_o2.jpg",
            "transcription": ""
        },
        {
            "pageid": 110883,
            "pagefilename": "94832750171ae25003b69534facab970.jpg",
            "pageorigfilename": "Ayer_MS_1193-2_000268_o2.jpg",
            "transcription": ""
        },
        {
            "pageid": 110884,
            "pagefilename": "6fb95f017c147671b9eebb9d0f476927.jpg",
            "pageorigfilename": "Ayer_MS_1193-2_000269r_o2.jpg",
            "transcription": ""
        },
        {
            "pageid": 110885,
            "pagefilename": "63cf23a9c154e29f4df7ebb23afc84ff.jpg",
            "pageorigfilename": "Ayer_MS_1193-2_000269_o2.jpg",
            "transcription": ""
        },
        {
            "pageid": 110886,
            "pagefilename": "02832bdbb8b078ba4897740aee72e591.jpg",
            "pageorigfilename": "Ayer_MS_1193-2_000270r_o2.jpg",
            "transcription": ""
        },
        {
            "pageid": 110887,
            "pagefilename": "e949499351dfa651447dc861e8a1a801.jpg",
            "pageorigfilename": "Ayer_MS_1193-2_000270_o2.jpg",
            "transcription": ""
        },
        {
            "pageid": 110888,
            "pagefilename": "d9d496e200635467e6f5489dbf2e21dc.jpg",
            "pageorigfilename": "Ayer_MS_1193-2_000271r_o2.jpg",
            "transcription": ""
        },
        {
            "pageid": 110889,
            "pagefilename": "31605298b1379e3bda32e42dbc71c3f4.jpg",
            "pageorigfilename": "Ayer_MS_1193-2_000271_o2.jpg",
            "transcription": ""
        },
        {
            "pageid": 110890,
            "pagefilename": "577f0a956217e96cde307c33fdbf02b1.jpg",
            "pageorigfilename": "Ayer_MS_1193-2_000272r_o2.jpg",
            "transcription": ""
        },
        {
            "pageid": 110891,
            "pagefilename": "b0f290c652b8f3360df2bfd7af41831a.jpg",
            "pageorigfilename": "Ayer_MS_1193-2_000272_o2.jpg",
            "transcription": ""
        },
        {
            "pageid": 110892,
            "pagefilename": "2dc74e5708fbf834a698636ff8459fe7.jpg",
            "pageorigfilename": "Ayer_MS_1193-2_000273r_o2.jpg",
            "transcription": ""
        },
        {
            "pageid": 110893,
            "pagefilename": "dad20a218ecdf7fa43c5cbd059bc4c0b.jpg",
            "pageorigfilename": "Ayer_MS_1193-2_000273_o2.jpg",
            "transcription": ""
        },
        {
            "pageid": 110894,
            "pagefilename": "47a5ffe769c7c1bb33436e52e6e28dfb.jpg",
            "pageorigfilename": "Ayer_MS_1193-2_000274r_o2.jpg",
            "transcription": ""
        },
        {
            "pageid": 110895,
            "pagefilename": "cf6ee35df889b316c2986e1a541277e3.jpg",
            "pageorigfilename": "Ayer_MS_1193-2_000274_o2.jpg",
            "transcription": ""
        },
        {
            "pageid": 110896,
            "pagefilename": "f976ea574de1d234c5cfb9474aa3ef23.jpg",
            "pageorigfilename": "Ayer_MS_1193-2_000275r_o2.jpg",
            "transcription": ""
        },
        {
            "pageid": 110897,
            "pagefilename": "89f9a05cf019fc6568e948ec9c78f3df.jpg",
            "pageorigfilename": "Ayer_MS_1193-2_000275_o2.jpg",
            "transcription": ""
        },
        {
            "pageid": 110898,
            "pagefilename": "9877ad56db32836e1560623bf931e577.jpg",
            "pageorigfilename": "Ayer_MS_1193-2_000276r_o2.jpg",
            "transcription": ""
        },
        {
            "pageid": 110899,
            "pagefilename": "e4b31538151bcef160878d46fe09d794.jpg",
            "pageorigfilename": "Ayer_MS_1193-2_000276_o2.jpg",
            "transcription": ""
        },
        {
            "pageid": 110900,
            "pagefilename": "de6449058b3c70c27903580bfba1a19a.jpg",
            "pageorigfilename": "Ayer_MS_1193-2_000277r_o2.jpg",
            "transcription": ""
        },
        {
            "pageid": 110901,
            "pagefilename": "2df9e92d865cd811315ae2645d14bd00.jpg",
            "pageorigfilename": "Ayer_MS_1193-2_000277_o2.jpg",
            "transcription": ""
        },
        {
            "pageid": 110902,
            "pagefilename": "c25a46ad0b11a80efc68ce40804945f2.jpg",
            "pageorigfilename": "Ayer_MS_1193-2_000278r_o2.jpg",
            "transcription": ""
        },
        {
            "pageid": 110903,
            "pagefilename": "8ce813a036922083a54e408c2efb6467.jpg",
            "pageorigfilename": "Ayer_MS_1193-2_000278_o2.jpg",
            "transcription": ""
        },
        {
            "pageid": 110904,
            "pagefilename": "89116907cde6793f96e18740a2abc2a8.jpg",
            "pageorigfilename": "Ayer_MS_1193-2_000279r_o2.jpg",
            "transcription": ""
        },
        {
            "pageid": 110905,
            "pagefilename": "7a36e8954440038e156d52ff1e128aa7.jpg",
            "pageorigfilename": "Ayer_MS_1193-2_000279_o2.jpg",
            "transcription": ""
        },
        {
            "pageid": 110906,
            "pagefilename": "78bfa1fafb1d45ea8cbb56808e7cb45a.jpg",
            "pageorigfilename": "Ayer_MS_1193-2_000280r_o2.jpg",
            "transcription": ""
        },
        {
            "pageid": 110907,
            "pagefilename": "8aa240a1028a97b3f2016073b93adb2e.jpg",
            "pageorigfilename": "Ayer_MS_1193-2_000280_o2.jpg",
            "transcription": ""
        },
        {
            "pageid": 110908,
            "pagefilename": "14043cb346ef0f875fb099a90e29792c.jpg",
            "pageorigfilename": "Ayer_MS_1193-2_000281r_o2.jpg",
            "transcription": ""
        },
        {
            "pageid": 110909,
            "pagefilename": "bda09527431fa0a0184b3f0a95d84e1e.jpg",
            "pageorigfilename": "Ayer_MS_1193-2_000281_o2.jpg",
            "transcription": ""
        },
        {
            "pageid": 110910,
            "pagefilename": "4a79a2d1b6c1dbe99e9f7fb2b7360b6f.jpg",
            "pageorigfilename": "Ayer_MS_1193-2_000282r_o2.jpg",
            "transcription": ""
        },
        {
            "pageid": 110911,
            "pagefilename": "825bedced10990e158156dedc5dd76c7.jpg",
            "pageorigfilename": "Ayer_MS_1193-2_000282_o2.jpg",
            "transcription": ""
        },
        {
            "pageid": 110912,
            "pagefilename": "3fb10ea62ac4fffcdd4eeb4c97eeeb1b.jpg",
            "pageorigfilename": "Ayer_MS_1193-2_000283r_o2.jpg",
            "transcription": ""
        },
        {
            "pageid": 110913,
            "pagefilename": "7903c50abca146f9afdf66e6395b2e58.jpg",
            "pageorigfilename": "Ayer_MS_1193-2_000283_o2.jpg",
            "transcription": ""
        },
        {
            "pageid": 110914,
            "pagefilename": "926ba093f6327a61384e6763366371b5.jpg",
            "pageorigfilename": "Ayer_MS_1193-2_000284r_o2.jpg",
            "transcription": ""
        },
        {
            "pageid": 110915,
            "pagefilename": "67c468dd64dcd7aee15ebe4f2b8909a0.jpg",
            "pageorigfilename": "Ayer_MS_1193-2_000284_o2.jpg",
            "transcription": ""
        },
        {
            "pageid": 110916,
            "pagefilename": "6aea17559d386ad3894e2ae1563107df.jpg",
            "pageorigfilename": "Ayer_MS_1193-2_000285r_o2.jpg",
            "transcription": ""
        },
        {
            "pageid": 110917,
            "pagefilename": "80d3806cd252d3369f5173bdd96e36f7.jpg",
            "pageorigfilename": "Ayer_MS_1193-2_000285_o2.jpg",
            "transcription": ""
        },
        {
            "pageid": 110918,
            "pagefilename": "387ff9132c3c48cad71ad264bde086b4.jpg",
            "pageorigfilename": "Ayer_MS_1193-2_000286r_o2.jpg",
            "transcription": ""
        },
        {
            "pageid": 110919,
            "pagefilename": "b9e8e9eabb715d92af61d92d29379575.jpg",
            "pageorigfilename": "Ayer_MS_1193-2_000286_o2.jpg",
            "transcription": ""
        },
        {
            "pageid": 110920,
            "pagefilename": "16b0ca43e3e1dd0fcaa3e2ac0543d541.jpg",
            "pageorigfilename": "Ayer_MS_1193-2_000287r_o2.jpg",
            "transcription": ""
        },
        {
            "pageid": 110921,
            "pagefilename": "0eff915ef5cca349dfc51ffde5071fd7.jpg",
            "pageorigfilename": "Ayer_MS_1193-2_000287_o2.jpg",
            "transcription": ""
        },
        {
            "pageid": 110922,
            "pagefilename": "9734f91e2825e2f8c1c6cc5259b22c94.jpg",
            "pageorigfilename": "Ayer_MS_1193-2_000288r_o2.jpg",
            "transcription": ""
        },
        {
            "pageid": 110923,
            "pagefilename": "f7c872a3829585a614af00fed1178ab0.jpg",
            "pageorigfilename": "Ayer_MS_1193-2_000288_o2.jpg",
            "transcription": ""
        },
        {
            "pageid": 110924,
            "pagefilename": "9ec209b02e65cb20119ac160eb2de80b.jpg",
            "pageorigfilename": "Ayer_MS_1193-2_000289r_o2.jpg",
            "transcription": ""
        },
        {
            "pageid": 110925,
            "pagefilename": "6af6171c06199f76defd39c0bfe9c41a.jpg",
            "pageorigfilename": "Ayer_MS_1193-2_000289_o2.jpg",
            "transcription": ""
        },
        {
            "pageid": 110926,
            "pagefilename": "e331273280e105b9578b9d792b2caaf0.jpg",
            "pageorigfilename": "Ayer_MS_1193-2_000290r_o2.jpg",
            "transcription": ""
        },
        {
            "pageid": 110927,
            "pagefilename": "9b569e9ab78e886f4884088be80bf3bd.jpg",
            "pageorigfilename": "Ayer_MS_1193-2_000290_o2.jpg",
            "transcription": ""
        },
        {
            "pageid": 110928,
            "pagefilename": "d800653ad6c37869b335dc3bc09a9104.jpg",
            "pageorigfilename": "Ayer_MS_1193-2_000291r_o2.jpg",
            "transcription": ""
        },
        {
            "pageid": 110929,
            "pagefilename": "edac5f87a6a19ab281b97632f6ea6ecf.jpg",
            "pageorigfilename": "Ayer_MS_1193-2_000291_o2.jpg",
            "transcription": ""
        },
        {
            "pageid": 110930,
            "pagefilename": "06c8d89f33050d94a2f5d383b4f817e0.jpg",
            "pageorigfilename": "Ayer_MS_1193-2_000292r_o2.jpg",
            "transcription": ""
        },
        {
            "pageid": 110931,
            "pagefilename": "da81b1434a0eb45e35afab2bf459a4e2.jpg",
            "pageorigfilename": "Ayer_MS_1193-2_000292_o2.jpg",
            "transcription": ""
        },
        {
            "pageid": 110932,
            "pagefilename": "f8f828faf88def987b4e05b0739093f6.jpg",
            "pageorigfilename": "Ayer_MS_1193-2_000293r_o2.jpg",
            "transcription": ""
        },
        {
            "pageid": 110933,
            "pagefilename": "b029195e6210084a602c6318c00f4e28.jpg",
            "pageorigfilename": "Ayer_MS_1193-2_000293_o2.jpg",
            "transcription": ""
        },
        {
            "pageid": 110934,
            "pagefilename": "752ad5045d408405ff752f1f13f43f96.jpg",
            "pageorigfilename": "Ayer_MS_1193-2_000294r_o2.jpg",
            "transcription": ""
        },
        {
            "pageid": 110935,
            "pagefilename": "bac498b6dedd4e980ea2e64964618802.jpg",
            "pageorigfilename": "Ayer_MS_1193-2_000294_o2.jpg",
            "transcription": ""
        },
        {
            "pageid": 110936,
            "pagefilename": "bff5d49f2e56719233b9b9f76934df1e.jpg",
            "pageorigfilename": "Ayer_MS_1193-2_000295r_o2.jpg",
            "transcription": ""
        },
        {
            "pageid": 110937,
            "pagefilename": "b9796d75ead44fd410f3e5e53045b161.jpg",
            "pageorigfilename": "Ayer_MS_1193-2_000295_o2.jpg",
            "transcription": ""
        },
        {
            "pageid": 110938,
            "pagefilename": "facac02e92aecb7b5f4894d9684bd7f9.jpg",
            "pageorigfilename": "Ayer_MS_1193-2_000296r_o2.jpg",
            "transcription": ""
        },
        {
            "pageid": 110939,
            "pagefilename": "a2ba4343abf97f19ac66ff82c022350a.jpg",
            "pageorigfilename": "Ayer_MS_1193-2_000296_o2.jpg",
            "transcription": ""
        },
        {
            "pageid": 110940,
            "pagefilename": "545a7b971f57066061325fd78b089bcc.jpg",
            "pageorigfilename": "Ayer_MS_1193-2_000297r_o2.jpg",
            "transcription": ""
        },
        {
            "pageid": 110941,
            "pagefilename": "edfd85a8ffe27b6013fc23c9370a36fc.jpg",
            "pageorigfilename": "Ayer_MS_1193-2_000297_o2.jpg",
            "transcription": ""
        },
        {
            "pageid": 110942,
            "pagefilename": "107dc5c14c24dd1d579bc352b50cc911.jpg",
            "pageorigfilename": "Ayer_MS_1193-2_000298r_o2.jpg",
            "transcription": ""
        },
        {
            "pageid": 110943,
            "pagefilename": "bc03252b39853863045623c1389f53a9.jpg",
            "pageorigfilename": "Ayer_MS_1193-2_000298_o2.jpg",
            "transcription": ""
        },
        {
            "pageid": 110944,
            "pagefilename": "33238b3f5ef028d4931eef35eb6a86e1.jpg",
            "pageorigfilename": "Ayer_MS_1193-2_000299r_o2.jpg",
            "transcription": ""
        },
        {
            "pageid": 110945,
            "pagefilename": "a377ad30678b727dd89cccebd55feedb.jpg",
            "pageorigfilename": "Ayer_MS_1193-2_000299_o2.jpg",
            "transcription": ""
        },
        {
            "pageid": 110946,
            "pagefilename": "a91ab851d4a64a5e5cbe46f4598b895e.jpg",
            "pageorigfilename": "Ayer_MS_1193-2_000300r_o2.jpg",
            "transcription": ""
        },
        {
            "pageid": 110947,
            "pagefilename": "54f46212e0d7096c3225dd7552e50d5e.jpg",
            "pageorigfilename": "Ayer_MS_1193-2_000300_o2.jpg",
            "transcription": ""
        },
        {
            "pageid": 110948,
            "pagefilename": "67496c095ad2e5f47aa4c8c31b1a7351.jpg",
            "pageorigfilename": "Ayer_MS_1193-2_000301r_o2.jpg",
            "transcription": ""
        },
        {
            "pageid": 110949,
            "pagefilename": "e87a94c9679fa360240ae6d48c47892d.jpg",
            "pageorigfilename": "Ayer_MS_1193-2_000301_o2.jpg",
            "transcription": ""
        },
        {
            "pageid": 110950,
            "pagefilename": "b23aaf1e176c78bea67e496e889ce9ed.jpg",
            "pageorigfilename": "Ayer_MS_1193-2_000302r_o2.jpg",
            "transcription": ""
        },
        {
            "pageid": 110951,
            "pagefilename": "408f72ed99a0e619761b44c82115007b.jpg",
            "pageorigfilename": "Ayer_MS_1193-2_000302_o2.jpg",
            "transcription": ""
        },
        {
            "pageid": 110952,
            "pagefilename": "897b0c4e5486aaa6ac11f95bad7584c1.jpg",
            "pageorigfilename": "Ayer_MS_1193-2_000303r_o2.jpg",
            "transcription": ""
        },
        {
            "pageid": 110953,
            "pagefilename": "8adea2ea8b37f9acba837804f75ba373.jpg",
            "pageorigfilename": "Ayer_MS_1193-2_000303_o2.jpg",
            "transcription": ""
        },
        {
            "pageid": 110954,
            "pagefilename": "76b1056b2ba0d8ca9b4c868e40292d9d.jpg",
            "pageorigfilename": "Ayer_MS_1193-2_000304r_o2.jpg",
            "transcription": ""
        },
        {
            "pageid": 110955,
            "pagefilename": "fada9ab4cdb3b1c9579d626f4396a902.jpg",
            "pageorigfilename": "Ayer_MS_1193-2_000304_o2.jpg",
            "transcription": ""
        },
        {
            "pageid": 110956,
            "pagefilename": "d4791dfd650fc7b298240fbf18b9c75b.jpg",
            "pageorigfilename": "Ayer_MS_1193-2_000305r_o2.jpg",
            "transcription": ""
        },
        {
            "pageid": 110957,
            "pagefilename": "b17a6950d66a8d516fa53434d945f64e.jpg",
            "pageorigfilename": "Ayer_MS_1193-2_000305_o2.jpg",
            "transcription": ""
        },
        {
            "pageid": 110958,
            "pagefilename": "f90a91eaadb4d2d5c7ad4dce30914c57.jpg",
            "pageorigfilename": "Ayer_MS_1193-2_000306r_o2.jpg",
            "transcription": ""
        },
        {
            "pageid": 110959,
            "pagefilename": "715af0ce4440cdb7cf883687cce4fa4b.jpg",
            "pageorigfilename": "Ayer_MS_1193-2_000306_o2.jpg",
            "transcription": ""
        },
        {
            "pageid": 110960,
            "pagefilename": "6a1a10155cd7e26250d352d9704b19fe.jpg",
            "pageorigfilename": "Ayer_MS_1193-2_000307r_o2.jpg",
            "transcription": ""
        },
        {
            "pageid": 110961,
            "pagefilename": "f78943b8486e132a865a327924feeaa6.jpg",
            "pageorigfilename": "Ayer_MS_1193-2_000307_o2.jpg",
            "transcription": ""
        },
        {
            "pageid": 110962,
            "pagefilename": "071740d43c0304462e86af83b9b42880.jpg",
            "pageorigfilename": "Ayer_MS_1193-2_000308r_o2.jpg",
            "transcription": ""
        },
        {
            "pageid": 110963,
            "pagefilename": "246cb519070195838b5d48fd4ba72d98.jpg",
            "pageorigfilename": "Ayer_MS_1193-2_000308_o2.jpg",
            "transcription": ""
        },
        {
            "pageid": 110964,
            "pagefilename": "74b05a8a87a666dc1ae4160034b3e4a3.jpg",
            "pageorigfilename": "Ayer_MS_1193-2_000309r_o2.jpg",
            "transcription": ""
        },
        {
            "pageid": 110965,
            "pagefilename": "7f3c1b54003180e4a44ad907a9a3459d.jpg",
            "pageorigfilename": "Ayer_MS_1193-2_000309_o2.jpg",
            "transcription": ""
        },
        {
            "pageid": 110966,
            "pagefilename": "df50280bdd551420b301f8e5858d3567.jpg",
            "pageorigfilename": "Ayer_MS_1193-2_000310r_o2.jpg",
            "transcription": ""
        },
        {
            "pageid": 110967,
            "pagefilename": "ff611bbbea5e9ddfeaa9a80117ce4324.jpg",
            "pageorigfilename": "Ayer_MS_1193-2_000310_o2.jpg",
            "transcription": ""
        },
        {
            "pageid": 110968,
            "pagefilename": "70f9f961712abd460db35b23c3b773d2.jpg",
            "pageorigfilename": "Ayer_MS_1193-2_000311r_o2.jpg",
            "transcription": ""
        },
        {
            "pageid": 110969,
            "pagefilename": "cabf9e33e41d049aeebc2091edcae412.jpg",
            "pageorigfilename": "Ayer_MS_1193-2_000311_o2.jpg",
            "transcription": ""
        },
        {
            "pageid": 110970,
            "pagefilename": "8ec5c04912a86cddfbbbb188c0fc2c27.jpg",
            "pageorigfilename": "Ayer_MS_1193-2_000312r_o2.jpg",
            "transcription": ""
        },
        {
            "pageid": 110971,
            "pagefilename": "dd1d6e6cb582424a8e8f20cfbf2bcaf9.jpg",
            "pageorigfilename": "Ayer_MS_1193-2_000312_o2.jpg",
            "transcription": ""
        },
        {
            "pageid": 110972,
            "pagefilename": "b12d10b9fb2ce567c732c36fb4d9872d.jpg",
            "pageorigfilename": "Ayer_MS_1193-2_000313r_o2.jpg",
            "transcription": ""
        },
        {
            "pageid": 110973,
            "pagefilename": "046e2edd57119f1411258981ddb54c9c.jpg",
            "pageorigfilename": "Ayer_MS_1193-2_000313_o2.jpg",
            "transcription": ""
        },
        {
            "pageid": 110974,
            "pagefilename": "9783de9bd0990b039540fb56a69597a5.jpg",
            "pageorigfilename": "Ayer_MS_1193-2_000314r_o2.jpg",
            "transcription": ""
        },
        {
            "pageid": 110975,
            "pagefilename": "3cc2758ad6025ea345dfab34c9377247.jpg",
            "pageorigfilename": "Ayer_MS_1193-2_000314_o2.jpg",
            "transcription": ""
        },
        {
            "pageid": 110976,
            "pagefilename": "ad9879b2b231e8d1a55e38b5d7089ee8.jpg",
            "pageorigfilename": "Ayer_MS_1193-2_000315r_o2.jpg",
            "transcription": ""
        },
        {
            "pageid": 110977,
            "pagefilename": "3eba81bf261c87157f6e51caa73dc5cd.jpg",
            "pageorigfilename": "Ayer_MS_1193-2_000315_o2.jpg",
            "transcription": ""
        },
        {
            "pageid": 110978,
            "pagefilename": "5610a94673f167e0c4e35f98bed2cfcb.jpg",
            "pageorigfilename": "Ayer_MS_1193-2_000316r_o2.jpg",
            "transcription": ""
        },
        {
            "pageid": 110979,
            "pagefilename": "aacfa31ffeba691081ec765b744ab224.jpg",
            "pageorigfilename": "Ayer_MS_1193-2_000316_o2.jpg",
            "transcription": ""
        },
        {
            "pageid": 110980,
            "pagefilename": "881ed09051aa735c90026b77926ac0ad.jpg",
            "pageorigfilename": "Ayer_MS_1193-2_000317r_o2.jpg",
            "transcription": ""
        },
        {
            "pageid": 110981,
            "pagefilename": "8914a9cdfa08500bafb4f7cc51658d4b.jpg",
            "pageorigfilename": "Ayer_MS_1193-2_000317_o2.jpg",
            "transcription": ""
        },
        {
            "pageid": 110982,
            "pagefilename": "1bd9f7aac1d4e3d79abc7164485b4983.jpg",
            "pageorigfilename": "Ayer_MS_1193-2_000318r_o2.jpg",
            "transcription": ""
        },
        {
            "pageid": 110983,
            "pagefilename": "8b1e65e7919d41e179d0a189d5ec23c4.jpg",
            "pageorigfilename": "Ayer_MS_1193-2_000318_o2.jpg",
            "transcription": ""
        },
        {
            "pageid": 110984,
            "pagefilename": "96de6b41507a0c5aa3b9dab1004b4170.jpg",
            "pageorigfilename": "Ayer_MS_1193-2_000319r_o2.jpg",
            "transcription": ""
        },
        {
            "pageid": 110985,
            "pagefilename": "bafd5456d40d520211ce17229dba43d7.jpg",
            "pageorigfilename": "Ayer_MS_1193-2_000319_o2.jpg",
            "transcription": ""
        },
        {
            "pageid": 110986,
            "pagefilename": "bf384bf159bb06f44938efde2bbf13e0.jpg",
            "pageorigfilename": "Ayer_MS_1193-2_000320r_o2.jpg",
            "transcription": ""
        },
        {
            "pageid": 110987,
            "pagefilename": "92a94808a0687f2168710fb6f2e5c935.jpg",
            "pageorigfilename": "Ayer_MS_1193-2_000320_o2.jpg",
            "transcription": ""
        },
        {
            "pageid": 110988,
            "pagefilename": "1015d28404051db1c35d9ac896526723.jpg",
            "pageorigfilename": "Ayer_MS_1193-2_000321r_o2.jpg",
            "transcription": ""
        },
        {
            "pageid": 110989,
            "pagefilename": "d03b01b51176375ee9c044b034e70f04.jpg",
            "pageorigfilename": "Ayer_MS_1193-2_000321_o2.jpg",
            "transcription": ""
        },
        {
            "pageid": 110990,
            "pagefilename": "89264c828dcd38b2fc27658877394358.jpg",
            "pageorigfilename": "Ayer_MS_1193-2_000322r_o2.jpg",
            "transcription": ""
        },
        {
            "pageid": 110991,
            "pagefilename": "992821fb98e20a4decdb2c249644fc3f.jpg",
            "pageorigfilename": "Ayer_MS_1193-2_000322_o2.jpg",
            "transcription": ""
        },
        {
            "pageid": 110992,
            "pagefilename": "274f5c0916a5dc1c9bec6b42d49a3f82.jpg",
            "pageorigfilename": "Ayer_MS_1193-2_000323r_o2.jpg",
            "transcription": ""
        },
        {
            "pageid": 110993,
            "pagefilename": "2e31a636acc24d36a23950ad2ebed3c1.jpg",
            "pageorigfilename": "Ayer_MS_1193-2_000323_o2.jpg",
            "transcription": ""
        },
        {
            "pageid": 110994,
            "pagefilename": "43ccb74a762cccc3c39f0f803642a578.jpg",
            "pageorigfilename": "Ayer_MS_1193-2_000324r_o2.jpg",
            "transcription": ""
        },
        {
            "pageid": 110995,
            "pagefilename": "e8d26a3d046f5ddc13300ef63954ebc8.jpg",
            "pageorigfilename": "Ayer_MS_1193-2_000324_o2.jpg",
            "transcription": ""
        },
        {
            "pageid": 110996,
            "pagefilename": "f2d2cf14d2357fc66b65e9400add4922.jpg",
            "pageorigfilename": "Ayer_MS_1193-2_000325r_o2.jpg",
            "transcription": ""
        },
        {
            "pageid": 110997,
            "pagefilename": "27657fd503d922ceeed8bf2eee6b2e20.jpg",
            "pageorigfilename": "Ayer_MS_1193-2_000325_o2.jpg",
            "transcription": ""
        },
        {
            "pageid": 110998,
            "pagefilename": "67a76146e16b90cfa959fd231253aa22.jpg",
            "pageorigfilename": "Ayer_MS_1193-2_000326r_o2.jpg",
            "transcription": ""
        },
        {
            "pageid": 110999,
            "pagefilename": "6d49ac8768053f94640e3f289188dbc2.jpg",
            "pageorigfilename": "Ayer_MS_1193-2_000326_o2.jpg",
            "transcription": ""
        },
        {
            "pageid": 111000,
            "pagefilename": "1bad1bb8be6d6e6499c9b3f0e2c7f2a5.jpg",
            "pageorigfilename": "Ayer_MS_1193-2_000327r_o2.jpg",
            "transcription": ""
        },
        {
            "pageid": 111001,
            "pagefilename": "98be4ac277a777ce547d5bf141b294c7.jpg",
            "pageorigfilename": "Ayer_MS_1193-2_000327_o2.jpg",
            "transcription": ""
        },
        {
            "pageid": 111002,
            "pagefilename": "e46bc7a2f36da7f7a204635d6f5e6d31.jpg",
            "pageorigfilename": "Ayer_MS_1193-2_000328r_o2.jpg",
            "transcription": ""
        },
        {
            "pageid": 111003,
            "pagefilename": "bcc86758b8db8c849fa145f028e4ef8b.jpg",
            "pageorigfilename": "Ayer_MS_1193-2_000328_o2.jpg",
            "transcription": ""
        },
        {
            "pageid": 111004,
            "pagefilename": "874b1557efdd8f289fe5a03ecbff1b4e.jpg",
            "pageorigfilename": "Ayer_MS_1193-2_000329r_o2.jpg",
            "transcription": ""
        },
        {
            "pageid": 111005,
            "pagefilename": "038e5873450796312469247f5944297e.jpg",
            "pageorigfilename": "Ayer_MS_1193-2_000329_o2.jpg",
            "transcription": ""
        },
        {
            "pageid": 111006,
            "pagefilename": "c85b45a7b3df752b2eba7a85e9eaa999.jpg",
            "pageorigfilename": "Ayer_MS_1193-2_000330r_o2.jpg",
            "transcription": ""
        },
        {
            "pageid": 111007,
            "pagefilename": "afc58f712ef94952b4462b8e304747ab.jpg",
            "pageorigfilename": "Ayer_MS_1193-2_000330_o2.jpg",
            "transcription": ""
        },
        {
            "pageid": 111008,
            "pagefilename": "55212fc8f42669ebe96eb0086842d1dc.jpg",
            "pageorigfilename": "Ayer_MS_1193-2_000331r_o2.jpg",
            "transcription": ""
        },
        {
            "pageid": 111009,
            "pagefilename": "49c2b49f84306d45d2fceb4c5cfa630b.jpg",
            "pageorigfilename": "Ayer_MS_1193-2_000331_o2.jpg",
            "transcription": ""
        },
        {
            "pageid": 111010,
            "pagefilename": "d3128be559471954598433be2009d6e7.jpg",
            "pageorigfilename": "Ayer_MS_1193-2_000332r_o2.jpg",
            "transcription": ""
        },
        {
            "pageid": 111011,
            "pagefilename": "348ddb8fb630704b9cb002ef421c9d39.jpg",
            "pageorigfilename": "Ayer_MS_1193-2_000332_o2.jpg",
            "transcription": ""
        },
        {
            "pageid": 111012,
            "pagefilename": "e7588ba89dcfbef3d26ae923e302f746.jpg",
            "pageorigfilename": "Ayer_MS_1193-2_000333r_o2.jpg",
            "transcription": ""
        },
        {
            "pageid": 111013,
            "pagefilename": "9f41fc463c90a0f0161afb626e73b9ce.jpg",
            "pageorigfilename": "Ayer_MS_1193-2_000333_o2.jpg",
            "transcription": ""
        },
        {
            "pageid": 111014,
            "pagefilename": "ba9dc4250266ecb2d97fe981ce7b7bb1.jpg",
            "pageorigfilename": "Ayer_MS_1193-2_000334r_o2.jpg",
            "transcription": ""
        },
        {
            "pageid": 111015,
            "pagefilename": "dae0d4b04a05ee9010728d3e4567138a.jpg",
            "pageorigfilename": "Ayer_MS_1193-2_000334_o2.jpg",
            "transcription": ""
        },
        {
            "pageid": 111016,
            "pagefilename": "934ef88f49ca5fab906858dfa89a08a8.jpg",
            "pageorigfilename": "Ayer_MS_1193-2_000335r_o2.jpg",
            "transcription": ""
        },
        {
            "pageid": 111017,
            "pagefilename": "0ac68b10da6f696c00cd8c23681c27fa.jpg",
            "pageorigfilename": "Ayer_MS_1193-2_000335_o2.jpg",
            "transcription": ""
        },
        {
            "pageid": 111018,
            "pagefilename": "c3165b07acf962de05f2d7eac3da1ce2.jpg",
            "pageorigfilename": "Ayer_MS_1193-2_000336r_o2.jpg",
            "transcription": ""
        },
        {
            "pageid": 111019,
            "pagefilename": "ae1551ff0e2c41f52db66ac54e2d66ab.jpg",
            "pageorigfilename": "Ayer_MS_1193-2_000336_o2.jpg",
            "transcription": ""
        },
        {
            "pageid": 111020,
            "pagefilename": "6e66bf6e468eae39511f8c0c46d10895.jpg",
            "pageorigfilename": "Ayer_MS_1193-2_000337r_o2.jpg",
            "transcription": ""
        },
        {
            "pageid": 111021,
            "pagefilename": "8ff8431c34b63b8c1adeffedd5e373d0.jpg",
            "pageorigfilename": "Ayer_MS_1193-2_000337_o2.jpg",
            "transcription": ""
        },
        {
            "pageid": 111022,
            "pagefilename": "94ff48211a7574a95e5fa110cf8a6f31.jpg",
            "pageorigfilename": "Ayer_MS_1193-2_000338r_o2.jpg",
            "transcription": ""
        },
        {
            "pageid": 111023,
            "pagefilename": "8285d380a6cfda6d332a4a5ea0039dbe.jpg",
            "pageorigfilename": "Ayer_MS_1193-2_000338_o2.jpg",
            "transcription": ""
        },
        {
            "pageid": 111024,
            "pagefilename": "50349164772cf96ba62ca6cf4ff9fa92.jpg",
            "pageorigfilename": "Ayer_MS_1193-2_000339r_o2.jpg",
            "transcription": ""
        },
        {
            "pageid": 111025,
            "pagefilename": "c9a0a72d6dfca82317c302a152c8bec9.jpg",
            "pageorigfilename": "Ayer_MS_1193-2_000339_o2.jpg",
            "transcription": ""
        },
        {
            "pageid": 111026,
            "pagefilename": "122b2d65803178d81ce0bcd16056bcd9.jpg",
            "pageorigfilename": "Ayer_MS_1193-2_000340r_o2.jpg",
            "transcription": ""
        },
        {
            "pageid": 111027,
            "pagefilename": "d4f003c261e48237b7c611ea36002601.jpg",
            "pageorigfilename": "Ayer_MS_1193-2_000340_o2.jpg",
            "transcription": ""
        },
        {
            "pageid": 111028,
            "pagefilename": "d162e3c13cd58721aa309218d74fc2a0.jpg",
            "pageorigfilename": "Ayer_MS_1193-2_000341r_o2.jpg",
            "transcription": ""
        },
        {
            "pageid": 111029,
            "pagefilename": "97eb81392835d0851c99f0786a273647.jpg",
            "pageorigfilename": "Ayer_MS_1193-2_000341_o2.jpg",
            "transcription": ""
        },
        {
            "pageid": 111030,
            "pagefilename": "72c97601a71fd321cc1db037d53c2345.jpg",
            "pageorigfilename": "Ayer_MS_1193-2_000342r_o2.jpg",
            "transcription": ""
        },
        {
            "pageid": 111031,
            "pagefilename": "b859e071145e856926cbefeac213c6a3.jpg",
            "pageorigfilename": "Ayer_MS_1193-2_000342_o2.jpg",
            "transcription": ""
        },
        {
            "pageid": 111032,
            "pagefilename": "a04da9e1adb670c365b28e2b212c23ae.jpg",
            "pageorigfilename": "Ayer_MS_1193-2_000343r_o2.jpg",
            "transcription": ""
        },
        {
            "pageid": 111033,
            "pagefilename": "fd596a8d8faa0b788d79a081c2a6ad56.jpg",
            "pageorigfilename": "Ayer_MS_1193-2_000343_o2.jpg",
            "transcription": ""
        },
        {
            "pageid": 111034,
            "pagefilename": "d8cc25a735a74a8f6ebf2ab4918dadcc.jpg",
            "pageorigfilename": "Ayer_MS_1193-2_000344r_o2.jpg",
            "transcription": ""
        },
        {
            "pageid": 111035,
            "pagefilename": "1a30562bddd531832732e4c18dd37fe7.jpg",
            "pageorigfilename": "Ayer_MS_1193-2_000344_o2.jpg",
            "transcription": ""
        },
        {
            "pageid": 111036,
            "pagefilename": "5d7eb33575fe5e8b18c8152f04f8babd.jpg",
            "pageorigfilename": "Ayer_MS_1193-2_000345r_o2.jpg",
            "transcription": ""
        },
        {
            "pageid": 111037,
            "pagefilename": "794fec65bf987d8ddc315d4d83a97c2b.jpg",
            "pageorigfilename": "Ayer_MS_1193-2_000345_o2.jpg",
            "transcription": ""
        },
        {
            "pageid": 111038,
            "pagefilename": "1930fc945dc356c1569013a56ace2aa4.jpg",
            "pageorigfilename": "Ayer_MS_1193-2_000346r_o2.jpg",
            "transcription": ""
        },
        {
            "pageid": 111039,
            "pagefilename": "aef442d2d53ae9d59a536fdc99330b09.jpg",
            "pageorigfilename": "Ayer_MS_1193-2_000346_o2.jpg",
            "transcription": ""
        },
        {
            "pageid": 111040,
            "pagefilename": "d804eec43910d348d824a9953cea189a.jpg",
            "pageorigfilename": "Ayer_MS_1193-2_000347r_o2.jpg",
            "transcription": ""
        },
        {
            "pageid": 111041,
            "pagefilename": "c19485b4ac46ed140d1445fd9743fa12.jpg",
            "pageorigfilename": "Ayer_MS_1193-2_000347_o2.jpg",
            "transcription": ""
        },
        {
            "pageid": 111042,
            "pagefilename": "9ccb5d052b759ca8208ad2405124a8e6.jpg",
            "pageorigfilename": "Ayer_MS_1193-2_000348r_o2.jpg",
            "transcription": ""
        },
        {
            "pageid": 111043,
            "pagefilename": "d416a51fb2377464b69b70ae980081f0.jpg",
            "pageorigfilename": "Ayer_MS_1193-2_000348_o2.jpg",
            "transcription": ""
        },
        {
            "pageid": 111044,
            "pagefilename": "d0289ee57848f6c7d5482d89eb27613c.jpg",
            "pageorigfilename": "Ayer_MS_1193-2_000349r_o2.jpg",
            "transcription": ""
        },
        {
            "pageid": 111045,
            "pagefilename": "97e785b75794bc21e77aa874f95052b5.jpg",
            "pageorigfilename": "Ayer_MS_1193-2_000349_o2.jpg",
            "transcription": ""
        },
        {
            "pageid": 111046,
            "pagefilename": "5719989eff0aa461541d862f61115200.jpg",
            "pageorigfilename": "Ayer_MS_1193-2_000350r_o2.jpg",
            "transcription": ""
        },
        {
            "pageid": 111047,
            "pagefilename": "18391cc353539ba304de5fb5394b32a3.jpg",
            "pageorigfilename": "Ayer_MS_1193-2_000350_o2.jpg",
            "transcription": ""
        },
        {
            "pageid": 111048,
            "pagefilename": "87049d647e7e2445182f82beba7c7e82.jpg",
            "pageorigfilename": "Ayer_MS_1193-2_000351r_o2.jpg",
            "transcription": ""
        },
        {
            "pageid": 111049,
            "pagefilename": "d98ca1bab7853b4a9bed22fa477885f6.jpg",
            "pageorigfilename": "Ayer_MS_1193-2_000351_o2.jpg",
            "transcription": ""
        },
        {
            "pageid": 111050,
            "pagefilename": "44ae67d8aaf33b4c4c7fee3ab0066ad5.jpg",
            "pageorigfilename": "Ayer_MS_1193-2_000352_o2.jpg",
            "transcription": ""
        },
        {
            "pageid": 111051,
            "pagefilename": "d70c8b1eac145a4e14199d3c5580362d.jpg",
            "pageorigfilename": "Ayer_MS_1193-2_000353r_o2.jpg",
            "transcription": ""
        },
        {
            "pageid": 111052,
            "pagefilename": "1c3bb52158957e0feaafa7936097afb4.jpg",
            "pageorigfilename": "Ayer_MS_1193-2_000353_o2.jpg",
            "transcription": ""
        },
        {
            "pageid": 111053,
            "pagefilename": "4d5c589fcaf8a43a5872c703914664e3.jpg",
            "pageorigfilename": "Ayer_MS_1193-2_000354r_o2.jpg",
            "transcription": ""
        },
        {
            "pageid": 111054,
            "pagefilename": "9c19fd933a8289c35313de29dce32d85.jpg",
            "pageorigfilename": "Ayer_MS_1193-2_000354_o2.jpg",
            "transcription": ""
        },
        {
            "pageid": 111055,
            "pagefilename": "4eeaa72355b32016a67de5aecbe89912.jpg",
            "pageorigfilename": "Ayer_MS_1193-2_000355r_o2.jpg",
            "transcription": ""
        },
        {
            "pageid": 111056,
            "pagefilename": "76562d27118f9acb8dbecd4916eb2cc2.jpg",
            "pageorigfilename": "Ayer_MS_1193-2_000355_o2.jpg",
            "transcription": ""
        },
        {
            "pageid": 111057,
            "pagefilename": "6360063d1c0bd9fd4295633649d642c7.jpg",
            "pageorigfilename": "Ayer_MS_1193-2_000356r_o2.jpg",
            "transcription": ""
        },
        {
            "pageid": 111058,
            "pagefilename": "56dd3354452633234c2c5286f5d9afa5.jpg",
            "pageorigfilename": "Ayer_MS_1193-2_000356_o2.jpg",
            "transcription": ""
        },
        {
            "pageid": 111059,
            "pagefilename": "43b67d958ddc31127758eaffd0fdb03a.jpg",
            "pageorigfilename": "Ayer_MS_1193-2_000357r_o2.jpg",
            "transcription": ""
        },
        {
            "pageid": 111060,
            "pagefilename": "b64bedb5e9b037316e5ade190558f83a.jpg",
            "pageorigfilename": "Ayer_MS_1193-2_000357_o2.jpg",
            "transcription": ""
        },
        {
            "pageid": 111061,
            "pagefilename": "5502d84c8a793abf92b0367302cdb9c5.jpg",
            "pageorigfilename": "Ayer_MS_1193-2_000358r_o2.jpg",
            "transcription": ""
        },
        {
            "pageid": 111062,
            "pagefilename": "a51495f5dff770832efdd5b9c6b35a13.jpg",
            "pageorigfilename": "Ayer_MS_1193-2_000358_o2.jpg",
            "transcription": ""
        },
        {
            "pageid": 111063,
            "pagefilename": "204347f64e33a87a4114bd826319b0f1.jpg",
            "pageorigfilename": "Ayer_MS_1193-2_000359r_o2.jpg",
            "transcription": ""
        },
        {
            "pageid": 111064,
            "pagefilename": "c0cd3c913c28226d5750aa2af1f1737c.jpg",
            "pageorigfilename": "Ayer_MS_1193-2_000359_o2.jpg",
            "transcription": ""
        },
        {
            "pageid": 111065,
            "pagefilename": "ce0e3f90cff252a4457efbf2876a34ba.jpg",
            "pageorigfilename": "Ayer_MS_1193-2_000360r_o2.jpg",
            "transcription": ""
        },
        {
            "pageid": 111066,
            "pagefilename": "29e15f31607b7c70c0574ecd6cda1c43.jpg",
            "pageorigfilename": "Ayer_MS_1193-2_000360_o2.jpg",
            "transcription": ""
        },
        {
            "pageid": 111067,
            "pagefilename": "1a690bdc0e34915f8459169642f75428.jpg",
            "pageorigfilename": "Ayer_MS_1193-2_000361r_o2.jpg",
            "transcription": ""
        },
        {
            "pageid": 111068,
            "pagefilename": "8cf945e345ece823a74ac2c7c435839b.jpg",
            "pageorigfilename": "Ayer_MS_1193-2_000361_o2.jpg",
            "transcription": ""
        },
        {
            "pageid": 111069,
            "pagefilename": "47e616d07292a4ccabf26ffabdc0345d.jpg",
            "pageorigfilename": "Ayer_MS_1193-2_000362r_o2.jpg",
            "transcription": ""
        },
        {
            "pageid": 111070,
            "pagefilename": "2f6d3698cc3b900dbfa6b312eef0cc0f.jpg",
            "pageorigfilename": "Ayer_MS_1193-2_000362_o2.jpg",
            "transcription": ""
        },
        {
            "pageid": 111071,
            "pagefilename": "e1fddd6a93d32ecb959a79877f711574.jpg",
            "pageorigfilename": "Ayer_MS_1193-2_000363r_o2.jpg",
            "transcription": ""
        },
        {
            "pageid": 111072,
            "pagefilename": "cd8d32944b7c644dd3c3936e44c750e9.jpg",
            "pageorigfilename": "Ayer_MS_1193-2_000363_o2.jpg",
            "transcription": ""
        },
        {
            "pageid": 111073,
            "pagefilename": "d95b145b6d4f59deee93f9e8bdefdfda.jpg",
            "pageorigfilename": "Ayer_MS_1193-2_000364r_o2.jpg",
            "transcription": ""
        },
        {
            "pageid": 111074,
            "pagefilename": "939830c82db4b4eb38f3211fcf348328.jpg",
            "pageorigfilename": "Ayer_MS_1193-2_000364_o2.jpg",
            "transcription": ""
        },
        {
            "pageid": 111075,
            "pagefilename": "a052e4086d98cdbd3bfc96ca6e1596a6.jpg",
            "pageorigfilename": "Ayer_MS_1193-2_000365r_o2.jpg",
            "transcription": ""
        },
        {
            "pageid": 111076,
            "pagefilename": "ba2f83c921fd1b155339a3ab756808d6.jpg",
            "pageorigfilename": "Ayer_MS_1193-2_000365_o2.jpg",
            "transcription": ""
        },
        {
            "pageid": 111077,
            "pagefilename": "7f22d1aa9f59d8b95af86d2927485c6c.jpg",
            "pageorigfilename": "Ayer_MS_1193-2_000366r_o2.jpg",
            "transcription": ""
        },
        {
            "pageid": 111078,
            "pagefilename": "695408d38eda18c9fd1e7a4c93a968e1.jpg",
            "pageorigfilename": "Ayer_MS_1193-2_000366_o2.jpg",
            "transcription": ""
        },
        {
            "pageid": 111079,
            "pagefilename": "372f6b66b937e927eda70ae3dfb7c0af.jpg",
            "pageorigfilename": "Ayer_MS_1193-2_000367r_o2.jpg",
            "transcription": ""
        },
        {
            "pageid": 111080,
            "pagefilename": "d29e6082d099b02fb0fbcd6981880ed9.jpg",
            "pageorigfilename": "Ayer_MS_1193-2_000367_o2.jpg",
            "transcription": ""
        },
        {
            "pageid": 111081,
            "pagefilename": "e748de7180fe2b816dddd9b98efe42dc.jpg",
            "pageorigfilename": "Ayer_MS_1193-2_000368r_o2.jpg",
            "transcription": ""
        },
        {
            "pageid": 111082,
            "pagefilename": "e36b989820dda0f20188e2ef5331f937.jpg",
            "pageorigfilename": "Ayer_MS_1193-2_000368_o2.jpg",
            "transcription": ""
        },
        {
            "pageid": 111083,
            "pagefilename": "32679226d71fcf27a1f75b307353a68f.jpg",
            "pageorigfilename": "Ayer_MS_1193-2_000369r_o2.jpg",
            "transcription": ""
        },
        {
            "pageid": 111084,
            "pagefilename": "8d6f3265659d361301dc6763c096caef.jpg",
            "pageorigfilename": "Ayer_MS_1193-2_000369_o2.jpg",
            "transcription": ""
        },
        {
            "pageid": 111085,
            "pagefilename": "c39d3d951ac39a1d9ab0ee2cb512068f.jpg",
            "pageorigfilename": "Ayer_MS_1193-2_000370r_o2.jpg",
            "transcription": ""
        },
        {
            "pageid": 111086,
            "pagefilename": "7a880e0ed731b3072e1d596374177a0d.jpg",
            "pageorigfilename": "Ayer_MS_1193-2_000370_o2.jpg",
            "transcription": ""
        },
        {
            "pageid": 111087,
            "pagefilename": "87842ea62a888f21a698ae3e006dfb69.jpg",
            "pageorigfilename": "Ayer_MS_1193-2_000371r_o2.jpg",
            "transcription": ""
        },
        {
            "pageid": 111088,
            "pagefilename": "2b5806cb32cf2f5c2fda0e51ba8742eb.jpg",
            "pageorigfilename": "Ayer_MS_1193-2_000371_o2.jpg",
            "transcription": ""
        },
        {
            "pageid": 111089,
            "pagefilename": "5563231302f56e8b5622cc9da124f9e8.jpg",
            "pageorigfilename": "Ayer_MS_1193-2_000372r_o2.jpg",
            "transcription": ""
        },
        {
            "pageid": 111090,
            "pagefilename": "68458a0a2b7ef5c2af4fe14cfb5e9a5f.jpg",
            "pageorigfilename": "Ayer_MS_1193-2_000372_o2.jpg",
            "transcription": ""
        },
        {
            "pageid": 111091,
            "pagefilename": "c2eacbdb0809dedb4e4b76070c777b37.jpg",
            "pageorigfilename": "Ayer_MS_1193-2_000373r_o2.jpg",
            "transcription": ""
        },
        {
            "pageid": 111092,
            "pagefilename": "69279dca21ef278d41d34d34d71d8a6b.jpg",
            "pageorigfilename": "Ayer_MS_1193-2_000373_o2.jpg",
            "transcription": ""
        },
        {
            "pageid": 111093,
            "pagefilename": "a6edb7e5e48013c163eedaa6b9479e98.jpg",
            "pageorigfilename": "Ayer_MS_1193-2_000374r_o2.jpg",
            "transcription": ""
        },
        {
            "pageid": 111094,
            "pagefilename": "ed9fa59c012cf1875adb2a1abe6c551f.jpg",
            "pageorigfilename": "Ayer_MS_1193-2_000374_o2.jpg",
            "transcription": ""
        },
        {
            "pageid": 111095,
            "pagefilename": "ace28cc052cf10a1a34aac1954d4cf76.jpg",
            "pageorigfilename": "Ayer_MS_1193-2_000375r_o2.jpg",
            "transcription": ""
        },
        {
            "pageid": 111096,
            "pagefilename": "d0104ab00cb6cfc640314ff3e3c9b185.jpg",
            "pageorigfilename": "Ayer_MS_1193-2_000375_o2.jpg",
            "transcription": ""
        },
        {
            "pageid": 111097,
            "pagefilename": "827cecab223cf4eec8a7fb349ce4004d.jpg",
            "pageorigfilename": "Ayer_MS_1193-2_000376r_o2.jpg",
            "transcription": ""
        },
        {
            "pageid": 111098,
            "pagefilename": "ba458972780483b3c16ee2075b740731.jpg",
            "pageorigfilename": "Ayer_MS_1193-2_000376_o2.jpg",
            "transcription": ""
        },
        {
            "pageid": 111099,
            "pagefilename": "e1504cda277281cd5647c0ea88139921.jpg",
            "pageorigfilename": "Ayer_MS_1193-2_000377r_o2.jpg",
            "transcription": ""
        },
        {
            "pageid": 111100,
            "pagefilename": "3196607c986530a14e63c2d30b802817.jpg",
            "pageorigfilename": "Ayer_MS_1193-2_000377_o2.jpg",
            "transcription": ""
        },
        {
            "pageid": 111101,
            "pagefilename": "324a18639ebb8b4e91a5941b57c64417.jpg",
            "pageorigfilename": "Ayer_MS_1193-2_000378r_o2.jpg",
            "transcription": ""
        },
        {
            "pageid": 111102,
            "pagefilename": "fa10bfe5ace28a09048323b1a04bce6e.jpg",
            "pageorigfilename": "Ayer_MS_1193-2_000378_o2.jpg",
            "transcription": ""
        },
        {
            "pageid": 111103,
            "pagefilename": "b75b6b1df07871c95bdff174a3ecf1e0.jpg",
            "pageorigfilename": "Ayer_MS_1193-2_000379r_o2.jpg",
            "transcription": ""
        },
        {
            "pageid": 111104,
            "pagefilename": "bc5599cb13baf8ec185f1bde6ee06e16.jpg",
            "pageorigfilename": "Ayer_MS_1193-2_000379_o2.jpg",
            "transcription": ""
        },
        {
            "pageid": 111105,
            "pagefilename": "b00b6b9d587851fb94afa4bbb8f3ea65.jpg",
            "pageorigfilename": "Ayer_MS_1193-2_000380r_o2.jpg",
            "transcription": ""
        },
        {
            "pageid": 111106,
            "pagefilename": "5817b10d808c090beb4028c573b88deb.jpg",
            "pageorigfilename": "Ayer_MS_1193-2_000380_o2.jpg",
            "transcription": ""
        },
        {
            "pageid": 111107,
            "pagefilename": "385b95abecea2db9dc40abcac178614c.jpg",
            "pageorigfilename": "Ayer_MS_1193-2_000381r_o2.jpg",
            "transcription": ""
        },
        {
            "pageid": 111108,
            "pagefilename": "8fcbc590fba9e9b7388dcb1833d9a73a.jpg",
            "pageorigfilename": "Ayer_MS_1193-2_000381_o2.jpg",
            "transcription": ""
        },
        {
            "pageid": 111109,
            "pagefilename": "d8ad08387bb212681ff8e94f80159db8.jpg",
            "pageorigfilename": "Ayer_MS_1193-2_000382r_o2.jpg",
            "transcription": ""
        },
        {
            "pageid": 111110,
            "pagefilename": "d5b2c3330f8b263c0c67b845e1ea52e3.jpg",
            "pageorigfilename": "Ayer_MS_1193-2_000382_o2.jpg",
            "transcription": ""
        },
        {
            "pageid": 111111,
            "pagefilename": "2087a3d756cdeaf74ae1a1172e176bcc.jpg",
            "pageorigfilename": "Ayer_MS_1193-2_000383r_o2.jpg",
            "transcription": ""
        },
        {
            "pageid": 111112,
            "pagefilename": "d876a450f237f9a5336db1d0d58e257c.jpg",
            "pageorigfilename": "Ayer_MS_1193-2_000383_o2.jpg",
            "transcription": ""
        },
        {
            "pageid": 111113,
            "pagefilename": "264aa4e921cf015b1d7cb7a268acdf00.jpg",
            "pageorigfilename": "Ayer_MS_1193-2_000384r_o2.jpg",
            "transcription": ""
        },
        {
            "pageid": 111114,
            "pagefilename": "fce5f3e29a5aaf709ca16d5b36d40b72.jpg",
            "pageorigfilename": "Ayer_MS_1193-2_000384_o2.jpg",
            "transcription": ""
        },
        {
            "pageid": 111115,
            "pagefilename": "4f9d8c553d8d223124d84ce8eb6b8899.jpg",
            "pageorigfilename": "Ayer_MS_1193-2_000385r_o2.jpg",
            "transcription": ""
        },
        {
            "pageid": 111116,
            "pagefilename": "6e1a831f1f1b07ed7de4124f43934f74.jpg",
            "pageorigfilename": "Ayer_MS_1193-2_000385_o2.jpg",
            "transcription": ""
        },
        {
            "pageid": 111117,
            "pagefilename": "f4202eece1de4e3a02f07f661c8765bc.jpg",
            "pageorigfilename": "Ayer_MS_1193-2_000386r_o2.jpg",
            "transcription": ""
        },
        {
            "pageid": 111118,
            "pagefilename": "1a3686b04ae16971cba441cdc153f500.jpg",
            "pageorigfilename": "Ayer_MS_1193-2_000386_o2.jpg",
            "transcription": ""
        },
        {
            "pageid": 111119,
            "pagefilename": "112172073ccd127f5af92536bb4ed63d.jpg",
            "pageorigfilename": "Ayer_MS_1193-2_000387r_o2.jpg",
            "transcription": ""
        },
        {
            "pageid": 111120,
            "pagefilename": "0fe18a72d38d79cc24aefb7c2c04b4b0.jpg",
            "pageorigfilename": "Ayer_MS_1193-2_000387_o2.jpg",
            "transcription": ""
        },
        {
            "pageid": 111121,
            "pagefilename": "4e6192bc8df0933762eaa3ade94f2b97.jpg",
            "pageorigfilename": "Ayer_MS_1193-2_000388_o2.jpg",
            "transcription": ""
        },
        {
            "pageid": 111122,
            "pagefilename": "69d5a7ab096f2d518c290feede96c67f.jpg",
            "pageorigfilename": "Ayer_MS_1193-2_000393_o2.jpg",
            "transcription": ""
        }
    ]
}