{
    "id": "883",
    "cataloglink": "https://webvoyage.carli.illinois.edu/nby/cgi-bin/Pwebrecon.cgi?DB=local&v1=1&BBRecID=155886",
    "pages": [
        {
            "pageid": 55881,
            "pagefilename": "7e373efa68290607be655ef3e42ae73a.jpg",
            "pageorigfilename": "GR_2211_0003_o2.jpg",
            "transcription": "Hon John M Read              Panama Feby 6th 1849\nDear Friend\nI have only time to\nto advise of the safe arrival of myself &\nlady to this place and of having had\nthe pleasure of meeting Genl Smith?\nthe day before his departure.  I again\nthank you for your kind letter.  I refer\nyou to circular herewith -- You will observe\nI have taken the liberty of adding to the list of respectable names\nobscured.  I leave in a few days\nobscured Barque John Ritson -- some 250\npassengers must await an opportunity--\nvessels are expected? hourly.  I hope\nto arrive at San Francisco within thirty\ndays.  I have written a voluntary\nletter for Mr Bennett -- if published\nit will be signed by me.  I refer you\nto same--\nYour Obt S\nWm Cornell Jewett"
        },
        {
            "pageid": 55884,
            "pagefilename": "49091d830175f6ed1cd6d3d9608524ba.jpg",
            "pageorigfilename": "GR_2211_0004_o2.jpg",
            "transcription": "Panama Feb 6/49\nHon John M. Read\nPhiladelphia"
        }
    ]
}