{
    "id": "1364",
    "cataloglink": "",
    "pages": [
        {
            "pageid": 115798,
            "pagefilename": "de909a569eb98dc289e60111c4c32632.jpg",
            "pageorigfilename": "Ayer_MS_83b_VL02_Part5_00001_o2.jpg",
            "transcription": ""
        },
        {
            "pageid": 115799,
            "pagefilename": "e86577334a1adbdcd732845a761386d9.jpg",
            "pageorigfilename": "Ayer_MS_83b_VL02_Part5_00002r_o2.jpg",
            "transcription": ""
        },
        {
            "pageid": 115800,
            "pagefilename": "a9ad1f69460f546855e342c0daad6296.jpg",
            "pageorigfilename": "Ayer_MS_83b_VL02_Part5_00004r_o2.jpg",
            "transcription": ""
        },
        {
            "pageid": 115801,
            "pagefilename": "fe130ef386d7c871abc61f29560b5d06.jpg",
            "pageorigfilename": "Ayer_MS_83b_VL02_Part5_00005r_o2.jpg",
            "transcription": ""
        },
        {
            "pageid": 115802,
            "pagefilename": "6996738275c83c1c19a1f63ef968e693.jpg",
            "pageorigfilename": "Ayer_MS_83b_VL02_Part5_00006r_o2.jpg",
            "transcription": ""
        },
        {
            "pageid": 115803,
            "pagefilename": "0ef770fb52eddb01f97054ddbea2cc4b.jpg",
            "pageorigfilename": "Ayer_MS_83b_VL02_Part5_00007r_o2.jpg",
            "transcription": ""
        },
        {
            "pageid": 115804,
            "pagefilename": "b3adfdb7cb2ff3af4f7520fd38bcb29d.jpg",
            "pageorigfilename": "Ayer_MS_83b_VL02_Part5_00008r_o2.jpg",
            "transcription": ""
        },
        {
            "pageid": 115805,
            "pagefilename": "3be738ac768ff674cbfac4273dba5f9e.jpg",
            "pageorigfilename": "Ayer_MS_83b_VL02_Part5_00009r_o2.jpg",
            "transcription": ""
        },
        {
            "pageid": 115806,
            "pagefilename": "3b7898de96f4ffbedab520b8be9d171f.jpg",
            "pageorigfilename": "Ayer_MS_83b_VL02_Part5_00009_o2.jpg",
            "transcription": ""
        },
        {
            "pageid": 115807,
            "pagefilename": "e5784c6b019c5626230f82859b3954a9.jpg",
            "pageorigfilename": "Ayer_MS_83b_VL02_Part5_00010r_o2.jpg",
            "transcription": ""
        },
        {
            "pageid": 115808,
            "pagefilename": "599311fcad51cc2c3aebbc89079cfc83.jpg",
            "pageorigfilename": "Ayer_MS_83b_VL02_Part5_00010_o2.jpg",
            "transcription": ""
        },
        {
            "pageid": 115809,
            "pagefilename": "84fbfe9059cff93b32544823ecf13ef0.jpg",
            "pageorigfilename": "Ayer_MS_83b_VL02_Part5_00011r_o2.jpg",
            "transcription": ""
        },
        {
            "pageid": 115810,
            "pagefilename": "ae56f8b33b44d5aa367f0238700eb855.jpg",
            "pageorigfilename": "Ayer_MS_83b_VL02_Part5_00011_o2.jpg",
            "transcription": ""
        },
        {
            "pageid": 115811,
            "pagefilename": "2afc863748a24d5e0299ea8e29d8aee6.jpg",
            "pageorigfilename": "Ayer_MS_83b_VL02_Part5_00012r_o2.jpg",
            "transcription": ""
        },
        {
            "pageid": 115812,
            "pagefilename": "c562fac09a7ccfe2ddf06cda10350b3e.jpg",
            "pageorigfilename": "Ayer_MS_83b_VL02_Part5_00013_o2.jpg",
            "transcription": ""
        },
        {
            "pageid": 115813,
            "pagefilename": "45f777b31ccbf3f79a617ce41ff189b5.jpg",
            "pageorigfilename": "Ayer_MS_83b_VL02_Part5_00016_o2.jpg",
            "transcription": ""
        },
        {
            "pageid": 115814,
            "pagefilename": "d8a8151a0d6882cb265f342c06eeb726.jpg",
            "pageorigfilename": "Ayer_MS_83b_VL02_Part5_00017r_o2.jpg",
            "transcription": ""
        },
        {
            "pageid": 115815,
            "pagefilename": "91fc6a8d0065e29fe1c3e09c2631c280.jpg",
            "pageorigfilename": "Ayer_MS_83b_VL02_Part5_00018r_o2.jpg",
            "transcription": ""
        },
        {
            "pageid": 115816,
            "pagefilename": "109748fc8529242ad330c04042cb3314.jpg",
            "pageorigfilename": "Ayer_MS_83b_VL02_Part5_00019r_o2.jpg",
            "transcription": ""
        },
        {
            "pageid": 115817,
            "pagefilename": "ab69652c48feafb290c01dfff7d1df60.jpg",
            "pageorigfilename": "Ayer_MS_83b_VL02_Part5_00023r_o2.jpg",
            "transcription": ""
        },
        {
            "pageid": 115818,
            "pagefilename": "0424e84646c9ecf897fb685d7bdd072d.jpg",
            "pageorigfilename": "Ayer_MS_83b_VL02_Part5_00025r_o2.jpg",
            "transcription": ""
        },
        {
            "pageid": 115819,
            "pagefilename": "f08f09053850095e50b8fbe90a283f2d.jpg",
            "pageorigfilename": "Ayer_MS_83b_VL02_Part5_00025_o2.jpg",
            "transcription": ""
        },
        {
            "pageid": 115820,
            "pagefilename": "4129c6fc384b5827adf2a4a1874c3358.jpg",
            "pageorigfilename": "Ayer_MS_83b_VL02_Part5_00026r_o2.jpg",
            "transcription": ""
        },
        {
            "pageid": 115821,
            "pagefilename": "6e8445a9222c37a832a12c2274542e09.jpg",
            "pageorigfilename": "Ayer_MS_83b_VL02_Part5_00026_o2.jpg",
            "transcription": ""
        },
        {
            "pageid": 115822,
            "pagefilename": "397022a7671d8a39ee1504922cd7267c.jpg",
            "pageorigfilename": "Ayer_MS_83b_VL02_Part5_00027r_o2.jpg",
            "transcription": ""
        },
        {
            "pageid": 115823,
            "pagefilename": "b379cd9ceaeb5d3db291b4c5e7f86c94.jpg",
            "pageorigfilename": "Ayer_MS_83b_VL02_Part5_00027_o2.jpg",
            "transcription": ""
        },
        {
            "pageid": 115824,
            "pagefilename": "8dcf106028823d6ae821981d45026229.jpg",
            "pageorigfilename": "Ayer_MS_83b_VL02_Part5_00028r_o2.jpg",
            "transcription": ""
        },
        {
            "pageid": 115825,
            "pagefilename": "e8358c06fab3b8fabe63c3a929a643a6.jpg",
            "pageorigfilename": "Ayer_MS_83b_VL02_Part5_00029r_o2.jpg",
            "transcription": ""
        },
        {
            "pageid": 115826,
            "pagefilename": "7ce8aa56fbfa453c3908df71084357be.jpg",
            "pageorigfilename": "Ayer_MS_83b_VL02_Part5_00029_o2.jpg",
            "transcription": ""
        },
        {
            "pageid": 115827,
            "pagefilename": "eb0a9c9af9fa965061409eb48793b626.jpg",
            "pageorigfilename": "Ayer_MS_83b_VL02_Part5_00030r_o2.jpg",
            "transcription": ""
        },
        {
            "pageid": 115828,
            "pagefilename": "68209e179392ee1c01087a9a267e041d.jpg",
            "pageorigfilename": "Ayer_MS_83b_VL02_Part5_00031r_o2.jpg",
            "transcription": ""
        },
        {
            "pageid": 115829,
            "pagefilename": "2229e28477a7f963a1e99c327ff3e9d8.jpg",
            "pageorigfilename": "Ayer_MS_83b_VL02_Part5_00036_o2.jpg",
            "transcription": ""
        },
        {
            "pageid": 115830,
            "pagefilename": "28daef9c2169b976356d18d80910285d.jpg",
            "pageorigfilename": "Ayer_MS_83b_VL02_Part5_00039_o2.jpg",
            "transcription": ""
        },
        {
            "pageid": 115831,
            "pagefilename": "392f04993efa4ec19205c89112ac7506.jpg",
            "pageorigfilename": "Ayer_MS_83b_VL02_Part5_00040_o2.jpg",
            "transcription": ""
        },
        {
            "pageid": 115832,
            "pagefilename": "0794bdcf4d16077054a58efb08c877c5.jpg",
            "pageorigfilename": "Ayer_MS_83b_VL02_Part5_00041_o2.jpg",
            "transcription": ""
        },
        {
            "pageid": 115833,
            "pagefilename": "dd7d94625f78755eab946d6b93ec3da8.jpg",
            "pageorigfilename": "Ayer_MS_83b_VL02_Part5_00042_o2.jpg",
            "transcription": ""
        },
        {
            "pageid": 115834,
            "pagefilename": "acaf478b05ee550002c6e3d1e65d92cb.jpg",
            "pageorigfilename": "Ayer_MS_83b_VL02_Part5_00043_o2.jpg",
            "transcription": ""
        },
        {
            "pageid": 115835,
            "pagefilename": "995744f1210140140b2d069a3f0eb608.jpg",
            "pageorigfilename": "Ayer_MS_83b_VL02_Part5_00044_o2.jpg",
            "transcription": ""
        },
        {
            "pageid": 115836,
            "pagefilename": "181342e569d5ef643028a30a9e6c9e92.jpg",
            "pageorigfilename": "Ayer_MS_83b_VL02_Part5_00045_o2.jpg",
            "transcription": ""
        },
        {
            "pageid": 115837,
            "pagefilename": "8bf9f1402c27a0b115537500d470d541.jpg",
            "pageorigfilename": "Ayer_MS_83b_VL02_Part5_00046_o2.jpg",
            "transcription": ""
        },
        {
            "pageid": 115838,
            "pagefilename": "84d08a09c559bb5231e74348db1d328b.jpg",
            "pageorigfilename": "Ayer_MS_83b_VL02_Part5_00047_o2.jpg",
            "transcription": ""
        },
        {
            "pageid": 115839,
            "pagefilename": "aea046e92640c27d12e95b7761ef7a0f.jpg",
            "pageorigfilename": "Ayer_MS_83b_VL02_Part5_00055_o2.jpg",
            "transcription": ""
        },
        {
            "pageid": 115840,
            "pagefilename": "264547f3c645d6afb191b5025ea213be.jpg",
            "pageorigfilename": "Ayer_MS_83b_VL02_Part5_00056_o2.jpg",
            "transcription": ""
        },
        {
            "pageid": 115841,
            "pagefilename": "1f850a8ed9a2c5689220fb76dc2c025c.jpg",
            "pageorigfilename": "Ayer_MS_83b_VL02_Part5_00057_o2.jpg",
            "transcription": ""
        },
        {
            "pageid": 115842,
            "pagefilename": "555955bfc4e036fa6908dea260a68733.jpg",
            "pageorigfilename": "Ayer_MS_83b_VL02_Part5_00058_o2.jpg",
            "transcription": ""
        },
        {
            "pageid": 115843,
            "pagefilename": "edfc0fa5b672c89e02445a9634a5ec03.jpg",
            "pageorigfilename": "Ayer_MS_83b_VL02_Part6_00003_o2.jpg",
            "transcription": ""
        },
        {
            "pageid": 115844,
            "pagefilename": "1796733f73a9d6d12f3ae8e634403ae6.jpg",
            "pageorigfilename": "Ayer_MS_83b_VL02_Part6_00004_o2.jpg",
            "transcription": ""
        },
        {
            "pageid": 115845,
            "pagefilename": "25c73e303ae726bc3ece74c1a6273f6a.jpg",
            "pageorigfilename": "Ayer_MS_83b_VL02_Part6_00005r_o2.jpg",
            "transcription": ""
        },
        {
            "pageid": 115846,
            "pagefilename": "c998140ad90fb0dd9d2f0b1533f75939.jpg",
            "pageorigfilename": "Ayer_MS_83b_VL02_Part6_00007_o2.jpg",
            "transcription": ""
        },
        {
            "pageid": 115847,
            "pagefilename": "72ef509eb69bfd827760e63a8aeaae25.jpg",
            "pageorigfilename": "Ayer_MS_83b_VL02_Part6_00008r_o2.jpg",
            "transcription": ""
        },
        {
            "pageid": 115848,
            "pagefilename": "b6c81ba83b3b5da37d64d5f112bb0d16.jpg",
            "pageorigfilename": "Ayer_MS_83b_VL02_Part6_00009_o2.jpg",
            "transcription": ""
        },
        {
            "pageid": 115849,
            "pagefilename": "f5cbc59261d959acefaa42aaf0373650.jpg",
            "pageorigfilename": "Ayer_MS_83b_VL02_Part6_00010_o2.jpg",
            "transcription": ""
        },
        {
            "pageid": 115850,
            "pagefilename": "4881a903e3c40e27108dfd4dcc726122.jpg",
            "pageorigfilename": "Ayer_MS_83b_VL02_Part6_00011r_o2.jpg",
            "transcription": ""
        },
        {
            "pageid": 115851,
            "pagefilename": "43945356ab264578746fb13de3d5816f.jpg",
            "pageorigfilename": "Ayer_MS_83b_VL02_Part6_00012r_o2.jpg",
            "transcription": ""
        },
        {
            "pageid": 115852,
            "pagefilename": "d882a51910bd389196c8378f5c3e39d5.jpg",
            "pageorigfilename": "Ayer_MS_83b_VL02_Part6_00013r_o2.jpg",
            "transcription": ""
        },
        {
            "pageid": 115853,
            "pagefilename": "c221704f50b0fa2e5ed296d5293fd598.jpg",
            "pageorigfilename": "Ayer_MS_83b_VL02_Part6_00014_o2.jpg",
            "transcription": ""
        },
        {
            "pageid": 115854,
            "pagefilename": "387e800e62cc6f1a2d33a75bee2435a6.jpg",
            "pageorigfilename": "Ayer_MS_83b_VL02_Part6_00015r_o2.jpg",
            "transcription": ""
        },
        {
            "pageid": 115855,
            "pagefilename": "1a87197d56a34a373e4f9324d3581511.jpg",
            "pageorigfilename": "Ayer_MS_83b_VL02_Part6_00016r_o2.jpg",
            "transcription": ""
        },
        {
            "pageid": 115856,
            "pagefilename": "266c0fef5d4532b6e7f78b22c9c489b8.jpg",
            "pageorigfilename": "Ayer_MS_83b_VL02_Part6_00017r_o2.jpg",
            "transcription": ""
        },
        {
            "pageid": 115857,
            "pagefilename": "4404abe4ffb809b6cf1cd7c2811413da.jpg",
            "pageorigfilename": "Ayer_MS_83b_VL02_Part6_00017_o2.jpg",
            "transcription": ""
        },
        {
            "pageid": 115858,
            "pagefilename": "1b9154a4e2ba6c356a41a4de47d401e0.jpg",
            "pageorigfilename": "Ayer_MS_83b_VL02_Part6_00018_o2.jpg",
            "transcription": ""
        },
        {
            "pageid": 115859,
            "pagefilename": "10499311288f70388b4a5b6826c50f0e.jpg",
            "pageorigfilename": "Ayer_MS_83b_VL02_Part6_00020_o2.jpg",
            "transcription": ""
        },
        {
            "pageid": 115860,
            "pagefilename": "e32b7ed12c581e3d2f8ba1f360bfc2af.jpg",
            "pageorigfilename": "Ayer_MS_83b_VL02_Part6_00021_o2.jpg",
            "transcription": ""
        },
        {
            "pageid": 115861,
            "pagefilename": "89506190ca1f87e268cd42d2ab6b00a1.jpg",
            "pageorigfilename": "Ayer_MS_83b_VL02_Part6_00022_o2.jpg",
            "transcription": ""
        },
        {
            "pageid": 115862,
            "pagefilename": "0c624cbffddb9aadeeb2c654d9055946.jpg",
            "pageorigfilename": "Ayer_MS_83b_VL02_Part6_00023_o2.jpg",
            "transcription": ""
        },
        {
            "pageid": 115863,
            "pagefilename": "11617da24b137e0a357f42c9441c4cac.jpg",
            "pageorigfilename": "Ayer_MS_83b_VL02_Part6_00024r_o2.jpg",
            "transcription": ""
        },
        {
            "pageid": 115864,
            "pagefilename": "0359b373394b5bcf5116af29eb9dc448.jpg",
            "pageorigfilename": "Ayer_MS_83b_VL02_Part6_00024_o2.jpg",
            "transcription": ""
        },
        {
            "pageid": 115865,
            "pagefilename": "624883cb9d8f569633093c421e1076ea.jpg",
            "pageorigfilename": "Ayer_MS_83b_VL02_Part6_00025r_o2.jpg",
            "transcription": ""
        },
        {
            "pageid": 115866,
            "pagefilename": "670e93d6affa03853557445e8abcf1be.jpg",
            "pageorigfilename": "Ayer_MS_83b_VL02_Part6_00026r_o2.jpg",
            "transcription": ""
        },
        {
            "pageid": 115867,
            "pagefilename": "9eb6ab575e22691d718bb55cb19b0453.jpg",
            "pageorigfilename": "Ayer_MS_83b_VL02_Part6_00028_o2.jpg",
            "transcription": ""
        },
        {
            "pageid": 115868,
            "pagefilename": "f1508d8d5094ec96b36bdc4b54639511.jpg",
            "pageorigfilename": "Ayer_MS_83b_VL02_Part6_00029r_o2.jpg",
            "transcription": ""
        },
        {
            "pageid": 115869,
            "pagefilename": "987caa121d9b7f115c4a1a6f406caf39.jpg",
            "pageorigfilename": "Ayer_MS_83b_VL02_Part6_00029_o2.jpg",
            "transcription": ""
        },
        {
            "pageid": 115870,
            "pagefilename": "d719f1da7f6808bc0330ef1002fe479a.jpg",
            "pageorigfilename": "Ayer_MS_83b_VL02_Part6_00030r_o2.jpg",
            "transcription": ""
        },
        {
            "pageid": 115871,
            "pagefilename": "c8b8b4e37a70346d1e22cef345270248.jpg",
            "pageorigfilename": "Ayer_MS_83b_VL02_Part6_00031r_o2.jpg",
            "transcription": ""
        },
        {
            "pageid": 115872,
            "pagefilename": "017c095a27c27488ce351807d6729cb7.jpg",
            "pageorigfilename": "Ayer_MS_83b_VL02_Part6_00032_o2.jpg",
            "transcription": ""
        },
        {
            "pageid": 115873,
            "pagefilename": "1628d7ef7566a99d4eb6f66650700d4c.jpg",
            "pageorigfilename": "Ayer_MS_83b_VL02_Part6_00033r_o2.jpg",
            "transcription": ""
        },
        {
            "pageid": 115874,
            "pagefilename": "b5bfcf88fbec9f4a8c4f1cf70ba641ba.jpg",
            "pageorigfilename": "Ayer_MS_83b_VL02_Part6_00034_o2.jpg",
            "transcription": ""
        },
        {
            "pageid": 115875,
            "pagefilename": "6a5733042066596837121e21bbe0d4f7.jpg",
            "pageorigfilename": "Ayer_MS_83b_VL02_Part6_00035_o2.jpg",
            "transcription": ""
        },
        {
            "pageid": 115876,
            "pagefilename": "0c83dbcdde15ee2ef91651f86cff2a5f.jpg",
            "pageorigfilename": "Ayer_MS_83b_VL02_Part6_00036r_o2.jpg",
            "transcription": ""
        },
        {
            "pageid": 115877,
            "pagefilename": "7f4b1dbc01924c58db316f00e154f3f6.jpg",
            "pageorigfilename": "Ayer_MS_83b_VL02_Part6_00037_o2.jpg",
            "transcription": ""
        },
        {
            "pageid": 115878,
            "pagefilename": "9049125b8c3bc0de6cdbe674327ebe58.jpg",
            "pageorigfilename": "Ayer_MS_83b_VL02_Part6_00038_o2.jpg",
            "transcription": ""
        },
        {
            "pageid": 115879,
            "pagefilename": "34845b2e54fb0152e42450167ff29f67.jpg",
            "pageorigfilename": "Ayer_MS_83b_VL02_Part6_00039_o2.jpg",
            "transcription": ""
        },
        {
            "pageid": 115880,
            "pagefilename": "b66dd1abe2f171826e962772b6721d6e.jpg",
            "pageorigfilename": "Ayer_MS_83b_VL02_Part6_00040r_o2.jpg",
            "transcription": ""
        },
        {
            "pageid": 115881,
            "pagefilename": "c515f299ccd9958f547d68e23cec105a.jpg",
            "pageorigfilename": "Ayer_MS_83b_VL02_Part6_00042_o2.jpg",
            "transcription": ""
        },
        {
            "pageid": 115882,
            "pagefilename": "5dafdb18fc61706cbca1252d4961be54.jpg",
            "pageorigfilename": "Ayer_MS_83b_VL02_Part5_00001_o2.jpg",
            "transcription": ""
        },
        {
            "pageid": 115883,
            "pagefilename": "0829359a5b77220a94426cecb1781303.jpg",
            "pageorigfilename": "Ayer_MS_83b_VL02_Part6_00043_o2.jpg",
            "transcription": ""
        },
        {
            "pageid": 115884,
            "pagefilename": "a28e939866b6d0ab880d6ef677650adf.jpg",
            "pageorigfilename": "Ayer_MS_83b_VL02_Part5_00002r_o2.jpg",
            "transcription": ""
        },
        {
            "pageid": 115885,
            "pagefilename": "648d6cc537fc13f9318cb86f907e5d44.jpg",
            "pageorigfilename": "Ayer_MS_83b_VL02_Part6_00044r_o2.jpg",
            "transcription": ""
        },
        {
            "pageid": 115886,
            "pagefilename": "9d26a363ba9eed4f4bc40c8c7a797e20.jpg",
            "pageorigfilename": "Ayer_MS_83b_VL02_Part5_00004r_o2.jpg",
            "transcription": ""
        },
        {
            "pageid": 115887,
            "pagefilename": "ab013eacdcd14cfe0de2f057005f37e7.jpg",
            "pageorigfilename": "Ayer_MS_83b_VL02_Part6_00045_o2.jpg",
            "transcription": ""
        },
        {
            "pageid": 115888,
            "pagefilename": "09e1f3d5c4d94b09d927736cbd869ffb.jpg",
            "pageorigfilename": "Ayer_MS_83b_VL02_Part5_00005r_o2.jpg",
            "transcription": ""
        },
        {
            "pageid": 115889,
            "pagefilename": "1969db3fedaff4610404ef33e62510b5.jpg",
            "pageorigfilename": "Ayer_MS_83b_VL02_Part5_00006r_o2.jpg",
            "transcription": ""
        },
        {
            "pageid": 115890,
            "pagefilename": "6bdeb1e7023c9f0ef7dd935eb47e341f.jpg",
            "pageorigfilename": "Ayer_MS_83b_VL02_Part6_00046_o2.jpg",
            "transcription": ""
        },
        {
            "pageid": 115891,
            "pagefilename": "8f7c48505b0936242aaa73aedc0ed9af.jpg",
            "pageorigfilename": "Ayer_MS_83b_VL02_Part5_00007r_o2.jpg",
            "transcription": ""
        },
        {
            "pageid": 115892,
            "pagefilename": "b812adac39123aab57fc3ecce547d7bb.jpg",
            "pageorigfilename": "Ayer_MS_83b_VL02_Part6_00047r_o2.jpg",
            "transcription": ""
        },
        {
            "pageid": 115893,
            "pagefilename": "6e1b6378e0db9e930184d1cb62c2294e.jpg",
            "pageorigfilename": "Ayer_MS_83b_VL02_Part5_00008r_o2.jpg",
            "transcription": ""
        },
        {
            "pageid": 115894,
            "pagefilename": "b66757a3a4e0b87618eb97566a578871.jpg",
            "pageorigfilename": "Ayer_MS_83b_VL02_Part6_00050_o2.jpg",
            "transcription": ""
        },
        {
            "pageid": 115895,
            "pagefilename": "5c7738ee915eff642668d3d89a6f31bb.jpg",
            "pageorigfilename": "Ayer_MS_83b_VL02_Part5_00009r_o2.jpg",
            "transcription": ""
        },
        {
            "pageid": 115896,
            "pagefilename": "73ee179a13ed483e8d55b154d0e2c558.jpg",
            "pageorigfilename": "Ayer_MS_83b_VL02_Part5_00009_o2.jpg",
            "transcription": ""
        },
        {
            "pageid": 115897,
            "pagefilename": "8413b49186bb560fc22a81ca533c784b.jpg",
            "pageorigfilename": "Ayer_MS_83b_VL02_Part6_00051_o2.jpg",
            "transcription": ""
        },
        {
            "pageid": 115898,
            "pagefilename": "9c06737add96bbac40555212fc698c15.jpg",
            "pageorigfilename": "Ayer_MS_83b_VL02_Part5_00010r_o2.jpg",
            "transcription": ""
        },
        {
            "pageid": 115899,
            "pagefilename": "dd6a6f07db664b3f7ff2cd40724e2f80.jpg",
            "pageorigfilename": "Ayer_MS_83b_VL02_Part6_00052_o2.jpg",
            "transcription": ""
        },
        {
            "pageid": 115900,
            "pagefilename": "6c79ca45ccc048d68c4823f3040b6eb1.jpg",
            "pageorigfilename": "Ayer_MS_83b_VL02_Part5_00010_o2.jpg",
            "transcription": ""
        },
        {
            "pageid": 115901,
            "pagefilename": "50b628eee4a87a67c6ff9f39ef334822.jpg",
            "pageorigfilename": "Ayer_MS_83b_VL02_Part5_00011r_o2.jpg",
            "transcription": ""
        },
        {
            "pageid": 115902,
            "pagefilename": "0facdc780f8916141ee3b399c19b0642.jpg",
            "pageorigfilename": "Ayer_MS_83b_VL02_Part5_00011_o2.jpg",
            "transcription": ""
        },
        {
            "pageid": 115903,
            "pagefilename": "d6cfabd2c2f2440a3ec1b3c0ab410812.jpg",
            "pageorigfilename": "Ayer_MS_83b_VL02_Part5_00012r_o2.jpg",
            "transcription": ""
        },
        {
            "pageid": 115904,
            "pagefilename": "c51f06369c5f84edf1add98569e91d9c.jpg",
            "pageorigfilename": "Ayer_MS_83b_VL02_Part5_00013_o2.jpg",
            "transcription": ""
        },
        {
            "pageid": 115905,
            "pagefilename": "ec5f665e58086777f397de063ba85cc1.jpg",
            "pageorigfilename": "Ayer_MS_83b_VL02_Part5_00016_o2.jpg",
            "transcription": ""
        },
        {
            "pageid": 115906,
            "pagefilename": "a60e638151be3e2feb88bdcce99aae00.jpg",
            "pageorigfilename": "Ayer_MS_83b_VL02_Part5_00017r_o2.jpg",
            "transcription": ""
        },
        {
            "pageid": 115907,
            "pagefilename": "05d9c268e1ea5cf72d714c8ea3098db6.jpg",
            "pageorigfilename": "Ayer_MS_83b_VL02_Part5_00018r_o2.jpg",
            "transcription": ""
        },
        {
            "pageid": 115908,
            "pagefilename": "eec1b7e797bd95992669a86e14dafc75.jpg",
            "pageorigfilename": "Ayer_MS_83b_VL02_Part5_00019r_o2.jpg",
            "transcription": ""
        },
        {
            "pageid": 115909,
            "pagefilename": "978bb9a926e6df533c2d0c9f77907e0f.jpg",
            "pageorigfilename": "Ayer_MS_83b_VL02_Part5_00023r_o2.jpg",
            "transcription": ""
        },
        {
            "pageid": 115910,
            "pagefilename": "db849d4e1e44e6139af87cf755ea172b.jpg",
            "pageorigfilename": "Ayer_MS_83b_VL02_Part5_00025r_o2.jpg",
            "transcription": ""
        },
        {
            "pageid": 115911,
            "pagefilename": "c1027bea5e408e93d7dbc260fa9f2852.jpg",
            "pageorigfilename": "Ayer_MS_83b_VL02_Part5_00025_o2.jpg",
            "transcription": ""
        },
        {
            "pageid": 115912,
            "pagefilename": "d82a32f7f9ac4a24bbafe4c6a614a67b.jpg",
            "pageorigfilename": "Ayer_MS_83b_VL02_Part5_00026r_o2.jpg",
            "transcription": ""
        },
        {
            "pageid": 115913,
            "pagefilename": "8c49779f0ac8dee442c3a2452f5f78af.jpg",
            "pageorigfilename": "Ayer_MS_83b_VL02_Part5_00026_o2.jpg",
            "transcription": ""
        },
        {
            "pageid": 115914,
            "pagefilename": "efc3f3aefccc84075169f84616c6e85a.jpg",
            "pageorigfilename": "Ayer_MS_83b_VL02_Part5_00027r_o2.jpg",
            "transcription": ""
        },
        {
            "pageid": 115915,
            "pagefilename": "b147c58305368f53083cf2740673de4e.jpg",
            "pageorigfilename": "Ayer_MS_83b_VL02_Part5_00027_o2.jpg",
            "transcription": ""
        },
        {
            "pageid": 115916,
            "pagefilename": "a0a522ac03d5821d8dc34607f78aba73.jpg",
            "pageorigfilename": "Ayer_MS_83b_VL02_Part5_00028r_o2.jpg",
            "transcription": ""
        },
        {
            "pageid": 115917,
            "pagefilename": "71ab5a468966016839faf8e659f594fa.jpg",
            "pageorigfilename": "Ayer_MS_83b_VL02_Part5_00029r_o2.jpg",
            "transcription": ""
        },
        {
            "pageid": 115918,
            "pagefilename": "c2f5aebdd04697a33c96763bd640e571.jpg",
            "pageorigfilename": "Ayer_MS_83b_VL02_Part5_00029_o2.jpg",
            "transcription": ""
        },
        {
            "pageid": 115919,
            "pagefilename": "3254f25f4a027325dadc73d56c349514.jpg",
            "pageorigfilename": "Ayer_MS_83b_VL02_Part5_00030r_o2.jpg",
            "transcription": ""
        },
        {
            "pageid": 115920,
            "pagefilename": "5918a90d66729dbaf42a94eb5247bcce.jpg",
            "pageorigfilename": "Ayer_MS_83b_VL02_Part5_00031r_o2.jpg",
            "transcription": ""
        },
        {
            "pageid": 115921,
            "pagefilename": "6db5ea3372d666b218a520bcc0636c05.jpg",
            "pageorigfilename": "Ayer_MS_83b_VL02_Part5_00036_o2.jpg",
            "transcription": ""
        },
        {
            "pageid": 115922,
            "pagefilename": "f2345545a313f6bd6b6425856500b258.jpg",
            "pageorigfilename": "Ayer_MS_83b_VL02_Part5_00039_o2.jpg",
            "transcription": ""
        },
        {
            "pageid": 115923,
            "pagefilename": "f1cd888804c8cb50fb7ca886cad28bcb.jpg",
            "pageorigfilename": "Ayer_MS_83b_VL02_Part5_00040_o2.jpg",
            "transcription": ""
        },
        {
            "pageid": 115924,
            "pagefilename": "3069891663758a0dd8f5f3501820d1dd.jpg",
            "pageorigfilename": "Ayer_MS_83b_VL02_Part5_00041_o2.jpg",
            "transcription": ""
        },
        {
            "pageid": 115925,
            "pagefilename": "41052b25ecacfbc8a88cd825c161faa0.jpg",
            "pageorigfilename": "Ayer_MS_83b_VL02_Part5_00042_o2.jpg",
            "transcription": ""
        },
        {
            "pageid": 115926,
            "pagefilename": "17ac7d96448a3d74cdedeaca00b78597.jpg",
            "pageorigfilename": "Ayer_MS_83b_VL02_Part5_00043_o2.jpg",
            "transcription": ""
        },
        {
            "pageid": 115927,
            "pagefilename": "4e957ba02ffd9a9ba32d7183539a0167.jpg",
            "pageorigfilename": "Ayer_MS_83b_VL02_Part5_00044_o2.jpg",
            "transcription": ""
        },
        {
            "pageid": 115928,
            "pagefilename": "cbbdba1232428962d55d5380bfdbff58.jpg",
            "pageorigfilename": "Ayer_MS_83b_VL02_Part5_00045_o2.jpg",
            "transcription": ""
        },
        {
            "pageid": 115929,
            "pagefilename": "8ebac169ba929ea1534e2ebee1a6bf12.jpg",
            "pageorigfilename": "Ayer_MS_83b_VL02_Part5_00046_o2.jpg",
            "transcription": ""
        },
        {
            "pageid": 115930,
            "pagefilename": "15d980ee48ce9efb54f37b53877969eb.jpg",
            "pageorigfilename": "Ayer_MS_83b_VL02_Part5_00047_o2.jpg",
            "transcription": ""
        },
        {
            "pageid": 115931,
            "pagefilename": "9b69fb72d7c6237d2553b70b525af319.jpg",
            "pageorigfilename": "Ayer_MS_83b_VL02_Part5_00055_o2.jpg",
            "transcription": ""
        },
        {
            "pageid": 115932,
            "pagefilename": "a7d3aa6156b3983eccbfd6ab0321edf1.jpg",
            "pageorigfilename": "Ayer_MS_83b_VL02_Part5_00056_o2.jpg",
            "transcription": ""
        },
        {
            "pageid": 115933,
            "pagefilename": "46e996feee27161561c90da9eeb0abad.jpg",
            "pageorigfilename": "Ayer_MS_83b_VL02_Part5_00057_o2.jpg",
            "transcription": ""
        },
        {
            "pageid": 115934,
            "pagefilename": "0f5353b99cc9cb5064ad511672716d15.jpg",
            "pageorigfilename": "Ayer_MS_83b_VL02_Part5_00058_o2.jpg",
            "transcription": ""
        },
        {
            "pageid": 115935,
            "pagefilename": "cf0ed312fdc9b3bb25cb66ecc1072c25.jpg",
            "pageorigfilename": "Ayer_MS_83b_VL02_Part6_00003_o2.jpg",
            "transcription": ""
        },
        {
            "pageid": 115936,
            "pagefilename": "2be241078ff957a9bb257155912665c8.jpg",
            "pageorigfilename": "Ayer_MS_83b_VL02_Part6_00004_o2.jpg",
            "transcription": ""
        },
        {
            "pageid": 115937,
            "pagefilename": "8e7575e4fd74e45edff4dd7d0f109d10.jpg",
            "pageorigfilename": "Ayer_MS_83b_VL02_Part6_00005r_o2.jpg",
            "transcription": ""
        },
        {
            "pageid": 115938,
            "pagefilename": "258599d32943d76617385d8f913f966a.jpg",
            "pageorigfilename": "Ayer_MS_83b_VL02_Part6_00007_o2.jpg",
            "transcription": ""
        },
        {
            "pageid": 115939,
            "pagefilename": "77aabd4cfc612dfdbb752ad954835438.jpg",
            "pageorigfilename": "Ayer_MS_83b_VL02_Part6_00008r_o2.jpg",
            "transcription": ""
        },
        {
            "pageid": 115940,
            "pagefilename": "3add3858f1f4d078489f8acf6e1e8409.jpg",
            "pageorigfilename": "Ayer_MS_83b_VL02_Part6_00009_o2.jpg",
            "transcription": ""
        },
        {
            "pageid": 115941,
            "pagefilename": "94dd953382d11a09f86d53c097c2c150.jpg",
            "pageorigfilename": "Ayer_MS_83b_VL02_Part6_00010_o2.jpg",
            "transcription": ""
        },
        {
            "pageid": 115942,
            "pagefilename": "27d15fb1cef62e61ed525f33ed8a1630.jpg",
            "pageorigfilename": "Ayer_MS_83b_VL02_Part6_00011r_o2.jpg",
            "transcription": ""
        },
        {
            "pageid": 115943,
            "pagefilename": "873f02f784b632fc3130d12e93d73db3.jpg",
            "pageorigfilename": "Ayer_MS_83b_VL02_Part6_00012r_o2.jpg",
            "transcription": ""
        },
        {
            "pageid": 115944,
            "pagefilename": "c112b4539ebca8a8fea0ae498c2c3078.jpg",
            "pageorigfilename": "Ayer_MS_83b_VL02_Part6_00013r_o2.jpg",
            "transcription": ""
        },
        {
            "pageid": 115945,
            "pagefilename": "f2f3690cb2ac06a4b7ed1fbbe18e71fc.jpg",
            "pageorigfilename": "Ayer_MS_83b_VL02_Part6_00014_o2.jpg",
            "transcription": ""
        },
        {
            "pageid": 115946,
            "pagefilename": "6aed79a9ba54807f82a4779bc1056b93.jpg",
            "pageorigfilename": "Ayer_MS_83b_VL02_Part6_00015r_o2.jpg",
            "transcription": ""
        },
        {
            "pageid": 115947,
            "pagefilename": "12714eb70fd78009ad4214a10e592567.jpg",
            "pageorigfilename": "Ayer_MS_83b_VL02_Part6_00016r_o2.jpg",
            "transcription": ""
        },
        {
            "pageid": 115948,
            "pagefilename": "e89b3b4e9be6130b196c0c56595e82cf.jpg",
            "pageorigfilename": "Ayer_MS_83b_VL02_Part6_00017r_o2.jpg",
            "transcription": ""
        },
        {
            "pageid": 115949,
            "pagefilename": "26d14703ccbd0e0239174cc89a6a8d14.jpg",
            "pageorigfilename": "Ayer_MS_83b_VL02_Part6_00017_o2.jpg",
            "transcription": ""
        },
        {
            "pageid": 115950,
            "pagefilename": "d5ce1251314fc5a1e084d05c7fe9737e.jpg",
            "pageorigfilename": "Ayer_MS_83b_VL02_Part6_00018_o2.jpg",
            "transcription": ""
        },
        {
            "pageid": 115951,
            "pagefilename": "a6fdfaffba9005e6add24a3da555096a.jpg",
            "pageorigfilename": "Ayer_MS_83b_VL02_Part6_00020_o2.jpg",
            "transcription": ""
        },
        {
            "pageid": 115952,
            "pagefilename": "93fbe8957efb4a4155978854e3c8730f.jpg",
            "pageorigfilename": "Ayer_MS_83b_VL02_Part6_00021_o2.jpg",
            "transcription": ""
        },
        {
            "pageid": 115953,
            "pagefilename": "e8c9bec28bb1d76925c52f448ea1356e.jpg",
            "pageorigfilename": "Ayer_MS_83b_VL02_Part6_00022_o2.jpg",
            "transcription": ""
        },
        {
            "pageid": 115954,
            "pagefilename": "31a5cff03f50de0a63194fe777930a63.jpg",
            "pageorigfilename": "Ayer_MS_83b_VL02_Part6_00023_o2.jpg",
            "transcription": ""
        },
        {
            "pageid": 115955,
            "pagefilename": "f8b6e01682a55ef7b9696f6be805e0b2.jpg",
            "pageorigfilename": "Ayer_MS_83b_VL02_Part6_00024r_o2.jpg",
            "transcription": ""
        },
        {
            "pageid": 115956,
            "pagefilename": "e31fb719ca242b04a9826a779954f82a.jpg",
            "pageorigfilename": "Ayer_MS_83b_VL02_Part6_00024_o2.jpg",
            "transcription": ""
        },
        {
            "pageid": 115957,
            "pagefilename": "901d855a4d951d662262a451a55fe2d0.jpg",
            "pageorigfilename": "Ayer_MS_83b_VL02_Part6_00025r_o2.jpg",
            "transcription": ""
        },
        {
            "pageid": 115958,
            "pagefilename": "447890e43bf1f3ec8c3c00e19a2f0871.jpg",
            "pageorigfilename": "Ayer_MS_83b_VL02_Part6_00026r_o2.jpg",
            "transcription": ""
        },
        {
            "pageid": 115959,
            "pagefilename": "3ddd4419a01ced910f4868c9678f2757.jpg",
            "pageorigfilename": "Ayer_MS_83b_VL02_Part6_00028_o2.jpg",
            "transcription": ""
        },
        {
            "pageid": 115960,
            "pagefilename": "dda9ab4bc774ae8eae01bd66fe88dbf0.jpg",
            "pageorigfilename": "Ayer_MS_83b_VL02_Part6_00029r_o2.jpg",
            "transcription": ""
        },
        {
            "pageid": 115961,
            "pagefilename": "721159795db1ad7468a12630e277376a.jpg",
            "pageorigfilename": "Ayer_MS_83b_VL02_Part6_00029_o2.jpg",
            "transcription": ""
        },
        {
            "pageid": 115962,
            "pagefilename": "e66594089848fda78dbeeb17abb2b5ce.jpg",
            "pageorigfilename": "Ayer_MS_83b_VL02_Part6_00030r_o2.jpg",
            "transcription": ""
        },
        {
            "pageid": 115963,
            "pagefilename": "fef100bb69e0122ef14dc191c392c3a3.jpg",
            "pageorigfilename": "Ayer_MS_83b_VL02_Part6_00031r_o2.jpg",
            "transcription": ""
        },
        {
            "pageid": 115964,
            "pagefilename": "b3cc650f3c3c90e264356062334fcd3b.jpg",
            "pageorigfilename": "Ayer_MS_83b_VL02_Part6_00032_o2.jpg",
            "transcription": ""
        },
        {
            "pageid": 115965,
            "pagefilename": "67740fa1441d33dd9776a7aa42fb9401.jpg",
            "pageorigfilename": "Ayer_MS_83b_VL02_Part6_00033r_o2.jpg",
            "transcription": ""
        },
        {
            "pageid": 115966,
            "pagefilename": "26fea11559f066856f00c3559465c833.jpg",
            "pageorigfilename": "Ayer_MS_83b_VL02_Part6_00034_o2.jpg",
            "transcription": ""
        },
        {
            "pageid": 115967,
            "pagefilename": "300695a063e89287b665742076c8ae4f.jpg",
            "pageorigfilename": "Ayer_MS_83b_VL02_Part6_00035_o2.jpg",
            "transcription": ""
        },
        {
            "pageid": 115968,
            "pagefilename": "f49c7a4702f077a381ff0a3212730d40.jpg",
            "pageorigfilename": "Ayer_MS_83b_VL02_Part6_00036r_o2.jpg",
            "transcription": ""
        },
        {
            "pageid": 115969,
            "pagefilename": "b8707cdea37858b1708122e67171a8c5.jpg",
            "pageorigfilename": "Ayer_MS_83b_VL02_Part6_00037_o2.jpg",
            "transcription": ""
        },
        {
            "pageid": 115970,
            "pagefilename": "8dfb59e4b102abc43f90563a3b4a27de.jpg",
            "pageorigfilename": "Ayer_MS_83b_VL02_Part6_00038_o2.jpg",
            "transcription": ""
        },
        {
            "pageid": 115971,
            "pagefilename": "2a8ee139eb337be344f436ed4d6bc1a6.jpg",
            "pageorigfilename": "Ayer_MS_83b_VL02_Part6_00039_o2.jpg",
            "transcription": ""
        },
        {
            "pageid": 115972,
            "pagefilename": "51bface0bdc3185100258829a02d5f53.jpg",
            "pageorigfilename": "Ayer_MS_83b_VL02_Part6_00040r_o2.jpg",
            "transcription": ""
        },
        {
            "pageid": 115973,
            "pagefilename": "d24e215bf5cfc0575f52ea29804d974f.jpg",
            "pageorigfilename": "Ayer_MS_83b_VL02_Part6_00042_o2.jpg",
            "transcription": ""
        },
        {
            "pageid": 115974,
            "pagefilename": "5a0120ddfff2a5e16d8036a7c243b9e5.jpg",
            "pageorigfilename": "Ayer_MS_83b_VL02_Part6_00043_o2.jpg",
            "transcription": ""
        },
        {
            "pageid": 115975,
            "pagefilename": "8258d10275de9dbac38ede1b1816f718.jpg",
            "pageorigfilename": "Ayer_MS_83b_VL02_Part6_00044r_o2.jpg",
            "transcription": ""
        },
        {
            "pageid": 115976,
            "pagefilename": "73f86d66b56b7e8228440e0c0ddb2a00.jpg",
            "pageorigfilename": "Ayer_MS_83b_VL02_Part6_00045_o2.jpg",
            "transcription": ""
        },
        {
            "pageid": 115977,
            "pagefilename": "a45aa4b7fc89dbfe895544be5ffb661c.jpg",
            "pageorigfilename": "Ayer_MS_83b_VL02_Part6_00046_o2.jpg",
            "transcription": ""
        },
        {
            "pageid": 115978,
            "pagefilename": "fc512912c48e070c9d8424b542e7ae97.jpg",
            "pageorigfilename": "Ayer_MS_83b_VL02_Part6_00047r_o2.jpg",
            "transcription": ""
        },
        {
            "pageid": 115979,
            "pagefilename": "4ea8b51dab91df80132fada10949608c.jpg",
            "pageorigfilename": "Ayer_MS_83b_VL02_Part6_00050_o2.jpg",
            "transcription": ""
        },
        {
            "pageid": 115980,
            "pagefilename": "142d5ad9dccfa61f953c8baab849f2ba.jpg",
            "pageorigfilename": "Ayer_MS_83b_VL02_Part6_00051_o2.jpg",
            "transcription": ""
        },
        {
            "pageid": 115981,
            "pagefilename": "e68437e1a2ba59520c46988965aaa91d.jpg",
            "pageorigfilename": "Ayer_MS_83b_VL02_Part6_00052_o2.jpg",
            "transcription": ""
        }
    ]
}