{
    "id": "1404",
    "cataloglink": "https://archives.newberry.org/repositories/2/resources/6",
    "pages": [
        {
            "pageid": 121372,
            "pagefilename": "a8c9a21b5f26a371ee5f89eadba30132.jpg",
            "pageorigfilename": "992747888805867_midwest_ms_anderson_box_00001_fl_00046_000001.jpg",
            "transcription": "Dear Lucile- \n\n        Just got back to Chicago after a great time in New Orleans.  I wrote the book I had on my chest when I left New York - Now I'll have to settle down and give it another going over. Think I've got something. Cant be too sure yet.\n        New Orleans was a delightful experience.  I wrote something about it for the March number of a little magazine called Double Dealer.  You'll find it at the Nash or Pagan book shop - I think.  Would send it myself if I had it.\n       Anyway New Orleans got"
        },
        {
            "pageid": 121373,
            "pagefilename": "bcf94fcec813cd3650a2a747a63d9ada.jpg",
            "pageorigfilename": "992747888805867_midwest_ms_anderson_box_00001_fl_00046_000003.jpg",
            "transcription": "me hard, the place, people and everything.  Some day I'll tell you more about it.  New York and Chicago are like twice closed fists.  New Orleans is an open handed place.\n\n       Tennessee has to give up her  place here April 1st as they are tearing the building she lives in down.  She is going out with me to the little place I have at- Palos Park .  That- is only an hour out of Chicago.  Write me 19th Floor Brooks Bldg - Chicago until April 1st after that Palos Park.\n          The point is that when you come out"
        },
        {
            "pageid": 121374,
            "pagefilename": "7bfb594c868994813feaddec0ceaa870.jpg",
            "pageorigfilename": "992747888805867_midwest_ms_anderson_box_00001_fl_00046_000005.jpg",
            "transcription": "here both of us would like to see as much of you as we can.  Will Jerry come.  The place at Palos is tiny but if you could spend some days out there we'd manage to skirmish up a room in the neighborhood.  After April 15th it should be fine in the country. And we got a fliver.\nThe thing I started in New Orleans may go to 3 or 4 volumes - can't tell - but it is told in Episodes and the 1st episode is a complete thing in itself.  Its a great theme - if I'm able to"
        },
        {
            "pageid": 121375,
            "pagefilename": "c255b5df355c25ae60f04354d3a762ca.jpg",
            "pageorigfilename": "992747888805867_midwest_ms_anderson_box_00001_fl_00046_000007.jpg",
            "transcription": "really handle it.\nWell I know how you feel about spring. the blood begins to dance when the sap starts up the trees.\nThe New Testament thing is experimental.  What I suppose I'm after is a new intensity of purse? handling.\nGee I hope you come out and old Jerry too.\nSherwood."
        },
        {
            "pageid": 121376,
            "pagefilename": "cbd637e29f65f9b949bee855d06312ef.jpg",
            "pageorigfilename": "992747888805867_midwest_ms_anderson_box_00001_fl_00046_000009.jpg",
            "transcription": "Dear Lucile - \n\n        Tell Jerry I'm off in the morning.  I'm leaving keys to my place with Elizabeth - for him.  Should be gone about 3 or 4 weeks.  Feel as though I were going to work..\n       I love you both.\n           Sherwood."
        },
        {
            "pageid": 121377,
            "pagefilename": "5979e581eff96bf8ee67353d75e5537a.jpg",
            "pageorigfilename": "992747888805867_midwest_ms_anderson_box_00001_fl_00046_000011.jpg",
            "transcription": "Dear Lucile - how shall I tell you, how much both Elizabeth and myself enjoyed being at your house.\nI owe you a good deal that I shall never get paid back.\nIt just happens that there are very few people in the world to whom Elizabeth and I can go and in whose presence we can frankly accept each other as a man and woman who love.\nYour own and Jerry's free acceptance was very sweet to both of us.  I've been pretty starved for this woman, for a long time - I mean for her in just the healthy atmosphere you two give off.\nLucile dear, I've been pretty mixed up.  I've helped mix others.  Don't quit loving me and I've a notion I'll come out all right yet.\nSherwood.\nAnd dear, I know you and Jerry will never get into the stressed state I was long in and into which I perhaps unconsciously tried to drag others."
        },
        {
            "pageid": 121378,
            "pagefilename": "253877bc09df7c008056cbc163e70a71.jpg",
            "pageorigfilename": "992747888805867_midwest_ms_anderson_box_00001_fl_00046_000013.jpg",
            "transcription": "My dear Lucile,\nIt is the morning of July 1st.  I went over the the Overland Hotel and found your letter. It had been there several days perhaps.  They neglected to send it to my present address 33 E Liberty St. We had cold weather here until 10 days ago - now it is dry and hot.\n\nFor 25 days we have had evening walks every day and I haunt the tracks.  Horses and negroes seem to be the two things in America that give me the most ascetic pleasure.  A flatnosed tobacco chewing man is trading? a thoroughbred.  In the house what a noble bearing.  No lousy inferiority complex here.  The small peaceful head is thrown back. The legs are clean? and hard, the breast is strong.  All the flesh of the body quivers with desire to run.  We"
        },
        {
            "pageid": 121379,
            "pagefilename": "79cea538527cf25c3ee96ecf4e2d7cc0.jpg",
            "pageorigfilename": "992747888805867_midwest_ms_anderson_box_00001_fl_00046_000015.jpg",
            "transcription": "2\npay something dear woman for our silly minds, don't we - always wanting to be great not daring to just even the sands out, and let her ride.\n\nThere is an amazing good library here and I read as I haven't for years.  Tried to paint but got only one clean fine thing out of about 20.  Think my nerves were pretty much shattered when I came and I hadn't enough energy for writing and painting both.  \nMany Marriages did pretty well but the dealers got scared of it.  You know I had a little flare of success last year.  I think it is over.  The magazines are scared of me again aside from the financial thing its better. ?\nIf I have luck here and get what I'm after E & I"
        },
        {
            "pageid": 121380,
            "pagefilename": "b0ce244323df3fe31861eca411fdaa30.jpg",
            "pageorigfilename": "992747888805867_midwest_ms_anderson_box_00001_fl_00046_000017.jpg",
            "transcription": "3\nwill probable go south in the fall, probable to Mobile, or New New Orleans.  I do want to try to paint a little, but there is this book to finish and a novel eating at me.  I'm going to pretty much stay away from Chicago and New York.  Whether I'm any good or not what I want is to work.  The eternal quibbling about the purposes of art, its drift etc gets on my nerves, knocks me flat.\n\n Maybe you and Jerry will both come back to the American negroes in the end.  The plan of putting the negroes on the stage, making him paint sing etc etc is all nonsense.  What he has to give is rather noble but is physical - like the running horse or dog, I'm pretty sure of that."
        },
        {
            "pageid": 121381,
            "pagefilename": "70b4b93166f343cb85c9c83ea814c8c7.jpg",
            "pageorigfilename": "992747888805867_midwest_ms_anderson_box_00001_fl_00046_000019.jpg",
            "transcription": "4\nThe thing now - for the painter is very elusive but there is something new too. Golden? color - a bright flirting thing.  If the deserts and mountains ever produce artist they will be telling of delicate - half mystic fairy tales.  The same influences that produced Egyptian art perhaps but pretty foreign to an American. There should really be all asectic marks in the holes in the mountains at the desert's edge. A strange land. Some day I'll tell you two more about it.\n\nThe indians are something too, rather hasten in their dieing? than the anglo saxon in their victory."
        },
        {
            "pageid": 121382,
            "pagefilename": "def74c18f34ca0f1e99f86164341d633.jpg",
            "pageorigfilename": "992747888805867_midwest_ms_anderson_box_00001_fl_00046_000021.jpg",
            "transcription": "5\n\n E? is well. She makes me always happy to be in her presence. I love her as I have no one else.\n\nIt is rather odd how little influence any of my other women have had on me.\n\n I think I'm going to get well, ?nn afraid. I won't do what I want. God I want a lot, in work,\n\nbut I'm going to  keep at it, keep going after it.\n\n We'll meet again. Jerry will get into his swing,and so will you.  It's hell for us Americans to get some\n\nsmac?, isn't it.\n\n All my love\n    Sherwood"
        },
        {
            "pageid": 121383,
            "pagefilename": "9d28f56ede2131c6bc6027b7d5ab1e55.jpg",
            "pageorigfilename": "992747888805867_midwest_ms_anderson_box_00001_fl_00048_000001.jpg",
            "transcription": "Dear Charles,\nMy thoughts have turned to you a lot, these days.  My feeling, I think, is half that of a father to  a son, have pure feeling of companionship, as brother.\nIt may be you will escape the dark valley I have been in, that I am walking in now.  I have had to fight for and defend the artist in myself.\nOnce Jack Dempsey said a marvelous thing to me.  We were both at a photographers.  He walked in his quick, nervous half brutal way across the room and grabbed my shoulder. \"Were you ever a fighter?\""
        },
        {
            "pageid": 121384,
            "pagefilename": "25568e815aedec9603d53ba8d5896bc4.jpg",
            "pageorigfilename": "992747888805867_midwest_ms_anderson_box_00001_fl_00048_000002.jpg",
            "transcription": "2\nhe said - \"you have the shoulders, the frame of a fighter.\n\n  \"No,\" I said, and then I thought \"yes I am a fighter,\" I said.\n  It was just before he fought Tunney.  \"It is worse winning than losing\", he said.\n\nThe curse of victory, fought for.  You walk over the scene and see the dead and wounded,  There are groans and people weep.\nI have hurt so many people Charles - trying to keep some integrity."
        },
        {
            "pageid": 121385,
            "pagefilename": "2bab105cf94bb286922fb262ca1c7712.jpg",
            "pageorigfilename": "992747888805867_midwest_ms_anderson_box_00001_fl_00048_000003.jpg",
            "transcription": "3\nDo I dare go on existing. A few tales, told at last. to push something out a little beyond the horizon - no one caring much.\nThe painter fighting, just for ground on which his easel may stand, the writer for his quiet room, his thoughts word fitted against word as salves.\n\nI take you very close to myself because I feel in you brotherhood in it - whatever it is.\n\nS.A."
        },
        {
            "pageid": 121386,
            "pagefilename": "a3e6f84071cef34ea8517e72ed61ba43.jpg",
            "pageorigfilename": "992747888805867_midwest_ms_anderson_box_00001_fl_00048_000004.jpg",
            "transcription": "[[duplicate image of page 992747888805867_midwest_ms_anderson_box_00001_fl_00048_000001.jpg ]"
        },
        {
            "pageid": 121387,
            "pagefilename": "2c717585add71f7ebdd6bbfbe74310d7.jpg",
            "pageorigfilename": "992747888805867_midwest_ms_anderson_box_00001_fl_00048_000006.jpg",
            "transcription": "1929?\nDear Charles -\n\n I have got another sale made. Am very sure I soon get three or four more.  This is to Mr\n\nBurton Emmett - a rich Jenind?\n\n I came home - sad - made sad by the house, haunted by E with whom I failed.\n  Nates? ol ranch? I keep thinking also of poor E's difficulties - and the impossibility of helping.\n\nI am sending Katherine a little wood cut I liked.\n\n Lots of love to you both.\n  Sherwood A."
        },
        {
            "pageid": 121388,
            "pagefilename": "693718a92532fb55df45da5c492e2b2c.jpg",
            "pageorigfilename": "992747888805867_midwest_ms_anderson_box_00001_fl_00048_000008.jpg",
            "transcription": "1929\nCharles - The more I think of it the more anxious am I to have you come sooner \nhere for a time of painting. I wish I could write something very successfully\nquickly so I could send you any money needed for a bit more  lisness?\n\n Perhaps I will.\nI wish you could get to feel about money as a thing unimportant -"
        },
        {
            "pageid": 121389,
            "pagefilename": "fd5818b643899408213efac2bcf3001a.jpg",
            "pageorigfilename": "992747888805867_midwest_ms_anderson_box_00001_fl_00048_000009.jpg",
            "transcription": "except when it can be applied so:\n\n This was a gift - Clear light over the hills on Sunday afternoon.  M\n\ncan tell you how wonderful it is sometimes.  The light such as you see in Corot.\n\n The solid forms are so marvelous here - all firm and lusious, like naked women,\n\nlarge and firm lying asleep everywhere. I never have"
        },
        {
            "pageid": 121390,
            "pagefilename": "34d6d77adbbfa9669c3728e04c0a6dc4.jpg",
            "pageorigfilename": "992747888805867_midwest_ms_anderson_box_00001_fl_00048_000010.jpg",
            "transcription": "3\nseen such a country - nature so rich and full of mith?\n\n It might be too much for you at first.\n I'll come back and see you before the winter is over.\n  I am going to try to go to work. I seem rich to myself. We'll see.\nLots of love to K"
        },
        {
            "pageid": 121391,
            "pagefilename": "ee7beb385e862f8b6788d757cb145ae0.jpg",
            "pageorigfilename": "992747888805867_midwest_ms_anderson_box_00001_fl_00048_000012.jpg",
            "transcription": "1929\nDear Charles and Kath\n\n I wrote Terence to send your Vanity Fair. He was delighted with\n\nthe little story. Alas, you see how I make the mill grind your\nyamin?.  I shall, I am afraid capitalize more of your dear selves.\n\n I shall send Part"
        },
        {
            "pageid": 121392,
            "pagefilename": "5f8147d0c0ae0e53fe3ab09bd2af1edb.jpg",
            "pageorigfilename": "992747888805867_midwest_ms_anderson_box_00001_fl_00048_000013.jpg",
            "transcription": "2\nof New York in a day or two.\n\n S.A."
        },
        {
            "pageid": 121393,
            "pagefilename": "1cfeca9ad5070a77b5765e959d1784df.jpg",
            "pageorigfilename": "992747888805867_midwest_ms_anderson_box_00001_fl_00048_000015.jpg",
            "transcription": "1929?   (Owned by J R Copenhaver) \nDear Charles - The painting - \"bottles and apples\" is very living. I needed it. It is in my room, over the desk where I work.\nThe other, \"trees\" is in the print shop, over the folding machine.  I have the Cezanne in the room upstairs with \"bottles\nand apples\".  It stands up - I mean your ovr? painting, in this distinguished company.\n\n You know the one with the grapes. Please varnish this for shipment. I have a chance to sell it for $250.00 to a rich\n\nmerchant here. If I succeed put it in a gold frame before shipping. The thing may not come off but, on the other hand\nit may. I think it would be better to dispose of a few this way than to fasr? with a show, for the next few years.\nLet the show come"
        },
        {
            "pageid": 121394,
            "pagefilename": "e49c62882367d2a33e839fc875307078.jpg",
            "pageorigfilename": "992747888805867_midwest_ms_anderson_box_00001_fl_00048_000016.jpg",
            "transcription": "2\ntwo or three years from now.\n\n I remember so sharply my own experience - all such assiads? that one you saw and be and at the\n\npacking place, mulling over your work, pouring over it, patronizing you.\n\n \"Pretty good for a young man\" etc\n \"He has good color? but cannot draw.\"\n \"If he could only paint\"\nIn time you get hardened to it of course but it is a tad time.\n\n I have been thinking of Kath almost constantly these last few days, loving her a lot."
        },
        {
            "pageid": 121395,
            "pagefilename": "5dae031a82cf150deae98003c011aa07.jpg",
            "pageorigfilename": "992747888805867_midwest_ms_anderson_box_00001_fl_00048_000017.jpg",
            "transcription": "3\n\n Of course I was just playing with the story you and Kath told. It happens that way.\n\nYou jump off from Kath and have Helen. Hell Helen is not Kath. You understand.\n\n Often you would write a sentence. Let us suppose I start with Mary.\n I write \"She was a slender woman with red hair.\"\n  Now where has Mary gone. This red haired woman is not her.\n It is like a new color, introduced into a painting.\n   I shall be in New York"
        },
        {
            "pageid": 121396,
            "pagefilename": "27eb7364785d8d45db541e8764f59298.jpg",
            "pageorigfilename": "992747888805867_midwest_ms_anderson_box_00001_fl_00048_000018.jpg",
            "transcription": "4\nbetween the 15 & 20th of March.\n\n If the picture sale should happen to come off I'll wire.\n\nIt is worth the gamble of Varnishing.\n\n  Lots of love."
        },
        {
            "pageid": 121397,
            "pagefilename": "ba2a65930eac41ff7d00306d0aa77738.jpg",
            "pageorigfilename": "992747888805867_midwest_ms_anderson_box_00001_fl_00048_000020.jpg",
            "transcription": "Dear Charles & Kath\n\n First $300 in. I am sending my check - thought maybe checks would\n\ngather ?main mikman? in this, for the time.\n\nThird from Otto Kahn. I am send a copy his delightful letter midosd?.\n Both your letters made me happy.\n     Sherwood."
        },
        {
            "pageid": 121398,
            "pagefilename": "3b357409366bfad322b5376d45e64cbd.jpg",
            "pageorigfilename": "992747888805867_midwest_ms_anderson_box_00001_fl_00048_000022.jpg",
            "transcription": "on side  August 1929\non top  Marion\nDear Charles - I think of you going out to paint every day. Fall coming on and then winter - the changing scene. Now\nthat I have got these few things of yours away here I am quite sure your determination to let yourself go -\ntoward color - in light.\n\n There was a young man here who has spent the summer in Paris. He saw your things on the wall. He lives in\n\nPhiladelphia. The other day he was talking to me. He said that, having been with your things here he felt new\nstrength and delicacy in your color than in any of the things seen over there by the younger men about whom a \nfuss is being made.\n\n He began talking about wanting to get one of your things. I told him I thought he might have one of the oils for\n\n$50.00.  I am pretty sure the thing to do is to get a few, scattered around.\n\n He expressed that it might be well to let you make the"
        },
        {
            "pageid": 121399,
            "pagefilename": "37952dd5db7e3533c0553ecb31d8e0f6.jpg",
            "pageorigfilename": "992747888805867_midwest_ms_anderson_box_00001_fl_00048_000023.jpg",
            "transcription": "2\nselection. He did not think he would have the money before about December.\n\n He likes the oils but wanted a small one if possible. This because he may have to live in \nrestricted quarters, a small room I dare say.\n His people have money but he has none yet. If you think best I will send your address and you select one to\n\nsend to him.\n\n There are so few houses in which paintings may be hung. I took the green water color to a colonial house here.\n\nIt is full of antique furniture. Well I hung it on the wall. I couldn't bear it there after a week. It was like a nice\ncountry boy with curly hair and clean blue"
        },
        {
            "pageid": 121400,
            "pagefilename": "605c87482eefee82adf04bb6cdd83519.jpg",
            "pageorigfilename": "992747888805867_midwest_ms_anderson_box_00001_fl_00048_000024.jpg",
            "transcription": "3\nupes?, say in a ?ang of New York literary men.  I woke up in the night, thinking of it up there, and went and\ngot it the next morning.\n\n Now it is over my desk, being just right. I shall take it to Washington with me.\n You wont get things like that every day, or every week, don't expect to. I'll let it go some day, to one of the men?, or\n\nthe $300 thing or I'll sell it for $300_ not less.\n\n And I will have to know who gets it. There may be some opportunities in Washington.\n John m?ais he will be here Tuesday of next week. I'll write often we have talked and I know more of his plans.\n It is so hard to keep any dignity in every day life."
        },
        {
            "pageid": 121401,
            "pagefilename": "609bdc63c2d5c6566a416660b5407898.jpg",
            "pageorigfilename": "992747888805867_midwest_ms_anderson_box_00001_fl_00048_000026.jpg",
            "transcription": "at top  1929  over\nCharles\n\n Katharine wrote me about you and the Van Gogh books. I hope you will keep them a long time.\n\nIt is an annoying story.\n\n I think that in Renoir and Van Gogh you get the two things of which you once wrote me  - the\n\nman going toward God and the man going down into earth and finding God there too. Perhaps I\nthink Renoir the healthies man.\n\n The terrible thing about most of the God men? is that they seem to identify themselves with God. \"I\n\nam myself this thing.\"  Van Gogh escaped all that - A terrible humbleness saved him.\n\n A thing apparently Van Go - crossed out Renoir never had at all.\n Both sevect? men though.\n I have been working hard. I hope to see you soon.\n\nA fine Christmas to you\n\n    S.A."
        },
        {
            "pageid": 121402,
            "pagefilename": "e382f527e6bc0f289d6c42b351e77ded.jpg",
            "pageorigfilename": "992747888805867_midwest_ms_anderson_box_00001_fl_00048_000028.jpg",
            "transcription": "2\n\n   his house, very quietly and eloquently furnished. I went in there and had te.  The rich collections with paints. \n\nHow paintings have a kind of quality too although they are little little girls, all the wonders of womanhood ahead.\n\n In this case, the woman being say 37 - well you see.\n We talked gentle and nicely. There were paintings everywhere. At my back was a Carot figure, finely finished\n\nand fat, a Coerbet landscape\n\n We were served tea very quietly and elegantly. you felt \" We are ever swore in here, said God I am\n\nshit etc.\"  Not that that is so necessary.\n\n  Then we went to the galleries  All this owned by one man.   Of course he is nice, let people in.\n\nI don't know what you can? do.  If you have a civilization where one man has"
        },
        {
            "pageid": 121403,
            "pagefilename": "7c750828881d5685049d50546760d4d4.jpg",
            "pageorigfilename": "992747888805867_midwest_ms_anderson_box_00001_fl_00048_000030.jpg",
            "transcription": "3\nten, fifteen, or fifty, while some artist hasn't a cent.\n\n It has always been like this though. I should think they could \n\nsmell themselves stinking.  I guess maybe they do.  This must be\nwhy they buy paintings, to make the smell greater in houses.\n\n There was a glorious Renoir the richest I have ever seen - rich\n\nlike heady wine.\n\n The Phydrns? were in finality tenden?. You should both see [[maes\n\nPhydras?]]. They are hard to see.\n\n There were some Bareards? too. They have quality. You felt bells\n\nennging? in them.\n\n Of course I realized - no use saying anything to him. He wouldn't ni  pently sen?\n\nbuy anything less than a $1000.\n\n Some habn? would have to take up a man, or sti? would"
        },
        {
            "pageid": 121404,
            "pagefilename": "14121ac08845be3f68321bb0f82b3c42.jpg",
            "pageorigfilename": "992747888805867_midwest_ms_anderson_box_00001_fl_00048_000032.jpg",
            "transcription": "4\nhave to be made.\n\n It was interesting that he had quite a lot of Maurer - that resulting from a stir I made\n\nabout Maurer several years ago.\n\n It depend on money coming in whether or not I shall stay here.\n You tell John I'll be ?anting? him. Really the ? are no good. They are ugly, even\n\nwhen they are beautiful paintings. It's a puzzle."
        },
        {
            "pageid": 121405,
            "pagefilename": "925ad53b6bfbe6c232fee15051ad8b88.jpg",
            "pageorigfilename": "992747888805867_midwest_ms_anderson_box_00001_fl_00048_000034.jpg",
            "transcription": "I think it would be a great mistake to waste any time at all,\n\nthinking of form, as form.  It is one of the things artists, and most of all half artists, babble\nof when their minds are most vacant.\n\n Form is of canest? content. It is nothing else, can be nothing else. A tree has bark, fiber, sap, leaves, limbs, twigs.\n It can  perdes? and exist and not grow in the soil of your own being.  It is so with women too.\n\nThe great thing is to let yourself be the tree, the sky, the earth. Enter in to your inheritance. It is difficult and can only\nhappen auely?, as between a man and a woman."
        },
        {
            "pageid": 121406,
            "pagefilename": "654dd4bc2317f2f56c7c1af367dc4fab.jpg",
            "pageorigfilename": "992747888805867_midwest_ms_anderson_box_00001_fl_00048_000035.jpg",
            "transcription": "2\n\nMy meaning is that life is not so separated from art. How often I go away from the\n\npresence of talking artists into the street the field.\n\n What I want is there. If I go in and come out alive?, ever now and then, in the end these same \n\npeople who say I have no form will be prattling at the \"form\" in my work.\n\n I'll see you soon.\n   S.A."
        },
        {
            "pageid": 121407,
            "pagefilename": "84751088fb02f03aff4588e45b508c7c.jpg",
            "pageorigfilename": "992747888805867_midwest_ms_anderson_box_00001_fl_00048_000037.jpg",
            "transcription": "1930\nDear Charles.\n\n I will send the Lady Chatterly today. I think it a revolutionary book - perhaps the great book\n\nof our times.\n\n The painting came. I got the big one, jugs, bottles and apples in the gold frame in which I had the other\n\nlarge still life.\n\n The pot with flowers I'm having framed.  I have sent the large still life - bottles, the blue clothes? and apples\n\non the table To"
        },
        {
            "pageid": 121408,
            "pagefilename": "25d986b8607681c07fc0a90fa765e3cb.jpg",
            "pageorigfilename": "992747888805867_midwest_ms_anderson_box_00001_fl_00048_000038.jpg",
            "transcription": "2\nMaurice Lang - of Washington. who is to put in $100 in the pot.\n\n These new things have something beyond what you have had before.\n\nThere is an increased quiet elegance and strength. The color glows.\nIt is more subtle, and stronger.   You always need Clin? Charles. \nI never knew a painter with"
        },
        {
            "pageid": 121409,
            "pagefilename": "c901b69c0d17ed8b4f6868b4f1b5b777.jpg",
            "pageorigfilename": "992747888805867_midwest_ms_anderson_box_00001_fl_00048_000039.jpg",
            "transcription": "3\nless dirt in him. It is a constant joy to see that this is so.\n\n Sometime ago you said something about art needing joy.\n\nYou are getting it.\n\n I shall pass on to Miss Copenhaver either the green trees\n\nor the little blocked in native cedar? that is so lovely\n\n All of these things will be where they can"
        },
        {
            "pageid": 121410,
            "pagefilename": "5e9e5319cb76b8f555b96c78d9b7e83f.jpg",
            "pageorigfilename": "992747888805867_midwest_ms_anderson_box_00001_fl_00048_000040.jpg",
            "transcription": "4\nbe had for a show later, when the time comes for the one man show.\n\n I think Charles that, in going to Bel-Air, which I suppose is the last\n\nthing now, you should feel yourself a man and a painter. You have\nso proven that. Take what you want. Do not let the intensity of the\nfamily life"
        },
        {
            "pageid": 121411,
            "pagefilename": "3ae40324271eab2053fbe5b208783d81.jpg",
            "pageorigfilename": "992747888805867_midwest_ms_anderson_box_00001_fl_00048_000041.jpg",
            "transcription": "5\nintrude. I've a feeling that perhaps you and Mr Persy?\nmay get at each other a little. It could be worth trying for.\n\n I have the large self portrait John did of himself. It wants joy in nature - the\n\nthing you have - but it has fine paint quality and stands up beautifully\n\n You have sure made"
        },
        {
            "pageid": 121412,
            "pagefilename": "1cf04b2315ebf68f00d08e9d406d4462.jpg",
            "pageorigfilename": "992747888805867_midwest_ms_anderson_box_00001_fl_00048_000042.jpg",
            "transcription": "6\nmy work come? live again.\n\n Don't have any fear of the future Charles.\n\nWe'll sure pull it off some way. It is\nmiraclous? to me that you have escaped just that\ndamn fool thing in painting the Msslanany? and\nare indulging in in prose.\n\n Love  Sherwood"
        },
        {
            "pageid": 121413,
            "pagefilename": "9249cca1d84912c0e3bfb1e53f6f239c.jpg",
            "pageorigfilename": "992747888805867_midwest_ms_anderson_box_00001_fl_00048_000043.jpg",
            "transcription": "I have a great desire to see you do some people. It would\n\nbe wonderful if you could get rite a few  portraits the same jars in oiles"
        },
        {
            "pageid": 121414,
            "pagefilename": "5fffa48d6dffb30981a0987026578789.jpg",
            "pageorigfilename": "992747888805867_midwest_ms_anderson_box_00001_fl_00048_000044.jpg",
            "transcription": "page out of order\n2\nin a pretty deep valley with Tanen wally? on all sides of me. It has seemed at times that all people\nI loved and who loved me were immeasurably far away.  It was as though you had gone away, over some\ndeep ocean and my voice could not reach you.\n\n Now it seems to me I am a little coming up to the surface again.\n It is partly the thing that I hope you Charles may avoid. But how can it be avoided. A man\n\npublishes a book or hangs a picture. He does it with some humility but such mean motives are attributed to\nhim, there is such a wallowing that he ends up by feeling dirty, dirty, dirty.\n\n For some reason I seem to be a person about whom a controversy must always go on. with every\n\nnew book I feel this invasion. Perhaps painters never quite have to go through that.\n\n You are right about the town and the country here. Temporarily,"
        },
        {
            "pageid": 121415,
            "pagefilename": "f0e3b435eeb4a06c3a8194d8cb43c5f1.jpg",
            "pageorigfilename": "992747888805867_midwest_ms_anderson_box_00001_fl_00048_000046.jpg",
            "transcription": "Dear Charles.\n\n I am at home again. I drove up through Alabama and the Carolinas waiting? for\n\nyou & John. My dates in Chicago - to lecture art there are from April 22 into early May. \nI dont know yet whether John will want to come that early. I have written him to ask.\n\n I have had good days and bad days. I keep going. Now I am working away at the\n\nspeeches, feeling that, as long as I am in it I should give the best I have.\n\n It will be rather fun, I hope - or time of a kind of debauch as pro?h  I fell fairly strong for it.\n I am anxious about your show - not so much for its ? cinn? but out of fear that you may have to\n\ngo through a bad time. The vulgar and the cheap we have been always with us.\n\n Anyway Charles we have yet to hang onto our faith in our"
        },
        {
            "pageid": 121416,
            "pagefilename": "ae6445567fa2d893eba9e07e26d06aec.jpg",
            "pageorigfilename": "992747888805867_midwest_ms_anderson_box_00001_fl_00048_000047.jpg",
            "transcription": "2\nown way. The inner coauld in which we at last try to reach is as ena?l as their world.\n\nI wish I could say - \"set fire to the houses.\"  I cant of course. We have to try to keep\n\nthe quee talanes? between deprecation and their damn swaywss fone? way.\n\n The best I know is the fact, for me that men like you exist.  That others are in the game ? too.\n\nIts the only thing to hold onto I know about.\n\n Sherwood"
        },
        {
            "pageid": 121417,
            "pagefilename": "80de6d16e1979ce6684e2cbff451dde4.jpg",
            "pageorigfilename": "992747888805867_midwest_ms_anderson_box_00001_fl_00048_000049.jpg",
            "transcription": "Friday    1930  over\n\nMy Dear Charles -\n I am up early - shortly after six - a cold frosty morning. I have been working in the streets. Last night, at 2 in\n\nthe morning, a man called me, on the long distance phone from a plantation, far down in Louisiana.\n\n He was drunk - had read something of mine that had stirred him. When he got drunk he wanted to talk to me - He\n\nwas strangely incoherent and profane about life. It was a queer uncanny experience.\n\n When I see you I will tell you about him.\n I am leaving for Chicago - to speak out there - never in my life having been las? in the word.\n I am looking forward to the rearrangement of my life here and to another kind of life later on. It is going to be a hard\n\nfew months ahead.\n\n You all know how I wanted to see you - what it would have meant to me. This summer, if you do achieve\n\nsome freedom, I will come and be near you.  My love to you and Katharine.\n\n  Sherwood"
        },
        {
            "pageid": 121418,
            "pagefilename": "3c40fdef97da0b70fd5aac139c9a5715.jpg",
            "pageorigfilename": "992747888805867_midwest_ms_anderson_box_00001_fl_00048_000051.jpg",
            "transcription": "letterhead    New Walton, De Funiak Springs. Fla.                   Cherokee, Tallahasse, Fla.                      Harbeson Hotel, Camp Walton, Fla.\n\n                                                            SAN CARLOS HOTEL\n                                                        W.B. Harbeson, Proprietor\n                                                         L.C. Hagler, Manager\n\nDear Charles -\n\n I am way down here on the coast. I get these terrible restless times - so I drift. It\n\nseems to help a little. I was, for several days in the Carolinas and in Georgia.\nNow I am going on to New Orleans and thru Asive?.\n\n In the Carolinas and Georgia all the soil is red and yellow. There are yenab? fields\n\nall blood red. The pine trees all go straight up, as though reaching for something.\nThe roads are always clean.\n\n They wound the pine trees to get turpentine,"
        },
        {
            "pageid": 121419,
            "pagefilename": "c1f0d076deaadb1671ab5925897ac0cc.jpg",
            "pageorigfilename": "992747888805867_midwest_ms_anderson_box_00001_fl_00048_000052.jpg",
            "transcription": "letterhead text New Walton, De Funiak Springs, Fla.   Cherokee, Tallahasse, Fla.    Harbeson Hotel, Camp Walton, Fla.\nSAN CARLOS HOTEL\nW. B. Harbeson, Proprietor. L.C. Hagler, Manager. Pensacola, Florida.\nend of letterhead text\n2\nmaking great ghashes in the trunks. It hurts  you to see them.\nThe esads? are maeacluses? They seem painted, rather than real.\nAbout Mereau? there are thousands of acres of ?aches They all burst into blossom while I was there.  \nThe whole landscape suddenly got that light floating quality you get in Chinese painting.\nThe people are miserably poor.  Yesterday I was all day in yellow sand woods.  As you get closer"
        },
        {
            "pageid": 121420,
            "pagefilename": "14290b5d3da9396831901a8e7d3956f0.jpg",
            "pageorigfilename": "992747888805867_midwest_ms_anderson_box_00001_fl_00048_000053.jpg",
            "transcription": "letterhead text  New Walton, De Funiak Springs, Fla.    Cherokee, Tallahasse, Fla.     Harbeson Hotel, Camp Walton, Fla.\nSAN CARLOS HOTEL\nW. B. Harbeson, Proprietor. L.C. Hagler, Manager. Pensacola, Florida.\nend of letterhead text\n3\ntoward the coast it is all like a  nce? bottom.\nPeople live in qualar sic - squalor, in misery.\nOnly the negroes are nice.  They go seemlessly along, finely built men and women. You see women\nwith great loads talanad? on their heads, fine broad-hipped women .\n\nIt is that upper and middle swath, Georgia and the Carolinas that is gorgeous for color\n\nLove,\nS.A."
        },
        {
            "pageid": 121421,
            "pagefilename": "94933cd84282764bc299702dc2aa514a.jpg",
            "pageorigfilename": "992747888805867_midwest_ms_anderson_box_00001_fl_00048_000055.jpg",
            "transcription": "1930? over\nDear John and Charles,\nThere is a tickllish point that I am trying to get at.  I have a notion you may arrive at it in various ways, you try this and try that.\n\nWhat happens to you in the world of painting happens in prose too.\nYou say \"everything is in color, in keeping all loose, let form grow out of color.\"\n\nWe say, \"everything is in feeling. Let yourself feel dance?  and dance? into lives.\"\n\n It is all right but there is a kind of insanity in it too.  You can't let yourself be quite loose. \n As a prose writer and that is to say, \"as a man who pretends to depict human life\", I have you as far\n\nI suppose as a man can go on the road of feeling.  I have wrecked myself time and again.\nIt is all involved in sex. I think my generation went"
        },
        {
            "pageid": 121422,
            "pagefilename": "03917503fdc917b0cc408258fef760d0.jpg",
            "pageorigfilename": "992747888805867_midwest_ms_anderson_box_00001_fl_00048_000056.jpg",
            "transcription": "2\na little nuts on that, myself with them.  We rather centered all feeling in sex.\n\nWe got insults , did a kind of work , I dare say, I know I have done a few beautiful tales.\nYou see there was the easier times of the Puritans.  You, Charles and Kath know about that.\n\nJust because they had power they were overplayed, given a position of too much importance.\n\nTheir power over the residual men is really gone, I think\n\nWe have got new people growing  up who will never know the inhibitions against which we fought.\n\n You see I am like the painter who having gone to color and then to color and then to color turns suddenly\n\nagain to live - the thing Charles spoke of in his letter."
        },
        {
            "pageid": 121423,
            "pagefilename": "19b491a00aaf834d2ddd47cfd264318c.jpg",
            "pageorigfilename": "992747888805867_midwest_ms_anderson_box_00001_fl_00048_000057.jpg",
            "transcription": "3\nI have imagined a man who has taken color as sex. Do you see?    It is an attempt to return into the\npagan world.\n\n But this isn't a pagan world. It is a world of machines.\n When I called what I am trying to do \"No God\", I meant only that old gods are dead.\nYou have to find in your way new centers of relationships. \n\nI for example have to come, for the time at least, out of a world where I depend on feeling (color) and have to begin\nagain to observe with my eyes, hear with my ears the definate facts.\n\n  It is the same thing you mean when you go back to drawing.\n  You say to these inner voices \"be still now for a time,\"\n  I imagine our whole"
        },
        {
            "pageid": 121424,
            "pagefilename": "7086dc3932e07dbadd3c9bedfb463c7d.jpg",
            "pageorigfilename": "992747888805867_midwest_ms_anderson_box_00001_fl_00048_000058.jpg",
            "transcription": "4\nlives must be spent in this kind of going back and forth.\n\n We gather what we can and retire with it, try to let it do something inside of us, to us,\n\nlike Keck, having become inpregnated.\n\n Of course it is terribly confusing working, as we writers must, in lives.  But after all\n\nnot more surprising than your difficulties. I understand that.\n\n I think the gods are there but they are far off just now.\n The thing about which you spoke was sold to Scribners, I'll send it when printed.\n   Last week I did a short thing for Vanity Fair, almost devoid of color, almost pure drawing. \n\nI called it These Mountains, just a description of your people, all my own feeling aftart?.\nI think it was good.\n\n  Love to All\n   Sherwood"
        },
        {
            "pageid": 121425,
            "pagefilename": "05e0dba01078390e7b58c2d09e3d2bde.jpg",
            "pageorigfilename": "992747888805867_midwest_ms_anderson_box_00001_fl_00048_000060.jpg",
            "transcription": "July 1930\nDear Charles.\n\n I am writing from Marion - where I have gone to ? the papers for a few days, to let Bob off.\n Surely, will send the $100 before Aug 1st. Came as early in Aug as possible, not of course\n\nto kill anything you have started there.\n\n I think this - that it is a fight against ugliness - in ourselves and others. Often? we lose the fight.\n\nMy living is terribly stormy some times.\n\n It is lonely enough in life, God knows - without the few men of our own times who feel as we do, \n\nsome where about - its too lonely"
        },
        {
            "pageid": 121426,
            "pagefilename": "cd2c7be5fede871c52c33b0dedde093f.jpg",
            "pageorigfilename": "992747888805867_midwest_ms_anderson_box_00001_fl_00048_000061.jpg",
            "transcription": "As I have told you, dear Charles, all of this means a lot to Bob, John and I.\n\n I have a scheme to get the 1st hundred that will ? you. When it is worked out\n\nwill write you\n\n Tell Kack that John is waiting and will send a more intelligent floor plan of the house.\n\nJohn and I were talking it over. The house will be charming when K has been at it a week. You\nwill come at? first nite my house while you work it out."
        },
        {
            "pageid": 121427,
            "pagefilename": "d8070bc0b1088ff2fea64d8f6ee5400d.jpg",
            "pageorigfilename": "992747888805867_midwest_ms_anderson_box_00001_fl_00048_000062.jpg",
            "transcription": "3\n\nThere are any number of things I haven't mentioned to Kack.\n For example she must grease the pig with kerosene - to prevent lice.\n\nThis is wonderful for the hands.    \n\n  Then there is the care to be taken to the bull.\n\nThat is a task. She goes a bit crazy, darbe?    Through ? etc.  Hanging onto\nher does something wonderful to the ankles.\n\n There are other things for the development of the female figure. I may make a list for Kack."
        },
        {
            "pageid": 121428,
            "pagefilename": "592ea75e1ebb5a9d2afa689031480edc.jpg",
            "pageorigfilename": "992747888805867_midwest_ms_anderson_box_00001_fl_00048_000063.jpg",
            "transcription": "4\nhandy I'm glad. It will make the whole place so much more alive and\nworth while for all of us too.\n\n Love to you both.\n   S.A."
        }
    ]
}