{
    "id": "840",
    "cataloglink": "https://webvoyage.carli.illinois.edu/nby/cgi-bin/Pwebrecon.cgi?DB=local&v1=1&BBRecID=184881",
    "pages": [
        {
            "pageid": 54726,
            "pagefilename": "2f28f4f78db5783cfa4195dcd368a40c.jpg",
            "pageorigfilename": "GR_3338_0001_o2.jpg",
            "transcription": "New Orleans 6th Dec 1806\nDear Minor,\nI have been expecting to hear from you for several weeks past; but every mail has brought me nothing but disappointment. I have finished and completed the purchase of Deer & Ship Islands for 1700 Ps?. The original title in favor of Caminada is in my possession and the property made over to me by an act passed in a Notary's Office Independent of the original title, wch I have had recorded in the Recorders office, I have taken out of the Spanish book or Register of Grants, a copy of the minutes of this Grant in favor of Caminada. In short I have shewn the titles to some lawyers, who all agree that no grant can be better cimented. --This affair & Clark's unpaid note of 1000. C. has left me without the necessary funds to carry his survey into effect -- however it must be done somehow or other. -- Now I think we may consider ourselves in the number of the rich proprietors of this Territory. Add to this that I have just received a letter from my Brother that is settled in London who congratulates me on my land speculation, as in a conversation with Munroe he learned that our Florida"
        },
        {
            "pageid": 54727,
            "pagefilename": "c4b4f33c078a04af42ce5fdbf32728ec.jpg",
            "pageorigfilename": "GR_3338_0002_o2.jpg",
            "transcription": "land purchases must and would be valid. -- \nObserve that for your share of the two islands you must, on the first of May next, have here at my disposal 850 Dols. wch is half of purchase money. -- If you think that of late I have as usual, (according to you), been talking, and talking of doing this, that & tother, and after all let every thing slip thru my fingers, let me know. -- I am damnably in want of money, and think I can get 10,000 Ps? for 1/4 in Ship island. -- What do you think of this? -- Would if be proper or not to dispose of 1/4, and run no risks? -- The following is a copy of the original grant.  \"Dr. Bernardo \"Galvez &c.  Vistas las antecedentes diligencias practicadas por Dr. Francisco Caminada, ? ? ? \"el derecho que tiene sobre la posesion de las dos Islas \"de Venador y de Navios, situadas frente las costa de \"Biloxey, y reconociendo estar regladas al orden de \"Agrimensura &c &c.  Usando de las facultad que \"El Rey nos tiene conferida, Ortorgamos in su real nombre al Real Dr. Frco. Caminada la posesion de las \"citadas dos Islas de Venador y de Navios; para ? como propias disponga de ellas, y las usufrute ? \"Damos la presente, firmada de Nuestro puno \"sellada con el sello de Nuestras armas y refundada \"del infrascripto secretario ? Su Magistad, de este"
        },
        {
            "pageid": 54728,
            "pagefilename": "1a6d9ce0f947a74146ac041eeee0c714.jpg",
            "pageorigfilename": "GR_3338_0003_o2.jpg",
            "transcription": "\"Gobierno, in la Nueva Orleans a primo de Agosto \"de 1781. = Bdo de Galvez. = Por mando de Su Senoria \"Manl. Andres Lopez de Armesto. = Registrado en el \"Libro de Registro que sirve para dho: fin encl oficio \"de mi cargo, a foras de Buelta Catorce.  Na Orleans \"y Noviembre 8 de 1781. = Leonardo Marenge = Escrisc de Guerra.\" = I feel quite pleased with myself -- I don't know how far you may be so. -- I have seen the mad dog several times. -- I never was less pleased wth him in my life, than I am at present. -- I dare not commit my sentiments & opinions to paper. -- Suffice it to say that I am horribly disgusted. -- Selfishness is ?edly inseparable from the heart of man - but carried? beyond a certain degree, it is highly criminal and hateful.  I leave you to make your comments. -- I see that the . . . . . of the little Prince, Mad dog &c. is all fudge, as Renner says. -- Nay, I believe it is more. -- I take it to be imposture and knavery, to say no worse.  Yesterday the Gallows a ete etrenne, much to the general satisfaction of the enraged Americans, by the execution of a Spaniard - a forzado, who ought to have been gibetted 15 years ago for three murders -- & who since then has committed others. -- We are well here, and all join together in every thing that is friendly to yourself and family.\nYour's sincerly\nPower\nP.S. I want a barrel of good cotton seed."
        },
        {
            "pageid": 54729,
            "pagefilename": "bac96143fdeb0bbbbd7f3fc10f4f9245.jpg",
            "pageorigfilename": "GR_3338_0004_o2.jpg",
            "transcription": "Wilkinson is going to fortify the town on a grand scale -- What are these fellows afraid of now? --\n\nStephen Minor Esqre\nNatchez"
        }
    ]
}