{
    "id": "1316",
    "cataloglink": "https://i-share-nby.primo.exlibrisgroup.com/permalink/01CARLI_NBY/i5mcb2/alma991200408805867",
    "pages": [
        {
            "pageid": 107231,
            "pagefilename": "775050783a2ec5ef7af18ae1a4b5ce7c.jpg",
            "pageorigfilename": "Ayer_MS_1267_00001_o2.jpg",
            "transcription": ""
        },
        {
            "pageid": 107232,
            "pagefilename": "0a6fdf7dfc23896461d2dbe95042a507.jpg",
            "pageorigfilename": "Ayer_MS_1267_00002r_o2.jpg",
            "transcription": ""
        },
        {
            "pageid": 107233,
            "pagefilename": "66333cc4ed05b8c2c8596cc89ffdbc1a.jpg",
            "pageorigfilename": "Ayer_MS_1267_00002_o2.jpg",
            "transcription": ""
        },
        {
            "pageid": 107234,
            "pagefilename": "663a865fe211dab2f095c571adf45c27.jpg",
            "pageorigfilename": "Ayer_MS_1267_00003r_o2.jpg",
            "transcription": ""
        },
        {
            "pageid": 107235,
            "pagefilename": "8de6b22f457943225c822373b79806cb.jpg",
            "pageorigfilename": "Ayer_MS_1267_00003_o2.jpg",
            "transcription": ""
        },
        {
            "pageid": 107236,
            "pagefilename": "b1a823d495866d63e1c8188691614b24.jpg",
            "pageorigfilename": "Ayer_MS_1267_00004_o2.jpg",
            "transcription": ""
        },
        {
            "pageid": 107237,
            "pagefilename": "af661d20566ca83258d353668aec7f93.jpg",
            "pageorigfilename": "Ayer_MS_1267_00005r_o2.jpg",
            "transcription": ""
        },
        {
            "pageid": 107238,
            "pagefilename": "b5ca31b79a1bd0d87567dfe82a640317.jpg",
            "pageorigfilename": "Ayer_MS_1267_00006r_o2.jpg",
            "transcription": ""
        },
        {
            "pageid": 107239,
            "pagefilename": "34639801dc956ad1248190278e5c4183.jpg",
            "pageorigfilename": "Ayer_MS_1267_00006_o2.jpg",
            "transcription": ""
        },
        {
            "pageid": 107240,
            "pagefilename": "56185cf2bea9e03b8b03d380ef6c99dc.jpg",
            "pageorigfilename": "Ayer_MS_1267_00007r_o2.jpg",
            "transcription": ""
        },
        {
            "pageid": 107241,
            "pagefilename": "ea087ba967960b0056a075cb33689eac.jpg",
            "pageorigfilename": "Ayer_MS_1267_00007_o2.jpg",
            "transcription": ""
        },
        {
            "pageid": 107242,
            "pagefilename": "94f4503222ff40e5da3c54964604d950.jpg",
            "pageorigfilename": "Ayer_MS_1267_00008r_o2.jpg",
            "transcription": ""
        },
        {
            "pageid": 107243,
            "pagefilename": "14f30d0ac61293d1f50712de370dd3aa.jpg",
            "pageorigfilename": "Ayer_MS_1267_00008_o2.jpg",
            "transcription": ""
        },
        {
            "pageid": 107244,
            "pagefilename": "1633a1bed9ae5440eba9a15440be796a.jpg",
            "pageorigfilename": "Ayer_MS_1267_00009r_o2.jpg",
            "transcription": ""
        },
        {
            "pageid": 107245,
            "pagefilename": "f5bb67923d7828bd49aebc28a3f57de1.jpg",
            "pageorigfilename": "Ayer_MS_1267_00009_o2.jpg",
            "transcription": ""
        },
        {
            "pageid": 107246,
            "pagefilename": "b536e94d5ed91c2e46698f132bb067d2.jpg",
            "pageorigfilename": "Ayer_MS_1267_00010r_o2.jpg",
            "transcription": ""
        },
        {
            "pageid": 107247,
            "pagefilename": "7c41d38386e75be2e52636307c7ae557.jpg",
            "pageorigfilename": "Ayer_MS_1267_00010_o2.jpg",
            "transcription": ""
        },
        {
            "pageid": 107248,
            "pagefilename": "99d9ad49e37ad4d43f286fdf57294065.jpg",
            "pageorigfilename": "Ayer_MS_1267_00011r_o2.jpg",
            "transcription": ""
        },
        {
            "pageid": 107249,
            "pagefilename": "83807a9b0208cce2d203745e6e9418fe.jpg",
            "pageorigfilename": "Ayer_MS_1267_00011_o2.jpg",
            "transcription": ""
        },
        {
            "pageid": 107250,
            "pagefilename": "623fae5ab37e43ae336bb219010ace9f.jpg",
            "pageorigfilename": "Ayer_MS_1267_00012r_o2.jpg",
            "transcription": ""
        },
        {
            "pageid": 107251,
            "pagefilename": "2c9980cbbf60cabb3372d42f49acfb9d.jpg",
            "pageorigfilename": "Ayer_MS_1267_00012_o2.jpg",
            "transcription": ""
        },
        {
            "pageid": 107252,
            "pagefilename": "6085194f85adbc674e83f79e9b7789d5.jpg",
            "pageorigfilename": "Ayer_MS_1267_00013r_o2.jpg",
            "transcription": ""
        },
        {
            "pageid": 107253,
            "pagefilename": "9674b2d2feb0093702549c4570a15025.jpg",
            "pageorigfilename": "Ayer_MS_1267_00013_o2.jpg",
            "transcription": ""
        },
        {
            "pageid": 107254,
            "pagefilename": "7a276b3561f561b67cc65272950620ed.jpg",
            "pageorigfilename": "Ayer_MS_1267_00014r_o2.jpg",
            "transcription": ""
        },
        {
            "pageid": 107255,
            "pagefilename": "41fe4a7adf6045b37949cbc733e503d1.jpg",
            "pageorigfilename": "Ayer_MS_1267_00014_o2.jpg",
            "transcription": ""
        },
        {
            "pageid": 107256,
            "pagefilename": "859fcb16d959d99d74a0fbcb556c5036.jpg",
            "pageorigfilename": "Ayer_MS_1267_00015r_o2.jpg",
            "transcription": ""
        },
        {
            "pageid": 107257,
            "pagefilename": "1b2943b02765f856981f42a26373aafc.jpg",
            "pageorigfilename": "Ayer_MS_1267_00015_o2.jpg",
            "transcription": ""
        },
        {
            "pageid": 107258,
            "pagefilename": "35553bf7455aec23d80a55ddd9e18b03.jpg",
            "pageorigfilename": "Ayer_MS_1267_00016r_o2.jpg",
            "transcription": ""
        },
        {
            "pageid": 107259,
            "pagefilename": "20415d3750b663660388c648903fc876.jpg",
            "pageorigfilename": "Ayer_MS_1267_00016_o2.jpg",
            "transcription": ""
        },
        {
            "pageid": 107260,
            "pagefilename": "2bf1b6ceb29b45d132cff2821a4eba73.jpg",
            "pageorigfilename": "Ayer_MS_1267_00017r_o2.jpg",
            "transcription": ""
        },
        {
            "pageid": 107261,
            "pagefilename": "f6f29a8cda919c24a5c3c43acbfec2f3.jpg",
            "pageorigfilename": "Ayer_MS_1267_00017_o2.jpg",
            "transcription": ""
        },
        {
            "pageid": 107262,
            "pagefilename": "74a59db71ec09739f4188f083b3a6bf5.jpg",
            "pageorigfilename": "Ayer_MS_1267_00018r_o2.jpg",
            "transcription": ""
        },
        {
            "pageid": 107263,
            "pagefilename": "aa18e33b16a31af7b7cba973a3a84b1d.jpg",
            "pageorigfilename": "Ayer_MS_1267_00018_o2.jpg",
            "transcription": ""
        },
        {
            "pageid": 107264,
            "pagefilename": "f4f213caafb9ae1314cafaf1d3f0e456.jpg",
            "pageorigfilename": "Ayer_MS_1267_00019_o2.jpg",
            "transcription": ""
        },
        {
            "pageid": 107265,
            "pagefilename": "e5c8107476c26144b8984e3a5ad45da3.jpg",
            "pageorigfilename": "Ayer_MS_1267_00020r_o2.jpg",
            "transcription": ""
        },
        {
            "pageid": 107266,
            "pagefilename": "025fb2703bf13b207932be70884c65aa.jpg",
            "pageorigfilename": "Ayer_MS_1267_00021r_o2.jpg",
            "transcription": ""
        },
        {
            "pageid": 107267,
            "pagefilename": "fd25fb303e0957b5db067a0d98d2deb0.jpg",
            "pageorigfilename": "Ayer_MS_1267_00021_o2.jpg",
            "transcription": ""
        },
        {
            "pageid": 107268,
            "pagefilename": "dfaebafcc696485d6947e67bc0bb74a0.jpg",
            "pageorigfilename": "Ayer_MS_1267_00022r_o2.jpg",
            "transcription": ""
        },
        {
            "pageid": 107269,
            "pagefilename": "cde6f6d42d94430d0817182280e0560d.jpg",
            "pageorigfilename": "Ayer_MS_1267_00022_o2.jpg",
            "transcription": ""
        },
        {
            "pageid": 107270,
            "pagefilename": "7101417c76cb2600e963c088e66886f9.jpg",
            "pageorigfilename": "Ayer_MS_1267_00023r_o2.jpg",
            "transcription": ""
        },
        {
            "pageid": 107271,
            "pagefilename": "a3f971d137005bb2e753b06354325982.jpg",
            "pageorigfilename": "Ayer_MS_1267_00023_o2.jpg",
            "transcription": ""
        },
        {
            "pageid": 107272,
            "pagefilename": "9e891fe46ba6911d11aa65ecc2e96e5c.jpg",
            "pageorigfilename": "Ayer_MS_1267_00024r_o2.jpg",
            "transcription": ""
        },
        {
            "pageid": 107273,
            "pagefilename": "0ba767832283a8a2989f6a2b92bf8b63.jpg",
            "pageorigfilename": "Ayer_MS_1267_00024_o2.jpg",
            "transcription": ""
        },
        {
            "pageid": 107274,
            "pagefilename": "4d4ed8d9b6ff449a4a1293948b4da915.jpg",
            "pageorigfilename": "Ayer_MS_1267_00025r_o2.jpg",
            "transcription": ""
        },
        {
            "pageid": 107275,
            "pagefilename": "2ce702dbf6c0f8ae2dfb4c8795489e69.jpg",
            "pageorigfilename": "Ayer_MS_1267_00025_o2.jpg",
            "transcription": ""
        },
        {
            "pageid": 107276,
            "pagefilename": "029a9cbcdb1aff94b397f2e0917ffbb2.jpg",
            "pageorigfilename": "Ayer_MS_1267_00026r_o2.jpg",
            "transcription": ""
        },
        {
            "pageid": 107277,
            "pagefilename": "f1401fa94e2778ba317fca929b222d37.jpg",
            "pageorigfilename": "Ayer_MS_1267_00026_o2.jpg",
            "transcription": ""
        },
        {
            "pageid": 107278,
            "pagefilename": "193820abc862ed41eafada98b0145876.jpg",
            "pageorigfilename": "Ayer_MS_1267_00027r_o2.jpg",
            "transcription": ""
        },
        {
            "pageid": 107279,
            "pagefilename": "c0de908b421605bd6904adbd57d3b8e8.jpg",
            "pageorigfilename": "Ayer_MS_1267_00027_o2.jpg",
            "transcription": ""
        },
        {
            "pageid": 107280,
            "pagefilename": "a62cf97f9fee9ed55775bff56f1aea61.jpg",
            "pageorigfilename": "Ayer_MS_1267_00028r_o2.jpg",
            "transcription": ""
        },
        {
            "pageid": 107281,
            "pagefilename": "ef3b7c9ac4f7ce5b1070fe047bb57c62.jpg",
            "pageorigfilename": "Ayer_MS_1267_00028_o2.jpg",
            "transcription": ""
        },
        {
            "pageid": 107282,
            "pagefilename": "cb31e072237660ddd335a9de35a52895.jpg",
            "pageorigfilename": "Ayer_MS_1267_00029r_o2.jpg",
            "transcription": ""
        },
        {
            "pageid": 107283,
            "pagefilename": "92cf6afe53fd95dee2d65c074ca5230c.jpg",
            "pageorigfilename": "Ayer_MS_1267_00029_o2.jpg",
            "transcription": ""
        },
        {
            "pageid": 107284,
            "pagefilename": "b3ce5cce54940405e93d138c0d6d5882.jpg",
            "pageorigfilename": "Ayer_MS_1267_00030r_o2.jpg",
            "transcription": ""
        },
        {
            "pageid": 107285,
            "pagefilename": "65ee329bb4180b906c8635c234c401d8.jpg",
            "pageorigfilename": "Ayer_MS_1267_00030_o2.jpg",
            "transcription": ""
        },
        {
            "pageid": 107286,
            "pagefilename": "85d034a953c5eb3cdf8fa77b8bbcc78d.jpg",
            "pageorigfilename": "Ayer_MS_1267_00031r_o2.jpg",
            "transcription": ""
        },
        {
            "pageid": 107287,
            "pagefilename": "c87cf78055d4c3f65de81d4a067d0392.jpg",
            "pageorigfilename": "Ayer_MS_1267_00031_o2.jpg",
            "transcription": ""
        },
        {
            "pageid": 107288,
            "pagefilename": "af9f99f61c694a524caba80be2833bc5.jpg",
            "pageorigfilename": "Ayer_MS_1267_00032r_o2.jpg",
            "transcription": ""
        },
        {
            "pageid": 107289,
            "pagefilename": "6aa3c5a64f830d4aae06fc5da082bd51.jpg",
            "pageorigfilename": "Ayer_MS_1267_00032_o2.jpg",
            "transcription": ""
        },
        {
            "pageid": 107290,
            "pagefilename": "1113352cd665690c225b23b59ea2bb36.jpg",
            "pageorigfilename": "Ayer_MS_1267_00033r_o2.jpg",
            "transcription": ""
        },
        {
            "pageid": 107291,
            "pagefilename": "beb1fb67b8dd9bddc24aad755fa66e7c.jpg",
            "pageorigfilename": "Ayer_MS_1267_00033_o2.jpg",
            "transcription": ""
        },
        {
            "pageid": 107292,
            "pagefilename": "f669d2136d50d1e7ca0fd29b72bdfeef.jpg",
            "pageorigfilename": "Ayer_MS_1267_00034r_o2.jpg",
            "transcription": ""
        },
        {
            "pageid": 107293,
            "pagefilename": "cf8b2b782a9f32a045df237ca41df5a2.jpg",
            "pageorigfilename": "Ayer_MS_1267_00034_o2.jpg",
            "transcription": ""
        },
        {
            "pageid": 107294,
            "pagefilename": "20ee40a6a366bd06f08dcee20da2872e.jpg",
            "pageorigfilename": "Ayer_MS_1267_00035r_o2.jpg",
            "transcription": ""
        },
        {
            "pageid": 107295,
            "pagefilename": "80ad344c22d5d765076ab36624d198a0.jpg",
            "pageorigfilename": "Ayer_MS_1267_00035_o2.jpg",
            "transcription": ""
        },
        {
            "pageid": 107296,
            "pagefilename": "6b5ecda04b9cf22927330979491adf32.jpg",
            "pageorigfilename": "Ayer_MS_1267_00036r_o2.jpg",
            "transcription": ""
        },
        {
            "pageid": 107297,
            "pagefilename": "7ca247d039004dc4d29826d618c2f35b.jpg",
            "pageorigfilename": "Ayer_MS_1267_00036_o2.jpg",
            "transcription": ""
        },
        {
            "pageid": 107298,
            "pagefilename": "eb4f7a78eafd644ec993afcdd380c5a7.jpg",
            "pageorigfilename": "Ayer_MS_1267_00037r_o2.jpg",
            "transcription": ""
        },
        {
            "pageid": 107299,
            "pagefilename": "6c862618b88791abfc3ec8df38661222.jpg",
            "pageorigfilename": "Ayer_MS_1267_00037_o2.jpg",
            "transcription": ""
        },
        {
            "pageid": 107300,
            "pagefilename": "319480d4d083ca1e3309cb8cbc88d5de.jpg",
            "pageorigfilename": "Ayer_MS_1267_00038r_o2.jpg",
            "transcription": ""
        },
        {
            "pageid": 107301,
            "pagefilename": "4a546c38bc5d79f4fa5b97592784a28e.jpg",
            "pageorigfilename": "Ayer_MS_1267_00038_o2.jpg",
            "transcription": ""
        },
        {
            "pageid": 107302,
            "pagefilename": "33e6412aed143348cfcedaa8adf9b7da.jpg",
            "pageorigfilename": "Ayer_MS_1267_00039r_o2.jpg",
            "transcription": ""
        },
        {
            "pageid": 107303,
            "pagefilename": "20ae14f4264eee69f8f9d6c78f931ae4.jpg",
            "pageorigfilename": "Ayer_MS_1267_00039_o2.jpg",
            "transcription": ""
        },
        {
            "pageid": 107304,
            "pagefilename": "a06308a2861464cd4bd5c8cdc4066b9c.jpg",
            "pageorigfilename": "Ayer_MS_1267_00040r_o2.jpg",
            "transcription": ""
        },
        {
            "pageid": 107305,
            "pagefilename": "10e6ade4bef55f52cc3e24ca33b77aea.jpg",
            "pageorigfilename": "Ayer_MS_1267_00040_o2.jpg",
            "transcription": ""
        },
        {
            "pageid": 107306,
            "pagefilename": "b9e2ffe11ddf6773f82c03f4d9fa18ca.jpg",
            "pageorigfilename": "Ayer_MS_1267_00041r_o2.jpg",
            "transcription": ""
        },
        {
            "pageid": 107307,
            "pagefilename": "fec00aa62feb07df436ea465f89a9500.jpg",
            "pageorigfilename": "Ayer_MS_1267_00041_o2.jpg",
            "transcription": ""
        },
        {
            "pageid": 107308,
            "pagefilename": "fd9daabcead63fbdb35f792e870d6d69.jpg",
            "pageorigfilename": "Ayer_MS_1267_00042r_o2.jpg",
            "transcription": ""
        },
        {
            "pageid": 107309,
            "pagefilename": "9094fa2ce32ba51605a6dedfd6de761d.jpg",
            "pageorigfilename": "Ayer_MS_1267_00042_o2.jpg",
            "transcription": ""
        },
        {
            "pageid": 107310,
            "pagefilename": "1abe5ea1352d3fe426dd141f493a2f07.jpg",
            "pageorigfilename": "Ayer_MS_1267_00043r_o2.jpg",
            "transcription": ""
        },
        {
            "pageid": 107311,
            "pagefilename": "ee5d0d3d009334760e5c129105b2371f.jpg",
            "pageorigfilename": "Ayer_MS_1267_00043_o2.jpg",
            "transcription": ""
        },
        {
            "pageid": 107312,
            "pagefilename": "1a9af5dedf3e293d5f0bc5e080656f72.jpg",
            "pageorigfilename": "Ayer_MS_1267_00044r_o2.jpg",
            "transcription": ""
        },
        {
            "pageid": 107313,
            "pagefilename": "e24ad05f90475e7ec1ac4c6d111605b1.jpg",
            "pageorigfilename": "Ayer_MS_1267_00044_o2.jpg",
            "transcription": ""
        },
        {
            "pageid": 107314,
            "pagefilename": "90f0a6ec61659bd443463cb9e9d23d18.jpg",
            "pageorigfilename": "Ayer_MS_1267_00045r_o2.jpg",
            "transcription": ""
        },
        {
            "pageid": 107315,
            "pagefilename": "81e5e521fff9a7f67929d0e90caf4f2b.jpg",
            "pageorigfilename": "Ayer_MS_1267_00045_o2.jpg",
            "transcription": ""
        },
        {
            "pageid": 107316,
            "pagefilename": "e61a27c82487bb3803da441e2d2ac927.jpg",
            "pageorigfilename": "Ayer_MS_1267_00046r_o2.jpg",
            "transcription": ""
        },
        {
            "pageid": 107317,
            "pagefilename": "31673cb0a361c44ec3eaecd9a07a0593.jpg",
            "pageorigfilename": "Ayer_MS_1267_00046_o2.jpg",
            "transcription": ""
        },
        {
            "pageid": 107318,
            "pagefilename": "f7c6028a98507d0de386d9506dbb99e9.jpg",
            "pageorigfilename": "Ayer_MS_1267_00047r_o2.jpg",
            "transcription": ""
        },
        {
            "pageid": 107319,
            "pagefilename": "475c8282bb381bc9afc6e230639acffc.jpg",
            "pageorigfilename": "Ayer_MS_1267_00047_o2.jpg",
            "transcription": ""
        },
        {
            "pageid": 107320,
            "pagefilename": "d77ae2f694b25b133006e193e7ba7c3d.jpg",
            "pageorigfilename": "Ayer_MS_1267_00048r_o2.jpg",
            "transcription": ""
        },
        {
            "pageid": 107321,
            "pagefilename": "6f3483cc0dea9a2077af7b570c5f1ba5.jpg",
            "pageorigfilename": "Ayer_MS_1267_00048_o2.jpg",
            "transcription": ""
        },
        {
            "pageid": 107322,
            "pagefilename": "96e195c3243551d5d0ad330e0da1ce6e.jpg",
            "pageorigfilename": "Ayer_MS_1267_00049r_o2.jpg",
            "transcription": ""
        },
        {
            "pageid": 107323,
            "pagefilename": "cea97a83d10238601b8eee5c28ebafc2.jpg",
            "pageorigfilename": "Ayer_MS_1267_00049_o2.jpg",
            "transcription": ""
        },
        {
            "pageid": 107324,
            "pagefilename": "6376c6a8470d4a2621a322436387d512.jpg",
            "pageorigfilename": "Ayer_MS_1267_00050r_o2.jpg",
            "transcription": ""
        },
        {
            "pageid": 107325,
            "pagefilename": "2ecb1f2c0d9d7b25d676b53b10bc981f.jpg",
            "pageorigfilename": "Ayer_MS_1267_00050_o2.jpg",
            "transcription": ""
        },
        {
            "pageid": 107326,
            "pagefilename": "b79320e36a45eca04d4dfcffdd3035f5.jpg",
            "pageorigfilename": "Ayer_MS_1267_00051r_o2.jpg",
            "transcription": ""
        },
        {
            "pageid": 107327,
            "pagefilename": "45ade9379a685e4edb9e017947807e6d.jpg",
            "pageorigfilename": "Ayer_MS_1267_00051_o2.jpg",
            "transcription": ""
        },
        {
            "pageid": 107328,
            "pagefilename": "b829bd97bed92ff7d8f8f83525d808c3.jpg",
            "pageorigfilename": "Ayer_MS_1267_00052r_o2.jpg",
            "transcription": ""
        },
        {
            "pageid": 107329,
            "pagefilename": "e2e4b28c29cbf8e3a48a5d5d8b76c91c.jpg",
            "pageorigfilename": "Ayer_MS_1267_00052_o2.jpg",
            "transcription": ""
        },
        {
            "pageid": 107330,
            "pagefilename": "bf171a76202aeca15b41f1bc61850e89.jpg",
            "pageorigfilename": "Ayer_MS_1267_00053r_o2.jpg",
            "transcription": ""
        },
        {
            "pageid": 107331,
            "pagefilename": "c99844b786dafd61ea9d5031a9cecdff.jpg",
            "pageorigfilename": "Ayer_MS_1267_00053_o2.jpg",
            "transcription": ""
        },
        {
            "pageid": 107332,
            "pagefilename": "67d297032981c9d8852628b71d788d43.jpg",
            "pageorigfilename": "Ayer_MS_1267_00054r_o2.jpg",
            "transcription": ""
        },
        {
            "pageid": 107333,
            "pagefilename": "ab69982d498378a0581bdfed933f39b4.jpg",
            "pageorigfilename": "Ayer_MS_1267_00054_o2.jpg",
            "transcription": ""
        },
        {
            "pageid": 107334,
            "pagefilename": "5e1d145e86abb506c48213bc73cd2961.jpg",
            "pageorigfilename": "Ayer_MS_1267_00055r_o2.jpg",
            "transcription": ""
        },
        {
            "pageid": 107335,
            "pagefilename": "7f1fd43dc770bfd3f0c78bbe0ac829c5.jpg",
            "pageorigfilename": "Ayer_MS_1267_00055_o2.jpg",
            "transcription": ""
        },
        {
            "pageid": 107336,
            "pagefilename": "b7883d1a44c39ee099633be36fc8a4b6.jpg",
            "pageorigfilename": "Ayer_MS_1267_00056r_o2.jpg",
            "transcription": ""
        },
        {
            "pageid": 107337,
            "pagefilename": "371a57eb37b1c3152f6d7dcffd8254d0.jpg",
            "pageorigfilename": "Ayer_MS_1267_00056_o2.jpg",
            "transcription": ""
        },
        {
            "pageid": 107338,
            "pagefilename": "7177c16b773f43e707747668a5937393.jpg",
            "pageorigfilename": "Ayer_MS_1267_00057r_o2.jpg",
            "transcription": ""
        },
        {
            "pageid": 107339,
            "pagefilename": "ac04fd2d88ea72907845174d00442083.jpg",
            "pageorigfilename": "Ayer_MS_1267_00057_o2.jpg",
            "transcription": ""
        },
        {
            "pageid": 107340,
            "pagefilename": "ac86e15478acdf7b2828d227efdd7ae6.jpg",
            "pageorigfilename": "Ayer_MS_1267_00058r_o2.jpg",
            "transcription": ""
        },
        {
            "pageid": 107341,
            "pagefilename": "125cfba7c5b0149d9f284ecf5ba49d45.jpg",
            "pageorigfilename": "Ayer_MS_1267_00058_o2.jpg",
            "transcription": ""
        },
        {
            "pageid": 107342,
            "pagefilename": "c209dca3f5364d218921b06579a8972a.jpg",
            "pageorigfilename": "Ayer_MS_1267_00059r_o2.jpg",
            "transcription": ""
        },
        {
            "pageid": 107343,
            "pagefilename": "f41dd4f61ec4f04464a14f4aebcfe208.jpg",
            "pageorigfilename": "Ayer_MS_1267_00059_o2.jpg",
            "transcription": ""
        },
        {
            "pageid": 107344,
            "pagefilename": "90b9e6e3c60a300ab6749d01afbd024f.jpg",
            "pageorigfilename": "Ayer_MS_1267_00060r_o2.jpg",
            "transcription": ""
        },
        {
            "pageid": 107345,
            "pagefilename": "3eba53b489de657b82d81bfee174a068.jpg",
            "pageorigfilename": "Ayer_MS_1267_00060_o2.jpg",
            "transcription": ""
        },
        {
            "pageid": 107346,
            "pagefilename": "2238739ec81cc240c8fd95dc3fd8dbab.jpg",
            "pageorigfilename": "Ayer_MS_1267_00061r_o2.jpg",
            "transcription": ""
        },
        {
            "pageid": 107347,
            "pagefilename": "f7b4bc06cae064f388fd7fc51808dc15.jpg",
            "pageorigfilename": "Ayer_MS_1267_00061_o2.jpg",
            "transcription": ""
        },
        {
            "pageid": 107348,
            "pagefilename": "340bd74cc6e3068bc3e0b2ff294f2650.jpg",
            "pageorigfilename": "Ayer_MS_1267_00062r_o2.jpg",
            "transcription": ""
        },
        {
            "pageid": 107349,
            "pagefilename": "dce167301551e64502f7f2a033b31f91.jpg",
            "pageorigfilename": "Ayer_MS_1267_00062_o2.jpg",
            "transcription": ""
        },
        {
            "pageid": 107350,
            "pagefilename": "3867a3b41eb249e916e6162c203bd480.jpg",
            "pageorigfilename": "Ayer_MS_1267_00063r_o2.jpg",
            "transcription": ""
        },
        {
            "pageid": 107351,
            "pagefilename": "9683c7529754e4541095cc0a646c07e4.jpg",
            "pageorigfilename": "Ayer_MS_1267_00063_o2.jpg",
            "transcription": ""
        },
        {
            "pageid": 107352,
            "pagefilename": "740a860ca21cb85431226bb530c50c6d.jpg",
            "pageorigfilename": "Ayer_MS_1267_00064r_o2.jpg",
            "transcription": ""
        },
        {
            "pageid": 107353,
            "pagefilename": "99cd34cbb377805cbc82c97752431840.jpg",
            "pageorigfilename": "Ayer_MS_1267_00064_o2.jpg",
            "transcription": ""
        },
        {
            "pageid": 107354,
            "pagefilename": "a30f2a365eb9bb31acb44a3f1374dff5.jpg",
            "pageorigfilename": "Ayer_MS_1267_00065r_o2.jpg",
            "transcription": ""
        },
        {
            "pageid": 107355,
            "pagefilename": "6a69ce77536527017ac893295735d411.jpg",
            "pageorigfilename": "Ayer_MS_1267_00065_o2.jpg",
            "transcription": ""
        },
        {
            "pageid": 107356,
            "pagefilename": "da323b49652e4e46028dc58f9a7c4bde.jpg",
            "pageorigfilename": "Ayer_MS_1267_00066r_o2.jpg",
            "transcription": ""
        },
        {
            "pageid": 107357,
            "pagefilename": "e610164b9edd51f0c57e1ee5e6090cce.jpg",
            "pageorigfilename": "Ayer_MS_1267_00066_o2.jpg",
            "transcription": ""
        },
        {
            "pageid": 107358,
            "pagefilename": "5a39c6d5e639f7370129afe12c424f31.jpg",
            "pageorigfilename": "Ayer_MS_1267_00070r_o2.jpg",
            "transcription": ""
        },
        {
            "pageid": 107359,
            "pagefilename": "59007ccb63c62b244af18fa5b23d49cc.jpg",
            "pageorigfilename": "Ayer_MS_1267_00071r_o2.jpg",
            "transcription": ""
        },
        {
            "pageid": 107360,
            "pagefilename": "75bdfb329ee0f8a05a919065804ca96e.jpg",
            "pageorigfilename": "Ayer_MS_1267_00071_o2.jpg",
            "transcription": ""
        },
        {
            "pageid": 107361,
            "pagefilename": "812887bbf167a8e35ba2ad3fd6ee9a82.jpg",
            "pageorigfilename": "Ayer_MS_1267_00072r_o2.jpg",
            "transcription": ""
        },
        {
            "pageid": 107362,
            "pagefilename": "762dda977008b16b22e08e6f5fd4500a.jpg",
            "pageorigfilename": "Ayer_MS_1267_00072_o2.jpg",
            "transcription": ""
        },
        {
            "pageid": 107363,
            "pagefilename": "e5c107a94106c4510bad97da8e0b72aa.jpg",
            "pageorigfilename": "Ayer_MS_1267_00073r_o2.jpg",
            "transcription": ""
        },
        {
            "pageid": 107364,
            "pagefilename": "a10a6ae38dced013178abe8b366acc74.jpg",
            "pageorigfilename": "Ayer_MS_1267_00073_o2.jpg",
            "transcription": ""
        },
        {
            "pageid": 107365,
            "pagefilename": "e3952df870dc3dbb99337d0a27cfa6ba.jpg",
            "pageorigfilename": "Ayer_MS_1267_00074r_o2.jpg",
            "transcription": ""
        },
        {
            "pageid": 107366,
            "pagefilename": "e863cd084df3b508274bcca3f1c3fb51.jpg",
            "pageorigfilename": "Ayer_MS_1267_00075r_o2.jpg",
            "transcription": ""
        },
        {
            "pageid": 107367,
            "pagefilename": "bbb58c9eddde34740d9a69a549c5d190.jpg",
            "pageorigfilename": "Ayer_MS_1267_00075_o2.jpg",
            "transcription": ""
        },
        {
            "pageid": 107368,
            "pagefilename": "32ee26d4306a94291f9c3ac81931ad6d.jpg",
            "pageorigfilename": "Ayer_MS_1267_00076r_o2.jpg",
            "transcription": ""
        },
        {
            "pageid": 107369,
            "pagefilename": "722bf2076bc33926be9dde5a6fad8fe8.jpg",
            "pageorigfilename": "Ayer_MS_1267_00076_o2.jpg",
            "transcription": ""
        },
        {
            "pageid": 107370,
            "pagefilename": "72324dd2312e0b13a4ac5b3d0eb6d619.jpg",
            "pageorigfilename": "Ayer_MS_1267_00077r_o2.jpg",
            "transcription": ""
        },
        {
            "pageid": 107371,
            "pagefilename": "8e498808dea24a51ca90c2c69a1dbaf8.jpg",
            "pageorigfilename": "Ayer_MS_1267_00079r_o2.jpg",
            "transcription": ""
        },
        {
            "pageid": 107372,
            "pagefilename": "a5b105025e1113408ae958c8c1695387.jpg",
            "pageorigfilename": "Ayer_MS_1267_00079_o2.jpg",
            "transcription": ""
        },
        {
            "pageid": 107373,
            "pagefilename": "d8f2e2e42ddd0e44fc5dfb65529e050f.jpg",
            "pageorigfilename": "Ayer_MS_1267_00082_o2.jpg",
            "transcription": ""
        }
    ]
}