{
    "id": "1327",
    "cataloglink": "https://i-share-nby.primo.exlibrisgroup.com/permalink/01CARLI_NBY/i5mcb2/alma991230488805867",
    "pages": [
        {
            "pageid": 109993,
            "pagefilename": "a254fca1241ee8590eebbd8654aa801e.jpg",
            "pageorigfilename": "Ayer_MS_1193-1_VL02_00187r_o2.jpg",
            "transcription": "51 del colegio de San Fernando la fundacion delas cinco Misiones, pero haviendo concluido la tercera parte, y teniendo lugar deunclear oicho Diario, tomo este' trabajo para que queden en estos quadernos recopilados, todas las noticias delo que ha'n trabajado los Misioneros demi Apostolico Colegio, en estas nuevas Misiones, y quedara' incompleta la noticia, sino o'mitiera.\nViva Jesus, Maria, y Jose'.\nDiario.\nDel viage, y descripcion delos oilartados? caminos que a' mayor Gloria de Dios Nuestro Sen~or,y de Muestro Rey, (que Dios guarde) hicieron los Misioneros Apostolicosdel Colegio de san Fernando de Mexico, del orden de Nuestro Serafico Padre San Francisco, quien? entregados delas Misiones dela California, a'ria? el Norte dela Peninsula desde la Mision Frontera llamada de Santa Mariadelos Angeles, hasta los Puertos de San Diego, y Monterrey toda tierra de Gentilidad. Enlos an~os del sen~or de mil setecientos setenta, y nueve, y mil setecientos, y mil setecientos setenta, de que fueron prontas resultas las fundaciones de las dos Misiones de San Diego, y San Carlos de Monterrey, nuebamente plantadas enlos Puertos de sus respectibos nombres, y las proximas dispociciones"
        },
        {
            "pageid": 109994,
            "pagefilename": "6b8f52f89596c7d823673f575a92d793.jpg",
            "pageorigfilename": "Ayer_MS_1193-1_VL02_00187_o2.jpg",
            "transcription": ""
        },
        {
            "pageid": 109995,
            "pagefilename": "bf4519210f4071f1a94de10089f83363.jpg",
            "pageorigfilename": "Ayer_MS_1193-1_VL02_00188r_o2.jpg",
            "transcription": ""
        },
        {
            "pageid": 109996,
            "pagefilename": "0335ba43149ed19c11fd18e967e5da8f.jpg",
            "pageorigfilename": "Ayer_MS_1193-1_VL02_00188_o2.jpg",
            "transcription": "para la fundacion de la tercera en la Playa del principio? de la Canal de Santa Barbara, con el Titulo de San Buenaventura.\nTodo ã direccion del unclear Don Jose' de Galvez, del consejo, y camara de su Magestad, en el Real, y supremo de Indias, Intendente de Essexcito? y Visitador de esta Nueva España.\nDescribelo.\nEl Padre Prior Fray Juan Crespi, Presidente, y Predicador? Apostolico del expresado Colegio, uno de los tres Caninantes Religiosos, antes Ministro dela Mision dela Purisima Concepcion en la California, y ha'ora? con-Ministro de la de San Carlos de Monterrey por la razon que expresa enel siguiente Prologo. \nPrologo.\nAunque fuimos tres los Misioneros del Colegio de San Fernando de Mexico, los que anduvimos los caminos que soy? a~referir, conbiene a~saver. el Reverendo Padre Fray Junipero Serra, Doctor, y Ex-Catedractico de primera de Sagrada Teologia, Comisario del Santo Oficio, y Presidente de todas las Misiones: El Padre Predicador Fray Francisco Gomez, y yo`. Me ordena mi Reverendo Padre Presidente que yo` des-"
        },
        {
            "pageid": 109997,
            "pagefilename": "fed7b4fdbc693393302a97fdb661bc74.jpg",
            "pageorigfilename": "Ayer_MS_1193-1_VL02_00189r_o2.jpg",
            "transcription": ""
        },
        {
            "pageid": 109998,
            "pagefilename": "67f265a412cb3458bb5dd8c482f102cd.jpg",
            "pageorigfilename": "Ayer_MS_1193-1_VL02_00189_o2.jpg",
            "transcription": ""
        },
        {
            "pageid": 109999,
            "pagefilename": "8e8928d8175535ca2b30458fa8e6d60c.jpg",
            "pageorigfilename": "Ayer_MS_1193-1_VL02_00190r_o2.jpg",
            "transcription": ""
        },
        {
            "pageid": 110000,
            "pagefilename": "487d72ac46c3a253f01784f64feeaf8f.jpg",
            "pageorigfilename": "Ayer_MS_1193-1_VL02_00190_o2.jpg",
            "transcription": ""
        },
        {
            "pageid": 110001,
            "pagefilename": "2518be90150f0d04b8a0b83585662ee2.jpg",
            "pageorigfilename": "Ayer_MS_1193-1_VL02_00191r_o2.jpg",
            "transcription": ""
        },
        {
            "pageid": 110002,
            "pagefilename": "4ca1420378debe8ee8d3e47f27b6bffc.jpg",
            "pageorigfilename": "Ayer_MS_1193-1_VL02_00191_o2.jpg",
            "transcription": ""
        },
        {
            "pageid": 110003,
            "pagefilename": "0e7d43808f3e4d447e1dbe317af64e59.jpg",
            "pageorigfilename": "Ayer_MS_1193-1_VL02_00192r_o2.jpg",
            "transcription": ""
        },
        {
            "pageid": 110004,
            "pagefilename": "bf5e564780c329c5094c6b1ad4c85a9c.jpg",
            "pageorigfilename": "Ayer_MS_1193-1_VL02_00192_o2.jpg",
            "transcription": ""
        },
        {
            "pageid": 110005,
            "pagefilename": "e1a78bc5a8ada436a30bcf612a62cfdb.jpg",
            "pageorigfilename": "Ayer_MS_1193-1_VL02_00193r_o2.jpg",
            "transcription": ""
        },
        {
            "pageid": 110006,
            "pagefilename": "644e26248dd93f737a42b6f062122dc8.jpg",
            "pageorigfilename": "Ayer_MS_1193-1_VL02_00193_o2.jpg",
            "transcription": ""
        },
        {
            "pageid": 110007,
            "pagefilename": "4adf52362092c5d13fa94fbc95fcb756.jpg",
            "pageorigfilename": "Ayer_MS_1193-1_VL02_00194r_o2.jpg",
            "transcription": ""
        },
        {
            "pageid": 110008,
            "pagefilename": "66ba4fe1ec1b08a84e57c1fd0523ad70.jpg",
            "pageorigfilename": "Ayer_MS_1193-1_VL02_00194_o2.jpg",
            "transcription": ""
        },
        {
            "pageid": 110009,
            "pagefilename": "85d2494254155458aeded39139a4918a.jpg",
            "pageorigfilename": "Ayer_MS_1193-1_VL02_00195r_o2.jpg",
            "transcription": ""
        },
        {
            "pageid": 110010,
            "pagefilename": "1e8780431d9ec7abe60f21ea0ed3418d.jpg",
            "pageorigfilename": "Ayer_MS_1193-1_VL02_00195_o2.jpg",
            "transcription": ""
        },
        {
            "pageid": 110011,
            "pagefilename": "5b9e4b9fa519ff5c62abed3c4e2cd375.jpg",
            "pageorigfilename": "Ayer_MS_1193-1_VL02_00196r_o2.jpg",
            "transcription": ""
        },
        {
            "pageid": 110012,
            "pagefilename": "026c9060b57657d0e33291b75ef6343e.jpg",
            "pageorigfilename": "Ayer_MS_1193-1_VL02_00196_o2.jpg",
            "transcription": ""
        },
        {
            "pageid": 110013,
            "pagefilename": "a51768d700ec553430b99e27e20a0c56.jpg",
            "pageorigfilename": "Ayer_MS_1193-1_VL02_00197r_o2.jpg",
            "transcription": ""
        },
        {
            "pageid": 110014,
            "pagefilename": "40d26b303f3fb7b6176adf13bccf3570.jpg",
            "pageorigfilename": "Ayer_MS_1193-1_VL02_00197_o2.jpg",
            "transcription": ""
        },
        {
            "pageid": 110015,
            "pagefilename": "7fcd187aff201723d4b1e28f412e0f10.jpg",
            "pageorigfilename": "Ayer_MS_1193-1_VL02_00198r_o2.jpg",
            "transcription": ""
        },
        {
            "pageid": 110016,
            "pagefilename": "ee2e79ba7ee8280a351a18f54a19eaee.jpg",
            "pageorigfilename": "Ayer_MS_1193-1_VL02_00198_o2.jpg",
            "transcription": ""
        },
        {
            "pageid": 110017,
            "pagefilename": "16fa31878c642cef9381b3a78eb52216.jpg",
            "pageorigfilename": "Ayer_MS_1193-1_VL02_00199r_o2.jpg",
            "transcription": ""
        },
        {
            "pageid": 110018,
            "pagefilename": "4550f352a94b4e71d4a46c00badb5f76.jpg",
            "pageorigfilename": "Ayer_MS_1193-1_VL02_00199_o2.jpg",
            "transcription": ""
        },
        {
            "pageid": 110019,
            "pagefilename": "31abb29db1135c84375621a819bfad3a.jpg",
            "pageorigfilename": "Ayer_MS_1193-1_VL02_00200r_o2.jpg",
            "transcription": ""
        },
        {
            "pageid": 110020,
            "pagefilename": "a3a5447eb9da9033b383e2a0cd162d0b.jpg",
            "pageorigfilename": "Ayer_MS_1193-1_VL02_00200_o2.jpg",
            "transcription": ""
        },
        {
            "pageid": 110021,
            "pagefilename": "5b4633d78eefce55722bfe669ee8346c.jpg",
            "pageorigfilename": "Ayer_MS_1193-1_VL02_00201r_o2.jpg",
            "transcription": ""
        },
        {
            "pageid": 110022,
            "pagefilename": "e7f6e60476345e70fb350dc046c654d0.jpg",
            "pageorigfilename": "Ayer_MS_1193-1_VL02_00201_o2.jpg",
            "transcription": ""
        },
        {
            "pageid": 110023,
            "pagefilename": "14a3e3d515d5ae44a91302e826f3f1fa.jpg",
            "pageorigfilename": "Ayer_MS_1193-1_VL02_00202r_o2.jpg",
            "transcription": ""
        },
        {
            "pageid": 110024,
            "pagefilename": "adc89d1840a904c346bd75e8322e3e52.jpg",
            "pageorigfilename": "Ayer_MS_1193-1_VL02_00202_o2.jpg",
            "transcription": ""
        },
        {
            "pageid": 110025,
            "pagefilename": "76d3df9fa4214d28709bd89af40d75de.jpg",
            "pageorigfilename": "Ayer_MS_1193-1_VL02_00203r_o2.jpg",
            "transcription": ""
        },
        {
            "pageid": 110026,
            "pagefilename": "c52bbfcd9f453b024ef5bdf7eae57351.jpg",
            "pageorigfilename": "Ayer_MS_1193-1_VL02_00203_o2.jpg",
            "transcription": ""
        },
        {
            "pageid": 110027,
            "pagefilename": "4a299aa01c61a30200fe873f7464e4dc.jpg",
            "pageorigfilename": "Ayer_MS_1193-1_VL02_00204r_o2.jpg",
            "transcription": ""
        },
        {
            "pageid": 110028,
            "pagefilename": "2dc0a9fe9ad1298373d744dc2cf455e8.jpg",
            "pageorigfilename": "Ayer_MS_1193-1_VL02_00204_o2.jpg",
            "transcription": ""
        },
        {
            "pageid": 110029,
            "pagefilename": "b9ddc8795eaf5a9c945799ea50f0dcc2.jpg",
            "pageorigfilename": "Ayer_MS_1193-1_VL02_00205r_o2.jpg",
            "transcription": ""
        },
        {
            "pageid": 110030,
            "pagefilename": "5b5fef4d48d5708281f07592580e52ad.jpg",
            "pageorigfilename": "Ayer_MS_1193-1_VL02_00205_o2.jpg",
            "transcription": ""
        },
        {
            "pageid": 110031,
            "pagefilename": "b032d029ad5214002c9e8e3b42340397.jpg",
            "pageorigfilename": "Ayer_MS_1193-1_VL02_00206r_o2.jpg",
            "transcription": ""
        },
        {
            "pageid": 110032,
            "pagefilename": "a8593a0dc6f848ed6cecfa974013b126.jpg",
            "pageorigfilename": "Ayer_MS_1193-1_VL02_00206_o2.jpg",
            "transcription": ""
        },
        {
            "pageid": 110033,
            "pagefilename": "224b3aeee321e9d630887fe7566dec4a.jpg",
            "pageorigfilename": "Ayer_MS_1193-1_VL02_00207r_o2.jpg",
            "transcription": ""
        },
        {
            "pageid": 110034,
            "pagefilename": "10e701650bae153426fa61cf2508bd11.jpg",
            "pageorigfilename": "Ayer_MS_1193-1_VL02_00207_o2.jpg",
            "transcription": ""
        },
        {
            "pageid": 110035,
            "pagefilename": "df10ee7ef63aadff7ffee87bdd86f6e7.jpg",
            "pageorigfilename": "Ayer_MS_1193-1_VL02_00208r_o2.jpg",
            "transcription": ""
        },
        {
            "pageid": 110036,
            "pagefilename": "3cecea7445c5d8ee7df348e6e00ceb15.jpg",
            "pageorigfilename": "Ayer_MS_1193-1_VL02_00208_o2.jpg",
            "transcription": ""
        },
        {
            "pageid": 110037,
            "pagefilename": "3712fed9891161ab5cb638bc5dfa97e4.jpg",
            "pageorigfilename": "Ayer_MS_1193-1_VL02_00209r_o2.jpg",
            "transcription": ""
        },
        {
            "pageid": 110038,
            "pagefilename": "72d35af7e918bc6ddcdc16473beca5fa.jpg",
            "pageorigfilename": "Ayer_MS_1193-1_VL02_00209_o2.jpg",
            "transcription": ""
        },
        {
            "pageid": 110039,
            "pagefilename": "b9d67518edae53f3800d786d848dc969.jpg",
            "pageorigfilename": "Ayer_MS_1193-1_VL02_00210r_o2.jpg",
            "transcription": ""
        },
        {
            "pageid": 110040,
            "pagefilename": "d081755b60efb4e9b45425d21b13cfec.jpg",
            "pageorigfilename": "Ayer_MS_1193-1_VL02_00210_o2.jpg",
            "transcription": ""
        },
        {
            "pageid": 110041,
            "pagefilename": "d888ad03fca4822894dc77560764359b.jpg",
            "pageorigfilename": "Ayer_MS_1193-1_VL02_00211r_o2.jpg",
            "transcription": ""
        },
        {
            "pageid": 110042,
            "pagefilename": "47987703f6b5f6e38698c247aa63203b.jpg",
            "pageorigfilename": "Ayer_MS_1193-1_VL02_00211_o2.jpg",
            "transcription": ""
        },
        {
            "pageid": 110043,
            "pagefilename": "171883364aff7896ee82eec2af705325.jpg",
            "pageorigfilename": "Ayer_MS_1193-1_VL02_00212r_o2.jpg",
            "transcription": ""
        },
        {
            "pageid": 110044,
            "pagefilename": "c3d08abf77217bc1fb2922ec63f76ef3.jpg",
            "pageorigfilename": "Ayer_MS_1193-1_VL02_00212_o2.jpg",
            "transcription": ""
        },
        {
            "pageid": 110045,
            "pagefilename": "73055be4ac796d687588c57f17067f87.jpg",
            "pageorigfilename": "Ayer_MS_1193-1_VL02_00213r_o2.jpg",
            "transcription": ""
        },
        {
            "pageid": 110046,
            "pagefilename": "c30b6b9cf02c781543fefa2623885c51.jpg",
            "pageorigfilename": "Ayer_MS_1193-1_VL02_00213_o2.jpg",
            "transcription": ""
        },
        {
            "pageid": 110047,
            "pagefilename": "0f247c89aba3b9995bb2fc834d6535b9.jpg",
            "pageorigfilename": "Ayer_MS_1193-1_VL02_00214r_o2.jpg",
            "transcription": ""
        },
        {
            "pageid": 110048,
            "pagefilename": "58f0589d450c46041465bb563632731c.jpg",
            "pageorigfilename": "Ayer_MS_1193-1_VL02_00214_o2.jpg",
            "transcription": ""
        },
        {
            "pageid": 110049,
            "pagefilename": "b0000f893fe4a53c6d8d9998715965be.jpg",
            "pageorigfilename": "Ayer_MS_1193-1_VL02_00215r_o2.jpg",
            "transcription": ""
        },
        {
            "pageid": 110050,
            "pagefilename": "393e6a6112792df68631630cc2bc884b.jpg",
            "pageorigfilename": "Ayer_MS_1193-1_VL02_00215_o2.jpg",
            "transcription": ""
        },
        {
            "pageid": 110051,
            "pagefilename": "62e80c3553430cadaab1b09fbb8eb74a.jpg",
            "pageorigfilename": "Ayer_MS_1193-1_VL02_00216r_o2.jpg",
            "transcription": ""
        },
        {
            "pageid": 110052,
            "pagefilename": "bac02e0faf30909cce983cbfe1f43504.jpg",
            "pageorigfilename": "Ayer_MS_1193-1_VL02_00216_o2.jpg",
            "transcription": ""
        },
        {
            "pageid": 110053,
            "pagefilename": "3d8e58f25b59612045932e38f9780a36.jpg",
            "pageorigfilename": "Ayer_MS_1193-1_VL02_00217r_o2.jpg",
            "transcription": ""
        },
        {
            "pageid": 110054,
            "pagefilename": "fd1897f1c2658796287b5908a5a60b66.jpg",
            "pageorigfilename": "Ayer_MS_1193-1_VL02_00217_o2.jpg",
            "transcription": ""
        },
        {
            "pageid": 110055,
            "pagefilename": "068463a52022455771b07f26107ec808.jpg",
            "pageorigfilename": "Ayer_MS_1193-1_VL02_00218r_o2.jpg",
            "transcription": ""
        },
        {
            "pageid": 110056,
            "pagefilename": "9d1372b18cfdb42ee926696131c82bfe.jpg",
            "pageorigfilename": "Ayer_MS_1193-1_VL02_00218_o2.jpg",
            "transcription": ""
        },
        {
            "pageid": 110057,
            "pagefilename": "3234ed3f54a9817f006f4aff2045db64.jpg",
            "pageorigfilename": "Ayer_MS_1193-1_VL02_00219r_o2.jpg",
            "transcription": ""
        },
        {
            "pageid": 110058,
            "pagefilename": "8029e43352b732fb74f61b3f8607d583.jpg",
            "pageorigfilename": "Ayer_MS_1193-1_VL02_00219_o2.jpg",
            "transcription": ""
        },
        {
            "pageid": 110059,
            "pagefilename": "eb7e9b8d49d303afe130d886fa3fba4e.jpg",
            "pageorigfilename": "Ayer_MS_1193-1_VL02_00220r_o2.jpg",
            "transcription": ""
        },
        {
            "pageid": 110060,
            "pagefilename": "8a22358d45aa938fa5b6bd38b800ee4b.jpg",
            "pageorigfilename": "Ayer_MS_1193-1_VL02_00220_o2.jpg",
            "transcription": ""
        },
        {
            "pageid": 110061,
            "pagefilename": "3b48b7063a996a54c889aaba8c41f6ab.jpg",
            "pageorigfilename": "Ayer_MS_1193-1_VL02_00221r_o2.jpg",
            "transcription": ""
        },
        {
            "pageid": 110062,
            "pagefilename": "5d37542b3569dcc58e69b1bf66c167d2.jpg",
            "pageorigfilename": "Ayer_MS_1193-1_VL02_00221_o2.jpg",
            "transcription": ""
        },
        {
            "pageid": 110063,
            "pagefilename": "9792b897b3d5cb63d2d91c15f6a8395a.jpg",
            "pageorigfilename": "Ayer_MS_1193-1_VL02_00222r_o2.jpg",
            "transcription": ""
        },
        {
            "pageid": 110064,
            "pagefilename": "e0768602d140f376e54de88cc1c030c9.jpg",
            "pageorigfilename": "Ayer_MS_1193-1_VL02_00222_o2.jpg",
            "transcription": ""
        },
        {
            "pageid": 110065,
            "pagefilename": "825294dabb8aad88fe92298b2195e8b0.jpg",
            "pageorigfilename": "Ayer_MS_1193-1_VL02_00223r_o2.jpg",
            "transcription": ""
        },
        {
            "pageid": 110066,
            "pagefilename": "d95fac7b7fa2b2e3ffc4c4cca4de24fe.jpg",
            "pageorigfilename": "Ayer_MS_1193-1_VL02_00223_o2.jpg",
            "transcription": ""
        },
        {
            "pageid": 110067,
            "pagefilename": "1489631e65615b287f3c48bf75ee278b.jpg",
            "pageorigfilename": "Ayer_MS_1193-1_VL02_00224r_o2.jpg",
            "transcription": ""
        },
        {
            "pageid": 110068,
            "pagefilename": "a865195bd14d83d0af6f0c0e6d355298.jpg",
            "pageorigfilename": "Ayer_MS_1193-1_VL02_00224_o2.jpg",
            "transcription": ""
        },
        {
            "pageid": 110069,
            "pagefilename": "144e60660848928ec47c0e1d70b94624.jpg",
            "pageorigfilename": "Ayer_MS_1193-1_VL02_00225r_o2.jpg",
            "transcription": ""
        },
        {
            "pageid": 110070,
            "pagefilename": "476f2cb419893298dd12ccbca40d3b5d.jpg",
            "pageorigfilename": "Ayer_MS_1193-1_VL02_00225_o2.jpg",
            "transcription": ""
        },
        {
            "pageid": 110071,
            "pagefilename": "dfa9cc0050a40b5df0793475e2739b83.jpg",
            "pageorigfilename": "Ayer_MS_1193-1_VL02_00226r_o2.jpg",
            "transcription": ""
        },
        {
            "pageid": 110072,
            "pagefilename": "0c163903adfbd4afcf733ac5c6056b70.jpg",
            "pageorigfilename": "Ayer_MS_1193-1_VL02_00226_o2.jpg",
            "transcription": ""
        },
        {
            "pageid": 110073,
            "pagefilename": "169c1c7ace5aa8cb094c677ea93117bf.jpg",
            "pageorigfilename": "Ayer_MS_1193-1_VL02_00227r_o2.jpg",
            "transcription": ""
        },
        {
            "pageid": 110074,
            "pagefilename": "5de35d92655d59149e8b38a345f081bb.jpg",
            "pageorigfilename": "Ayer_MS_1193-1_VL02_00227_o2.jpg",
            "transcription": ""
        },
        {
            "pageid": 110075,
            "pagefilename": "dd3f33b08b9df3144135e0cafc2fcc21.jpg",
            "pageorigfilename": "Ayer_MS_1193-1_VL02_00228r_o2.jpg",
            "transcription": ""
        },
        {
            "pageid": 110076,
            "pagefilename": "be26ce562f02d7ee03491bec2eb49397.jpg",
            "pageorigfilename": "Ayer_MS_1193-1_VL02_00228_o2.jpg",
            "transcription": ""
        },
        {
            "pageid": 110077,
            "pagefilename": "4e6f247952099454bb6d714cae92949b.jpg",
            "pageorigfilename": "Ayer_MS_1193-1_VL02_00229r_o2.jpg",
            "transcription": ""
        },
        {
            "pageid": 110078,
            "pagefilename": "39bc2c9fd016f9844a3b38b7d35f9e4e.jpg",
            "pageorigfilename": "Ayer_MS_1193-1_VL02_00229_o2.jpg",
            "transcription": ""
        },
        {
            "pageid": 110079,
            "pagefilename": "dbb1ae22d38edbc73a91a066b8c1817f.jpg",
            "pageorigfilename": "Ayer_MS_1193-1_VL02_00230r_o2.jpg",
            "transcription": ""
        },
        {
            "pageid": 110080,
            "pagefilename": "d23b7214fb46a0346ce43350cfa3ff30.jpg",
            "pageorigfilename": "Ayer_MS_1193-1_VL02_00230_o2.jpg",
            "transcription": ""
        },
        {
            "pageid": 110081,
            "pagefilename": "3bb3b488ac28ad59d7258a9630ffec3a.jpg",
            "pageorigfilename": "Ayer_MS_1193-1_VL02_00231r_o2.jpg",
            "transcription": ""
        },
        {
            "pageid": 110082,
            "pagefilename": "96307b63dbaa6974b51a901681803d27.jpg",
            "pageorigfilename": "Ayer_MS_1193-1_VL02_00231_o2.jpg",
            "transcription": ""
        },
        {
            "pageid": 110083,
            "pagefilename": "479e5235dcf38bd8ae82c9f12ce12708.jpg",
            "pageorigfilename": "Ayer_MS_1193-1_VL02_00232r_o2.jpg",
            "transcription": ""
        },
        {
            "pageid": 110084,
            "pagefilename": "479c4ff3386fe52d01f1fab5e8247c42.jpg",
            "pageorigfilename": "Ayer_MS_1193-1_VL02_00232_o2.jpg",
            "transcription": ""
        },
        {
            "pageid": 110085,
            "pagefilename": "2abe74ecabd2681e8f2d3605dc37990b.jpg",
            "pageorigfilename": "Ayer_MS_1193-1_VL02_00233r_o2.jpg",
            "transcription": ""
        },
        {
            "pageid": 110086,
            "pagefilename": "4a1d59cb0c031c7e6ac8a57b382fcd97.jpg",
            "pageorigfilename": "Ayer_MS_1193-1_VL02_00233_o2.jpg",
            "transcription": ""
        },
        {
            "pageid": 110087,
            "pagefilename": "2a48e793d886bf0fa7f549aba1369e92.jpg",
            "pageorigfilename": "Ayer_MS_1193-1_VL02_00234r_o2.jpg",
            "transcription": ""
        },
        {
            "pageid": 110088,
            "pagefilename": "003f17eeb3a0300b9e2d248af7d98005.jpg",
            "pageorigfilename": "Ayer_MS_1193-1_VL02_00234_o2.jpg",
            "transcription": ""
        },
        {
            "pageid": 110089,
            "pagefilename": "f462252b4693545e483bb519e5ee6906.jpg",
            "pageorigfilename": "Ayer_MS_1193-1_VL02_00235r_o2.jpg",
            "transcription": ""
        },
        {
            "pageid": 110090,
            "pagefilename": "136e63f04edf58beb028656d853a09ac.jpg",
            "pageorigfilename": "Ayer_MS_1193-1_VL02_00235_o2.jpg",
            "transcription": ""
        },
        {
            "pageid": 110091,
            "pagefilename": "9d2659cd3a4629ae19449838c2f6795e.jpg",
            "pageorigfilename": "Ayer_MS_1193-1_VL02_00236r_o2.jpg",
            "transcription": ""
        },
        {
            "pageid": 110092,
            "pagefilename": "b363b1953cc53341d2f012fa6f007b57.jpg",
            "pageorigfilename": "Ayer_MS_1193-1_VL02_00236_o2.jpg",
            "transcription": ""
        },
        {
            "pageid": 110093,
            "pagefilename": "33b745ff0b3e5c76a54b2fd118feec6d.jpg",
            "pageorigfilename": "Ayer_MS_1193-1_VL02_00237r_o2.jpg",
            "transcription": ""
        },
        {
            "pageid": 110094,
            "pagefilename": "f0b886f6ee814c5d737fdd821c329483.jpg",
            "pageorigfilename": "Ayer_MS_1193-1_VL02_00237_o2.jpg",
            "transcription": ""
        },
        {
            "pageid": 110095,
            "pagefilename": "267c7ad9d63d066415a851da62c9b686.jpg",
            "pageorigfilename": "Ayer_MS_1193-1_VL02_00238r_o2.jpg",
            "transcription": ""
        },
        {
            "pageid": 110096,
            "pagefilename": "5843ee22802c7dae6e72bb464c5a5919.jpg",
            "pageorigfilename": "Ayer_MS_1193-1_VL02_00238_o2.jpg",
            "transcription": ""
        },
        {
            "pageid": 110097,
            "pagefilename": "9254a5c0cd32df96a65922a13533dd5d.jpg",
            "pageorigfilename": "Ayer_MS_1193-1_VL02_00239r_o2.jpg",
            "transcription": ""
        },
        {
            "pageid": 110098,
            "pagefilename": "38e4dadc1b0a48bbf41dbe8135064ac8.jpg",
            "pageorigfilename": "Ayer_MS_1193-1_VL02_00239_o2.jpg",
            "transcription": ""
        },
        {
            "pageid": 110099,
            "pagefilename": "fbfa29caf0dba1386d6f1f18b878a0cb.jpg",
            "pageorigfilename": "Ayer_MS_1193-1_VL02_00240r_o2.jpg",
            "transcription": ""
        },
        {
            "pageid": 110100,
            "pagefilename": "271e7dc419d95a74ecd0e2141fa5871a.jpg",
            "pageorigfilename": "Ayer_MS_1193-1_VL02_00240_o2.jpg",
            "transcription": ""
        },
        {
            "pageid": 110101,
            "pagefilename": "7058453f0358953dc3a5170142548676.jpg",
            "pageorigfilename": "Ayer_MS_1193-1_VL02_00241r_o2.jpg",
            "transcription": ""
        },
        {
            "pageid": 110102,
            "pagefilename": "f9c3c27f158717d601bbfb3a063693b0.jpg",
            "pageorigfilename": "Ayer_MS_1193-1_VL02_00241_o2.jpg",
            "transcription": ""
        },
        {
            "pageid": 110103,
            "pagefilename": "8b2d0d6d340c8ca13da296fa003c744d.jpg",
            "pageorigfilename": "Ayer_MS_1193-1_VL02_00242r_o2.jpg",
            "transcription": ""
        },
        {
            "pageid": 110104,
            "pagefilename": "2d1139c22ff432c1cf91a9a1a417f0d1.jpg",
            "pageorigfilename": "Ayer_MS_1193-1_VL02_00242_o2.jpg",
            "transcription": ""
        },
        {
            "pageid": 110105,
            "pagefilename": "96edd3d3d08da8af69eec50d066486fa.jpg",
            "pageorigfilename": "Ayer_MS_1193-1_VL02_00243r_o2.jpg",
            "transcription": ""
        },
        {
            "pageid": 110106,
            "pagefilename": "c8a1b6542c86e5803c8daf41b52a54ce.jpg",
            "pageorigfilename": "Ayer_MS_1193-1_VL02_00243_o2.jpg",
            "transcription": ""
        },
        {
            "pageid": 110107,
            "pagefilename": "d96a21c0621e3a1d02839dfc3669e88b.jpg",
            "pageorigfilename": "Ayer_MS_1193-1_VL02_00244r_o2.jpg",
            "transcription": ""
        },
        {
            "pageid": 110108,
            "pagefilename": "43b68ca869fc1dcc3dfb65e5db0d117c.jpg",
            "pageorigfilename": "Ayer_MS_1193-1_VL02_00244_o2.jpg",
            "transcription": ""
        },
        {
            "pageid": 110109,
            "pagefilename": "e6eabf2dc095659b52379e926034b493.jpg",
            "pageorigfilename": "Ayer_MS_1193-1_VL02_00245r_o2.jpg",
            "transcription": ""
        },
        {
            "pageid": 110110,
            "pagefilename": "3ad6fc41834da5ef1c8fc77483226457.jpg",
            "pageorigfilename": "Ayer_MS_1193-1_VL02_00245_o2.jpg",
            "transcription": ""
        },
        {
            "pageid": 110111,
            "pagefilename": "c17ab706c863ade49b512d1c4a24b7a0.jpg",
            "pageorigfilename": "Ayer_MS_1193-1_VL02_00246r_o2.jpg",
            "transcription": ""
        },
        {
            "pageid": 110112,
            "pagefilename": "9cc08e0c60bc2bc2362fd303f7a22ade.jpg",
            "pageorigfilename": "Ayer_MS_1193-1_VL02_00246_o2.jpg",
            "transcription": ""
        },
        {
            "pageid": 110113,
            "pagefilename": "b893a689e3247006a6293812b4fa71c1.jpg",
            "pageorigfilename": "Ayer_MS_1193-1_VL02_00247r_o2.jpg",
            "transcription": ""
        },
        {
            "pageid": 110114,
            "pagefilename": "ac84f0ec079f31c7525bf6821832cd9c.jpg",
            "pageorigfilename": "Ayer_MS_1193-1_VL02_00247_o2.jpg",
            "transcription": ""
        },
        {
            "pageid": 110115,
            "pagefilename": "89ecea523aa178f9223edd6e0a1acb58.jpg",
            "pageorigfilename": "Ayer_MS_1193-1_VL02_00248r_o2.jpg",
            "transcription": ""
        },
        {
            "pageid": 110116,
            "pagefilename": "1cf135fdf0f268680a7158f5b95bd12b.jpg",
            "pageorigfilename": "Ayer_MS_1193-1_VL02_00248_o2.jpg",
            "transcription": ""
        },
        {
            "pageid": 110117,
            "pagefilename": "8f0bb39733cf7d848ef3ba455ff0f819.jpg",
            "pageorigfilename": "Ayer_MS_1193-1_VL02_00249r_o2.jpg",
            "transcription": ""
        },
        {
            "pageid": 110118,
            "pagefilename": "343337982473eba50ce19cbf4a6b5450.jpg",
            "pageorigfilename": "Ayer_MS_1193-1_VL02_00249_o2.jpg",
            "transcription": ""
        },
        {
            "pageid": 110119,
            "pagefilename": "9401b4ed40512731ac30bcac4b93bb95.jpg",
            "pageorigfilename": "Ayer_MS_1193-1_VL02_00250r_o2.jpg",
            "transcription": ""
        },
        {
            "pageid": 110120,
            "pagefilename": "a270762c32c714c2768b49935c7a7e0a.jpg",
            "pageorigfilename": "Ayer_MS_1193-1_VL02_00250_o2.jpg",
            "transcription": ""
        },
        {
            "pageid": 110121,
            "pagefilename": "d7a747b8ae43a493b689026ecd8abeb2.jpg",
            "pageorigfilename": "Ayer_MS_1193-1_VL02_00251r_o2.jpg",
            "transcription": ""
        },
        {
            "pageid": 110122,
            "pagefilename": "2a36ae4cd27eda435464dc62dd017738.jpg",
            "pageorigfilename": "Ayer_MS_1193-1_VL02_00251_o2.jpg",
            "transcription": ""
        },
        {
            "pageid": 110123,
            "pagefilename": "da73692cd2e9cc06c36f224c0242330a.jpg",
            "pageorigfilename": "Ayer_MS_1193-1_VL02_00252r_o2.jpg",
            "transcription": ""
        },
        {
            "pageid": 110124,
            "pagefilename": "d54e7d884b285a990b3d84220c8cb343.jpg",
            "pageorigfilename": "Ayer_MS_1193-1_VL02_00252_o2.jpg",
            "transcription": ""
        },
        {
            "pageid": 110125,
            "pagefilename": "e1b4ca0067810735800a95478d5e05d3.jpg",
            "pageorigfilename": "Ayer_MS_1193-1_VL02_00253r_o2.jpg",
            "transcription": ""
        },
        {
            "pageid": 110126,
            "pagefilename": "c4cc61cb7c7843ffe1cf95a45c9929a0.jpg",
            "pageorigfilename": "Ayer_MS_1193-1_VL02_00253_o2.jpg",
            "transcription": ""
        },
        {
            "pageid": 110127,
            "pagefilename": "67816f196e588680eaae88e1849592c1.jpg",
            "pageorigfilename": "Ayer_MS_1193-1_VL02_00254r_o2.jpg",
            "transcription": ""
        },
        {
            "pageid": 110128,
            "pagefilename": "d974be30973474ba90c10f452ab259a1.jpg",
            "pageorigfilename": "Ayer_MS_1193-1_VL02_00254_o2.jpg",
            "transcription": ""
        },
        {
            "pageid": 110129,
            "pagefilename": "05b3d625ca5d9220253b2800f2e8da62.jpg",
            "pageorigfilename": "Ayer_MS_1193-1_VL02_00255r_o2.jpg",
            "transcription": ""
        },
        {
            "pageid": 110130,
            "pagefilename": "8ea8ac5afef4f4a9e782bc870eac6a08.jpg",
            "pageorigfilename": "Ayer_MS_1193-1_VL02_00255_o2.jpg",
            "transcription": ""
        },
        {
            "pageid": 110131,
            "pagefilename": "0c498e6649f37229e7979829138961f9.jpg",
            "pageorigfilename": "Ayer_MS_1193-1_VL02_00256r_o2.jpg",
            "transcription": ""
        },
        {
            "pageid": 110132,
            "pagefilename": "f4c97d762966b1ac12941924eafa511c.jpg",
            "pageorigfilename": "Ayer_MS_1193-1_VL02_00256_o2.jpg",
            "transcription": ""
        },
        {
            "pageid": 110133,
            "pagefilename": "24637e3e88115a42ef6398f6071b5298.jpg",
            "pageorigfilename": "Ayer_MS_1193-1_VL02_00257r_o2.jpg",
            "transcription": ""
        },
        {
            "pageid": 110134,
            "pagefilename": "38473e9daeb1b7dbcb6f370bb3acd0c4.jpg",
            "pageorigfilename": "Ayer_MS_1193-1_VL02_00257_o2.jpg",
            "transcription": ""
        },
        {
            "pageid": 110135,
            "pagefilename": "ec6806530792f977f028c1d16ccb5668.jpg",
            "pageorigfilename": "Ayer_MS_1193-1_VL02_00258r_o2.jpg",
            "transcription": ""
        },
        {
            "pageid": 110136,
            "pagefilename": "783695575a6d198b384f092196b17177.jpg",
            "pageorigfilename": "Ayer_MS_1193-1_VL02_00258_o2.jpg",
            "transcription": ""
        },
        {
            "pageid": 110137,
            "pagefilename": "faa55119196c64e09de708d6b78d098e.jpg",
            "pageorigfilename": "Ayer_MS_1193-1_VL02_00259r_o2.jpg",
            "transcription": ""
        },
        {
            "pageid": 110138,
            "pagefilename": "06ffe4b83cef2588ad03ce0f33a367d9.jpg",
            "pageorigfilename": "Ayer_MS_1193-1_VL02_00259_o2.jpg",
            "transcription": ""
        },
        {
            "pageid": 110139,
            "pagefilename": "0b599baf8b0420116185a5c6a85599b3.jpg",
            "pageorigfilename": "Ayer_MS_1193-1_VL02_00260r_o2.jpg",
            "transcription": ""
        },
        {
            "pageid": 110140,
            "pagefilename": "1c53ab6c97370661bf88d4e447e02d3a.jpg",
            "pageorigfilename": "Ayer_MS_1193-1_VL02_00260_o2.jpg",
            "transcription": ""
        },
        {
            "pageid": 110141,
            "pagefilename": "9f56e0ae133aaf9cc82015d37fb52e85.jpg",
            "pageorigfilename": "Ayer_MS_1193-1_VL02_00261r_o2.jpg",
            "transcription": ""
        },
        {
            "pageid": 110142,
            "pagefilename": "e7189b55d45d0b39d4f62bd485adda0a.jpg",
            "pageorigfilename": "Ayer_MS_1193-1_VL02_00261_o2.jpg",
            "transcription": ""
        },
        {
            "pageid": 110143,
            "pagefilename": "67f2ae89d0844e20f8a04f2bafeb749d.jpg",
            "pageorigfilename": "Ayer_MS_1193-1_VL02_00262r_o2.jpg",
            "transcription": ""
        },
        {
            "pageid": 110144,
            "pagefilename": "a92977fbe8e9fcda845d17c5b73bea8d.jpg",
            "pageorigfilename": "Ayer_MS_1193-1_VL02_00262_o2.jpg",
            "transcription": ""
        },
        {
            "pageid": 110145,
            "pagefilename": "20c07fa92bf316ee452e6426a415e3da.jpg",
            "pageorigfilename": "Ayer_MS_1193-1_VL02_00263r_o2.jpg",
            "transcription": ""
        },
        {
            "pageid": 110146,
            "pagefilename": "5859f80fb8193033da591b0a6051e6e9.jpg",
            "pageorigfilename": "Ayer_MS_1193-1_VL02_00263_o2.jpg",
            "transcription": ""
        },
        {
            "pageid": 110147,
            "pagefilename": "087fe76e951d8527cd3e75329b8db2ba.jpg",
            "pageorigfilename": "Ayer_MS_1193-1_VL02_00264r_o2.jpg",
            "transcription": ""
        },
        {
            "pageid": 110148,
            "pagefilename": "942ee594e8c57f8c4124dfa0db0f2065.jpg",
            "pageorigfilename": "Ayer_MS_1193-1_VL02_00264_o2.jpg",
            "transcription": ""
        },
        {
            "pageid": 110149,
            "pagefilename": "de2ef930c25c6a7878bb4504dd701fed.jpg",
            "pageorigfilename": "Ayer_MS_1193-1_VL02_00265r_o2.jpg",
            "transcription": ""
        },
        {
            "pageid": 110150,
            "pagefilename": "43fee4e3ddfa8f9eb40a8203a3529faa.jpg",
            "pageorigfilename": "Ayer_MS_1193-1_VL02_00265_o2.jpg",
            "transcription": ""
        },
        {
            "pageid": 110151,
            "pagefilename": "5a9a32a6f90c6c6a8acf49f42a1cf651.jpg",
            "pageorigfilename": "Ayer_MS_1193-1_VL02_00266r_o2.jpg",
            "transcription": ""
        },
        {
            "pageid": 110152,
            "pagefilename": "ee8dad9d2f6474ba6285b242da230f2d.jpg",
            "pageorigfilename": "Ayer_MS_1193-1_VL02_00266_o2.jpg",
            "transcription": ""
        },
        {
            "pageid": 110153,
            "pagefilename": "1e83edd050dc6b05ef235ca131567e2d.jpg",
            "pageorigfilename": "Ayer_MS_1193-1_VL02_00267r_o2.jpg",
            "transcription": ""
        },
        {
            "pageid": 110154,
            "pagefilename": "5d0237288d6e0a9210da85c66858dc4c.jpg",
            "pageorigfilename": "Ayer_MS_1193-1_VL02_00267_o2.jpg",
            "transcription": ""
        },
        {
            "pageid": 110155,
            "pagefilename": "4fadb6987c793f3961389605e0f40585.jpg",
            "pageorigfilename": "Ayer_MS_1193-1_VL02_00268r_o2.jpg",
            "transcription": ""
        },
        {
            "pageid": 110156,
            "pagefilename": "456b4ed1da026c262f5756e3bf22e645.jpg",
            "pageorigfilename": "Ayer_MS_1193-1_VL02_00268_o2.jpg",
            "transcription": ""
        },
        {
            "pageid": 110157,
            "pagefilename": "2d8bf26d61b9dba7e7ee820f589f7ffd.jpg",
            "pageorigfilename": "Ayer_MS_1193-1_VL02_00269r_o2.jpg",
            "transcription": ""
        },
        {
            "pageid": 110158,
            "pagefilename": "be8fc96db27f58affce721aef0738728.jpg",
            "pageorigfilename": "Ayer_MS_1193-1_VL02_00269_o2.jpg",
            "transcription": ""
        },
        {
            "pageid": 110159,
            "pagefilename": "9fd8b6c2e44f85568aeb2ff8e07e67a7.jpg",
            "pageorigfilename": "Ayer_MS_1193-1_VL02_00270r_o2.jpg",
            "transcription": ""
        },
        {
            "pageid": 110160,
            "pagefilename": "c9cbd4c0a37aaf9930bcb1f04ee01398.jpg",
            "pageorigfilename": "Ayer_MS_1193-1_VL02_00270_o2.jpg",
            "transcription": ""
        },
        {
            "pageid": 110161,
            "pagefilename": "af7c9df58d1087b2d89bc4158c5c925c.jpg",
            "pageorigfilename": "Ayer_MS_1193-1_VL02_00271r_o2.jpg",
            "transcription": ""
        },
        {
            "pageid": 110162,
            "pagefilename": "1079eddd292d11606090c1bbbb1081ad.jpg",
            "pageorigfilename": "Ayer_MS_1193-1_VL02_00271_o2.jpg",
            "transcription": ""
        },
        {
            "pageid": 110163,
            "pagefilename": "9496bc948549d86c27b0a2224c837d24.jpg",
            "pageorigfilename": "Ayer_MS_1193-1_VL02_00272r_o2.jpg",
            "transcription": ""
        },
        {
            "pageid": 110164,
            "pagefilename": "61918ae16e3d34a01db24578b5fab09a.jpg",
            "pageorigfilename": "Ayer_MS_1193-1_VL02_00272_o2.jpg",
            "transcription": ""
        },
        {
            "pageid": 110165,
            "pagefilename": "fb012ef843e6e2187e3d40481fc59093.jpg",
            "pageorigfilename": "Ayer_MS_1193-1_VL02_00273r_o2.jpg",
            "transcription": ""
        },
        {
            "pageid": 110166,
            "pagefilename": "09d61e57fda3e4bd7e88ec3c6b80cc39.jpg",
            "pageorigfilename": "Ayer_MS_1193-1_VL02_00273_o2.jpg",
            "transcription": ""
        },
        {
            "pageid": 110167,
            "pagefilename": "11a3bc7e2c3048081e77f66197f24fc4.jpg",
            "pageorigfilename": "Ayer_MS_1193-1_VL02_00274r_o2.jpg",
            "transcription": ""
        },
        {
            "pageid": 110168,
            "pagefilename": "a987f0c49c6a6c6873b2972e2c9eb9c1.jpg",
            "pageorigfilename": "Ayer_MS_1193-1_VL02_00274_o2.jpg",
            "transcription": ""
        },
        {
            "pageid": 110169,
            "pagefilename": "43259f72ee5af07433c8388698c7a28c.jpg",
            "pageorigfilename": "Ayer_MS_1193-1_VL02_00275r_o2.jpg",
            "transcription": ""
        },
        {
            "pageid": 110170,
            "pagefilename": "4ac0683f83b649af832052015d2a6871.jpg",
            "pageorigfilename": "Ayer_MS_1193-1_VL02_00275_o2.jpg",
            "transcription": ""
        },
        {
            "pageid": 110171,
            "pagefilename": "ec99e867426a5309bee8121ab5f5af78.jpg",
            "pageorigfilename": "Ayer_MS_1193-1_VL02_00276r_o2.jpg",
            "transcription": ""
        },
        {
            "pageid": 110172,
            "pagefilename": "f649b0a2e8102b86d7cf5c3a7a622414.jpg",
            "pageorigfilename": "Ayer_MS_1193-1_VL02_00276_o2.jpg",
            "transcription": ""
        },
        {
            "pageid": 110173,
            "pagefilename": "96d9e918ee413c7e7eb7804f37815e57.jpg",
            "pageorigfilename": "Ayer_MS_1193-1_VL02_00277r_o2.jpg",
            "transcription": ""
        },
        {
            "pageid": 110174,
            "pagefilename": "c32498092512418562f34de9a7e56cdf.jpg",
            "pageorigfilename": "Ayer_MS_1193-1_VL02_00277_o2.jpg",
            "transcription": ""
        },
        {
            "pageid": 110175,
            "pagefilename": "ebd1c74a2747425869c6f83da792440c.jpg",
            "pageorigfilename": "Ayer_MS_1193-1_VL02_00278r_o2.jpg",
            "transcription": ""
        },
        {
            "pageid": 110176,
            "pagefilename": "a2fca7aa6a82a8795eefeb8b949aa592.jpg",
            "pageorigfilename": "Ayer_MS_1193-1_VL02_00278_o2.jpg",
            "transcription": ""
        },
        {
            "pageid": 110177,
            "pagefilename": "3fb86e3075165d3346e6e509e3325396.jpg",
            "pageorigfilename": "Ayer_MS_1193-1_VL02_00279r_o2.jpg",
            "transcription": ""
        },
        {
            "pageid": 110178,
            "pagefilename": "9089dc7050f9b7e95d7e7cd0cdca1d7d.jpg",
            "pageorigfilename": "Ayer_MS_1193-1_VL02_00279_o2.jpg",
            "transcription": ""
        },
        {
            "pageid": 110179,
            "pagefilename": "c055f577a968b3637ece4dd559a1d322.jpg",
            "pageorigfilename": "Ayer_MS_1193-1_VL02_00280r_o2.jpg",
            "transcription": ""
        },
        {
            "pageid": 110180,
            "pagefilename": "ca3a535b524bbab44ffeb41cb239ce9d.jpg",
            "pageorigfilename": "Ayer_MS_1193-1_VL02_00280_o2.jpg",
            "transcription": ""
        },
        {
            "pageid": 110181,
            "pagefilename": "b3315dd512660a3350151d76e4ee175c.jpg",
            "pageorigfilename": "Ayer_MS_1193-1_VL02_00281r_o2.jpg",
            "transcription": ""
        },
        {
            "pageid": 110182,
            "pagefilename": "eece08124fa4227a1e83539b5c5e15ea.jpg",
            "pageorigfilename": "Ayer_MS_1193-1_VL02_00281_o2.jpg",
            "transcription": ""
        },
        {
            "pageid": 110183,
            "pagefilename": "ad3758d4c11039a2ad28d3d55f9e0774.jpg",
            "pageorigfilename": "Ayer_MS_1193-1_VL02_00282r_o2.jpg",
            "transcription": ""
        },
        {
            "pageid": 110184,
            "pagefilename": "7f34f8b55dc446cd8b52fec42cf7e863.jpg",
            "pageorigfilename": "Ayer_MS_1193-1_VL02_00282_o2.jpg",
            "transcription": ""
        },
        {
            "pageid": 110185,
            "pagefilename": "10349fe77394ec54998a08ea6283a154.jpg",
            "pageorigfilename": "Ayer_MS_1193-1_VL02_00283r_o2.jpg",
            "transcription": ""
        },
        {
            "pageid": 110186,
            "pagefilename": "b720e2bb018fb2e523ad2e803a2c978d.jpg",
            "pageorigfilename": "Ayer_MS_1193-1_VL02_00283_o2.jpg",
            "transcription": ""
        },
        {
            "pageid": 110187,
            "pagefilename": "8c61f38b6ab8db1fa103f1116dabc477.jpg",
            "pageorigfilename": "Ayer_MS_1193-1_VL02_00284r_o2.jpg",
            "transcription": ""
        },
        {
            "pageid": 110188,
            "pagefilename": "a129a4a8c86d5ccc8451bcdea0bb1956.jpg",
            "pageorigfilename": "Ayer_MS_1193-1_VL02_00284_o2.jpg",
            "transcription": ""
        },
        {
            "pageid": 110189,
            "pagefilename": "6ea3e6a6f3895096bad2a2754f1f48ae.jpg",
            "pageorigfilename": "Ayer_MS_1193-1_VL02_00285r_o2.jpg",
            "transcription": ""
        },
        {
            "pageid": 110190,
            "pagefilename": "d8e432f925a308e21f86375eabfd927d.jpg",
            "pageorigfilename": "Ayer_MS_1193-1_VL02_00285_o2.jpg",
            "transcription": ""
        },
        {
            "pageid": 110191,
            "pagefilename": "0f21629b2d06a4c6f13b171009845da4.jpg",
            "pageorigfilename": "Ayer_MS_1193-1_VL02_00286r_o2.jpg",
            "transcription": ""
        },
        {
            "pageid": 110192,
            "pagefilename": "3b4c562af2b71a1b4504d2712441d7ff.jpg",
            "pageorigfilename": "Ayer_MS_1193-1_VL02_00286_o2.jpg",
            "transcription": ""
        },
        {
            "pageid": 110193,
            "pagefilename": "3782d2ac2dd06c8730c420d3aa041488.jpg",
            "pageorigfilename": "Ayer_MS_1193-1_VL02_00287r_o2.jpg",
            "transcription": ""
        },
        {
            "pageid": 110194,
            "pagefilename": "f64a14cafbd60b37883e25d2cea47518.jpg",
            "pageorigfilename": "Ayer_MS_1193-1_VL02_00287_o2.jpg",
            "transcription": ""
        },
        {
            "pageid": 110195,
            "pagefilename": "d64aa78e5949a522516bc8d0e1af66f9.jpg",
            "pageorigfilename": "Ayer_MS_1193-1_VL02_00288r_o2.jpg",
            "transcription": ""
        },
        {
            "pageid": 110196,
            "pagefilename": "ea67a5e7f6818a2e5dfeb3b625c5a348.jpg",
            "pageorigfilename": "Ayer_MS_1193-1_VL02_00288_o2.jpg",
            "transcription": ""
        },
        {
            "pageid": 110197,
            "pagefilename": "34408d1255a27f73e02f62fa33ab8b10.jpg",
            "pageorigfilename": "Ayer_MS_1193-1_VL02_00289r_o2.jpg",
            "transcription": ""
        },
        {
            "pageid": 110198,
            "pagefilename": "4447101a95e61d2a9a61cfca5ec93f30.jpg",
            "pageorigfilename": "Ayer_MS_1193-1_VL02_00289_o2.jpg",
            "transcription": ""
        },
        {
            "pageid": 110199,
            "pagefilename": "7654e2c58ad26dc4fd7e776c6d9d1d51.jpg",
            "pageorigfilename": "Ayer_MS_1193-1_VL02_00290r_o2.jpg",
            "transcription": ""
        },
        {
            "pageid": 110200,
            "pagefilename": "54a58e59f7a9aa8b5aa01cecda7f126c.jpg",
            "pageorigfilename": "Ayer_MS_1193-1_VL02_00290_o2.jpg",
            "transcription": ""
        },
        {
            "pageid": 110201,
            "pagefilename": "7416f35a7a976c5d16e5a9b95e9061db.jpg",
            "pageorigfilename": "Ayer_MS_1193-1_VL02_00291r_o2.jpg",
            "transcription": ""
        },
        {
            "pageid": 110202,
            "pagefilename": "ee2df096ace444f3d33268d5808732e3.jpg",
            "pageorigfilename": "Ayer_MS_1193-1_VL02_00291_o2.jpg",
            "transcription": ""
        },
        {
            "pageid": 110203,
            "pagefilename": "0b5aca0075a90378595e3483733d6232.jpg",
            "pageorigfilename": "Ayer_MS_1193-1_VL02_00292r_o2.jpg",
            "transcription": ""
        },
        {
            "pageid": 110204,
            "pagefilename": "c6792c63f53008a469ebaea562c41575.jpg",
            "pageorigfilename": "Ayer_MS_1193-1_VL02_00292_o2.jpg",
            "transcription": ""
        },
        {
            "pageid": 110205,
            "pagefilename": "7afa147bba9294be04725887e25310a6.jpg",
            "pageorigfilename": "Ayer_MS_1193-1_VL02_00293r_o2.jpg",
            "transcription": ""
        },
        {
            "pageid": 110206,
            "pagefilename": "eaa2fe39db6cedf31f017d9edc1cfec6.jpg",
            "pageorigfilename": "Ayer_MS_1193-1_VL02_00293_o2.jpg",
            "transcription": ""
        },
        {
            "pageid": 110207,
            "pagefilename": "72c2d66f5fb08f85e76747b0ac881954.jpg",
            "pageorigfilename": "Ayer_MS_1193-1_VL02_00294r_o2.jpg",
            "transcription": ""
        },
        {
            "pageid": 110208,
            "pagefilename": "650af8ad6ce44ac724f97aefac9ed183.jpg",
            "pageorigfilename": "Ayer_MS_1193-1_VL02_00294_o2.jpg",
            "transcription": ""
        },
        {
            "pageid": 110209,
            "pagefilename": "ad9ca175e908a745c7a6d4675081ef6b.jpg",
            "pageorigfilename": "Ayer_MS_1193-1_VL02_00295r_o2.jpg",
            "transcription": ""
        },
        {
            "pageid": 110210,
            "pagefilename": "324cc670a5a40d4e64f2aae7131ea05a.jpg",
            "pageorigfilename": "Ayer_MS_1193-1_VL02_00295_o2.jpg",
            "transcription": ""
        },
        {
            "pageid": 110211,
            "pagefilename": "0d53183eb67ddef1d0b933fe0195b6dd.jpg",
            "pageorigfilename": "Ayer_MS_1193-1_VL02_00296r_o2.jpg",
            "transcription": ""
        },
        {
            "pageid": 110212,
            "pagefilename": "9cec17924814a96280c27720c22bf712.jpg",
            "pageorigfilename": "Ayer_MS_1193-1_VL02_00296_o2.jpg",
            "transcription": ""
        },
        {
            "pageid": 110213,
            "pagefilename": "7095ca17f7e14483049b6fd42914d1c2.jpg",
            "pageorigfilename": "Ayer_MS_1193-1_VL02_00297r_o2.jpg",
            "transcription": ""
        },
        {
            "pageid": 110214,
            "pagefilename": "ed6c60eb6fcf656c38a8d072ffc09d29.jpg",
            "pageorigfilename": "Ayer_MS_1193-1_VL02_00297_o2.jpg",
            "transcription": ""
        },
        {
            "pageid": 110215,
            "pagefilename": "498efd2e0b4821cefe99b6cc9901cc6c.jpg",
            "pageorigfilename": "Ayer_MS_1193-1_VL02_00298r_o2.jpg",
            "transcription": ""
        },
        {
            "pageid": 110216,
            "pagefilename": "0889df9e890df8ba4b8cf134ca1876f6.jpg",
            "pageorigfilename": "Ayer_MS_1193-1_VL02_00298_o2.jpg",
            "transcription": ""
        },
        {
            "pageid": 110217,
            "pagefilename": "2ed4ddaf91a547de6722834e417e5052.jpg",
            "pageorigfilename": "Ayer_MS_1193-1_VL02_00299r_o2.jpg",
            "transcription": ""
        },
        {
            "pageid": 110218,
            "pagefilename": "6d6b527fc6430b561e435d610de6d32a.jpg",
            "pageorigfilename": "Ayer_MS_1193-1_VL02_00299_o2.jpg",
            "transcription": ""
        },
        {
            "pageid": 110219,
            "pagefilename": "a866903be6f795e3a43b19a7d1dbfae8.jpg",
            "pageorigfilename": "Ayer_MS_1193-1_VL02_00300r_o2.jpg",
            "transcription": ""
        },
        {
            "pageid": 110220,
            "pagefilename": "6acd91d6d3a7c9731aaea576679d1f16.jpg",
            "pageorigfilename": "Ayer_MS_1193-1_VL02_00300_o2.jpg",
            "transcription": ""
        },
        {
            "pageid": 110221,
            "pagefilename": "2a5773369e04311be06d0c87ca55f40e.jpg",
            "pageorigfilename": "Ayer_MS_1193-1_VL02_00301r_o2.jpg",
            "transcription": ""
        },
        {
            "pageid": 110222,
            "pagefilename": "9c1cb1a57fbb7f2e2d22836bf2a38374.jpg",
            "pageorigfilename": "Ayer_MS_1193-1_VL02_00301_o2.jpg",
            "transcription": ""
        },
        {
            "pageid": 110223,
            "pagefilename": "1eded140a75dab457179a7e0d63849d2.jpg",
            "pageorigfilename": "Ayer_MS_1193-1_VL02_00302r_o2.jpg",
            "transcription": ""
        },
        {
            "pageid": 110224,
            "pagefilename": "654efe31d2b2d2010e9a38570922357f.jpg",
            "pageorigfilename": "Ayer_MS_1193-1_VL02_00302_o2.jpg",
            "transcription": ""
        },
        {
            "pageid": 110225,
            "pagefilename": "b6967a68744c43ac292d609781070e86.jpg",
            "pageorigfilename": "Ayer_MS_1193-1_VL02_00303r_o2.jpg",
            "transcription": ""
        },
        {
            "pageid": 110226,
            "pagefilename": "2b9cbe71c15a0b918a2c4ec88d91c677.jpg",
            "pageorigfilename": "Ayer_MS_1193-1_VL02_00303_o2.jpg",
            "transcription": ""
        },
        {
            "pageid": 110227,
            "pagefilename": "f109d57798e41fcb9a2fed3e2ff6d8ce.jpg",
            "pageorigfilename": "Ayer_MS_1193-1_VL02_00304r_o2.jpg",
            "transcription": ""
        },
        {
            "pageid": 110228,
            "pagefilename": "4f121534d1534de1887d785b7b707ba1.jpg",
            "pageorigfilename": "Ayer_MS_1193-1_VL02_00304_o2.jpg",
            "transcription": ""
        },
        {
            "pageid": 110229,
            "pagefilename": "3dd323869df303bf2c9c427316509395.jpg",
            "pageorigfilename": "Ayer_MS_1193-1_VL02_00305r_o2.jpg",
            "transcription": ""
        },
        {
            "pageid": 110230,
            "pagefilename": "444aaddf35fd042a4f29afcda1433e34.jpg",
            "pageorigfilename": "Ayer_MS_1193-1_VL02_00305_o2.jpg",
            "transcription": ""
        },
        {
            "pageid": 110231,
            "pagefilename": "ec30a08f11dc85d8b5d7eb063b432f2c.jpg",
            "pageorigfilename": "Ayer_MS_1193-1_VL02_00306r_o2.jpg",
            "transcription": ""
        },
        {
            "pageid": 110232,
            "pagefilename": "fbc95cda1e900e6eeaf268af99bceac1.jpg",
            "pageorigfilename": "Ayer_MS_1193-1_VL02_00306_o2.jpg",
            "transcription": ""
        },
        {
            "pageid": 110233,
            "pagefilename": "ca7590bcd1e113c5dad7ab0521613b53.jpg",
            "pageorigfilename": "Ayer_MS_1193-1_VL02_00307r_o2.jpg",
            "transcription": ""
        },
        {
            "pageid": 110234,
            "pagefilename": "1d030f64e52fd6f873fdcad7be4b960c.jpg",
            "pageorigfilename": "Ayer_MS_1193-1_VL02_00307_o2.jpg",
            "transcription": ""
        },
        {
            "pageid": 110235,
            "pagefilename": "3995c09d324c84ab0ef4ad3503ea7938.jpg",
            "pageorigfilename": "Ayer_MS_1193-1_VL02_00308r_o2.jpg",
            "transcription": ""
        },
        {
            "pageid": 110236,
            "pagefilename": "0801d0a8bd8a95e853e0f28d7c707d35.jpg",
            "pageorigfilename": "Ayer_MS_1193-1_VL02_00308_o2.jpg",
            "transcription": ""
        },
        {
            "pageid": 110237,
            "pagefilename": "2963c12dadc035fa8ab5dddf43af0264.jpg",
            "pageorigfilename": "Ayer_MS_1193-1_VL02_00309r_o2.jpg",
            "transcription": ""
        },
        {
            "pageid": 110238,
            "pagefilename": "508c5fff67ecf8a2721f36b1182a7dd8.jpg",
            "pageorigfilename": "Ayer_MS_1193-1_VL02_00309_o2.jpg",
            "transcription": ""
        },
        {
            "pageid": 110239,
            "pagefilename": "ed5bbdf8312962839ee325250c232fa2.jpg",
            "pageorigfilename": "Ayer_MS_1193-1_VL02_00310r_o2.jpg",
            "transcription": ""
        },
        {
            "pageid": 110240,
            "pagefilename": "18be8fb6c4dd8d9490ef78607ad1f0d4.jpg",
            "pageorigfilename": "Ayer_MS_1193-1_VL02_00310_o2.jpg",
            "transcription": ""
        },
        {
            "pageid": 110241,
            "pagefilename": "7589c52eb9e11ffc1a8fd83c253f11c5.jpg",
            "pageorigfilename": "Ayer_MS_1193-1_VL02_00311r_o2.jpg",
            "transcription": ""
        },
        {
            "pageid": 110242,
            "pagefilename": "8b772c1bc40bc69bdd17d1c4794873ca.jpg",
            "pageorigfilename": "Ayer_MS_1193-1_VL02_00311_o2.jpg",
            "transcription": ""
        },
        {
            "pageid": 110243,
            "pagefilename": "5c8ab2b4873d53e836f0f90d39efcc56.jpg",
            "pageorigfilename": "Ayer_MS_1193-1_VL02_00312r_o2.jpg",
            "transcription": ""
        },
        {
            "pageid": 110244,
            "pagefilename": "ef6db7ad5797387bed7d8f98607b99d9.jpg",
            "pageorigfilename": "Ayer_MS_1193-1_VL02_00312_o2.jpg",
            "transcription": ""
        },
        {
            "pageid": 110245,
            "pagefilename": "921a6153b9473f43cc73e71b2e07c6e4.jpg",
            "pageorigfilename": "Ayer_MS_1193-1_VL02_00313r_o2.jpg",
            "transcription": ""
        },
        {
            "pageid": 110246,
            "pagefilename": "92f620230d02a79229653e16bbb85230.jpg",
            "pageorigfilename": "Ayer_MS_1193-1_VL02_00313_o2.jpg",
            "transcription": ""
        },
        {
            "pageid": 110247,
            "pagefilename": "3d7da52cfac4692e5ea0638f01a0f0d8.jpg",
            "pageorigfilename": "Ayer_MS_1193-1_VL02_00314r_o2.jpg",
            "transcription": ""
        },
        {
            "pageid": 110248,
            "pagefilename": "c06814120a0b473f625040cbd1d430d6.jpg",
            "pageorigfilename": "Ayer_MS_1193-1_VL02_00314_o2.jpg",
            "transcription": ""
        },
        {
            "pageid": 110249,
            "pagefilename": "896f8a946e75e4bac29ed939b6ed91bd.jpg",
            "pageorigfilename": "Ayer_MS_1193-1_VL02_00315r_o2.jpg",
            "transcription": ""
        },
        {
            "pageid": 110250,
            "pagefilename": "587d5be648ddd3b4ccda6e023538077f.jpg",
            "pageorigfilename": "Ayer_MS_1193-1_VL02_00315_o2.jpg",
            "transcription": ""
        },
        {
            "pageid": 110251,
            "pagefilename": "ce13ec6098177b2663074df97b8ba6f7.jpg",
            "pageorigfilename": "Ayer_MS_1193-1_VL02_00316r_o2.jpg",
            "transcription": ""
        },
        {
            "pageid": 110252,
            "pagefilename": "2c15ca4e3a76b182bcf089b5234dce40.jpg",
            "pageorigfilename": "Ayer_MS_1193-1_VL02_00316_o2.jpg",
            "transcription": ""
        },
        {
            "pageid": 110253,
            "pagefilename": "5293a8b5af92f69baf119625ed1a2c65.jpg",
            "pageorigfilename": "Ayer_MS_1193-1_VL02_00317r_o2.jpg",
            "transcription": ""
        },
        {
            "pageid": 110254,
            "pagefilename": "7b5edd9428a68f6902c30aef76968666.jpg",
            "pageorigfilename": "Ayer_MS_1193-1_VL02_00317_o2.jpg",
            "transcription": ""
        },
        {
            "pageid": 110255,
            "pagefilename": "7127858bc59dc2013a617922ccabf986.jpg",
            "pageorigfilename": "Ayer_MS_1193-1_VL02_00318r_o2.jpg",
            "transcription": ""
        },
        {
            "pageid": 110256,
            "pagefilename": "7485551b492a7cd4c2b52bfe2052bcf3.jpg",
            "pageorigfilename": "Ayer_MS_1193-1_VL02_00318_o2.jpg",
            "transcription": ""
        },
        {
            "pageid": 110257,
            "pagefilename": "bc12f7c874d5184055a82a2c7cc90d5c.jpg",
            "pageorigfilename": "Ayer_MS_1193-1_VL02_00319r_o2.jpg",
            "transcription": ""
        },
        {
            "pageid": 110258,
            "pagefilename": "9a9967d4bcf165b0d09cdb6d6d7de7e7.jpg",
            "pageorigfilename": "Ayer_MS_1193-1_VL02_00319_o2.jpg",
            "transcription": ""
        },
        {
            "pageid": 110259,
            "pagefilename": "1d3e1dbc59d4c4518799305badb7bde2.jpg",
            "pageorigfilename": "Ayer_MS_1193-1_VL02_00320r_o2.jpg",
            "transcription": ""
        },
        {
            "pageid": 110260,
            "pagefilename": "5b11caf8120d24446ba05f82912f1321.jpg",
            "pageorigfilename": "Ayer_MS_1193-1_VL02_00320_o2.jpg",
            "transcription": ""
        },
        {
            "pageid": 110261,
            "pagefilename": "49eb2fb228147b2bcdb48995163c3ca0.jpg",
            "pageorigfilename": "Ayer_MS_1193-1_VL02_00321r_o2.jpg",
            "transcription": ""
        },
        {
            "pageid": 110262,
            "pagefilename": "3adc28a1a2f8f09752fa33ca923706e7.jpg",
            "pageorigfilename": "Ayer_MS_1193-1_VL02_00321_o2.jpg",
            "transcription": ""
        },
        {
            "pageid": 110263,
            "pagefilename": "f174ae9b5a332f2e96edc81d8def47a5.jpg",
            "pageorigfilename": "Ayer_MS_1193-1_VL02_00322r_o2.jpg",
            "transcription": ""
        },
        {
            "pageid": 110264,
            "pagefilename": "f63c3c26f75bf940d4ae01b6869ea775.jpg",
            "pageorigfilename": "Ayer_MS_1193-1_VL02_00322_o2.jpg",
            "transcription": ""
        },
        {
            "pageid": 110265,
            "pagefilename": "37970de12764aea6e223994fbbe643fc.jpg",
            "pageorigfilename": "Ayer_MS_1193-1_VL02_00323r_o2.jpg",
            "transcription": ""
        },
        {
            "pageid": 110266,
            "pagefilename": "c01ad2d0ee44620eb7f2e498f9e100cb.jpg",
            "pageorigfilename": "Ayer_MS_1193-1_VL02_00323_o2.jpg",
            "transcription": ""
        },
        {
            "pageid": 110267,
            "pagefilename": "09f20b1ef35d83eea07e0b69a295b8b4.jpg",
            "pageorigfilename": "Ayer_MS_1193-1_VL02_00324r_o2.jpg",
            "transcription": ""
        },
        {
            "pageid": 110268,
            "pagefilename": "b493cc7614ab3cea03f8105d12a990f4.jpg",
            "pageorigfilename": "Ayer_MS_1193-1_VL02_00324_o2.jpg",
            "transcription": ""
        },
        {
            "pageid": 110269,
            "pagefilename": "aebd0fca2821c7b31baacbef9a29d20d.jpg",
            "pageorigfilename": "Ayer_MS_1193-1_VL02_00325r_o2.jpg",
            "transcription": ""
        },
        {
            "pageid": 110270,
            "pagefilename": "bf59edc8b3330c2585a01d6a66ba240e.jpg",
            "pageorigfilename": "Ayer_MS_1193-1_VL02_00325_o2.jpg",
            "transcription": ""
        },
        {
            "pageid": 110271,
            "pagefilename": "e47a521e231c9d36300c5829ac1a7080.jpg",
            "pageorigfilename": "Ayer_MS_1193-1_VL02_00326r_o2.jpg",
            "transcription": ""
        },
        {
            "pageid": 110272,
            "pagefilename": "70039c826d2a07347174261f8ade5e48.jpg",
            "pageorigfilename": "Ayer_MS_1193-1_VL02_00326_o2.jpg",
            "transcription": ""
        },
        {
            "pageid": 110273,
            "pagefilename": "13349d25bda0defe946de6f887dd24a2.jpg",
            "pageorigfilename": "Ayer_MS_1193-1_VL02_00327r_o2.jpg",
            "transcription": ""
        },
        {
            "pageid": 110274,
            "pagefilename": "952263b2581d4ef75710397924e1e533.jpg",
            "pageorigfilename": "Ayer_MS_1193-1_VL02_00327_o2.jpg",
            "transcription": ""
        },
        {
            "pageid": 110275,
            "pagefilename": "d71c2a124aacafebe8b2285e507e0cbc.jpg",
            "pageorigfilename": "Ayer_MS_1193-1_VL02_00328r_o2.jpg",
            "transcription": ""
        },
        {
            "pageid": 110276,
            "pagefilename": "8ff51014ca4bddfd56f5d55dc470b7ca.jpg",
            "pageorigfilename": "Ayer_MS_1193-1_VL02_00328_o2.jpg",
            "transcription": ""
        },
        {
            "pageid": 110277,
            "pagefilename": "2e65a6ea51ae25f060f3eeae0baccd06.jpg",
            "pageorigfilename": "Ayer_MS_1193-1_VL02_00329r_o2.jpg",
            "transcription": ""
        },
        {
            "pageid": 110278,
            "pagefilename": "a7b3b5b6b121979924521c2dcd477a48.jpg",
            "pageorigfilename": "Ayer_MS_1193-1_VL02_00329_o2.jpg",
            "transcription": ""
        },
        {
            "pageid": 110279,
            "pagefilename": "69472e1873b147dbe7ab80824a0dffc3.jpg",
            "pageorigfilename": "Ayer_MS_1193-1_VL02_00330r_o2.jpg",
            "transcription": ""
        },
        {
            "pageid": 110280,
            "pagefilename": "cae7be5040a34777a7a98f3e7379418c.jpg",
            "pageorigfilename": "Ayer_MS_1193-1_VL02_00330_o2.jpg",
            "transcription": ""
        },
        {
            "pageid": 110281,
            "pagefilename": "8575f3d0f94ea90028e7840ad0636be4.jpg",
            "pageorigfilename": "Ayer_MS_1193-1_VL02_00331r_o2.jpg",
            "transcription": ""
        },
        {
            "pageid": 110282,
            "pagefilename": "72359ab7cf03c69f2e712920b98bb124.jpg",
            "pageorigfilename": "Ayer_MS_1193-1_VL02_00331_o2.jpg",
            "transcription": ""
        },
        {
            "pageid": 110283,
            "pagefilename": "3fc221b8137b822c0cf060ba0e009c9a.jpg",
            "pageorigfilename": "Ayer_MS_1193-1_VL02_00332r_o2.jpg",
            "transcription": ""
        },
        {
            "pageid": 110284,
            "pagefilename": "e88cdd679e9a9dcee1f62ebc2445dbf6.jpg",
            "pageorigfilename": "Ayer_MS_1193-1_VL02_00332_o2.jpg",
            "transcription": ""
        },
        {
            "pageid": 110285,
            "pagefilename": "f039f9ac0eb782b0110dec15629c6e0f.jpg",
            "pageorigfilename": "Ayer_MS_1193-1_VL02_00333r_o2.jpg",
            "transcription": ""
        },
        {
            "pageid": 110286,
            "pagefilename": "6190d44e83eb572c24d061b2091cd7ec.jpg",
            "pageorigfilename": "Ayer_MS_1193-1_VL02_00333_o2.jpg",
            "transcription": ""
        },
        {
            "pageid": 110287,
            "pagefilename": "c90722bb67dc51e9d9ee07ad88200c80.jpg",
            "pageorigfilename": "Ayer_MS_1193-1_VL02_00334r_o2.jpg",
            "transcription": ""
        },
        {
            "pageid": 110288,
            "pagefilename": "a9262b068ae9a8a628cd7ad0e689bd77.jpg",
            "pageorigfilename": "Ayer_MS_1193-1_VL02_00334_o2.jpg",
            "transcription": ""
        },
        {
            "pageid": 110289,
            "pagefilename": "8f1e07fd864d3855cd1f4173578540c7.jpg",
            "pageorigfilename": "Ayer_MS_1193-1_VL02_00335r_o2.jpg",
            "transcription": ""
        },
        {
            "pageid": 110290,
            "pagefilename": "de04243b2ea10abae08a2e444b92ab0a.jpg",
            "pageorigfilename": "Ayer_MS_1193-1_VL02_00335_o2.jpg",
            "transcription": ""
        },
        {
            "pageid": 110291,
            "pagefilename": "fbbc3f8061d0094e12ae260c1efb4911.jpg",
            "pageorigfilename": "Ayer_MS_1193-1_VL02_00336r_o2.jpg",
            "transcription": ""
        },
        {
            "pageid": 110292,
            "pagefilename": "458f205b1fc3acf63c7ceb93bccc6d0b.jpg",
            "pageorigfilename": "Ayer_MS_1193-1_VL02_00336_o2.jpg",
            "transcription": ""
        },
        {
            "pageid": 110293,
            "pagefilename": "73a547a1790b93c8e556ad4f9f3547b1.jpg",
            "pageorigfilename": "Ayer_MS_1193-1_VL02_00337r_o2.jpg",
            "transcription": ""
        },
        {
            "pageid": 110294,
            "pagefilename": "db413a5fc42ed56261291bf5c98254cb.jpg",
            "pageorigfilename": "Ayer_MS_1193-1_VL02_00337_o2.jpg",
            "transcription": ""
        },
        {
            "pageid": 110295,
            "pagefilename": "555205167a0db483937a604619214676.jpg",
            "pageorigfilename": "Ayer_MS_1193-1_VL02_00338r_o2.jpg",
            "transcription": ""
        },
        {
            "pageid": 110296,
            "pagefilename": "f44a13a53d173bfba57f886a08d522c4.jpg",
            "pageorigfilename": "Ayer_MS_1193-1_VL02_00338_o2.jpg",
            "transcription": ""
        },
        {
            "pageid": 110297,
            "pagefilename": "eafc85d7432ed337a09c672f392a7e74.jpg",
            "pageorigfilename": "Ayer_MS_1193-1_VL02_00339r_o2.jpg",
            "transcription": ""
        },
        {
            "pageid": 110298,
            "pagefilename": "97343db9b70d249391deafaf55507867.jpg",
            "pageorigfilename": "Ayer_MS_1193-1_VL02_00339_o2.jpg",
            "transcription": ""
        },
        {
            "pageid": 110299,
            "pagefilename": "027a56ba0e71760da6b21e5c867552ab.jpg",
            "pageorigfilename": "Ayer_MS_1193-1_VL02_00340r_o2.jpg",
            "transcription": ""
        },
        {
            "pageid": 110300,
            "pagefilename": "2ff0ce7b95928ef8a6bac2c4f17b9abc.jpg",
            "pageorigfilename": "Ayer_MS_1193-1_VL02_00340_o2.jpg",
            "transcription": ""
        },
        {
            "pageid": 110301,
            "pagefilename": "c60e4cc4350e1c5e6c53669f6bbf78ad.jpg",
            "pageorigfilename": "Ayer_MS_1193-1_VL02_00341r_o2.jpg",
            "transcription": ""
        },
        {
            "pageid": 110302,
            "pagefilename": "2a1b45dc32e8cc103e1a601f01e9ae5b.jpg",
            "pageorigfilename": "Ayer_MS_1193-1_VL02_00341_o2.jpg",
            "transcription": ""
        },
        {
            "pageid": 110303,
            "pagefilename": "73749aad602e036baaad2283f4ce83fd.jpg",
            "pageorigfilename": "Ayer_MS_1193-1_VL02_00342r_o2.jpg",
            "transcription": ""
        },
        {
            "pageid": 110304,
            "pagefilename": "64d6478e83a967e1b175f6cbd3af593b.jpg",
            "pageorigfilename": "Ayer_MS_1193-1_VL02_00342_o2.jpg",
            "transcription": ""
        },
        {
            "pageid": 110305,
            "pagefilename": "9aa30af47264807579600fd7a0b2bf4b.jpg",
            "pageorigfilename": "Ayer_MS_1193-1_VL02_00343r_o2.jpg",
            "transcription": ""
        },
        {
            "pageid": 110306,
            "pagefilename": "f2ed0f308873b646b4cba920af74b5bc.jpg",
            "pageorigfilename": "Ayer_MS_1193-1_VL02_00343_o2.jpg",
            "transcription": ""
        },
        {
            "pageid": 110307,
            "pagefilename": "b9c4093a70cd5ea9a35623dcddd22aac.jpg",
            "pageorigfilename": "Ayer_MS_1193-1_VL02_00344r_o2.jpg",
            "transcription": ""
        },
        {
            "pageid": 110308,
            "pagefilename": "5c3e8fd997f1fc62c0ea73d5b281866a.jpg",
            "pageorigfilename": "Ayer_MS_1193-1_VL02_00344_o2.jpg",
            "transcription": ""
        },
        {
            "pageid": 110309,
            "pagefilename": "af592e6badfeb57a9c0a486b01e0f14f.jpg",
            "pageorigfilename": "Ayer_MS_1193-1_VL02_00345r_o2.jpg",
            "transcription": ""
        },
        {
            "pageid": 110310,
            "pagefilename": "e44e6fce3eed24d396ea7881e863b9ee.jpg",
            "pageorigfilename": "Ayer_MS_1193-1_VL02_00345_o2.jpg",
            "transcription": ""
        },
        {
            "pageid": 110311,
            "pagefilename": "b31c8d1de44a1d850c44ad5d27f98bbe.jpg",
            "pageorigfilename": "Ayer_MS_1193-1_VL02_00346r_o2.jpg",
            "transcription": ""
        },
        {
            "pageid": 110312,
            "pagefilename": "7e0ebc1d50316a6286a8f73b7e145891.jpg",
            "pageorigfilename": "Ayer_MS_1193-1_VL02_00346_o2.jpg",
            "transcription": ""
        },
        {
            "pageid": 110313,
            "pagefilename": "a2ea3b94b2ebbc86270f2828be7077cc.jpg",
            "pageorigfilename": "Ayer_MS_1193-1_VL02_00347r_o2.jpg",
            "transcription": ""
        },
        {
            "pageid": 110314,
            "pagefilename": "754af330405cf17bcdea74c823dce3de.jpg",
            "pageorigfilename": "Ayer_MS_1193-1_VL02_00347_o2.jpg",
            "transcription": ""
        },
        {
            "pageid": 110315,
            "pagefilename": "ef7a8038df08c8c074d96db968e2d207.jpg",
            "pageorigfilename": "Ayer_MS_1193-1_VL02_00348r_o2.jpg",
            "transcription": ""
        },
        {
            "pageid": 110316,
            "pagefilename": "96b1a7cc222a93c6b131ef70c0dfed0d.jpg",
            "pageorigfilename": "Ayer_MS_1193-1_VL02_00348_o2.jpg",
            "transcription": ""
        },
        {
            "pageid": 110317,
            "pagefilename": "142cd0d6d887323609375d5b64ab2f34.jpg",
            "pageorigfilename": "Ayer_MS_1193-1_VL02_00349r_o2.jpg",
            "transcription": ""
        },
        {
            "pageid": 110318,
            "pagefilename": "1ec21bcdb68b4994502e23613f15af20.jpg",
            "pageorigfilename": "Ayer_MS_1193-1_VL02_00349_o2.jpg",
            "transcription": ""
        },
        {
            "pageid": 110319,
            "pagefilename": "60d2f0ee5c40c4442e9a6df9c4b05073.jpg",
            "pageorigfilename": "Ayer_MS_1193-1_VL02_00350r_o2.jpg",
            "transcription": ""
        },
        {
            "pageid": 110320,
            "pagefilename": "f4e4a8c2590cc111b5c77939993c15d9.jpg",
            "pageorigfilename": "Ayer_MS_1193-1_VL02_00350_o2.jpg",
            "transcription": ""
        },
        {
            "pageid": 110321,
            "pagefilename": "2a68ca2122981ccb305199d666a7c6d8.jpg",
            "pageorigfilename": "Ayer_MS_1193-1_VL02_00351r_o2.jpg",
            "transcription": ""
        },
        {
            "pageid": 110322,
            "pagefilename": "58fdfa29983d7f9d62826df31f81f7f0.jpg",
            "pageorigfilename": "Ayer_MS_1193-1_VL02_00351_o2.jpg",
            "transcription": ""
        },
        {
            "pageid": 110323,
            "pagefilename": "57e468cbde9b580d730b830e73c88944.jpg",
            "pageorigfilename": "Ayer_MS_1193-1_VL02_00352r_o2.jpg",
            "transcription": ""
        },
        {
            "pageid": 110324,
            "pagefilename": "96392fd2b1fd61f5ab6e33d55d0eb220.jpg",
            "pageorigfilename": "Ayer_MS_1193-1_VL02_00352_o2.jpg",
            "transcription": ""
        },
        {
            "pageid": 110325,
            "pagefilename": "56d581ebe9c1fdfbe66a54cefa3c8a29.jpg",
            "pageorigfilename": "Ayer_MS_1193-1_VL02_00353r_o2.jpg",
            "transcription": ""
        },
        {
            "pageid": 110326,
            "pagefilename": "bb203c31e729ed1ad776da7d1bf27172.jpg",
            "pageorigfilename": "Ayer_MS_1193-1_VL02_00353_o2.jpg",
            "transcription": ""
        },
        {
            "pageid": 110327,
            "pagefilename": "51f47dc6aba89513a4c75887b8dae711.jpg",
            "pageorigfilename": "Ayer_MS_1193-1_VL02_00354r_o2.jpg",
            "transcription": ""
        },
        {
            "pageid": 110328,
            "pagefilename": "96f529ff08d29f06609472d44f36f63d.jpg",
            "pageorigfilename": "Ayer_MS_1193-1_VL02_00354_o2.jpg",
            "transcription": ""
        },
        {
            "pageid": 110329,
            "pagefilename": "eb64cbc538e23f3e3518856e5fff7326.jpg",
            "pageorigfilename": "Ayer_MS_1193-1_VL02_00355r_o2.jpg",
            "transcription": ""
        },
        {
            "pageid": 110330,
            "pagefilename": "ad6769c33a7ea0eae5c6bc4232071430.jpg",
            "pageorigfilename": "Ayer_MS_1193-1_VL02_00355_o2.jpg",
            "transcription": ""
        },
        {
            "pageid": 110331,
            "pagefilename": "d14c1eda2792e8b3ec7b5c455bf4a7db.jpg",
            "pageorigfilename": "Ayer_MS_1193-1_VL02_00356r_o2.jpg",
            "transcription": ""
        },
        {
            "pageid": 110332,
            "pagefilename": "cc39b0182c03ede6dc4c07b2a3b00879.jpg",
            "pageorigfilename": "Ayer_MS_1193-1_VL02_00356_o2.jpg",
            "transcription": ""
        },
        {
            "pageid": 110333,
            "pagefilename": "9dec3e8e3eb34283d4b7c0eb5310ea25.jpg",
            "pageorigfilename": "Ayer_MS_1193-1_VL02_00357r_o2.jpg",
            "transcription": ""
        },
        {
            "pageid": 110334,
            "pagefilename": "859df0a78ac7c28e2eebb733dfcc3f8e.jpg",
            "pageorigfilename": "Ayer_MS_1193-1_VL02_00357_o2.jpg",
            "transcription": ""
        },
        {
            "pageid": 110335,
            "pagefilename": "31ed9cfc1e998d9a749b8417ec33e78f.jpg",
            "pageorigfilename": "Ayer_MS_1193-1_VL02_00358r_o2.jpg",
            "transcription": ""
        },
        {
            "pageid": 110336,
            "pagefilename": "63204826302ef2a561cd2489bf57c545.jpg",
            "pageorigfilename": "Ayer_MS_1193-1_VL02_00358_o2.jpg",
            "transcription": ""
        },
        {
            "pageid": 110337,
            "pagefilename": "6fdb0a3cffe60a163f2fea9a4665827e.jpg",
            "pageorigfilename": "Ayer_MS_1193-1_VL02_00359r_o2.jpg",
            "transcription": ""
        },
        {
            "pageid": 110338,
            "pagefilename": "d86e8c79c06f60e68b07c48ff24c8009.jpg",
            "pageorigfilename": "Ayer_MS_1193-1_VL02_00359_o2.jpg",
            "transcription": ""
        },
        {
            "pageid": 110339,
            "pagefilename": "b18b303d146adae0395c3b8fc3a45ef8.jpg",
            "pageorigfilename": "Ayer_MS_1193-1_VL02_00360r_o2.jpg",
            "transcription": ""
        },
        {
            "pageid": 110340,
            "pagefilename": "6660fc0c84c46ce93901881a91485e19.jpg",
            "pageorigfilename": "Ayer_MS_1193-1_VL02_00360_o2.jpg",
            "transcription": ""
        },
        {
            "pageid": 110341,
            "pagefilename": "e1dea6c0b118536e7eb492f932d980ae.jpg",
            "pageorigfilename": "Ayer_MS_1193-1_VL02_00361r_o2.jpg",
            "transcription": ""
        },
        {
            "pageid": 110342,
            "pagefilename": "f604616de02d26a0673205fe7894b52c.jpg",
            "pageorigfilename": "Ayer_MS_1193-1_VL02_00361_o2.jpg",
            "transcription": ""
        },
        {
            "pageid": 110343,
            "pagefilename": "fe082cb89f7eb8fd7b6ffaec12c82fce.jpg",
            "pageorigfilename": "Ayer_MS_1193-1_VL02_00362r_o2.jpg",
            "transcription": ""
        },
        {
            "pageid": 110344,
            "pagefilename": "8ae3e94f2d6d45f8680fcbea7f0f8001.jpg",
            "pageorigfilename": "Ayer_MS_1193-1_VL02_00362_o2.jpg",
            "transcription": ""
        },
        {
            "pageid": 110345,
            "pagefilename": "62915e1a3809996e697e58ec27866fe0.jpg",
            "pageorigfilename": "Ayer_MS_1193-1_VL02_00363r_o2.jpg",
            "transcription": ""
        },
        {
            "pageid": 110346,
            "pagefilename": "e60d2408f36dec11558b5b49e30d12d1.jpg",
            "pageorigfilename": "Ayer_MS_1193-1_VL02_00363_o2.jpg",
            "transcription": ""
        },
        {
            "pageid": 110347,
            "pagefilename": "4d6e919f2eecf5e3043733b08cd7c171.jpg",
            "pageorigfilename": "Ayer_MS_1193-1_VL02_00364r_o2.jpg",
            "transcription": ""
        },
        {
            "pageid": 110348,
            "pagefilename": "7655c607cc4011f873bca72c81877e53.jpg",
            "pageorigfilename": "Ayer_MS_1193-1_VL02_00364_o2.jpg",
            "transcription": ""
        },
        {
            "pageid": 110349,
            "pagefilename": "94cdce3a21ef20d9f822ee8966682e2f.jpg",
            "pageorigfilename": "Ayer_MS_1193-1_VL02_00365r_o2.jpg",
            "transcription": ""
        },
        {
            "pageid": 110350,
            "pagefilename": "911eaea1c3ab9cb86a1d3d4aa38351e9.jpg",
            "pageorigfilename": "Ayer_MS_1193-1_VL02_00365_o2.jpg",
            "transcription": ""
        },
        {
            "pageid": 110351,
            "pagefilename": "c38c0d6794c30710bc494cc9fa64257d.jpg",
            "pageorigfilename": "Ayer_MS_1193-1_VL02_00366_o2.jpg",
            "transcription": ""
        },
        {
            "pageid": 110352,
            "pagefilename": "c1571cd84a21e68246a0638026756c36.jpg",
            "pageorigfilename": "Ayer_MS_1193-1_VL02_00367_o2.jpg",
            "transcription": ""
        }
    ]
}