{
    "id": "1230",
    "cataloglink": "https://webvoyage.carli.illinois.edu/nby/cgi-bin/Pwebrecon.cgi?DB=local&v1=1&BBRecID=133064",
    "pages": [
        {
            "pageid": 97229,
            "pagefilename": "69ed0fe2cd37b679620bb435ab91ab80.jpg",
            "pageorigfilename": "Ayer_MS_3181_00001_o2.jpg",
            "transcription": "Friday Feb. 24 - 1899\nMet Mr. Winter,  Gen. Man. B. & N.M. Ry on the train - also Mr. P.H. McGary of Walker. - Dr. Hart and the Supt of the Schools at sub agencies of Leech Lake, called on me at the hotel. Mr. Episcopal minister in charge of the church at the agency and a Chippewa Indian. word crossed out had been to Washington with the Chippewa delegation, and who had just returned from that place, was on the train from Brainerd to Walker. He was invited by Mr. McGary to meet Capt Mercer, the new agent, but he declined - saying \"I will meet him soon enough.\" \"I put in some hot shot against Mercer while in Washington\". It appears that the Indians are very much opposed to my coming here as"
        },
        {
            "pageid": 97230,
            "pagefilename": "e7d90c7481e7c68b6e58584d259a53ff.jpg",
            "pageorigfilename": "Ayer_MS_3181_00002_o2.jpg",
            "transcription": "Captain W.A. Mercer  7th Cavalry\nLeech Lake Agency Minn\nFeb. 25 '99\nLeech Lake Agency\nHeadquarters at Walker\nMinn from Feb. 25 -'99 to\nto Apr 7, 1899\nDiary -Feb 25 '99\nto Apr 7 1899"
        },
        {
            "pageid": 97232,
            "pagefilename": "3848b26ec360e020a729ba1adf8b3d59.jpg",
            "pageorigfilename": "Ayer_MS_3181_00003_o2_2.jpg",
            "transcription": "Relieved as acting Indian agent-Omaha and Winnebago Agency, Neb. and transferred as acting Indian agent to the new agency to be established at Leech Lake Minn by Special Order No. 3, Head Qrs. of the Army Washington DC Jan 5, 1899.\nCompleted transfer of property and funds at Omaha and Winnebago Agency Monday Feb 6, 1899. In Omaha, awaiting Instructions, from the 6th to the 20th of Feb. Sioux City en route to Leech Lake - Feb 20 - guests of Mrs Warfield - In St Paul 21,22, and 23 - guests of Mr and Mrs E.J. Cochran - Left St.P.  9 a.m. 24th and arrived at Walker Minn. (Leech Lake) same evening at 5:30 - obtained room and board at the Pameda Hotel."
        },
        {
            "pageid": 97233,
            "pagefilename": "f4f8cfb4ef15a50155101c303bd9d355.jpg",
            "pageorigfilename": "Ayer_MS_3181_00004_o2.jpg",
            "transcription": "The future welfare of these Indians depends upon the outcome. The law is a mistake - The General Land Office has charge of the timber under the treaty with the Indians = a greater mistake was never made.  The land office people from commissioner down have no responsibility or sympathy for or the future welfare of the Indians to look after. The Indian office which has all the responsibility of the Indian - has no control over his vast resources in timber and land upon which his present and future depends The Indian Office and the G.L.O. are at loggerheads on this subject.  The Indian Office is right."
        },
        {
            "pageid": 97234,
            "pagefilename": "f2906f05033b653bb8eba7b7634677c7.jpg",
            "pageorigfilename": "Ayer_MS_3181_00005_o2.jpg",
            "transcription": "(continued)\n- got a good 40 ft boat - 20 H.P. engine - with small cabin.\nJoined Carrie in Chicago at 4.3o p.m. at Palmer House.  Attended theater in the evening \"Jolly Musqueteers\" Snowing hard.\nMrch. 31 - Friday - more snow Purchased music box - Lyon and Heally - attended theatre in evening - \"Sporting Life.\"\nApril 1 - snowing hard Left Chicago 6.30 p.m.\nApril - 2 arrived St. Paul 7:45 a.m. attended church with the Cochrans with whom we are staying.\nApril 3 - \nIn St. Paul"
        },
        {
            "pageid": 97235,
            "pagefilename": "b4989df89fcc5cd4976ccde11bf07a6d.jpg",
            "pageorigfilename": "Ayer_MS_3181_00006_o2_1.jpg",
            "transcription": "Mch. 22   Wednesday\nvisited reservation -\nPutting up ice - 26 inches thick\n-@50 c per ton.  Letter from Senator Nelson - will meet him in St. Paul next week to answer about the agency. \nMch 23\nat Walker  Visited agency site\nMch 24\nat Walker Minn\nMch 25\nat Walker\nMch 26\nat Walker\nVisited agency and surrounding site"
        },
        {
            "pageid": 97236,
            "pagefilename": "b9a927f62228b43e39e20fa0053fc1e9.jpg",
            "pageorigfilename": "Ayer_MS_3181_00006_o2_2.jpg",
            "transcription": "Mch 27   snow\nAt Walker - visited agency - new agency site\nMch 28 Tuesday - snow\nleft for Racine Wis. to buy boats - Stopped over in St Paul called at Merchants hotel on Senator Nelson - failed to see him\nEd Cochran not at train so went up to his house. [Utro Werner] with me\nMch 29 Still at St Paul  visiting Cochran - Called on Senator Nelson again but missed him.  Took 8.10 p.m. train on C. Mil and St. P Ry for Racine Wis.\nMch 30 Arrived at Racine at 830 a.m.  Utro W. went through to Chicago - Made purchase of boats  $18000 - & two row boats $50"
        },
        {
            "pageid": 97237,
            "pagefilename": "e14285c5e1fbec24c5bcc10746bb8423.jpg",
            "pageorigfilename": "Ayer_MS_3181_00007_o2.jpg",
            "transcription": "April 4 -  Tuesday\nLeft St Paul 9 a.m. arrived Walker 6 p.m. very cold, Telegram saying Judge Brubaker is dead\nApril 5\nVisited agency & mill site\nApril 6  Very pleasant  The first bright pleasant day for weeks.  Visited agency and mill site  Have the engine \non the ground and all one needs is to put it in place.\nApril 7  Pleasant - unclear\n& bright\nVisited mill site & agency  Indians getting in logs"
        },
        {
            "pageid": 97238,
            "pagefilename": "e4760b98f531dd8da0be56fba5c8d642.jpg",
            "pageorigfilename": "Ayer_MS_3181_00008_o2.jpg",
            "transcription": "April 8   Saturday\nround rust marking at bottom of page\nwritten upside down at bottom of page\n\n* Ayer MS 3181"
        },
        {
            "pageid": 97239,
            "pagefilename": "2c758d1e99c094dc7613cd5dc336991e.jpg",
            "pageorigfilename": "Ayer_MS_3181_00009_o2.jpg",
            "transcription": "seen them they are doubtless prejudiced by what has been told them by designing persons who are afraid that my coming here in charge will interfere with their schemes or perquisites.  As Gus Beaulieu- mixed blood Chippewa, was a member of the delegation of which the minister was a member, I imagine some critizisms of me\n\ncame from him. (G. B.) who is a friend and defender of James I Coffey, a mixed blood half breed of Fond Du Lac reservation with whom I had much trouble while at \n\nLa Pointe Agency - Coffey, I consider a mortal enemy and one would do anything he could to injure me or to influence the Indians against me. He, Coffey is one of the greatest rascals who ever went unhung and I hope for his sake as well as mine that he may never"
        },
        {
            "pageid": 97240,
            "pagefilename": "01525680fc0935b0aa47cdcc1826a9e0.jpg",
            "pageorigfilename": "Ayer_MS_3181_00010_o2_1.jpg",
            "transcription": "cross my path. The adverse feeling among the Indians is most unjust and contrary to the feeling I entertain toward them.  I desire to prove a friend to them - to help them in every worthy project looking to the betterment of their condition and their advancement in civilization.   I know they have been shamefully neglected and unfairly treated and I come here with a desire to straighten out their troubles and do all I can for them.  It is therefore not strange that I consider the act of Rev.      in doing all he can to injure me before he had ever seen me as, uncalled for, unjust and not Christian like.  I shall tell him so when I get"
        },
        {
            "pageid": 97241,
            "pagefilename": "b4be32025dd06c1ed09c63ddfd8d1650.jpg",
            "pageorigfilename": "Ayer_MS_3181_00010_o2_2.jpg",
            "transcription": "acquainted with him.\n\nI go into detail here as the diary should show the feeling of the Indians at this time -- Last October the Pillagar Band of Chippewas became hostile and threatening -- a company of the 3rd US. Infantry - with Major Wilkinson of the 3rd Inf. and a newly appointed lieutenant in command of the company came here in obedience to War Dept. orders. Col. Bacon of the Cavalry-Brig. Gen. of volunteers - Cmding the Dept of Dakotas was also with the soldiers. The soldiers were ambushed at Sugar Point opposite Bear Island and the Indians firing from the thick underbrush killed Major Wilkinson, & six soldiers and wounded twelve. It  has not been learned that any Indian was killed or even"
        },
        {
            "pageid": 97242,
            "pagefilename": "904a7df4b8426fd8b26b41aa2b416685.jpg",
            "pageorigfilename": "Ayer_MS_3181_00011_o2_1.jpg",
            "transcription": "wounded. The troops drew off - the Commissioner of Indian Affairs (a kind hearted, honest man) arrived -- the Indians surrendered - were afterwards arrested but at the earnest request of their many sentimental friends expressed in more earnest petitions to the President - they were not even tried for killing the troops but pardoned and the sentences received for resisting arrest by U.S. Marshals - (the culminating cause of the outbreak) -- were mitigated and they all came back here free -  to glory over their escape from all punishment for armed opposition to U.S. authority and to brag of how many soldiers they killed. The effect has"
        },
        {
            "pageid": 97243,
            "pagefilename": "2ce6076897486e36f4cb12d6446b1320.jpg",
            "pageorigfilename": "Ayer_MS_3181_00011_o2_2.jpg",
            "transcription": "been bad - for they now feel that they have whipped the army and can do it again and there are many reports that they are \"wild and ugly\".\nFeb. 25, - '99. Saturday, cold\nReceived a letter from the Indian Office confirming my journey here and asking me to make a general inspection for agency & school sites and to investigate the conditions on all sides and keep him advised as to the situation. Mr McGary brings me further reports of the ugly feeling among the Indians and that they are espicially displeased with the coming of an army officer for Agent. I do not believe all of this -- but think there is some foundation for the rumors"
        },
        {
            "pageid": 97244,
            "pagefilename": "76b4045aa4bc6266317c40ec05c22db7.jpg",
            "pageorigfilename": "Ayer_MS_3181_00012_o2_1.jpg",
            "transcription": "(Feb 25 - continued)\nDr. Hart told me last night that a few days ago a number of drunken Indians took his captain of police and locked him up overnight -- It is evident that they need discipline and certainly I can not or will not permit such lack of respect to the constituted authorities. I, of course, have no authority until the agency is established by act of Congress -- the bill now being in conference with the prospect of it becoming a law any day. \nMet a Mr. Gardner (who owns the drug store. jewelry store. and bank, all in one room.) He is an enthusiastic fisherman & hunter and says there is the best of both sports here."
        },
        {
            "pageid": 97245,
            "pagefilename": "21d688a2b2966acaa5bf7aca0620d2a5.jpg",
            "pageorigfilename": "Ayer_MS_3181_00012_o2_2.jpg",
            "transcription": "Feb. 26 - Sunday - Cold, Snowing.\nMet several citizens of Walker and all are pleasant. Had a call from Mr. Barnard the editor and publisher of the local paper -- who assures me of his friendship and support.\nIt seems that Dr. Hart's  friends rather resent my appointment as Agent and that he rather expected it -- From this source, I am told, the ministers opposition comes.\nFeb. 27, Monday - Cold\nNothing of interest today\nweather cold slight snow.\nFeb. 28 - Tuesday -- Cold & clear\nVisited the proposed site of new boarding school and think it"
        },
        {
            "pageid": 97246,
            "pagefilename": "4f51ad4a0f95dd4fa939448886b50606.jpg",
            "pageorigfilename": "Ayer_MS_3181_00013_o2_1.jpg",
            "transcription": "page 18\nSec 19 - T. 142 . R. 30\nsuitable -- It contains a fine spring with flow enough to supply the whole school -- Should be pumped to tank or container 80' piped to buildings. Also visited several places with Mr. McGary & Supt Cressman who were with me - thought desirable places for an Agency, but they were either too hilly  or the land was allotted. I finally selected a place on Agency Bay in Sec. 13 - T. 142 R. 31 which I think will be a fine spot. It is on a bluff 20 ft. above the water -- and the ground is level and covered with a thick growth of Norway and White Pine. The portage I will have turned into a water thoroughfare or canal."
        },
        {
            "pageid": 97247,
            "pagefilename": "022d751254399e6f5757cf7d2ac9d887.jpg",
            "pageorigfilename": "Ayer_MS_3181_00013_o2_2.jpg",
            "transcription": "page 19\nIt was pretty tough tramping about in 8 in of snow -- the thermometer below  zero but the necessity for early action on the building is pressing.\nMarch 1, Wednesday\nNothing of Interest.\nLater -- Met Mr. Schneider-Auditor of the Brainerd & N. Minn. Ry. -- also a lumberman from Minn. -- named Mullins. --Busy with correspondence & plans for building.\nMarch 2, Thursday\nDr. Hart told me of Gen Beaulieu & the newspaper article - etc.\nBusy with office work & plans for building -\nMch, 3. Friday -\nBusy with correspondence & plans.\nMr. Lang agrees to put up ice for agency @ 50 cts a ton. - Ice now over 3 feet thick & fine\n\n                                                                                    -- clear & hard as a crystal"
        },
        {
            "pageid": 97248,
            "pagefilename": "e44049432ac06ee2b63a1b8f95cbb188.jpg",
            "pageorigfilename": "Ayer_MS_3181_00014_o2_1.jpg",
            "transcription": "20\nMarch, 4, Saturday\nIs the last day of Congress and the Indian Bill must now be a law -- I am anxious to hear the order issued formalysic establishing the agency and to receive information as to the appropriation for Agency & school buildings and boats etc.\nHaving determined in Nov. '98 to send me here and to establish a new agency--to take in Leech Lake, Winnibigoshish, Cass Lake, Chippewa and Oak Point reservations here -- and Red Lake reservation further north -- and the President having directed my detail on Jan 5 - '99.  -- it is a long time to \"hang in the air\" waiting for Congress to act. -- before doing anything more - Well, I suppose by the"
        },
        {
            "pageid": 97249,
            "pagefilename": "6482bf95d52ae1d74931e621012608d4.jpg",
            "pageorigfilename": "Ayer_MS_3181_00014_o2_2.jpg",
            "transcription": "21\nend of March -- we shall have the new agency matter well settled. -- Visited site of new agency with Mrs Mercer, Cressman, & Surveyor Canfield -- think it best to move the school on this site\nMarch 5th Sunday, Very cold\nBusy with correspondence - Answered E I. Cochran - letter asking Mrs. M & I to come to St Paul for two or three days -- wants me to meet a Mr. Eden - Gener'l Frt agent E. M. RR. - theater - supper etc. -- As I have not rec'd notice from the Indian Office -- I can go very well \nand telegraphed him to that effect.\nMonday - Mch 6 -- 25-°  very cold\nInterviewed carpenters about building. Mr. Lane about ice (50¢ a ton) -- Surveyor about the channels and depth of"
        },
        {
            "pageid": 97250,
            "pagefilename": "b9af74d9f2419f0397b7c2ce206436b3.jpg",
            "pageorigfilename": "Ayer_MS_3181_00015_o2_1.jpg",
            "transcription": "22\nof water in lakes thoroughfares, rivers etc. -- Think a launch with not over 2 or 2 1/2 ft. unclear -- and a large centerboard for safety in heavy weather will be the best thing for these waters.\nInterview a Mr. [[Procck -- need digger -- driver  will be best -- get a tank from Duluth manufactures. Sup.-Cressman & Surveyor Canfield in - too cold to operate with success.  Dr. Hart from the agency was in - long conference about payments and drunkenness   Thinks G.B is an enemy of mine and will be at the bottom of all trouble - on the reservation  It is plain that the Indians must be taught discipline temperance with respect toward Government authority. I expect"
        },
        {
            "pageid": 97251,
            "pagefilename": "7f5b73b200e59d72ee5d56b028728fd3.jpg",
            "pageorigfilename": "Ayer_MS_3181_00015_o2_2.jpg",
            "transcription": "23\ntrouble - but will insist upon temperance and suspension of drunken riots. It appears that no agent has ever attempted to control these Indians at all. \nTuesday March 7 1899\nBusy on plans for buildings\nWednesday Mch 8, 1899\nBusy on plans for buildings\nThursday Mch 8, 1899\nSame - Visited proposed schools site and agency site.  Think I have found one a little better just north 100 yds.\nFriday Mch 10  1899\nBusy on plans.  Have applied for authority to run the saw mill. I"
        },
        {
            "pageid": 97252,
            "pagefilename": "93f6effc61923de085198e84746585ea.jpg",
            "pageorigfilename": "Ayer_MS_3181_00016_o2_1.jpg",
            "transcription": "24\nfind that with a few supplies missing parts etc.  I can put the old mill in shape.  It will\nbe of great benefit to Indians and to the Agency + School.\nMrch 11, Saturday\nVisited and definitely located sites for school and agency.\nMrch 12, Sunday\nPut in the day on correspondence\nMrch 13  Monday  1899\nIndian delegation returned from Washington.   Wm Bongo? and  Flatmouth\nLead chief of the Pillager Band. wanted to see me.  I met them at the hotel.  Had a short talk.\nthey wanted me to meet them in council at the old agency on Friday?"
        },
        {
            "pageid": 97253,
            "pagefilename": "ce298aad379bfda6f311b3744597dd57.jpg",
            "pageorigfilename": "Ayer_MS_3181_00016_o2_2.jpg",
            "transcription": "council at the old agency on Friday.\n25\nMarch 14, Tuesday 1899\nVisited agency  site again. Put some Indians to work clearing off place for ice house.  Engaged \nPhelin Chartrand? to build the house -  not to cost over $110 - and a Mr. Lang of Walker to pull up the ice as not to exceed 50 c per ton for 75 .00 dollars.\nMrch 15.  Wednesday.  Very Cold\n\nBusy on plans - visited agency site.\n\nMrch 16.  Thursday\n\nBusy on plans for Agency + School."
        },
        {
            "pageid": 97254,
            "pagefilename": "f98184741b29cbf04e35de5ded59e623.jpg",
            "pageorigfilename": "Ayer_MS_3181_00017_o2_1.jpg",
            "transcription": "26\nMch 17  Friday\nVisited Agency (old) and met a number of the Pillager band in a friendly talk.  They were not very cordial & I thought rather ugly in manner - not a word of the usual compliments etc - that is generally accorded a new agent.  I am at a loss what to attribute it to I can only wait & see by future actions.\n\n   I talked to them [?] them to express their wishes - but not one of them would open his lips.  Flatmouth finally said they would talk among themselves - that they did not know I had [?] my final orders making me their agent but now that they knew I was their"
        },
        {
            "pageid": 97255,
            "pagefilename": "40eafb505335fcf8e41b82351275a0fd.jpg",
            "pageorigfilename": "Ayer_MS_3181_00017_o2_2.jpg",
            "transcription": "27\nagen  - they would hold a council and let me know when they would like ? one.\nI then told them I would leave - said good bye - but not a word from any one - Only one other talk had I ever had with Indians which reminded one of this one and that \nwas in '94 with the Lac du Flambeau Chippewas - when I was agent at La Pointe Agency in Wis.  - they were ugly + nearly hostile - I hardly knew what to make of these\nfellows - but am determined to go back tomorrow + find out - + also send for the principal men of each band + have an understanding with them.  I think Wm Bongo? is\na man I can depend on to help me - He brought a letter from the Commissioner to me."
        },
        {
            "pageid": 97256,
            "pagefilename": "e5aed3ea761690392db28a6b070ff3fe.jpg",
            "pageorigfilename": "Ayer_MS_3181_00018_o2_1.jpg",
            "transcription": "28\n\nMrch 18. Saturday. -10◦\nVisited old agency - Mrs. [?Werner?] with me -- while she was looking at the lace that Elis Colby's Indians make -- I looked up Bonga & made arrangements for notifying the Lead Men -- to meet me next Friday. \n\n    The Indians were in council -- Flatmouth sent me word he would like to have me come to the Council for a minute -- I went -- was met pleasantly -- everybody smiled and I felt that they had talked me over and was satisfied & agreed to accept me. They wished me to look after some friends they had in Washington -- get the money & pay it unclear in Wars.\n\nNOTE: George Bonga was the son of an Ojibwe mother and African-American father. He was fluent in French, Ojibwe, and English and served as interpreter and intermediary"
        },
        {
            "pageid": 97257,
            "pagefilename": "634954e459ec8d732405be9e928b78d4.jpg",
            "pageorigfilename": "Ayer_MS_3181_00018_o2_2.jpg",
            "transcription": "29\nI had a long talk with Bonga -- & pleasant words with Flatmouth & empty parenthesis the second chief of the Pillagers. -- Forwarded plans for agency.\nMch - 19. Sunday -18◦\nVery cold &  we could not go over Its hear Rev. Willis hold services at the old Agency -- Rev. Willis is from White Earth -- belongs at Red Lake & is filling Rev. Gilfillans place while he is absent - sick.--\nBirthday -- 44 years old.\nMch 20 -- Monday -- Very cold -- 10◦\nCorrespondence -- \nMany reports in newspapers to the effect that the Indians would break out as soon as the ice went out."
        },
        {
            "pageid": 97258,
            "pagefilename": "fa76ef3462dc7638a29cf2be7d124388.jpg",
            "pageorigfilename": "Ayer_MS_3181_00019_o2.jpg",
            "transcription": "30\nMch 2, Tuesday\nWhen Mr. Lerigg -- member of leave unclear -- Mr. Robinson -- and those those other gentlemen -- They are interested in the new town of Bimidgi (sic) and all are opposed to the sale of this timber under present law. -- There is to be a sale of the best part of the timber lands of Leech Lake Agency -- May 10 -- and those who intend to bid are in favor of the sale -- those opposed to it & who believe in a better system of handling this business -- are marking land to postpone the sale. The interests of the Indians and of the people ofcrossed out living  or other aspect to live or hold property in this section of the state are in favor of a different plan."
        }
    ]
}