{
    "id": "829",
    "cataloglink": "https://webvoyage.carli.illinois.edu/nby/cgi-bin/Pwebrecon.cgi?DB=local&v1=1&BBRecID=155987",
    "pages": [
        {
            "pageid": 54257,
            "pagefilename": "f29725aefeac11a0e66f1767d28d9750.jpg",
            "pageorigfilename": "GR_ 2649_0001_o2.jpg",
            "transcription": "Territory of Oklahoma,\nCOUNCIL CHAMBER,\nGuthrie, Feby 4th, 1895\nGenl L. W. Colby,\nBeatrice Neb,\nMy Dear General,\nIn the event of your services being accepted by the government of Mexico, I should like to be counted in, I am living here in Oklahoma and can on very short notice raise one hundred adept bushwackers whose fighting qualities are unquestioned. I can also promise that they will sack every cathedreal in the enemys country and fill thier haversacks with little gold Jesuses.\nKindly advise me on the subject.\nYours to command.\nRobert McReynolds\n405 West Springer St\nGuthrie, Oklahoma Ty.\n\n\n\nTerritory of Oklahoma, council chamber \nGuthrie, July 4th, 1895 \nL.W. Colby,\nBeatrice Nele, \nMy Dear General,\nIn the event of your services being accepted by the government of Mexico, I should like to be counted in, I am living here in Oklahoma and can on very short notice raise one hundred adept bush wickers whose fighting qualities are unquestioned. I can also promise that they will sack every cathedral in the enemy's country and fill their haversacks with little gold Jesuses.\n(( With the acceptation of the government of Mexico, I L.W. Colby should be counted in.))?? Forsaking, not being included \n( Will sack every cathedral in the enemy country))?"
        },
        {
            "pageid": 54258,
            "pagefilename": "e049b66e1b710103f0b0d96935ac9b36.jpg",
            "pageorigfilename": "GR_ 2649_0002_o2.jpg",
            "transcription": "Territory of Oklahoma, council chamber,\nGuthrie, February 12th, 1895\nL. W. Colby.\nBeatrice Nele, \nDear General Colby,\nI am not in jest when I offer the services of myself and one hundred followers from this Territory, in the cause of Mexico, -- True many of the men I can enlist are desperate characters, Yet they can be led by a silken thread by the Man who understands them.\n[((More than 100 men across many different territories have offered services))]\n[(Many of the man are on their last stance, and desperate for seeking character.)]\n(Understanding the needs that I provide to the men.)\n\nThey by Nature are so organized that adventure is part of their being. (The Men are advanced and knows the nature like the back of their hands)??\nIt only needs directing to make of them brave soldiers, daring scouts, and plumed knights upon the battlefield.\nTheir Morale, General, has nothing to do with the issue, They would throw their bodies between you and storm of shell if they knew you as I do.\nThey would gain the ramparts of the"
        },
        {
            "pageid": 54259,
            "pagefilename": "102b75f686f569b86a3f30c045b8628d.jpg",
            "pageorigfilename": "GR_ 2649_0003_o2.jpg",
            "transcription": "Territory of Oklahoma, council chambers \n(No. 2)Guthrie,  189\n[((foe, and hand-to-hand encounter win the day, or go down with colors flying.))] ??\nYou have seen this class of fellows before, You have seen them at the bar of Justice, as petty Malefactors, who if, opportunities of war had offered would have been among the most distinguished scouts or heroes, Their very Natives made them love adventure, and they were wrong only because civilization willed it so.\n[((Trusting you do not misinterpreted my meaning.))}?\n\nI am General\n\nMost Sincerely Yore\nRobert McReynolds\n405 West Springer St\nGuthrie Oklahoma Ty"
        }
    ]
}