{
    "id": "1270",
    "cataloglink": "https://mms.newberry.org/xml/xml_files/Metcalf.xml",
    "pages": [
        {
            "pageid": 101222,
            "pagefilename": "7c54a667f2a82df45fa4e07f83d7306b.jpg",
            "pageorigfilename": "mms_metcalf_box_006_fl_138_001_001_o2.jpg",
            "transcription": "March 27th 1894. 723--4-St.  DesMoines Ia.\nDear Pater & Mater & People --\n\n    How are you all -- How is the Y.P.S.C.E. getting along Penny? -- I enclose you a copy of my latest effort in the Y.P.S.C.E. here -- I want next to have manual of the Church printed.  That comes harder. Penny notice the Committees.  Do you have so many?  What will you do about the convention in Cleveland?  We have a Convention Committee.\n    Mother you said once that Irv. did not like Men's Leagues. says They do not get men into church.  We can't succeed to any extent in getting men church members into the League.  It does interest the men of the Ch. & gets them to do.  It attracts men to the services too. We have more men than women as a rule Sunday nights.\n    Do you still have a quartet choir and who sings in it?  I am thinking of having a chorus choir for evening especially.\n    What is the news of Jim Stocking now?  Did Mrs. Smith from the wild west come?"
        },
        {
            "pageid": 101223,
            "pagefilename": "7f619602126656ba18fd215e19873ae7.jpg",
            "pageorigfilename": "mms_metcalf_box_006_fl_138_001_002_o2.jpg",
            "transcription": "We had very warm weather two weeks ago -- oppressively so, but since it has been cold & windy growing slowly warmer now tho.  As a rule weather here beats ours at home all out -- If it weren't for the Smoke.  Poor soft coal cheep $7? - probably $2.00 and even less a ton makes the air & everything else black.  worse than Chicago\n\n    Saw in Ed. Peck's Oberlin News that Sen. Hamilton was dead.  Seems too bad.  Why not some of the worthless bad boys?  Heunderlined knows --\n    Will Geo. Ely go to Congress?--\n    When do you expect Nette?\n    How would it do for me to come home in time for Commencement, stay with you till July 11th & then go to Cleveland & return with the Y.P.S.C.E.er's -- I begin to want to see home  The time seems to go so fast.  I want to get something arranged pretty soon.\n    Easter was a big day  lots of hard work for me -- Ch. Choir had rehearsals 5 or 6 last week Jun. End.er's twice & Y.P.S.C.E. twice. All of which I had to boss -- hard work  managing women singers & keeping them good natured"
        },
        {
            "pageid": 101224,
            "pagefilename": "c6bd048f4d73ec44b5c657a39e1fa2a6.jpg",
            "pageorigfilename": "mms_metcalf_box_006_fl_138_002_001_o2.jpg",
            "transcription": "Aug 5th '90 Gilman Colo --\nDear Pater & Folks --\n\n    I didn't have time to write to you Sunday -- Last Friday we were expecting a crisis in our meetings, when along came a Phrenologist & Lecturer & Reciter & Comic Singer and &c and engaged our Hall for four nights --\n    We were paying nothing for the use of the Hall and only had it on condition that no one else wanted it.  So we had to rustle for a Hall -- we could not get the school house, the only other good place because 1 of the 3 directors said that it was a \"district school house\" and so long as he had his say it should be used for no other purpose.  Then we tackled the saloon keeper, Dunham, who owns an old Hall called 'Union Hall\" formerly used as a saloon, with no chairs in it and dirty as an old smoking car -- Dunham gave us the key and said -- \"Yes, use it as long as you want to.\"  The lumber for the new church is on the ground so we used that with some chairs which the saloon keeper lent us & made benches of it.\n    The obstinate School Trustee condecended to give us the use of a doz. chairs from the School House and so we had a hall -- While we were at work a young fellow came in, asked what we were about & then went out and got 4 lamps for us."
        },
        {
            "pageid": 101225,
            "pagefilename": "0706fabf69dc5a7ecaff0e7ddebe0ec8.jpg",
            "pageorigfilename": "mms_metcalf_box_006_fl_138_002_002_o2.jpg",
            "transcription": "So with the help of the Saloon Keeper we were able to run an opposition to the Phrenologist - But when evening came we had only 12 present, but we had the best prayer meeting we had had. The Phrenologist had about 50 or 60 but he charged no admission - The next night, he charged an admission fee of 25 cents & had about the same number while we had as many as 40 - & a very good meeting. Sunday, Mr. Smith & Mr. Kettle stayed here in the morning and I went over to Red Cliff to help Mr. Vaughn with a Children's service - He had about 15 people 12 of them nice bright smart looking children. He gave them a talk on Habits & then we had S.S. There were about 30 people, 20 children, at S.S. I sung \"Where is my wandering boy tonight\" at the suggestion of Mr. Hoover, Supt. of the S.S. He is a fine young man about the only one in Mr. Vaughn's Church whom he could call upon to lead in prayer, he says -\nA very nice young lady named Keast played the organ, the regular organist, a Miss. Campbell, was late, and is always 1/2 hour late -- Miss Keast teaches the infant class -\nMr. Vaughn & I went to the Quartzite Hotel & had chicken - & a slice of Water mellon (sic)for desert!! (sic) Watermellons are worth 5 cents a pound - This was the first I had eaten - Peaches 5 cents a piece But red raspberries grow wild in great abundance & we make up for lack of other things by eating them"
        },
        {
            "pageid": 101226,
            "pagefilename": "6a0d830d52b6069c49f90111e0a8572d.jpg",
            "pageorigfilename": "mms_metcalf_box_006_fl_138_002_003_o2.jpg",
            "transcription": "(2.)\nSoon after dinner Mr. Vaughn & I started for Bell's Camp. Halfway between Gilman and Red Cliff there is a small chapel there, holds about 35 - We had a meeting there last Wed. Eve. when we could not have P.O.S. of A. Hall. The meeting was advertised for 3 o'clock & we began & G.L. preached on Christ & the Place of Salvation-\n\n The people were mostly Mr. Hart & his family, boys & girls from 16 to 22 & some of their friends who all live on a shoulder point near Bell's Camp called Poverty Flats because the people who live there are all quite well off - Mr. Hart owns mines there & lives there most of the year. His house is Council Bluffs Iowa & his children only spend summer vacations here - After service he invited us to spend Tuesday afternoon at his house - His people seem to be a jolly crowd.\n Sunday the Phrenologist said he examined 30 heads at $2.00 apiece - But we think he lied. G.S. & I had the honor of breakfasting with him & his wife - He said he lived for some time in the town where Thayer, an Oberlin man, preaches, & likes him much - He also said he came within a hair's breadth of being a minister himself. If he should go into the ministry it would be to make money he said. He said there was more money made in the ministry than anywhere else, in the U.S. He would be of the sensational kind that was his fort (sic) - He certainly is a sensationalist he wares (sic) a plug hat & hair long, way down on his shoulders"
        },
        {
            "pageid": 101227,
            "pagefilename": "c0a00ebfaefef6fa0355c2fd79f46710.jpg",
            "pageorigfilename": "mms_metcalf_box_006_fl_138_002_004_o2.jpg",
            "transcription": "Sunday Eve. Smith went to Red Cliff, with Vaughn & I came back to Gilman to sing for Mr. Kettle. Our meeting was a great success. In the aftermeeting two strangers who were stopping over Sunday in town both spoke & made good testimonies & gave us words of encouragement & cheer. They were Judge Phillips of Des Moines, Iowa & a school teacher from Colo. Springs named Rowst or something like it. The Christians took hold well & it was a very effective meeting - Although the Phrenologist was still holding forth, this time to Men Only. We had over 50 all the benches would hold -\n\n Monday we took a long hard climb & tramp - We climbed right up in a crevasse of a precipice on the side of Gerard Mt. hundreds of ft. high. And rolled down big rocks & watched them tear their way along smashing everything in their way -\n  The first 1000 ft we went up right beside a foaming cascade called Fall Creek - The scenery was beautiful. There is nothing like it in this world - When we were nearly to the top we came across a new mine called the Princess where they have only gone 70 ft. into the side of Mt. Gerard & are already taking out pay ore -- We took candles & went in & inspected it & got some specimens & then went on up to the top of the Mt. The view was wonderful. We could see several Snow-capped Mts. Were probably 12000 ft high ourselves - We wanted to go on about 5 miles further & have a snowball fight on Knotch Mt., but it was already 12 o'clock, so we just went over to"
        },
        {
            "pageid": 101228,
            "pagefilename": "e8e4f91a32487c8b888a90da9b32d0de.jpg",
            "pageorigfilename": "mms_metcalf_box_006_fl_138_002_005_o2.jpg",
            "transcription": "(3)\nFall Creek where there was water & pine trees & there we ate our dinner under those pines on the bank of that foaming rushing mad Creek in one of the most beautiful spots there is-\nAfter dinner we laid down to rest a while - I went across the creek on a fallen log & found a blazed trail. The first I had ever seen --\nWe thought that would probably be the easiest way down so we followed it, & got home much quicker than we had expected, about 4 oclock.\n\nOn the way down we found another mine - only a month old. There were 4 men working there laying up a pile of logs to make charcoal.\n\nIt was so far from the track & so high that it was cheaper they said to make their own coal Especially as the ground is covered there with fallen pine logs & some half burnt-\n\nI never was so tired since I can \"rember\" (sic) as I was when we got home - My head ached terribly & I ate for supper a cup of hot water & a piece of cheese - Then G.S. got the tub & some water & I took a bath and came out new and am not even stiff this morning.\nThe only way you can get a bath at this \"Mason House\" is to go to the kitchen & get a wash tub & take it to your room & carry your own water - Many of the men never take the trouble.\nAfter a few days of just washing in the wash room, hands & face alone, with the rest of the miners, I could stand it no longer & invested"
        },
        {
            "pageid": 101229,
            "pagefilename": "987560ef3d8c196e53848f8886b00fdf.jpg",
            "pageorigfilename": "mms_metcalf_box_006_fl_138_002_006_o2.jpg",
            "transcription": "in two small tin pails, a tin cup, and, a small pan costing altogether the small sum of 90¢ !! & now we have washing tools in our own room - Last night we had another very good meeting - Mr. Gilson, a miner who is also the Methodist Preacher, came in & helped us - He is an earnest, sincere, good natured, cranky Methodist man & made a good speach on \"Seek ye the Lord while he is near, Call ye upon him\" etc Messers Vaughn Smith & Kettle also spoke. The meeting was good but we don't seem to be getting hold of the unconverted. These people are hard to start. Terribly indifferent after \"gelt\". Listen respectfully but do nothing - This morning Mr. Kettle & I helped raise the framework of the new church - It seems good to see it begin to loom up - We shall probably go to Red Cliff some time this week & stay a week at least, there. It is safest to send mail always to Care of C. W. Sanders 1356 So 13th St Denver. It will always get to me there & it might not, if sent some where else. I have spent too much time now writing I ought to be studying so Goodday \n\n Harl - \n\nHow are you all? have you been to the Lake? For some reason I would rather be there than here. All water is ice- water here - & bad for bathing"
        }
    ]
}