{
    "id": "217",
    "cataloglink": "https://mms.newberry.org/xml/xml_files/Calhoun.xml",
    "pages": [
        {
            "pageid": 48524,
            "pagefilename": "3f334fc0137bec3e4fc8b330bce9e68b.jpg",
            "pageorigfilename": "mms_126_fl_01_01_001_o2.jpg",
            "transcription": "AMERICAN LEGATION\nPEKING, CHINA\nMarch 4\n1912\nDearest Billy\nWe have been in a state of wild excitement since Thursday's Thunderbolt. It is just what we have dreaded all winter until the edict of abdication and Yuan's election to the Presidency made us cease to dread it. We felt that the Republic being peacefully launched all would be well in China. There would be difficulties, of course, but having overcome so many, we thought"
        },
        {
            "pageid": 48525,
            "pagefilename": "c80a636a2ecc19fa2b3259ad50746c2e.jpg",
            "pageorigfilename": "mms_126_fl_01_01_002_o2.jpg",
            "transcription": "2/\nthey would seem small. The whole city was gay with the five-color flag of the Republic. For Tuesday had seen making calls for the Chinese New Year or some of the Man-Chu princesses whom I did not like to desert just because they were out of power. Polly went with me on Wednesday to see the Princess Jhai Hsiin, whose children are cousins of the Son of Heaven, and the Princess Tsai Chèn at old Prince Ching's palace. And on Thursday we saw Princess Pù Lun and Princess Kala-Chin, who is a Mongol & takes the situation by hand. I call her the suffragette because she has been interested in politics"
        },
        {
            "pageid": 48526,
            "pagefilename": "cd47589c57b921b5b6928b2b408151f2.jpg",
            "pageorigfilename": "mms_126_fl_01_01_003_o2.jpg",
            "transcription": "3/\nand has done so much for women. She reminded me that I knew how democratic and progressive she had been, but she thinks this situation hopeless as it means inevitably, to her, the partition of China. A fate from which a constitutional monarchy, she thought, would have saved the country. I tried to reassure her but she was too far down in the depths, and I had great respect for her in her despair. \nFrom there I went to see Mme. Hoo, whose husband is acting Minsister of Foreign Affairs and close to Yuan, and found her of -"
        },
        {
            "pageid": 48527,
            "pagefilename": "af52dd0790e1b3b8444d71ae253afe69.jpg",
            "pageorigfilename": "mms_126_fl_01_01_004_o2.jpg",
            "transcription": "4\ntimism (optimism) a great contrast of the other. After we came home the Straight and others came in and stayed while we went up to dress about half past seven. As I descended the stairs, again a little before eight, I saw Major Russell in the hall. He asked about Cal and I told him he was dressing & would be down in a moment. Then the Thunderbolt fell. He said there were riots around Hetaman and a three-inch shell had fallen in our Guard compound. If it had exploded it might have killed fifty men. He rushed up stairs, two at a time to report to Cal, & as soon"
        },
        {
            "pageid": 48528,
            "pagefilename": "8cfe3c72c5313c7f4d5714688bc5e841.jpg",
            "pageorigfilename": "mms_126_fl_01_01_005_o2.jpg",
            "transcription": "5\nas he left the house three minutes later the Call to Arms was sounded. From that time on the excitement was wild. Cannon were brought out, barricades were built, a gun was mounted on the roof of our kitchen, our soldiers advanced and took possession of Chien Wen which is vastly important from a strategic standpoint, and in a moment we were on a war footing. We heard the firing very plainly in several directions, sometimes very loud and close, and from the upper windows we could see the smoke and flames of a line of"
        },
        {
            "pageid": 48529,
            "pagefilename": "3ecb412fdf851dfeff0e62a6f8a6511f.jpg",
            "pageorigfilename": "mms_126_fl_01_01_006_o2.jpg",
            "transcription": "6\nfires which rapidly increased in number. The most terrifying side of it was the fact that the rioting and looting were the work of the very soldiers whom Yuan had brought in to protect the city, and their officers were taking part in it. Cal's orderly reported that he had been on Liberty at the Y.M.C.A. on Hatamen St. when the alarm was given, and the American marines came pouring down Segation St. back to quarters. They had seen the Chinese soldiers breaking the windows of the shops on Hatamen and looting them at the point of this"
        },
        {
            "pageid": 48530,
            "pagefilename": "86d4b1eefcacfe7217f3fc416df8b078.jpg",
            "pageorigfilename": "mms_126_fl_01_01_007_o2.jpg",
            "transcription": "7/\nbayonet. Cal was everywhere in the compound with the officers, though bullets were falling here and there and one of them whizzed close by him. We thought that the Straights and the Wenscals were dining at Casenave's in the quarter and were at ease about them until I sent the orderly and found they were not there. Willis? riding pell-mell though quite unaccustomed to it had gone after the Ferguson Family & brought them in. They were at the west of the quarter where it was still quiet. But a squad of soldiers under St. Randall"
        },
        {
            "pageid": 48531,
            "pagefilename": "f620757e9a6fbcac924cdf69eb1adc34.jpg",
            "pageorigfilename": "mms_126_fl_01_01_008_o2.jpg",
            "transcription": "8\nwas sent for the Straights & de Menscals who were on the other side near the fires and in the midst of the looting, and another squad under Capt. Kipp for the Thatchers?? Patchins? who were in a still more dangerous position. We waited in great anxiety for them to come in. Finally we thought we saw them coming preceded by rickshaws piled high with luggage. We rushed out only to be greeting by a \"Here I am\", in the voice of Mrs. Matrell as though it was she alone that we had been waiting for. And her mother interrupted our anxieties by telling us how much she had been wanting to meet me &c, &c. They had followed the British troops"
        },
        {
            "pageid": 48532,
            "pagefilename": "9a21cedceee564cba422e3b69b550dec.jpg",
            "pageorigfilename": "mms_126_fl_01_01_009_o2.jpg",
            "transcription": "9/\nwith the Jordan Mission people. Ten or fifteen minutes later came the de Menssals + then the Straights. They had had a terrifying time. Willard (Mr. Straight) had taken Dorothy (Mrs. Straight) into Dr. Morrison's which seemed a little safer. Many Chinese took refuge there and among them one soldier who said he did not want to join the looting. (He has since been given twenty taels as a reward and promoted to be a corporal.) The de Menssal's house is on the main street and for two hours they sat there in terrified expectation of an attack. The shooting was thick around them and at the shops across the street were being looted,"
        },
        {
            "pageid": 48533,
            "pagefilename": "a88028b103f126084d49f354945761cf.jpg",
            "pageorigfilename": "mms_126_fl_01_01_010_o2.jpg",
            "transcription": "10/ \nSeveral times there were violent knocks on their door, but the fact that it was the house of an American kept them out, for foreigners seemed to be immune. But they wondered at what desperate moment this immunity might cease and they feared the fires which were very close. It was with enormous relief that they heard the soldiers at the door. They had spread sheets on the floor & emptied the closets and the the bureau drawers into them, so that Dan's boots were carried with Beatrice's powder and mixed up indiscriminately with ballgowns."
        },
        {
            "pageid": 48534,
            "pagefilename": "334424b393aa87d2f525e70b7c01b177.jpg",
            "pageorigfilename": "mms_126_fl_01_01_011_o2.jpg",
            "transcription": "11/\nWe took them all in. The Millers were already here as it happened, so their house went to the Matrells and we took the Straights and the de Menscals. When the Patchins arrived they went to Summy's & the Fergusons had gone to the Reeves. Mr. Patchin had tried three times to get out of the little street where they live, but the bullets were too thick. Finally he gave his telegrams to a coolie with a five-dollar tip in the desperate hope that they might reach his paper. We stayed up until two, watching the fires, distributing coffee and sandwiches to the officers"
        },
        {
            "pageid": 48535,
            "pagefilename": "eb608aafcd1d40703b280053a0962d74.jpg",
            "pageorigfilename": "mms_126_fl_01_01_012_o2.jpg",
            "transcription": "12/\nand refugees who came and went, discussing this new phase of the situation, listening to the firing. The next day it was fairly quiet, but that night much the same thing happened again. Yuan had issued a manifesto - a kind of apology, but it had no effect. Saturday the diplomats decided to bring up more troops from Tient-sin, and Sunday morning at 9, 200 American soldiers marched into the compound with all their equipment. It was good to see them. They have been sent out to guard the Missions. Things have quieted down now. Yuan's soldiers have been sent out of town on"
        },
        {
            "pageid": 48536,
            "pagefilename": "95eed84e445b579f591cb0600eaad9ba.jpg",
            "pageorigfilename": "mms_126_fl_01_01_013_o2.jpg",
            "transcription": "13/\nconfined in their barracks, decapitations are going on all over the city, and the Man-Chu police are guarding the streets. Which is a bit ironical. Poor Yuan is terribly depressed. The day after that first awful night he admitted that the officers took part in the looting and said, \"I have not been in touch with these soldiers for five years. They bear the same names but they are not the same men.\" \nDo not worry about us. We are quite safe and sheltered here and we would not have missed the excitement, as long as it had to be, for anything."
        },
        {
            "pageid": 48537,
            "pagefilename": "fd8275ac21b6ce897ee6584a76743805.jpg",
            "pageorigfilename": "mms_126_fl_01_01_014_o2.jpg",
            "transcription": "14/\nPoor old China, I am afraid she will have to suffer in the course of liberty. My dear love to you all. \nDevotedly, \nLucy Calhoun"
        },
        {
            "pageid": 48538,
            "pagefilename": "1821a069be9683987cba72fe0f5882d9.jpg",
            "pageorigfilename": "mms_126_fl_01_02_001_o2.jpg",
            "transcription": "November 30, 1912\n[unclear], We are well started on our cruise and when I regretted aloud that you were not with us, Commander McVey said, \"But think how much we regret it.\""
        },
        {
            "pageid": 48539,
            "pagefilename": "af8e5d41fcc6f39a6888ce44b514b460.jpg",
            "pageorigfilename": "mms_126_fl_01_02_002_o2.jpg",
            "transcription": "on the same train, we found the Yellow River by daylight and crossed that unclear unclear shallow stream on the long wonderful bridge that is founded upon the quicksand. It was worth the journey to see it & to see the many cliff-dwellings that are dug out of the soft hills beyond. 10,600 people, they say, live in them! At Haubow we were met by the Helena"
        },
        {
            "pageid": 48540,
            "pagefilename": "b2bbf0df5854a79ddeccd287e78c4ad9.jpg",
            "pageorigfilename": "mms_126_fl_01_02_003_o2.jpg",
            "transcription": "and taken it once on board.  The Vice-Consul urged us to stay a day, but the Captain was eager to be off as the river was falling every minute & we might not get through.\nHe prevailed, of course, and it was well he did as at the critical point we had only half a foot to spare.  Captain Marvell gave us his quarters which were luxurious, and we came down"
        },
        {
            "pageid": 48541,
            "pagefilename": "2aabcc43fae33785280cad9de6738fad.jpg",
            "pageorigfilename": "mms_126_fl_01_02_004_o2.jpg",
            "transcription": "the river with him as far as Nanking. - At this moment Commander McVey interrupts to send messages.  He says he hopes you have broken yourself of that habit of waiting around corners in your riding clothes. And he asks me to tell you that a young man he knows very well has been ordered to the Naval Academy, & when a bachelor is sent\nthere it is a sign that he is thinking of getting married."
        },
        {
            "pageid": 48542,
            "pagefilename": "4f574b72e976ff2124920a280585e058.jpg",
            "pageorigfilename": "mms_126_fl_01_02_005_o2.jpg",
            "transcription": "the quarters of the first two, where KTs? were liberally supplied & while we were doing it, the last two came in from a hunting expedition bearing ducks, pheasants and a young deer.  We dine eight or ten at the table, your serious-minded aunt being the only woman, and it is gay and brilliant.  Summy is with us of course.  I don't believe we could move without him.  At"
        },
        {
            "pageid": 48543,
            "pagefilename": "0903e35faad8d5876859622249670365.jpg",
            "pageorigfilename": "mms_126_fl_01_02_006_o2.jpg",
            "transcription": "At Nanking at 6, we found the Rainbow waiting, and Admiral Nicholson at once came aboard & brought us off.  He gives us his quarters and by the end of this journey we shall be entirely spoiled.  It is a lively crowd of officers on board, with McVey, Wurtzbaugh & Dr. Wood & Lt. Coyle?.  We were taken before dinner to inspect"
        },
        {
            "pageid": 48544,
            "pagefilename": "461bf04f0b5e8a9072d63bef1eae1951.jpg",
            "pageorigfilename": "mms_126_fl_01_02_007_o2.jpg",
            "transcription": "Shanghai tomorrow we are to be transferred to a real war ship - the Saratoga which is also the flagship, the Rainbow being a sort of auxiliary to her.  After a day or two there we proceed south with the Rainbow in our wake.  From Hongkong she will take us up to Canton, where the Saratoga cannot go, son we have not only one yacht but a fleet.  I hope Mrs. Nicholson can"
        },
        {
            "pageid": 48545,
            "pagefilename": "3226c847c92cf6cd69581dd5bd4447eb.jpg",
            "pageorigfilename": "mms_126_fl_01_02_008_o2.jpg",
            "transcription": "go with us from Shanghai - they have cabled Washington for permission.  But in any case it will be a new experience for us both.  On the way back we expect to stop at Amoy, Swatow & Foochow.  How I wish you were here.  With any amount of love - Nancy Calhoun"
        },
        {
            "pageid": 48546,
            "pagefilename": "8f68013a1559c6d1f7d0134af6f12228.jpg",
            "pageorigfilename": "mms_126_fl_01_03_001_o2.jpg",
            "transcription": "United States Ship Saratoga December 15, 1912\nDear Little Poll\nSince I wrote you last we have travelled much and seen many things. Our voyage down the coast in this sturdy ship was most comfortable as we did not mind the rolling.  Hong kong was in in her gayest dress of sunshine & seemed far more beautiful than I expected.  I shall never forget that wonderful harbor at night with the lights climbing the dim Peak & glowing into stars toward its summit.  We were there the better part of two days & saw a lot of the place.  The Governor"
        },
        {
            "pageid": 48547,
            "pagefilename": "5bfbd8bf728ecdf773b68a12c591ab13.jpg",
            "pageorigfilename": "mms_126_fl_01_03_002_o2.jpg",
            "transcription": "spent nearly two hours in a china shop, so that there was not half enough time for prowling.  The place is like nothing else in China but more wonderful for its narrow streets & the beautiful carvings of its shops than for temples or walls.  We were carried through the streets by the shouting chairbearers with prodigious haste and clatter, & I wanted to go back on foot and look at everything.  The new Governor, young and mild as he looked, has cleaned up things with great energy not only by improving the streets but by chopping off"
        },
        {
            "pageid": 48548,
            "pagefilename": "93385c967a355b68872324322eb848cf.jpg",
            "pageorigfilename": "mms_126_fl_01_03_003_o2.jpg",
            "transcription": "heads.  As Canton of all places needed this renovation, it is much improved thereby.  Here too the Governor wanted to give us a dinner but we begged off.  From there the Rainbow took us in a heavy sea up to Swatow - a bad day or two, I confess.  But we were greeted so enthusiastically there that we forgot it.  Loess? Williams, you remember, is Consul there & he and his pretty wife gave us a most delicious tiffin followed by a reception.  The next morning we bought drawn work & saw the town & in the afternoon started for Amoy.  We had a beautiful day there - everywhere"
        },
        {
            "pageid": 48549,
            "pagefilename": "d597f433654a9d7aa2bd6ca699f01b41.jpg",
            "pageorigfilename": "mms_126_fl_01_03_004_o2.jpg",
            "transcription": "wanted to give us a dinner but the Admiral said it would be dull & we would have to wait there long enough to return it.  So we made it an unofficial visit.  The Rainbow had followed us and she brought us up to Whang-poa, where we spent the night on her & changed to the little Callao in the morning.  She was small enough to navigate the river to Canton which was immensely interesting.  Canton itself fascinated me & I was sorry we could not have a week there instead of a day.  Mr. Cheshire the Consul had the Governor of the Province to meet us at office which occupied some time, & we"
        },
        {
            "pageid": 48550,
            "pagefilename": "0985f6b6135d1f80fecbc9bac5b9d0bf.jpg",
            "pageorigfilename": "mms_126_fl_01_03_005_o2.jpg",
            "transcription": "the weather was fine for us - saw the people of the place at the Consulate & had great fun explaining dingy little prints - shops.  It has a most lovely harbor, and we saw a beautiful temple in the rocks of the best south China type.  There were three jade Buddhas, almost life - size, and behind them a sleeping jade goddess who was very lovely.  The Rainbow had pitched so badly in the gale & heavy seas - Summy"
        },
        {
            "pageid": 48551,
            "pagefilename": "072d75cb970693165722cd8c3962e681.jpg",
            "pageorigfilename": "mms_126_fl_01_03_006_o2.jpg",
            "transcription": "even Dr. Woods were knocked out too - that they cut out Foochow, much to my regret.  I would have been more than willing to stand the pitching for another day or two in order to see it.  So we are due in Shanghai tonight, where we wait two or three days in order to take the new Tientsin-Pukow road.  This is Sunday & we shall leave Wednesday night, spend a day in Nanking & reach Peking Saturday evening if all is well."
        },
        {
            "pageid": 48552,
            "pagefilename": "46884a5fa4df230c78fdbf814fc28bda.jpg",
            "pageorigfilename": "mms_126_fl_01_03_007_o2.jpg",
            "transcription": "We are giving a dinner to the Admiral Nicholson above in pencil & his staff in Shanghai.  \"Mrs. Reggie\" is young & gay & slangy but a very good sort.  I like her.  You know McVey & Father Gleason, but you don't know Mr. Eisman who has Bagley's place at present & is a charmer.  The atmosphere of the ship is delightful, full of friendliness and good feeling.  Probably the jovial Admiral is responsible for it.  My dear love to you.  We shall be in time for our Christmas Eve dinner - 60 again.  Devotedly, Lucy."
        },
        {
            "pageid": 48553,
            "pagefilename": "027a7f9c5d5c9ac451e4b47710b405a5.jpg",
            "pageorigfilename": "mms_126_fl_01_04_001_o2.jpg",
            "transcription": "Peking  February 18 1913\nDear Dora Louise\nNo letter from anyone at home since yours which you thought we might not receive, so we feel quite cut adrift.  We may not even take the next steamer for accommodations were at a high premium and Cal may not be able to get away.  But everything is packed except the books and the trunks are standing around (not in the bed-rooms fortunately) half-filled.  But I had a reward for the delay yesterday in a private audience with the Empress Dowager.  I had asked Prince P'u Lun one day"
        },
        {
            "pageid": 48554,
            "pagefilename": "575870728fa3f235a4b93f46b44742b7.jpg",
            "pageorigfilename": "mms_126_fl_01_04_002_o2.jpg",
            "transcription": "if he thought it would be wise to ask permission to say goodbye to her, and he promptly offered to sound the Guardian to the Emperor on the subject.  A week later he came to the Chancery to report that she said that America had always been a good friend to the Ching Dynasty and she would be glad to receive me.  So yesterday we went. Cal was asked too but thought it wiser not to go, & Mr. & Mrs. Williams & May Corbett.  As Mrs. Williams was ill Mrs. Peek took her place.  We drove to the north gate of the Forbidden City on the moat. We"
        },
        {
            "pageid": 48555,
            "pagefilename": "b737a907e0e225093a592c05b8cd4ff2.jpg",
            "pageorigfilename": "mms_126_fl_01_04_003_o2.jpg",
            "transcription": "I quote a little from my diary written vertically in upper left had never entered it before nor had we ever seen the part of the palace which was now thrown open to us.  Chairs were waiting for us and a crowd of Palace officials & eunuchs.  Mr. Williams walked with them while we women were carried in state.  There was an effort of splendor as we went which I have never seen equalled.  In the brilliant sunlight the whole place seemed a riot of color.  We passed beautiful pink walls with flower tiles of yellow & green, palaces with lovely curved roofs, gardens with fine old trees, vistas of spacious courtyards & long alleys bounded by pink, & always"
        },
        {
            "pageid": 48556,
            "pagefilename": "337b270a740ed6ebbd9ca1b7546266ee.jpg",
            "pageorigfilename": "mms_126_fl_01_04_004_o2.jpg",
            "transcription": "even where no temples were visible the fragrance of incense followed us.  When we reached the hall where Prince P'u Lun was awaiting us it faced a courtyard that was splendid in color & regal in its appointments.  Against the brilliant walls with their shadowed caves under curving roofs, great bronze cranes and phoenixes stood silent on their carved marble pedestals.  Horn lanterns heavily tasselled in red decorated the porches of the pavilions and the courtyard swarmed with officials in peacock feathers and coral or crystal buttons.  Prince"
        },
        {
            "pageid": 48557,
            "pagefilename": "d28a082ccd1c58360af5fdea56119c81.jpg",
            "pageorigfilename": "mms_126_fl_01_04_005_o2.jpg",
            "transcription": "P'u Lun & the three very high mandarins who were our chief escort wore sable coats of a rare & precious kind with the white throats of the sables showing at regular intervals, & over them the long necklaces in amber & jade & coral -- From the splendor of this carved sandal-wood retreat, looking out upon color and life & movement, the Republic & all that it means seemed very far away.  This was China of the Dragon Throne whose Emperors had ruled the world & carried her ancient civilization peacefully down the Centuries.  This seemed real & all the rest the creation of a day."
        },
        {
            "pageid": 48558,
            "pagefilename": "8b4551efb4a564e119b9a03cf0c1e024.jpg",
            "pageorigfilename": "mms_126_fl_01_04_006_o2.jpg",
            "transcription": "After a few moments wait we were told that the Empress Dowager was ready to receive us. -- My memory of the hall where she received us is without details.  On the steps before we entered we spoke to Princess P'u Lun, Duchess Tsai Tze & two other ladies.  But when we entered the hall I was conscious only of a sad thin face with haunting melancholy eyes.  - When we had remembered to make our bows we talked with her a little.  She was interested & asked questions.  And she gave us beautiful gifts - a pearl ring to each of the others, and to me one with a lovely cherry red stone - perhaps a ruby - and a"
        },
        {
            "pageid": 48559,
            "pagefilename": "79f34f55e3c6d45ba6114deacc566361.jpg",
            "pageorigfilename": "mms_126_fl_01_04_007_o2.jpg",
            "transcription": "barbaric & beautiful bracelet with many stones that looks as though it should belong to an empress.  Then we spoke to the little Emperor who dimpled at us charmingly and I took some photographs of them and we went out.  Afterwards we had tiffin with the four mandarins & the four princesses & Prince P'u Lun made a charming little speech toasting me.  He said the Empress Dowager was particularly pleased with this audience because it was not a general one & I had asked for it out of my own good-will.  Then we looked at the treasures round about, and being told"
        },
        {
            "pageid": 48560,
            "pagefilename": "80872fd270e334e120419cf61492f8d1.jpg",
            "pageorigfilename": "mms_126_fl_01_04_008_o2.jpg",
            "transcription": "that we could do just what we liked, wandered through the lovely gardens and took photographs of temples and palaces.  It was a wonderful morning.  I grow quite political about it in the diary but I cannot make up my mind to copy it here.  But really it made a highly dramatic climactic climax to our experience in Peking.  To finish it up properly tell Polly, we climbed Coal Hill!  One other gift she sent to the carriage - a rich & lovely painting of flowers, done I imagine by the late Empress Dowager who was an artist, & magnificently mounted and"
        },
        {
            "pageid": 48561,
            "pagefilename": "32d707383cd805b0ada9a9897c35b811.jpg",
            "pageorigfilename": "mms_126_fl_01_04_009_o2.jpg",
            "transcription": "boxed.  So you see I shall carry away honors.  And on the same day a Chinese paper announced that the Cabinet had requested the President to invest Cal with the order of the Abundant Crop (whatever that may be) because of his \"valuable assistance to the Republic\" and as an appreciation of his \"generosity & integrity.\"  You see we are in favor with both sides.  My love to you all.\nLucy Calhoun"
        },
        {
            "pageid": 48562,
            "pagefilename": "59f51a6f513139fe45d6997faf95b379.jpg",
            "pageorigfilename": "mms_126_fl_01_05_001_o2.jpg",
            "transcription": "Astor House Hotel\nShanghai February 28 1913\nDearest Polly\nWe are off tonight on the Derflinger N. German Lloyd, booked for Naples & then New York.  Never was anything so hard as that farewell in Peking - you know what it would be with the Guard & the Band and everybody there -"
        },
        {
            "pageid": 48563,
            "pagefilename": "88c09f99273966a2f7706ef4ef1bb8e0.jpg",
            "pageorigfilename": "mms_126_fl_01_05_002_o2.jpg",
            "transcription": "some with tears in their eyes.  I wept openly I confess.  Hopkins & Gillis have escorted us here & Summy & McKnight came as far as Tientsin.  There too it was hard.  There was a lunch at Major Pierce's & all the Americans - at the station where we left the soldiers of the 15th and their band.  And"
        },
        {
            "pageid": 48564,
            "pagefilename": "02f15ef6456fdfa933e5a48a10dff713.jpg",
            "pageorigfilename": "mms_126_fl_01_05_003_o2.jpg",
            "transcription": "then Summy Capt. Summerlin written in pencil above -  Cal said the hardest thing of all was leaving Summy.  That brought the tears to his eyes too.  But this is an outpouring for you only.  My love to you.  Lucy"
        },
        {
            "pageid": 48565,
            "pagefilename": "90b649f515bc9e6b9bb76400a4b60855.jpg",
            "pageorigfilename": "mms_126_fl_01_06_001_o2.jpg",
            "transcription": "Dearest Anna\nI came down there last week partly because I wanted to get away from Paris for a bit and cheifly because Mrs. Sharp and Mr. Cromwell begged me to play hostess at the general's club even if I could stay only a short time. As the telegram answering my arrival had gone astray, I found myself quite unexpected and was obliged to go into luncheon alone and introduce myself not only to one general but five! It was overpowering for a few brief moments but as they were very gallant and cordial, I got on fairly well. The French housekeeper, as it happened, was away for a few days, and"
        },
        {
            "pageid": 48566,
            "pagefilename": "72af2560baa0e7a80f6718b902d6af9c.jpg",
            "pageorigfilename": "mms_126_fl_01_06_002_o2.jpg",
            "transcription": "found myself the confidant of several difficulties and disagreements between her and others and the Red Cross girls who have charge fo the officer's club proposition at Le Mans. I applied as far as possible the grand principle of ignoring the difficulties and thereby largely smoothing them out. Whether I can do any practical permanent good by being here is another matter. With the generals here it is quiet, but they seem to want a woman around. A contrast is it not to men's clubs at home. The seonc day after I arrived one of them was taken ill with pneumonia and clung to me like a drowning man until the doctors took him away to a hospital. The senior officers' club is much"
        },
        {
            "pageid": 48567,
            "pagefilename": "ae9968e8471089f456548efa1dad44bb.jpg",
            "pageorigfilename": "mms_126_fl_01_06_003_o2.jpg",
            "transcription": "livelier than this, as they have a mess for about forty and there are many people coming & going. I put on a new Paris frock and took unclear and his two stars and seven ribbons over there the other night for some music and a dance I like very much Miss Warrior the Red Cross girl who is in charge there. Here there is also a junior officers' club which I have not yet seen. These were started and are frantically supported by Mr?. Nelson Cromwell, a New York lawyer of distinction was resident in Paris. Mrs. Le Mans. It is a"
        },
        {
            "pageid": 48568,
            "pagefilename": "a767aaf16130353bc234aacdf0c0064b.jpg",
            "pageorigfilename": "mms_126_fl_01_06_004_o2.jpg",
            "transcription": "beautiful old town with a wonderful cathedral, part of which dates from the 11th century -- the time of William The Conqueror. There are old eaves and crypts and walls and some fascinating old houses. Two of them are said to have been occupied by Queen Berengine, the widow of Richard Coeur de Lion. And the city is beautifully situated on the Sarthe and commands lovely views. At present it is the center of a huge American embarkation camp and the presence of these modern foreign uniforms in the old streets is a picturesque anomaly. Below the hill, where a beautiful double stairway leads to the high majestic choir of the cathedral, more"
        },
        {
            "pageid": 48569,
            "pagefilename": "384725a5c2a6661e77e7daf703f5aadb.jpg",
            "pageorigfilename": "mms_126_fl_01_06_005_o2.jpg",
            "transcription": "than a hundred big American motor lorries are parked in their khaki covers, and mean by under? the long lines of lindens an American army band plays marching songs in the intervals of a base-ball game. Your letter of Dec. 17 or Jan 9 was great -- I loved it every word. It will seem pretty good to be with you again and vision of a visit at Forest Lodge is alluring. We are trying to arrange to go home on  a transport in April -- John and his family & I -- but whether we shall succeed remains to be seen. I said good-bye to the hospital - with tears I admit -- a week ago today. The last wounded had left on the 11th. That is a fine work your Mental? Hy is taking up for the incapacitated. I hope her"
        },
        {
            "pageid": 48570,
            "pagefilename": "5c36c7a16804ffc2fe5459defc5734ef.jpg",
            "pageorigfilename": "mms_126_fl_01_06_006_o2.jpg",
            "transcription": "McCormick & Mr. Scott succeed in putting it through. The reaction now that the war is over is tremendous and the whole readjustment I imagine very difficult. Over here the men are wild to get home, but after they arrive and the first enthusiasm is over, will they be able to take up the old life with a new zest? They are taking back of lot of new ideas -- not all of them good or accurate, but all of them developing -- and it is going to mean a big change in the outlook of the country. We are certainly living at a great moment. Wouldn't you like to come back fifty years hence to see how it has all turned out! My love you you, Lucy Calhoun Address care unclear & Co. Paris"
        },
        {
            "pageid": 48571,
            "pagefilename": "84349ccb0d1c3a8183dd2723858e69fa.jpg",
            "pageorigfilename": "mms_126_fl_02_03_001_o2.jpg",
            "transcription": "The story of a Settler. I. In a far-off land, across the seas, a man and a woman were stitting, on a terrace, in front of a great grey mansion. It was not their mansion; they neither owned nor rented it, but they were allowed to live in it. It was late in the evening, it was growing dark. II. The man and the woman were living in a strange land, among strange people, whose language, dress, and customs were also strange. The men shaved the front part of their heads and wore tails on the back part. The men carried fans and wore gowns. The women wore trousers. Some of them painted thin cheeks thick with white paint, tinted with red paint. Others had such tiny feet. Their feet were bound tight when they were babies so that when they grew up, their feet had not grown;"
        },
        {
            "pageid": 48572,
            "pagefilename": "f4571e2a9036ff70136d57a9f599f090.jpg",
            "pageorigfilename": "mms_126_fl_02_03_002_o2.jpg",
            "transcription": "they still had baby feet; they walked on their heels. III. The sun shines fiercely in this land. It blazes and burns like a fiery furnace, up in the skies, fed and fired by angry gods. The sun withers the grass, curls up the leaves, and wilts the flowers. This day had been very hot. It was a dusty day also. The dust filled the eyes, nose, ears, mouth and hair of both the man and the woman: they thought the dust was awful. But now, as the man and the woman stat there on the terrace, the sun had ceased its flame and glare. The angry gods may be, were tired, They had put  out the fires of the sun or had hidden the furnace behind the clouds. The man and the woman were glad the sun had gone and they night had come. But he air was still heavy with the heat and dust of the day."
        },
        {
            "pageid": 48573,
            "pagefilename": "00f7945e87c241c71dc73ef3c63092a5.jpg",
            "pageorigfilename": "mms_126_fl_02_03_003_o2.jpg",
            "transcription": "IV. The moon looked down upon the man and the woman, as they sat there on the terrace, and seemed to smile upon them with a sad sweet smile, as if it was sorry for them. The stars winked, blinked and twinkled at the man and the woman as though laughing at them. Neither the man nor the woman gave heed to the moon or the stars, the man smoked a cigar and looked straight ahead into the shadows of a great, grim, gray, wall that loomed up before him. The woman leaned back in her chair as though she was tired. V. The man and the woman sat there, on the terrace, in silence and darkness. Each was busy with his or her own thoughts. The man did not know what the woman was thinking, and the woman did not know what the man was thinking. The sound of far-off voices, of"
        },
        {
            "pageid": 48574,
            "pagefilename": "99c15823851eba10724744cb0f685598.jpg",
            "pageorigfilename": "mms_126_fl_02_03_004_o2.jpg",
            "transcription": "strange cries beyond the wall was heard, also the barking of many dogs, the rattle of rickshaws, the low rumble of carts, and the soft notes of bugles in the soldiers camps. But the man and the woman gave no heed to the sounds; They were busy each with his and her own thoughts. the moon shone on, the stars twinkled on, the dogs barked on, the rickshaws and carts rattled and rumbled on, but the man and the woman gave no heed. The man smoked on, the woman closed her eyes and leaned further back in her chair. VI. The man was thinking of a fairer and dearer land across the seas, on the other side of the world. He thought of his friends there, he seemed to see them. He saw them, one by one, pass him in silent reveries. He saw the light of joy and love shining in"
        },
        {
            "pageid": 48575,
            "pagefilename": "a17e822fc9f12d8d9ba4849daee49fd3.jpg",
            "pageorigfilename": "mms_126_fl_02_03_005_o2.jpg",
            "transcription": "their eyes; he heard the music of their voices. His heart was full of deep emotion; for he loved his friends; more than they knew. They did not see him; they gave him no greeting, made him no sign. He wondered why they had sent no message to him or the woman. Maybe they had forgotten or were too busy with nearer and dearer interests. The night grew darker, the sound of the street and camp grew fainter. The man sighed and lit another cigar. The woman moved restlessly in her chair. VII. The man seemed to see a field stretching far and wide before him. Its green, close-cut turf was like a green velvet carpet. The sun shone kindly, the wind breathed softly upon it. The scent of new-mown hay and of flowers was in the air. He saw the forms of men whom he knew, in groups of two, three, and"
        },
        {
            "pageid": 48576,
            "pagefilename": "fa6ed645da86e76adc8a4e37f7d3379b.jpg",
            "pageorigfilename": "mms_126_fl_02_03_006_o2.jpg",
            "transcription": "four, moving over the field. He heard the clink of golf-balls, sounds of laughter, of song and the clink of many glasses. The man sighed but smoked on. The woman sat very still and quiet in the chair. VIII. The man saw a woodland green; the branches of the trees were nodding and bending and their leaves were whispering in the summer breeze. He heard the singing of birds and the buzzing of the bees. He heard the splash of an oar in the little lake that nestled in the shadow of the trees, he saw the green pastures, knee deep in clover and milky grasses. In the shade on yonder hill he once thought to build a cabin home. On yonder slope a flower garden was to bloom and be kissed by the sun, the rain and the deer. Down yonder glade a winding walk was to lead to"
        },
        {
            "pageid": 48577,
            "pagefilename": "0754f1cb271f4149e33c68e78fdefcc9.jpg",
            "pageorigfilename": "mms_126_fl_02_03_007_o2.jpg",
            "transcription": "shady bowers where lovers might hide. And he had thought and hoped that over field and forest and late, over gardens and pastime, the blessing of peace, of contentment and of freedom from the toil and strife of the world might forever rest and envelop and caress him and the woman then sitting near him. But now the man and the woman sat there, on the terrace, in a far-off land, and the spirits of forest, field, and glen called to them in vain; it was not for them to answer. IX. The man then looked deeper into the brooding night. He saw a stretch of fields and fortunes before him. In the bright sunlight he saw a group of white buildings, houses, barns and sheds, surrounding the orchards gardens and pastures -- fields of corn and waving grain. He"
        },
        {
            "pageid": 48578,
            "pagefilename": "ceb2eef1c55c89c59622bcf22cad1bac.jpg",
            "pageorigfilename": "mms_126_fl_02_03_008_o2.jpg",
            "transcription": "heard the clucks of mother hens, the defiant crows of arrogant cocks, the chirping of downy little chicks. He heard the bleating of lambs, the bawl of young calves, the mooing of cows, the grunting of hogs and the squeal of little pigs. He wondered if the cherries were ripe, if the strawberries were all gone, and if the grape vines were in bloom. he wondered if there were more little John unclear to be caught, baptized, and christened. he wondered if the incubators were working, if the wicked rats still caught and billed the chicks, if the pony was still lame. He wondered if Peggy and Ruth played croquet any more, if they had the same dog they had last year. He saw the back porch, with screens all around it, with a table set for the evening meal, with kitchens full of milk -- milk that did he not have"
        },
        {
            "pageid": 48579,
            "pagefilename": "c693e4abf23a77e94299fef6f0a28165.jpg",
            "pageorigfilename": "mms_126_fl_02_03_009_o2.jpg",
            "transcription": "to be boiled, with glasses full of water -- and the water did not have to be boiled -- with strawberries piled high -- and the strawberries did not have to be washed or scalded, -- with the fruits both of the field and garden -- which no one hesitated to eat. The man was hungry, his eyes glistened, his mouth watered, and he lighted another cigar. X. A servant came on to the terrace from out the gray mansion. he handed the woman a belated letter. The woman wearily rose, passed into the house, leaving the man sitting there alone, staring into the darkness and dreaming his dreams. The woman came back to the door; in an eager trembling voice she said: \"It's from Gretchen.\" The man jumped up hurriedly. He too rushed into the house."
        },
        {
            "pageid": 48580,
            "pagefilename": "477dbb359ad8403234cb3ebfaf845e13.jpg",
            "pageorigfilename": "mms_126_fl_02_03_010_o2.jpg",
            "transcription": "The man and the woman sat around a Table, where a light was burning. The faces of both were eager, expectant, exultant. The woman's hand trembled as she nervously opened the letter. \"Read it,\" said the man, \"read it aloud.\" And the woman read and the man listened. Then peace came to both of them; their eyes brightened ; they dreamed no more; they were happy -- Gretchen had not forgotten them. They went to bed."
        },
        {
            "pageid": 48581,
            "pagefilename": "0dc6f4cd226ad96cf1540d4e336a6456.jpg",
            "pageorigfilename": "mms_126_fl_02_03_011_o2.jpg",
            "transcription": "Pei-Tai-ho July 1910  Letter of W.J.C to Gertrude Keeley"
        },
        {
            "pageid": 48582,
            "pagefilename": "c961493b73da0e957e55e1f2f9d2536a.jpg",
            "pageorigfilename": "mms_126_fl_02_04_001_o2.jpg",
            "transcription": "W.J.C.                                                                                                                                                                                                                                                       1.\nAug. 12 - My dear Margaret - Lucy was writing you the other day.  She allowed me to read the part of the letter wherein she described a visit we made some days ago to a nearby temple.  She described the scenery en route - the green fields, the shadowy hills & mts. in the distance - the villages thro' which we passed, the natives young & old whom we saw, and finally the temple & the god . warrior or goblin, I don't know which, roughly carved in outline upon the face of a huge rock. - I told her the story was beautifully written, that it was creditable as a lit. effort but I could not say much for its fidelity to the truth.  I am devoted to the truth always.  I am a regular Gadgrind for facts - grim, stern, incontestable facts.  I believe in the eternal verities, the actualities of this very realistic world.  I would not have the facts disguised by the illusions of fancy, or colored with the variegated hues of a rich imagination. - Lucy, as you know, while perfectly sincere, has such broad sympathies, such indulgent tolerance, & so much poetic inspiration, that she looks at things as it were thro colored glasses.  I look at them with the naked eye.  She sees beauty grace & virtue, where I see only ugliness, depravity & vice.  She see \"richness in dilapidation\".  I see dreary, disintegration. - Now my fidelity to the truth will not permit me to allow even her innocence & unconscious fallacies to be imposed on you as facts.  I feel it incumbent on me to tell you the truth, to paint the picture as it really is. - I do so in no spirit of"
        },
        {
            "pageid": 48583,
            "pagefilename": "103e9818217467f5845f0fd1be052510.jpg",
            "pageorigfilename": "mms_126_fl_02_04_002_o2.jpg",
            "transcription": "2.\n\nharsh criticism, with no desire to provoke family dissension.  I assume that what I shall say will be accepted, with calm acquiescence even by Lucy; & of course you will believe me.  Whatever erroneous impressions you have from Lucy's letter will be at once removed.  There is a temple - so called, I admit.  But such a temple!  Do not allow your imagination to portray some stately shrine, wi pinnacles & cloud-capped towers.  Do not think of solemn dignified priests, wearing richly embroidered robes, bearing golden chalices, carrying burning tapers, or ministering to the aspirations of the finite for the infinite.  Rather think of a old dilapidated shed, with dirty, mud-stained walls, wi dusty mud & broken stone floors wi a roof of broken tiles, thro wh impudent rag weeds push their frowsy heads - Such is the temple.  Then think of some sullen, slouching, shuffling priests, dressed in dirty ragged robes, whose heads are close shaven, in wh dull eyes no gleam of intelligence shines, in wh sodden faces no spirituality appears. Such are the Priests. - There is a Buddha, of course.  A grotesque fig. he is.  He is unduly corpulent.  His eyes are wild and bleary.  He has a strangely familiar look.  I thought I once saw him in the part of Gambrinus, standing with a beer glass in hand, before a saloon on N. Clark St.  If he is not the same party he must be a relative, for in form & facial expres-"
        },
        {
            "pageid": 48584,
            "pagefilename": "1458e0bdd196378c9578c2d501d28ff9.jpg",
            "pageorigfilename": "mms_126_fl_02_04_003_o2.jpg",
            "transcription": "3.\n\nsion there is certainly a strong resemblance.  I looked him in the eye but he appeared to avoid me.  I think he recognized me but did not want to admit it so I went out   I think I saw him wink at the priest who operates the drum.  Of that however I am not sure.  He is the divinity of the temple. - This tem. is typical of all the other temples I have seen.  They vary more or less in size & design, but they are all old dirty & dilapidated.  Indeed dirt dust decay & dil. are the universal concomitants of the temples, & a proper emphasis may be given the aforesaid terms by adding thereto as a prefix 2 hyphenated ds (d-d).  - There was a time in the history of the country far back in the dim & dusty centuries when there were artists, architects poets teachers & philosophers among the people.  The artists arch. & poets had imagination, sentiment & inspiration.  They had high, dignified & even poetic conceptions of life.  They tried to express these conceptions in noble towers & tombs and temples.  They had a keen sense of color, of ambitious designs, of high & lofty proportions & of beautiful detail.  They succeeded in a very respectable & impressive way.  They builded? well.  But these artists are long since dead.  The artistic spirit died with them.  They had no successors.  The only memory of them their country has is in these ruins of a former greatness.  This generation seems to have"
        },
        {
            "pageid": 48585,
            "pagefilename": "11f3333550ee3576e6716f4bb51ba38d.jpg",
            "pageorigfilename": "mms_126_fl_02_04_004_o2.jpg",
            "transcription": "4.\n\nno appreciation of the work of the past.  No effort is made in the same line; there are no new creations, & the old is allowed to go to ruin.  The mildew of decay & the dust of decadent years are over towers, temples, palaces & tombs alike.  The weeds? grow thick over tessallated? walks; shrubs push their way into the crevices between the marbles.  There is no sense of order, cleanliness, repair or preservation. - The cities & villages, in dirt & dust in decay & dilapidation are in complete harmony with the towers & temples.  The buildings are uniformly low & of but one storey & w almost flat tiled roofs.  In the country & in the city quite generally, the dwellings are inclosed w a high wall; the enclosure is called a compound.  It must be a hereditary instinct that prompts them to thus enclose their houses.  An instinct born of ancient tribal wars, of Tartar invasions, & of Mongolian forays.  The instinct of danger, of the protection from mud, stone or sun-baked brick walls seem to be universal. - The streets are irregular in boundaries & on the surface.  There is no grade, no sidewalks.  The streets have hills valleys holes & ruts.  They are full of children, dogs, hogs, & piles of rubbish.  Old women sit in groups about the doorways leading into the compound.  They smoke long pipes & may be presumed to be gossiping about their neighbors.  I often wonder what they talk about.  It can't be about the fashions because there has been no change in the fashions for more than a thous. years.  It can't be about church sociables, tea or bridge parties or dances.  It cannot be about the romance of courtships or the ups & downs of affairs of love.  Be-"
        },
        {
            "pageid": 48586,
            "pagefilename": "40fb1e77de68c1e325125244b262068d.jpg",
            "pageorigfilename": "mms_126_fl_02_04_005_o2.jpg",
            "transcription": "5.\n\ncause love is not cultivated; it is a foreign fashion.  There are no courtships or engagements.  Marriages are arranged by the parents & are more or less commercial transactions.  I suppose these old women have something to talk about, for where is the fem. mind that dost., but the range of gossip must be limited. - This time of year the children are generally naked or practically so.  They are usually fat and dirty.  A bath wd give them a shock beyond endurance.  A bar of soap wd. be an inscrutable mystery.  While I can't say much for them, I am not disposed to say anything against them.  The innocence & helplessness of childhood disarms criticism. - The streets abound in dogs - mean dirty wolfish dogs.  As you enter upon a street you see them sleeping in unclear dust on every hand.  The sight, the scent of a foreigner disturbs.  They seem sharply to discriminate bet. natives & for.  They growl & bark & bow their backs like angry cats.  They are cowards.  The sight of a stick makes them slink into their compounds.  After the traveller passes by, they come out and abuse him w all the vile epithets known to the canine language.  I don't always know what they say, but I have a fairly good idea of what they mean.  Some day I am going to write an extended article on these native dogs.  I am gathering the data now:  it is largely composed of lurid adjectives. - Then there are the hogs.  In appearance they look like demons just escaped from the lower world.  They are black, long haired, [bowed?]] back, long tailed creatures w. such long snouts that they suggest kinship with the crocodile family.  The razor-backs of the southern states at home are high-bred creatures compared with these.  Looking at them I can well understand how certain religionists refrain from eating pork.  I have no such compunction about a fat roly-poly Chester-white, but from these creatures may I ever be protected.  They have one characteristic wh I like.  They pay"
        },
        {
            "pageid": 48587,
            "pagefilename": "f3ca24e8b58ad0d0fbb23c91f2b4476e.jpg",
            "pageorigfilename": "mms_126_fl_02_04_006_o2.jpg",
            "transcription": "6.\n\nno attention to me.  They attend to their own business & they seem to have plenty of business to do.  As they do me no harm I will say no more about them.  The scenery on the way to the little temple is beautiful I admit.  That is the fields are attractive.  This is the land of \"intense farming.\"  The natives are good agriculturists.  But they severally cultivate such small patches - just an acre or so.  They do the work by hand; they have no ploughs, rakes, seeders, cultivators, etc.  Armed wi a hoe or an old-styled instrument that I wd call a mattock, they do all  their work.  The kao-liang seems to be the principal crop in this section, wi beans and millet added.  We are not in the tea or rice or cotton section of the country.  The kao-liang when small looks like our Ill. corn.  I was sure it was corn.  But it grows very tall like our broom corn & has a wide spread tassel at the top.  The natives have stripped off the leaves almost to the top, so that the long rows of the slender, stripped stalks, look like the serried ranks of an army of soldiers, their plumes nodding & waving in the summer air.  There are no fences, hedges or ditches separating the several patches.  They are one great field.  The surface of the country around here is varied; there are hills & valleys & plains; all under the highest cultivation.  The mountains in the distance are unusual in their appearance.  They are as a rule a succession of single mts. w. cone-like peaks; but here others are irregular formations wh are quite pic.; against the sky they look like broken clouds.  In the evenings the scene is one of entrancing beauty.  There is something in the atmosphere that creates such won. cloud effects.  I never saw such colorings, such delicate shadings of color, & such beau. fleecy clouds tinged w every color of the rainbow.  The fields are interested w innumerable beaten paths, running in every direction.  There are no roads or highways in a proper sense.  There are no wagons or carriages.  People are transported from one place"
        },
        {
            "pageid": 48588,
            "pagefilename": "9c6e915ae6ce2e33062dd7ebebaa7eba.jpg",
            "pageorigfilename": "mms_126_fl_02_04_007_o2.jpg",
            "transcription": "7.\n\nto another on little donkeys or in sedan chairs, that is if they don't have their own ponies.  We have 2 Mongolian ponies, Lucy & I, & we enjoy riding over these paths or trails.  They do have some very heavy & clumsy 2-wheeled carts for hauling heavy loads.  They wind & twist their way over broader trails, wh for the horrible condition they are in wd. make an Amer. farmer crazy.  These roadways are few and far bet.  They are full of deep gullies & ruts.  No one ever thinks of grading or draining or working them.  The carts are pulled by donkeys & mules.  The other day I saw a mule a cow & a donkey hitched to & pulling the same cart.  I do have a large measure of int. in these poor, patient industrious farmers.  They live in the little villages.  There are no single farm houses or cottages as with us.  The same instinct that prompts them to build mud walls around their houses, their villages & cities also prompts the to live in village groups.  Each day they travel thru? several winding paths thro the fields from the villages to their own respective patches of ground.  They are such an industrious, patient, poverty-stricken lot.  I can't help thinking what their lives have been & contrasting the same wi that of a corresponding class in our country from our point of view what a cheerless life theirs has been & is.  They never had a bath, doubtless never wash their faces.  They never saw a wash-basin or a tub or a bath tub.  They never saw a towel or a cake of soap. They never had a Sundays rest.  As children, they never went to school or read a book or a newspaper.  They never wrote a letter or received one.  They never went to a circus or experienced the joy of drinking red lemonade.  They never ate stick candy or pop-corn balls or rode in a merry-go-round.  They never had a sled or a pair of skates.  They never played marbles or played \"hookey.\"  They never went hunting or fishing or nutting?.  They never played ball or a game of cards.  They never"
        },
        {
            "pageid": 48589,
            "pagefilename": "6d50752b3fb3b6d845b5acf88e8e409a.jpg",
            "pageorigfilename": "mms_126_fl_02_04_008_o2.jpg",
            "transcription": "8.\n\ntook their best girl to a dance.  They never had a \"best girl.\"  The only girl they ever had was the brides their mothers picked out for them.  What a lottery marriage must be under those conditions.  Still there is such a uniformity in dirt, dress & disagreeable fem. appearances, I fancy there is little room for a choice.  It must be simply a question of degrees in temper.  They never strolled in the shadow of the trees w the girls.  They never slept in a bed that had a mattress or a pillow.  They never saw a picture or read a story of history or fiction.  They never had a hope but to get enough to eat & never had a dream but what was associated wi never - ending toil.  They never sang a song that was not a wail or a cry.  They never heard a blessing or whispered a prayer.  Such are the temples, priests & gods; such are the villages & the people.  The foregoing is a crude, imperfect picture, but it is true in outline and color.  There is little room for sentiment, little play for the imagination.  And yet these people are not wholly unhappy.  They know no better life.  A failure of a crop means starvation.  So if they have a good crop, they are content.  Their patient industry, their quiet contentment are their saving graces.  In many ways, I like them.  Everybody seems to like them.  Their lives are of little account to themselves, their families or their country.  And yet I believe that parental & filial love have a strong place in their lives.  And where those sentiments are, there must be the primary elements of char. at least.  - Naught have I set down in malice.  I am only anxious that truth shall prevail, that the facts shall be told, that you may pardon this long screed, & that it may provoke a reply.  Love to everybody & unclear in yr aff - W.J.C Pei - Tai - ho - Aug. 12, 1910"
        },
        {
            "pageid": 48590,
            "pagefilename": "156539a49a051660589e5d63f03292f2.jpg",
            "pageorigfilename": "mms_126_fl_02_04_009_o2.jpg",
            "transcription": "P.S. of course the foregoing is \"under your hat.\"\nunclear letter. B. Strange to say, Susy insists that her narrative was the truth, the whole truth, & nothing but the truth. She thinks I am blind as a mole to the beauties of this life, that I do not have the reverential spirit that enables one to catch a gleam of the light that shines over the altars of the temples. Perhaps I am too old, too set in my wys, too skeptical to feel the throb of the inspiration these fat corpulent gods, with bulging eyes & smirking faces, inspire in the souls of their postulants. Perhaps Susy sees deeper into the meaning of things than I do.  But I wrap the mantle of my own conceit about me, I smile upon her in a  unclear manner. I admire her enthusiasm; and now to you I will say: Good night."
        },
        {
            "pageid": 48591,
            "pagefilename": "b2fa26b880654e9dadad05a70d0284e6.jpg",
            "pageorigfilename": "mms_126_fl_02_04_010_o2.jpg",
            "transcription": "Pei-Tai-ho\nAug. 12, 1910\nLetter of W.J.C. to Margaret Fechheimer"
        },
        {
            "pageid": 48592,
            "pagefilename": "62e1e0f755626b6cacbf3b24c393b541.jpg",
            "pageorigfilename": "mms_126_fl_02_05_001_o2.jpg",
            "transcription": "- The Imperial Audience-\n1911\nApril 18 was the day for the long expected Audience  for ladies - the first Audience given by the present Emperor. We had preplanned for it carefully at two meetings of the women of the corps held at Lady Jordan's. The invitation from the court was extended to one lady from each Legation and six interpreters. The selection of the latter had its difficulties, but after a good deal of talking was amicably arranged. So long as they granted me Miss Corbett, I cared very little who the others were, but we have heard since that the Chinese criticized the selection of Mrs. Bauer? (making two from the Austrian Legation) and Miss? Ping? because of their limited knowledge of Chinese. Lady Jordan who is doyenne? is not firm enough, but he has so much good feeling and sweetness that no one minds. The question of escort came up and it developed that she had formerly taken 8 soldiers & 4 ting - chairs. So as we all thought it would be a pretty thing to do, we decided to adopt it. But when I suggested it to Major Russell, he unclear off, said he would have to think it over & that it had never been the American custom. So when I found that the escort was to be mounted, I sent him a note"
        },
        {
            "pageid": 48593,
            "pagefilename": "550b2403b74dc42cd3256b761c90f1fe.jpg",
            "pageorigfilename": "mms_126_fl_02_05_002_o2.jpg",
            "transcription": "2.\n\nto say that on that account I had abandoned the idea.  I took the ting chair and the mafu? and let it go at that, but it made me rather hot when I saw the brilliant uniforms of the other nations and knew that I could have put up a handsome competition.  A little before ten Miss Corbett and I entered our green chairs and proceeded under the escort of our two horsemen to the British Legation.  There it was the prettiest scene in the world, with the English, Italian, Russian, Belgian, & French cavalry drawn up in line to face the old Chinese pavilions, and the ladies in their gay gowns and big hats coming down to take their chairs through the picturesque crowd of bearers.  We must have made a beautiful procession through the streets.  It was a long ride through the Tung An Min? into the Imperial City and way out to Coal Hill, then through the San Tse Men, where we changed to open two-bearer chairs and proceeded into the Winter Palace.  It was lovely along the little lake, bordered by great willows green with the first"
        },
        {
            "pageid": 48594,
            "pagefilename": "2080951788344c025b3b172b0cbf42aa.jpg",
            "pageorigfilename": "mms_126_fl_02_05_003_o2.jpg",
            "transcription": "3\nyoung tender green of spring. We crossed a beautiful stone bridge of many arches, under the green unclear and came at last to the building of five compartments where we were greeted by unclear. unclear unclear unclear Year, and rested and took off our wraps.  I was wearing my pink broadcloth gown with gray chiffon and silver, and the big gray hat unclear with pink and adorned with gray plumes. In a few moments we were summoned to the Hai-Yen unclear, where we found the Empress Dowager and the Emperor seated upon their thrones. My impression of these two is vivid, but have only the vaguest idea of what the room itself is like.  There were beautiful things, I know, and gorgeous unclear, but I did not see them. The elaborate dais had several stairways leading to the throne, and we followed Lady Jordan and ascended by the one at the left. It seems that we should have allowed her to go up alone (with unclear Hal) and make her little speech and then introduce us one by one. The dear lady was terriblrattled because we followed her at once, but she had not explained the matter and she probably"
        },
        {
            "pageid": 48595,
            "pagefilename": "f1340adcafe2f44e740ddb272b51c915.jpg",
            "pageorigfilename": "mms_126_fl_02_05_004_o2.jpg",
            "transcription": "4\nwould have been rattled anyway. The Empress Dowager sat on the throne in the middle behind a table, upon which was one of the Chinese scepters made of coral and elaborately carved. She looked much older than her forty years and she is not beautiful, but she has a lovely smile which lights up her face. She made no speech, and the only thing Miss Corbett could repeat to me afterwards was that she told Lady JordN it was a long time since she had seen her, and asked how long she had been in Peking. To which the surprising reply was - four years. Then Lady Jordan introduced Mme. Korostovitz? and the Empress Dowager rose and leaned over her coral scepter to shake hands with her. One of the eunuchs thereupon removed the scepter to give her greater freedom. As each one of us was presented, she leaned forward and shook hands and smiled, and her smile seemed to make things easy and clear away the troubled atmosphere. If we had been prepared to take things more simply and talk to her, I think she would rather have liked it. The little Emperor meanwhile sat upon his throne Asher left dressed like a miniature mandarin, his little feet in their satin boots sticking straight"
        },
        {
            "pageid": 48596,
            "pagefilename": "883a5f9548e16ff42ed3783b59e1d923.jpg",
            "pageorigfilename": "mms_126_fl_02_05_005_o2.jpg",
            "transcription": "5-\n\nout over the edge of the chair.  He is a handsome little patrician, and he looked on at the proceedings not without interest but with great solemnity and dignity.  I smiled at him and the eunuch in attendance looked down to see if he appreciated my interest but there was only the faintest shadow of a smile upon the face of the occupant of the Dragon Throne.  I curtseyed to him as I passed and then left the dais, forgetting as we all did, I think, even Lady Jordan, to descend the steps backward.  Three curtseys had been required of us, one as we entered the room, one a few steps further on, and one at the foot of the throne.  And these fortunately we remembered to make.  The interpreters did not mount the dais and neither did the princesses of the blood, who stood at the foot of the throne.  Mme. Hoo acted as interpretor for the Empress Dowager, and she led the way.  Following her came Lady Jordan, Mme. Korostovetz, Mme. Beelaerts, myself, Mme. Herrera (for Mexico), Mme. de Storck (for Austria) Mme. Picot (for France), Countess Ahlefeldt"
        },
        {
            "pageid": 48597,
            "pagefilename": "e00a9f87adbabb83741c830093a95488.jpg",
            "pageorigfilename": "mms_126_fl_02_05_006_o2.jpg",
            "transcription": "6-\n\n(for Denmark), Countess Einsiedel (for Germany), Miss Brambilla (for Italy), and Miss Everts (for Belgium).  Mme. unclear was ill and did not go.  Our interpretors were Miss Corbett, Miss Yatrell, Miss Scott, Mme. Bauer, & Miss Piry?.  As we emerged from the Presence, we were ushered into the room where tiffin was served - a spacious room but with too many foolish foreign things in it to be beautiful.  We were very well seated, the Princesses Tsai Hsun & Tsai Tao in the middle, opposite one another, with Lady Jordan & Mme. Beelaerts on either side of the former, and Mme. Korostovetz and myself on either side of the latter.  Miss Corbett was next to me and then the Princess Tsai Chen.  The tiffin was long and elaborate and very good, with delicious pigeons eggs and Peking duck.  The table has a breadth of yellow silk down the centre, with flowers garlanded upon it, and three baskets made of small flowers, more ingenious than beautiful in the middle.  The service was rapid"
        },
        {
            "pageid": 48598,
            "pagefilename": "f40f8d9a41ef9f4313d1e553173ecc51.jpg",
            "pageorigfilename": "mms_126_fl_02_05_007_o2.jpg",
            "transcription": "7-\n\nand good, the only thing foreign to our taste being the fact that the knife, fork and spoon were placed on the table-cloth after each course and used again for the next one.  There were eunuchs behind and around and before us.  They were everywhere, they filled the room.  Certainly fifty were in attendance, and I should think the number nearer a hundred.  They were sumptuously dressed, all of them, and the chief eunuch was magnificent beyond words.  His silks and satins, his chains of amber and jade, and above all the long resplendent black feather at the back of his hat marked him as a person of rare distinction.  After tiffin was over we were told that we were to be taken through to the Empress Dowager's apartments, and I summoned courage to ask if I might send for my camera.  Miss Corbett communicated my wish to the chief eunuch, saying that not in ten thousand years would I do it if anyone objected.  He in turn communicated my desire to his royal"
        },
        {
            "pageid": 48599,
            "pagefilename": "92a1fd1eedd149fb24b4af16d06603f7.jpg",
            "pageorigfilename": "mms_126_fl_02_05_008_o2.jpg",
            "transcription": "8-\n\nMistress, still invisible, and returned to say that anything I wanted should be done.  So as we wandered through the lovely courtyards, I took some pictures of the brilliant throng, - the gaily dressed foreign ladies in their big hats, the calm patrician princesses in their rich silken robes and flower-decked head-dresses, the crowd of attendant eunuchs in silks and jewels and plumed official hats and the pretty little maids in bright pinks and blues with a flower over each ear.  It was a rich and beautiful spectacle, brilliant in color, oriental in its magnificence.  The apartments of the Empress were lovely in themselves and contained some wonderful jade and porcelain.  In one room on either side of a throne were great shallow bowls of dark blue and green porcelain, Ming I imagine, which held, one a pyramid of a hundred apples, and the other a similar pyramid of oranges.  But an occasion like this when excitement is high and there are many people, one sees"
        },
        {
            "pageid": 48600,
            "pagefilename": "75b14d743d88ff9b1e9e1df3c3cb214b.jpg",
            "pageorigfilename": "mms_126_fl_02_05_009_o2.jpg",
            "transcription": "9-\n\nvery little, and I regret the things I might have stopped to admire which I passed by.  I remember his bed - a huge k'ang and the luxury of it, with its soft satin mattresses and pillows, and the low tables upon it as the sides, holding many necessities and luxuries.  Everything seemed new and clean and fresh, but there were no rooms as beautiful as those of Prince Kung which I saw the other day.  We were allowed to rest in one of them and given tea and fruit.  And then Lady Jordan said good-bye, and we came out to our chairs and again through the lovely palace grounds to the gate.  The ting-chair?, radiantly happy, had been allowed to follow me through, and when he reached home he told Heintzleman that to the longest day of his life he would never forget it.  At the Gate? we changed to our own green chairs and rode once more with our gay and gallant escort thro' the Imperial City.  When we left it and followed its pink and yellow wall through the dingy oriental street, the red coats of the British to the fore, the waving plumes and pennants of the Belgians and Italians, and the"
        },
        {
            "pageid": 48601,
            "pagefilename": "541cabca4c007dac1dfd1759c1918770.jpg",
            "pageorigfilename": "mms_126_fl_02_05_010_o2.jpg",
            "transcription": "10-\n\nshaggy helmets of the Cossacks following after, our outriders shouting, our green chairs travelling steadily and fast under their sturdy bearers, the rickshaws and carts and peddlars making way for us, and the haughty camels looking down upon us pygmies with a certain contempt from their majestic height, - a wave from the unknown swept over me and I wondered if I should wake in a moment to find it all a dream. -"
        },
        {
            "pageid": 48602,
            "pagefilename": "fa008d914fadb898237b4b1ac8e38b57.jpg",
            "pageorigfilename": "mms_126_fl_02_05_011_o2.jpg",
            "transcription": "Peking\nImperial Audiences"
        },
        {
            "pageid": 48603,
            "pagefilename": "e4c5c2b8875c43a1a86ed9a4164bc088.jpg",
            "pageorigfilename": "mms_126_fl_02_06_001_o2.jpg",
            "transcription": "Mr. Calhoun refers here to the hilarious occasion on Mr. Keeley's farm when a small pig wa formally christened \"John McCutcheon.\"  Mr. McCutcheon was present then."
        },
        {
            "pageid": 48604,
            "pagefilename": "8da2b561a2331106a3c95f633a269790.jpg",
            "pageorigfilename": "mms_126_fl_03_01_01_o2.jpg",
            "transcription": "image- photograph of child in traditional costume with man in background"
        },
        {
            "pageid": 48605,
            "pagefilename": "0e327ce7dd0ff0fafd666377814cf438.jpg",
            "pageorigfilename": "mms_126_fl_03_01_02_o2.jpg",
            "transcription": "September 16 1913\nThe Emperor of China unclear\n1913 crossed out 1910\n7718"
        }
    ]
}