{
    "id": "1320",
    "cataloglink": "https://i-share-nby.primo.exlibrisgroup.com/permalink/01CARLI_NBY/i5mcb2/alma991200378805867",
    "pages": [
        {
            "pageid": 107413,
            "pagefilename": "04c5feb99b6e3bcc6c9dbc734b1ecfec.jpg",
            "pageorigfilename": "Ayer_MS_1264_00080r_o2.jpg",
            "transcription": ""
        },
        {
            "pageid": 107414,
            "pagefilename": "339ae3195d95086f1207ea8c3225db43.jpg",
            "pageorigfilename": "Ayer_MS_1264_00081r_o2.jpg",
            "transcription": ""
        },
        {
            "pageid": 107415,
            "pagefilename": "d50f01758a80a1a91bd40f857fba926d.jpg",
            "pageorigfilename": "Ayer_MS_1264_00081_o2.jpg",
            "transcription": ""
        },
        {
            "pageid": 107416,
            "pagefilename": "f851e0af4af8fbcb7ee9205b3078bb52.jpg",
            "pageorigfilename": "Ayer_MS_1264_00082r_o2.jpg",
            "transcription": ""
        },
        {
            "pageid": 107417,
            "pagefilename": "71b5dc41c444c9db544dfa031531ae5c.jpg",
            "pageorigfilename": "Ayer_MS_1264_00082_o2.jpg",
            "transcription": ""
        },
        {
            "pageid": 107418,
            "pagefilename": "02b0834a13f4681aebbad975736eee8a.jpg",
            "pageorigfilename": "Ayer_MS_1264_00083r_o2.jpg",
            "transcription": ""
        },
        {
            "pageid": 107419,
            "pagefilename": "c946df3ee1c56778f23d93ac08ebff02.jpg",
            "pageorigfilename": "Ayer_MS_1264_00083_o2.jpg",
            "transcription": ""
        },
        {
            "pageid": 107420,
            "pagefilename": "05efd8e1b679a74630ee27fcd6c29be2.jpg",
            "pageorigfilename": "Ayer_MS_1264_00084r_o2.jpg",
            "transcription": ""
        },
        {
            "pageid": 107421,
            "pagefilename": "94df4df52f32a25ac4e0d12879029b60.jpg",
            "pageorigfilename": "Ayer_MS_1264_00084_o2.jpg",
            "transcription": ""
        },
        {
            "pageid": 107422,
            "pagefilename": "2ee5b21a003aa9d2b6102d6df31ad0d1.jpg",
            "pageorigfilename": "Ayer_MS_1264_00085r_o2.jpg",
            "transcription": ""
        },
        {
            "pageid": 107423,
            "pagefilename": "67bab57ea5d69fc353700fa58e722ab8.jpg",
            "pageorigfilename": "Ayer_MS_1264_00085_o2.jpg",
            "transcription": ""
        },
        {
            "pageid": 107424,
            "pagefilename": "59eba9d7baceafe0088ee47a58833873.jpg",
            "pageorigfilename": "Ayer_MS_1264_00086r_o2.jpg",
            "transcription": ""
        },
        {
            "pageid": 107425,
            "pagefilename": "0e872345ee7ab9829e066c69903c4dd3.jpg",
            "pageorigfilename": "Ayer_MS_1264_00086_o2.jpg",
            "transcription": ""
        },
        {
            "pageid": 107426,
            "pagefilename": "6d4dc611bf35bdb7fc7b097759cb300e.jpg",
            "pageorigfilename": "Ayer_MS_1264_00087r_o2.jpg",
            "transcription": ""
        },
        {
            "pageid": 107427,
            "pagefilename": "d4798865bba9e3d903e5d832f7c75e73.jpg",
            "pageorigfilename": "Ayer_MS_1264_00087_o2.jpg",
            "transcription": ""
        },
        {
            "pageid": 107428,
            "pagefilename": "8fa70c5bc2d69a2495ca9d18c86c0f90.jpg",
            "pageorigfilename": "Ayer_MS_1264_00088r_o2.jpg",
            "transcription": ""
        },
        {
            "pageid": 107429,
            "pagefilename": "d3710143454bb60c9c445477d8120059.jpg",
            "pageorigfilename": "Ayer_MS_1264_00089r_o2.jpg",
            "transcription": ""
        },
        {
            "pageid": 107430,
            "pagefilename": "63042e9ca6331007b69aa41387600e57.jpg",
            "pageorigfilename": "Ayer_MS_1264_00090r_o2.jpg",
            "transcription": ""
        },
        {
            "pageid": 107431,
            "pagefilename": "c9032bf20447fa68b70125020c05f679.jpg",
            "pageorigfilename": "Ayer_MS_1264_00090_o2.jpg",
            "transcription": ""
        },
        {
            "pageid": 107432,
            "pagefilename": "04b9e2d8a65126920ff18f68cab1b24c.jpg",
            "pageorigfilename": "Ayer_MS_1264_00092a_o2.jpg",
            "transcription": ""
        },
        {
            "pageid": 107433,
            "pagefilename": "0052db3284ea6b1b06c77fbb514fe83a.jpg",
            "pageorigfilename": "Ayer_MS_1264_00092b_o2.jpg",
            "transcription": ""
        },
        {
            "pageid": 107434,
            "pagefilename": "44bb99a7b5a40f1a77de5076d12db39f.jpg",
            "pageorigfilename": "Ayer_MS_1264_00092c_o2.jpg",
            "transcription": ""
        },
        {
            "pageid": 107435,
            "pagefilename": "8d294d373df49fa5d11fe0953e112fa1.jpg",
            "pageorigfilename": "Ayer_MS_1264_00093r_o2.jpg",
            "transcription": ""
        },
        {
            "pageid": 107436,
            "pagefilename": "794e7b1baae1ddc3e987b280733ea06b.jpg",
            "pageorigfilename": "Ayer_MS_1264_00093_o2.jpg",
            "transcription": ""
        },
        {
            "pageid": 107437,
            "pagefilename": "0b24b9af36266908b4191f7e25cfddc9.jpg",
            "pageorigfilename": "Ayer_MS_1264_00094r_o2.jpg",
            "transcription": ""
        },
        {
            "pageid": 107438,
            "pagefilename": "1168094baae288f2e06a264984e4d7d5.jpg",
            "pageorigfilename": "Ayer_MS_1264_00094_o2.jpg",
            "transcription": ""
        },
        {
            "pageid": 107439,
            "pagefilename": "e1fe1b99de5d2c24307ab708004147f9.jpg",
            "pageorigfilename": "Ayer_MS_1264_00095r_o2.jpg",
            "transcription": ""
        },
        {
            "pageid": 107440,
            "pagefilename": "369f3f0fc83027608f7776cc93597e7d.jpg",
            "pageorigfilename": "Ayer_MS_1264_00095_o2.jpg",
            "transcription": ""
        },
        {
            "pageid": 107441,
            "pagefilename": "ddeea90b019c3f6dbe7dbbb83fa925c2.jpg",
            "pageorigfilename": "Ayer_MS_1264_00096r_o2.jpg",
            "transcription": ""
        },
        {
            "pageid": 107442,
            "pagefilename": "d9c4aa9e2704e674c28c077054ea94c1.jpg",
            "pageorigfilename": "Ayer_MS_1264_00096_o2.jpg",
            "transcription": ""
        },
        {
            "pageid": 107443,
            "pagefilename": "7ce4345aed34b4283c615e42a4694a0e.jpg",
            "pageorigfilename": "Ayer_MS_1264_00097r_o2.jpg",
            "transcription": ""
        },
        {
            "pageid": 107444,
            "pagefilename": "ff5d986ba8afb95782b62612125854c8.jpg",
            "pageorigfilename": "Ayer_MS_1264_00097_o2.jpg",
            "transcription": ""
        },
        {
            "pageid": 107445,
            "pagefilename": "fd3bec3e90cf585fe80adb3e2cd05415.jpg",
            "pageorigfilename": "Ayer_MS_1264_00098r_o2.jpg",
            "transcription": ""
        },
        {
            "pageid": 107446,
            "pagefilename": "8f02500b6dec1a7f26ac92ad5a1b134f.jpg",
            "pageorigfilename": "Ayer_MS_1264_00098_o2.jpg",
            "transcription": ""
        },
        {
            "pageid": 107447,
            "pagefilename": "f8f46f41137b81241fc6f5c5fa7b4c0b.jpg",
            "pageorigfilename": "Ayer_MS_1264_00099r_o2.jpg",
            "transcription": ""
        },
        {
            "pageid": 107448,
            "pagefilename": "64d32c3f37b8564b341b6b325a1ebd0f.jpg",
            "pageorigfilename": "Ayer_MS_1264_00099_o2.jpg",
            "transcription": ""
        },
        {
            "pageid": 107449,
            "pagefilename": "4396b7877402f569862a5d9fe3efe18e.jpg",
            "pageorigfilename": "Ayer_MS_1264_00100r_o2.jpg",
            "transcription": ""
        },
        {
            "pageid": 107450,
            "pagefilename": "fddf46c5a1aed9680587502ef6c36902.jpg",
            "pageorigfilename": "Ayer_MS_1264_00100_o2.jpg",
            "transcription": ""
        },
        {
            "pageid": 107451,
            "pagefilename": "e474b86f20059d290c0a61d8129eaf9e.jpg",
            "pageorigfilename": "Ayer_MS_1264_00101r_o2.jpg",
            "transcription": ""
        },
        {
            "pageid": 107452,
            "pagefilename": "f1d4f5cd63e2052d838d9b48effb7d05.jpg",
            "pageorigfilename": "Ayer_MS_1264_00101_o2.jpg",
            "transcription": ""
        },
        {
            "pageid": 107453,
            "pagefilename": "465759c708ede950df4ee093764faf20.jpg",
            "pageorigfilename": "Ayer_MS_1264_00102r_o2.jpg",
            "transcription": ""
        },
        {
            "pageid": 107454,
            "pagefilename": "1642514e0a05a51369faf82bb228be81.jpg",
            "pageorigfilename": "Ayer_MS_1264_00103r_o2.jpg",
            "transcription": ""
        },
        {
            "pageid": 107455,
            "pagefilename": "0e4a3ab8143384b44c84221409ef6734.jpg",
            "pageorigfilename": "Ayer_MS_1264_00103_o2.jpg",
            "transcription": ""
        },
        {
            "pageid": 107456,
            "pagefilename": "d059d17a614553b5de56bfd6700ba613.jpg",
            "pageorigfilename": "Ayer_MS_1264_00104r_o2.jpg",
            "transcription": ""
        },
        {
            "pageid": 107457,
            "pagefilename": "88835cf40a11366a3b7215820465c875.jpg",
            "pageorigfilename": "Ayer_MS_1264_00104_o2.jpg",
            "transcription": ""
        },
        {
            "pageid": 107458,
            "pagefilename": "ddda8ccd2f95ec76ba2af0a58a3dd21f.jpg",
            "pageorigfilename": "Ayer_MS_1264_00105r_o2.jpg",
            "transcription": ""
        },
        {
            "pageid": 107459,
            "pagefilename": "1f335496db8fe9e47970342a454d390c.jpg",
            "pageorigfilename": "Ayer_MS_1264_00106r_o2.jpg",
            "transcription": ""
        },
        {
            "pageid": 107460,
            "pagefilename": "c46aa53988df339c6876ac9630aa4616.jpg",
            "pageorigfilename": "Ayer_MS_1264_00106_o2.jpg",
            "transcription": ""
        },
        {
            "pageid": 107461,
            "pagefilename": "2e3cbefdce0836b288e4aaeebf87c499.jpg",
            "pageorigfilename": "Ayer_MS_1264_00107r_o2.jpg",
            "transcription": ""
        },
        {
            "pageid": 107462,
            "pagefilename": "7eacea5217801b2043831c9ba277f901.jpg",
            "pageorigfilename": "Ayer_MS_1264_00107_o2.jpg",
            "transcription": ""
        },
        {
            "pageid": 107463,
            "pagefilename": "c05da15ecbd567ce07b2421dacb10f8f.jpg",
            "pageorigfilename": "Ayer_MS_1264_00108r_o2.jpg",
            "transcription": ""
        },
        {
            "pageid": 107464,
            "pagefilename": "8bc06088b6dff359a16c6fcdc7ca681c.jpg",
            "pageorigfilename": "Ayer_MS_1264_00108_o2.jpg",
            "transcription": ""
        },
        {
            "pageid": 107465,
            "pagefilename": "29549e95da752dc99fc3f8036c6f7ba8.jpg",
            "pageorigfilename": "Ayer_MS_1264_00109r_o2.jpg",
            "transcription": ""
        },
        {
            "pageid": 107466,
            "pagefilename": "c6859904b6c8b2bf14d8d2b7ccf40256.jpg",
            "pageorigfilename": "Ayer_MS_1264_00109_o2.jpg",
            "transcription": ""
        },
        {
            "pageid": 107467,
            "pagefilename": "06d94bdee518db9431ef67555acd1fcc.jpg",
            "pageorigfilename": "Ayer_MS_1264_00110r_o2.jpg",
            "transcription": ""
        },
        {
            "pageid": 107468,
            "pagefilename": "ce7c9284277b3a0b84b85138eb11c1ab.jpg",
            "pageorigfilename": "Ayer_MS_1264_00110_o2.jpg",
            "transcription": ""
        },
        {
            "pageid": 107469,
            "pagefilename": "f55c32b2c53ac049d5d0b981c8a9466e.jpg",
            "pageorigfilename": "Ayer_MS_1264_00111r_o2.jpg",
            "transcription": ""
        },
        {
            "pageid": 107470,
            "pagefilename": "0d544eece5cb3884f3824396a6ec824e.jpg",
            "pageorigfilename": "Ayer_MS_1264_00111_o2.jpg",
            "transcription": ""
        },
        {
            "pageid": 107471,
            "pagefilename": "a89c86d18c976eefa1ff76a254496b40.jpg",
            "pageorigfilename": "Ayer_MS_1264_00112_o2.jpg",
            "transcription": ""
        },
        {
            "pageid": 107472,
            "pagefilename": "313ee3aee735c509942de2c388aa8958.jpg",
            "pageorigfilename": "Ayer_MS_1264_00116_o2.jpg",
            "transcription": ""
        },
        {
            "pageid": 107473,
            "pagefilename": "46660430db61c82b66088ef9765dcd85.jpg",
            "pageorigfilename": "Ayer_MS_1264_00117r_o2.jpg",
            "transcription": ""
        },
        {
            "pageid": 107474,
            "pagefilename": "eb593a2448df2601f48b6ba43acd8810.jpg",
            "pageorigfilename": "Ayer_MS_1264_00117_o2.jpg",
            "transcription": ""
        },
        {
            "pageid": 107475,
            "pagefilename": "a71583f629add8df5eb5520e71a148a8.jpg",
            "pageorigfilename": "Ayer_MS_1264_00118r_o2.jpg",
            "transcription": ""
        },
        {
            "pageid": 107476,
            "pagefilename": "f4293a1b166587a055b4071f0e1ff638.jpg",
            "pageorigfilename": "Ayer_MS_1264_00118_o2.jpg",
            "transcription": ""
        },
        {
            "pageid": 107477,
            "pagefilename": "2b8dfe890d80781277f2ddb0c7ebca34.jpg",
            "pageorigfilename": "Ayer_MS_1264_00119r_o2.jpg",
            "transcription": ""
        },
        {
            "pageid": 107478,
            "pagefilename": "ebb53761cd5b3d30414a539d1de94d09.jpg",
            "pageorigfilename": "Ayer_MS_1264_00119_o2.jpg",
            "transcription": ""
        },
        {
            "pageid": 107479,
            "pagefilename": "535152d1e2d67c9f063d4a31aec0ca06.jpg",
            "pageorigfilename": "Ayer_MS_1264_00120r_o2.jpg",
            "transcription": ""
        },
        {
            "pageid": 107480,
            "pagefilename": "124b8960bfc7d2e80d75e7eea25c06a8.jpg",
            "pageorigfilename": "Ayer_MS_1264_00120_o2.jpg",
            "transcription": ""
        },
        {
            "pageid": 107481,
            "pagefilename": "4b10bdf1fb23b90d0f10e13e69e5dd2a.jpg",
            "pageorigfilename": "Ayer_MS_1264_00121r_o2.jpg",
            "transcription": ""
        },
        {
            "pageid": 107482,
            "pagefilename": "b722af0036b62957ba7010d669866f47.jpg",
            "pageorigfilename": "Ayer_MS_1264_00121_o2.jpg",
            "transcription": ""
        },
        {
            "pageid": 107483,
            "pagefilename": "46130234caa4bde872b1975c178213d4.jpg",
            "pageorigfilename": "Ayer_MS_1264_00122r_o2.jpg",
            "transcription": ""
        },
        {
            "pageid": 107484,
            "pagefilename": "25f145b34d2b17978f81442e203558ec.jpg",
            "pageorigfilename": "Ayer_MS_1264_00122_o2.jpg",
            "transcription": ""
        },
        {
            "pageid": 107485,
            "pagefilename": "60d308f74b2eea98b8aea3b19a3078bd.jpg",
            "pageorigfilename": "Ayer_MS_1264_00123r_o2.jpg",
            "transcription": ""
        },
        {
            "pageid": 107486,
            "pagefilename": "d8f8504a0239e083111a6081e1a09e28.jpg",
            "pageorigfilename": "Ayer_MS_1264_00123_o2.jpg",
            "transcription": ""
        },
        {
            "pageid": 107487,
            "pagefilename": "8dae3db1eedf03c7791aba36ffcb4360.jpg",
            "pageorigfilename": "Ayer_MS_1264_00124r_o2.jpg",
            "transcription": ""
        },
        {
            "pageid": 107488,
            "pagefilename": "914a6533fbe98cf99bfa2228ac258aad.jpg",
            "pageorigfilename": "Ayer_MS_1264_00124_o2.jpg",
            "transcription": ""
        },
        {
            "pageid": 107489,
            "pagefilename": "03ef55dfc49e21d9f7b0cdbe4d8db51e.jpg",
            "pageorigfilename": "Ayer_MS_1264_00125r_o2.jpg",
            "transcription": ""
        },
        {
            "pageid": 107490,
            "pagefilename": "a4147ae1d04065cc8ca34da283fc9604.jpg",
            "pageorigfilename": "Ayer_MS_1264_00125_o2.jpg",
            "transcription": ""
        },
        {
            "pageid": 107491,
            "pagefilename": "99873079e5e58665e719e769fab4c2ba.jpg",
            "pageorigfilename": "Ayer_MS_1264_00126r_o2.jpg",
            "transcription": ""
        },
        {
            "pageid": 107492,
            "pagefilename": "e770536b48d87e52fb4a0035474bae6e.jpg",
            "pageorigfilename": "Ayer_MS_1264_00126_o2.jpg",
            "transcription": ""
        },
        {
            "pageid": 107493,
            "pagefilename": "bb60ea66d217253cfc968b4d35a47c68.jpg",
            "pageorigfilename": "Ayer_MS_1264_00127r_o2.jpg",
            "transcription": ""
        },
        {
            "pageid": 107494,
            "pagefilename": "b3b46cc2e182d289b1e43d49dc19f3ea.jpg",
            "pageorigfilename": "Ayer_MS_1264_00127_o2.jpg",
            "transcription": ""
        },
        {
            "pageid": 107495,
            "pagefilename": "ba1556b63d8e4c99c8a5d064af5d2c46.jpg",
            "pageorigfilename": "Ayer_MS_1264_00128r_o2.jpg",
            "transcription": ""
        },
        {
            "pageid": 107496,
            "pagefilename": "ed452ab57086fd08e66d8531bae495c1.jpg",
            "pageorigfilename": "Ayer_MS_1264_00128_o2.jpg",
            "transcription": ""
        },
        {
            "pageid": 107497,
            "pagefilename": "0afcbab789f07a04aa285766b8b94b3d.jpg",
            "pageorigfilename": "Ayer_MS_1264_00129r_o2.jpg",
            "transcription": ""
        },
        {
            "pageid": 107498,
            "pagefilename": "64a5982f74b62c6413ef1ea330c32d48.jpg",
            "pageorigfilename": "Ayer_MS_1264_00129_o2.jpg",
            "transcription": ""
        },
        {
            "pageid": 107499,
            "pagefilename": "09663c95e0e9b50ee39e6b728614c583.jpg",
            "pageorigfilename": "Ayer_MS_1264_00130_o2.jpg",
            "transcription": ""
        },
        {
            "pageid": 107500,
            "pagefilename": "b99f1550b4f3b9f64a1bddfcf384d037.jpg",
            "pageorigfilename": "Ayer_MS_1264_00131r_o2.jpg",
            "transcription": ""
        },
        {
            "pageid": 107501,
            "pagefilename": "e4ac98307a2274324fc648da5519803f.jpg",
            "pageorigfilename": "Ayer_MS_1264_00131_o2.jpg",
            "transcription": ""
        },
        {
            "pageid": 107502,
            "pagefilename": "0ea6908128761d68ecfbd60cde2ba814.jpg",
            "pageorigfilename": "Ayer_MS_1264_00132_o2.jpg",
            "transcription": ""
        },
        {
            "pageid": 107503,
            "pagefilename": "634171f69e68ff337f601750aac969b5.jpg",
            "pageorigfilename": "Ayer_MS_1264_00133_o2.jpg",
            "transcription": ""
        }
    ]
}