{
    "id": "1356",
    "cataloglink": "https://i-share-nby.primo.exlibrisgroup.com/permalink/01CARLI_NBY/i5mcb2/alma991341788805867",
    "pages": [
        {
            "pageid": 114713,
            "pagefilename": "893ca23a2870e91b918be86c4b921bb6.jpg",
            "pageorigfilename": "Ayer_MS_18_FL021_00001_o2.jpg",
            "transcription": "[Brown marble book cover.]"
        },
        {
            "pageid": 114715,
            "pagefilename": "cf7e8cb5e44c102dcd614b5fdd311973.jpg",
            "pageorigfilename": "Ayer_MS_18_FL021_00002r_o2.jpg",
            "transcription": "Light or brightnefs | ho. Fean. Fean.\nDarknefs | hoke. pad. ha. [diacritical mark above the a]\nMid-day | hampay-cho-ka. [diacritical marks above the o in cho and the a in ka]\nday | han. pau or hampatoo\nnight | han. ya. [diacritical mark above the a] too\nmid night | han. cho. ka. [diacritical marks above the o in cho and the a in ka]\nOne | onechaw whon-cha [diacritical mark above the a]\nTwo | noopa [diacritical mark above the a]\nThree | yawmeni\nFore | Topa [diacritical mark above the a]\nFive | Za. [diacritical mark above the a] pea. ta. [diacritical mark above the a]\nSiks | Shak. pay.\nSeven |Shak ko [diacritical mark above the a]\neight | Shakando. [Crossed out: shu] han.\nnine | na. [diacritical mark above the a] pea. cha. wacko. [diacritical mark above the a] [written above translation: name-chi-wakun]\nTen | Wick. cha. [diacritical mark above the a] me. na.  [diacritical mark above the a]\nFron | Manila  [diacritical mark above the a]\ngun | mariza.  [diacritical mark above the a]wac-kaun.\nPowder | Chak. ken. de. [written above translation: chan-hum, lee\nLead | manzanloo.\nhard or Strong | Soota  [diacritical mark above the a]\nnot hard or Soft | Weanka  [diacritical mark above the a]wean [written above translation: wan ka-tan  [diacritical mark above the a]]"
        },
        {
            "pageid": 114717,
            "pagefilename": "594eb5c0f9c468022225024e3dfc161e.jpg",
            "pageorigfilename": "Ayer_MS_18_FL021_00003r_o2.jpg",
            "transcription": "British - Sã. kan. da. Shã\nWenibago - ho team gay\nMenomene- ?"
        },
        {
            "pageid": 114719,
            "pagefilename": "a1252a0ba099869e16524763b6053c66.jpg",
            "pageorigfilename": "Ayer_MS_18_FL021_00003_o2.jpg",
            "transcription": "Blanket\nBlue block on [unclear] blanket \nRead on Scarlet ditto\nLarge blanket\nSmall [unclear]\n[Leagings?]\n[Cappot?] or [mantlet?]\nWhite\nBlack\nRead\ngallows\nBlue or green\nBlack. Silk. \nThin\n[unclear]\npipe\nTobaco\nSmoke\nBurning\nCap or hat\nFrench men\nAmerican"
        },
        {
            "pageid": 114721,
            "pagefilename": "0e271035e9f4f942432be50e08a8f7de.jpg",
            "pageorigfilename": "Ayer_MS_18_FL021_00004r_o2.jpg",
            "transcription": "A Teel ... shonk. shonk. kâu\nCome Here ... koo. wâu\nhe his gone, or she ... ki. hin. dâu\nThy have gone ... kei. hin. deanfull??\nhe his comeing ... koo. pee\nThy are ditto ... koo. peado.\nThy are going ... yaio peado\nThy \" not going ... yaio peithnee??\nThy \" [unclear] ... hin deepee\nThy \" not ditto ... hin dee pee shnee\nThy shall not \" ... hin. dee pick tee shnee\nThy will not come ... koopick tee shnee\nRiver ... wonk pâ dâ\nLake ... oo memdân\nWatre?? ... mei mei\nKaneing ... mâr mâ fou\nSnowing ... mâpâ\nWatre is Rising ... mei neitean\nThe sbina Blose?? ... tau tau. hâmpâ\nbalm ... hâm mea dâ ka dean\na conoe ... wât tâ\ngoing?? in a conoe ... wat to pâ"
        },
        {
            "pageid": 114723,
            "pagefilename": "71511160d6663114064e2003bfbe2deb.jpg",
            "pageorigfilename": "Ayer_MS_18_FL021_00004_o2.jpg",
            "transcription": "down the left side: Kaccoon, Baze, Martin, abilae (?) batt, batt, souls (unknown), (unknown) a houde, maine (?), stand, set down, lay down, (unknown), (Unknown), My friend. (unknown symbol-pi maybe) commardd (?), the sun or moon (under says moon, hour, year to wee (?)), the clouds (?), wash Tay or Jay, bad, a bird, a goose, swan, a french duck, a blood ditto\nlines, in a dotted form moving across the page, some have word written on them but are too light to see what it says \ndown the right side: lou chave (?), iba kank zee chacos (a name?), nak pa (unknown) charos (?), (unknown), (unknown) shonga, ibaka (?), (unkown), (unknown), walk, (unknown), (unknown), hacan, mr. takachiroaorboaa, moss, mock pocha, good on handsom, shechaco, zidka, mazza ditto tanga, pawwonta (?), skee skan"
        },
        {
            "pageid": 114725,
            "pagefilename": "96b448bb3e1756a6489a2db0c14ca4a3.jpg",
            "pageorigfilename": "Ayer_MS_18_FL021_00005r_o2.jpg",
            "transcription": "hose | Padoo  Pau soo {mark above a}\nCheeks | Tahoon Jare-pon {mark above a and o} {last words underlined}\nmouthe | heen ee {unknown above} - hee {underlined} {unknown above}\nTunge | Chajee chaa-jee \nChin | hee koo {unknown} hoota \nneck | Tauhoo \nBody | Tau chan \nThyes | See chan \n{unknown} | ho ha {mark above a} Hoo- hau {underlined}\nFeet | Seha {mark above a} See hau {underlined} \nTow | Seehink feau {mark above a} \nElbowe | Hay ncho Heech {unknown} -pau \narm | heeltoe \nhande | heau hae {above} naum - paa \nfingers | naump- {unknown} neanh Soo ka La \nFace |hetai Hee-taa \nKill me | hee hoo tau kan {marks above a's} \nRounae | mee-aum {above} me mean \n{unknown} | HO mon do to-tonho mo aon ton ton\nLong {unknown} | Haun- shau han Skaw \nShort | pu taa-chau fee Tea cha {unknown} \nBenay | sornp- so- {unknown} hisson pisson nau"
        },
        {
            "pageid": 114727,
            "pagefilename": "f636b77a8b0841495eb4cf520d5d605a.jpg",
            "pageorigfilename": "Ayer_MS_18_FL021_00005_o2.jpg",
            "transcription": "left side:\nfather\nmother \nmy brother youngest\nmy ditto eldest\nhe his any parent or she \nsister\nbusin for a women \nbusin for a man\nbrother in law\nsister in law \ngrand father \nfather in law\nnephew \nmy niece\nmakean ka\nmee chaw (unknown) chaw\ncanan\nsmell\nsweet\n(unknown) or (?) sugarea (?)\n(unknown)\neyes\nright:\nhat ta- hawt taa\nhe men- hee (unknown)\nme songa (mee songa)\nthe in ha (chee haa)\ntankoo wa (unknown) (unknown)\ntank shee \nhanle kawshee\nta han shee\ntan han\nhank han\ntoo kan\ntosh kan\ntoo pean\na olae (?) women\na (?) man\n(unknown)\n(unknown)\nskooyah\npahaw\nhesh taw"
        },
        {
            "pageid": 114729,
            "pagefilename": "e2ef2833b792dc6740c43e68e76c8577.jpg",
            "pageorigfilename": "Ayer_MS_18_FL021_00006r_o2.jpg",
            "transcription": "left side:\ni am (unknown) (unknown) (unknown)\nThay abrill (?) maria\nkooking\nhookea\na piece\nmake some fire\n(unknown) (unknown) me self\nwarm youre \"\nim (unknnown)\ni feel warm\nbrand (?) \na trader\ntrade \nthy have trading (?)\n(unknown)\ncry \nsing\na dice\na lye\nit is true\nbamby\njoon (?)\nright side:\nMeedoo za\nkee chee (unknown) fau (?) law (?)\nka che you za (unknown) ta\nwohan\nshe-puan\nshawpean (?)\n(unknown) ho she paw\nchaa tee\ncha te po\n(unknown) (unknown) kank to do\npa tesh kan ibo (?)\nmanchou ibee tau\nde de la wa hen do\n(unknown)\nuopaton\nwopaton pe\npeanpe\nchaw yaw\ndo wan \nhor \nhe jon shnee\nibe chaw ka\njo kash taw\nha cha dean (?)"
        },
        {
            "pageid": 114731,
            "pagefilename": "f0097d56bf6efbe830f4782d2ed1acca.jpg",
            "pageorigfilename": "Ayer_MS_18_FL021_00006_o2.jpg",
            "transcription": "at present naum kau-kau nan ka kanau num kau jau\nLong Time a goe ha heau heau Vin do wau ker yau\nI ? it meduck chean do you me ni\nWorld Wind? Ta Lea Wam me na\na Stone he youa Hee zaun bau me nau zau\nCome Wam me nean za\nWilde Rice pissin pis sin\nRise? Ripe? Chooton\nmeat Tanao Tan doe\nTransporting Took Shoe\na Boy ho ke Skeldan Shei dan\na girl Wecheyan nan\na childe hkei Sheio pau\nmy children mechin chaw\nme me yea mee haa\nyou ne yea nee yaa\nhe hee yaa\nThay hee yaa pee\nUs hon-ke yaa pee\ngrate number people Wechota wee cho tau\nmy Wife me Tean wea mee tau-mee\nhis \" Tau Wee chou\nhis is maria with hur? you zan"
        },
        {
            "pageid": 114733,
            "pagefilename": "f157610429f8bb9487954b1e6fd8689b.jpg",
            "pageorigfilename": "Ayer_MS_18_FL021_00007r_o2.jpg",
            "transcription": "Left:\n(unknown)\ndrink\nheat\nthose (?) heating\nswallow\ndance (?)\n(Unknown)\n(unknown)\n(unknown)\nrisen (?)\nmine\ni have got\nwhat \nnoe (?)\nyead (?)\ni do not noe (?)\ni noe\\pull out (?) on (unknown)\nbilling (?)\nhave you willing (?)\nWill you be\ndo you wish for it\nmeaa ha chaw\nyattakean\nIbola ibo\nhunta pe\nwan pa caw (?)\nwath che\nka sa pa \nwire (?) toko toko ka\nwa you pie kar\nta wwau (?)\nme ta (unknown)\nme doo ha\nta ko\nheyaw\nkean on tosh (?)\nsmao no wa he snee\nswao me iba ya\nyou (unknown) da\nibe chaw da\nibe chaw ya da\nwe - - - kata\nyaw chine ka"
        },
        {
            "pageid": 114735,
            "pagefilename": "b87f16f2f4d4cd293497a784f9269a82.jpg",
            "pageorigfilename": "Ayer_MS_18_FL021_00007_o2.jpg",
            "transcription": "a Longe time a go | U-a nanka ja \nClose or nere |ash ka dean {unknown} \nTa han To | Jane {mark above a}\nI saw him | Uam me da ka {mark above a} \nhe | Uy yaw ka je \n{unknown} | honk ta yae \nSturgon | bha {mark above a} on \nbraro fish | Ja Tous ka {mark above a} \nBlk. Ball | Peso ka {mark above a} \nPike | Ta ma ha \n{blank} | Candi\nCat Fish | ho ha safa \n{Cry?} | Poola \nPuffing | {unknown letter} ham he am \n{unknown} maa | he {unknown}\nmy hart is {Baa?} on mau C hantay m'su {unknown} ish ke \nFish hook | {marked out word} Tou\nFithing | ho hith aw\na gra {unknown} |  {unknown} fe de chaw\nhunting | Uo ta in ni \ngood hunter | Ua ho ka \nLazay | Cooja {mark over a}"
        },
        {
            "pageid": 114737,
            "pagefilename": "e77e05e52d4014c55b583c909c8b9bdb.jpg",
            "pageorigfilename": "Ayer_MS_18_FL021_00008r_o2.jpg",
            "transcription": "Left side:\nMockisins\nBrick cloth\npitty bot (?)\n(unknown) on seed\nwrite (?)\nshineing\nsmel\nfn or tn (?)\nright side:\nHampaw\nbha ha nack kay\nsaunte (?) saun (unknown) (unknown)\nsoue (?)\nolbappay (?)\n(unknown) yat ta pa ta pa\n(unknown)\niba (unkown) shtay chan"
        },
        {
            "pageid": 114739,
            "pagefilename": "5bbe933ad237020b94f0da46f3e72a2c.jpg",
            "pageorigfilename": "Ayer_MS_18_FL021_00008_o2.jpg",
            "transcription": "left side:\nI rebirth (?)\nI (unknown)\nI have aone (??)\ngrafts (?)\nsquash\n(unknown) mellon\nbread \n(unknown)\ntallow (?)\noil\nblad (?) bloods\ngrains (?) vein\nshorte and chunky\nthunder\nlightening\npiagon (?)\nclouds\n(unknown) (unknown)\nI tolde him\nagone (?)\ni (unknown)\nI lost\nright side:\nto (unknown)\niba chirn\nmedcosh (?) team\n(unknown)\n(unknown)\nwarm (unknown) (unknown) sacka\nom mani chaws\n(unknown)\nI bad de man Tasaka\n(unknown) in de\nibha (?)\nkran\nto (unknown)\niba kin (unknown)\niba kan in de\niba ke ya dean\nmya pe pan\ncassota (?)\niba ke meaaka\nhakay\no (unknown) wa yaw\n\" \" \" \" shase"
        },
        {
            "pageid": 114741,
            "pagefilename": "6cb3e3fa72d5efad3a00e79fd752261e.jpg",
            "pageorigfilename": "Ayer_MS_18_FL021_00009r_o2.jpg",
            "transcription": "hoa pah pah noon pah | tongar \nBlanket 3ph | Shee nau{unknown} hoatar tam chee non \ndo 2 1\\2 | Urr noa hee ar\ndo Scmallon | SHrr nau Cheis {tarn?}\nBlue Cloth Blanket | Shee nar to{a?}\nScarlet | do do Thee nar Shan \nLeg gem{?} Blue | Hoam scau \ndo Red | Hoam Scau Shau \nmee nu hou {unknown} \nCalico | Oah hon dou hun doh \nShirt | Wee-char hoam \nManthit | {blank}\nBlk Silk {hork?} | Uau nar pee sar par \nCoat | Hoa hen daa him dah \nTrousers | Haan zaahoa ray \nRibbon | zeep zuys Chunar pau hendar tay \nGartering | do Choakar \n{unknown} yarn | Uau-pau ho {marked out word}\nLooking Glass | Hin du do mon das Rau \n{unknown}\nHa{unknown}k Bill | Mauzar Hendau hon dau\nBeads | Joa Joa \nWampum | Ueeo Kee hau tau\nGarnets | Uau num pee Shag Shar \nNeedly | Jaun huge pau chee kau tar"
        },
        {
            "pageid": 114743,
            "pagefilename": "97e21086ab4ea54c19321ae98bad2493.jpg",
            "pageorigfilename": "Ayer_MS_18_FL021_00010r_o2.jpg",
            "transcription": "Vermillion | Uau shau shau \nBrah River | Mauzer noamp chum pau {underneath } - pau \nPipe Tomahawk | Hoant spaa chan dro \nStone Pipe | Chan doo pau shaw \nScruff Box | {blank space} \nPowder | Chau hun dee \nLeat | mauzer soo \nBally | mauzer soo mu an \nShot | soohchuh  chu {marked out word} cautomt \nFile | mauzer Ei {marked our word} pah {unknown} \nRasp | Chaun Ei {marked out word} pah {unknown} \nAnger | Chan Ei you mu nu \nShame | maum cor-au kau he paw \nPaper | menee Hoa {marked out word with h above} haw\nCandy | meunee Hoa hau Oan cau soo {bee above} coo toa\nBlk Feathers | Uah chin Hoa {unknown} { marked out word} sahpah {above}\nArm Bands | Heed koam oamp {marked out letter} \nUrist | do mauzer Hoa {marked out word} \nPur Broaehe | {line to seperate} Ei toa Kaa Nauu cau/oeo \nEmb | do\nCom| do \nEarbobs | Oa Ee naw"
        },
        {
            "pageid": 114745,
            "pagefilename": "9ef66c79c8fec3c4c57b3ba5b92d42a0.jpg",
            "pageorigfilename": "Ayer_MS_18_FL021_00010_o2.jpg",
            "transcription": "Brich cloth| Chaa heimaukay \nPettecoat | Saunk san nie char \nthread  |au- hoan  tau \nFire Steel | Chaun- Kau \nGun Uorm | mauzar-Je-cherm \nAwls | Jau hunge pau \nScissors | Je yem Chin dou \nScalping knife |hee san tanga\nCartouche do | do je hoopar chatove \nAxe | Hoom spar \nTomahawk | do chamkpee \nAdze | Cham ie Char Rum \nHoe | mau rei char menar \nRat Spear | Seenk au pay ie pa {y?} \nFish    do  |Hoan hau Kau \nBeaver traps | jongau mauzer { marked out word} Jauh {marked out word} \nRat         do   |  chistin (chuh chistin)\nGun | Mauzar Caun \nRifle | Fin dau oa jou \nGun Locks | mauzer {unknown} noa {unknown} \nFlints | Naunhee\nComb | Ee pauk jau"
        },
        {
            "pageid": 114747,
            "pagefilename": "35a1dbda49054191522d20098dc0fa49.jpg",
            "pageorigfilename": "Ayer_MS_18_FL021_00011_o2.jpg",
            "transcription": "left side:\nkittle lin\ncopper do\npray (?) do\nsoap\nsugar\npepper\ntea \nsalt \nflour bread\nbiscuits \ndeer meats \npork\n(unknown)\ncandle\npan\npan tin\n(unknown)\nchairs\nraisins\nwatch\nright side:\ncha raw scan\ncha raw shaw\ncha ran zee (?)\nuee pan jar jaw\ncha ham pee\nsee cha gee gan \nwaughi paa pan jar tar\nmee nee scar yam\nan hoag (?) an pie men (unknown)\nan hoag (?) an pie (unknown)\njam (unknown)\nKoo Koache Shoe\nwave se naw jar (unknown) can\nPautau ee jan jean\nwawk shie chaw (?)\nMauzar wawk shic chan\ndec on paw\nchaun awkaan eeoa (unknown) pie\n(unknown line)\nWee youtar pie\n(unknown line)"
        }
    ]
}