{
    "id": "1340",
    "cataloglink": "https://mms.newberry.org/xml/xml_files/Dodge.xml",
    "pages": [
        {
            "pageid": 112842,
            "pagefilename": "d44d9518e48f625ec54dae4613ccf549.jpg",
            "pageorigfilename": "GR_1110-10_0001_o2.jpg",
            "transcription": "Cantonment\n1879\nDec 11 / 79 to\nMay 25 / 80"
        },
        {
            "pageid": 112843,
            "pagefilename": "960863cb2653f38d73a01c8bbf7cdc83.jpg",
            "pageorigfilename": "GR_1110-10_0004b_o2.jpg",
            "transcription": "we could get across the noll? without difficulty. The conductor tells me that there has been no connection for a month, so I paid our way to Kansas city, & we went to bed. \n\n  Friday December 12, 79. Was waked up at 5 am by the porter, we had been in Kansas City two or more hours. We got up & about 6 am had breakfast. About 7 we took the train for Leavenworth, where we arrived early & went to the Planters House. I went out & did a lot of"
        },
        {
            "pageid": 112844,
            "pagefilename": "aa1f8e5319c2d50df1a23176c6cabf2a.jpg",
            "pageorigfilename": "GR_1110-10_0004_o2.jpg",
            "transcription": "the Boy. He is so loving & affectionate - so much the tender boy with all his genius?, that I find my heart very full of him. It was a hard struggle to give him up, & my eyes filled with tears when he repeatedly turned back to dance along the track on which he was walking & yell & signal to us. Very soon we were hitched? out by our Engine & were speeding towards Leavenworth. The agent at the Depot assured us"
        },
        {
            "pageid": 112845,
            "pagefilename": "ca9f462a96556245c950713f24b06964.jpg",
            "pageorigfilename": "GR_1110-10_0005b_o2.jpg",
            "transcription": "Spent the day there &\nbought all I want for this\ntrip. Came back loaded\nwith bundles etc. . Spent\nthe evening? {receiving?} visits\nSunday Dec 14. 79.\nWent to Popes Sunday School\nmet all the Officers & had \n\"Chin\" ad lib. Very\npleasant morning. Julia \nwent to Church- Spent the\nevening visiting. Returned \nall my calls & had a nice \ntime. \nMonday Dec 15  79-\nJulia & I went down early \nto 11worth.- for I was to take\nthe cars & start for my"
        },
        {
            "pageid": 112846,
            "pagefilename": "7cc0de061c30b9bc538ddab20347c551.jpg",
            "pageorigfilename": "GR_1110-10_0005_o2.jpg",
            "transcription": "work. Julia remained in her room resting until after 12 oclk dinner when she went out shopping & to hunt up unclear. About 3 pm Lt Dodge came with an ambulance & carried us both off to Ft llworth to his house where we were made as happy & comfortable as possible. \n\n Had another driver & paid a lot of bills -\n\nSaturday Dec 13, 79.\nWent down town early first visiting Genl Pope"
        },
        {
            "pageid": 112847,
            "pagefilename": "543fbb801ecdef6469e0d5d62638d3dc.jpg",
            "pageorigfilename": "GR_1110-10_0006b_o2.jpg",
            "transcription": "could be & at 4.15\npm started for Kansas\nCity- where we arrived\nab 5.30. Stopped at the \nR.R. House. Had a \ngood supper. Excellent \nroom & every comfort.\n[uncleal) joined us at the \nLeavenworth City Depot\n\n We had a real old eve-\n\nring of comfort. Tooty\nscrubbed my head & we\nwere all day happy. \nI have never seen Julia\nmore happy & more loathe \nto give me up. She\nhas cordially a new care."
        },
        {
            "pageid": 112848,
            "pagefilename": "8e79b18c109ebab645fc6a902384b7ad.jpg",
            "pageorigfilename": "GR_1110-10_0006_o2.jpg",
            "transcription": "post. We arrived at Depot waited & waited. The train by which I expected to catch the A.T.&S.F. R.R was not even made up. So wofully annoyed we made some few purchases & returned to the Fort.\n\n We had made up our minds to go to Kansas City on the evening train. Stay there over night & start from there tomorrow.\n We had a pleasant day with the Dodges who have been as kind & hospitable as any people"
        },
        {
            "pageid": 112849,
            "pagefilename": "2b8646ee8f6c41404ca061c7018918a6.jpg",
            "pageorigfilename": "GR_1110-10_0007b_o2.jpg",
            "transcription": "Up early & to see Hardenbrook about conveyance. He had promised to take me through to Pond Creek with a relay at Caldwell in one day for $10. He sent the relay down to Caldwell but finding passengers there it came back same day.\n\n After considerable trouble the conveyance came - with 2 mules hitched in front - 2 horses tied to the back -\n The horses were to be my relay\n Got off at 9 am & got to Caldwell nicely by 1 pm. Got drivers & the \"rig\" came for me"
        },
        {
            "pageid": 112850,
            "pagefilename": "6d5c53941a757957045a8fe3cd1db240.jpg",
            "pageorigfilename": "GR_1110-10_0007_o2.jpg",
            "transcription": "Tuesday Dec 16. 79\n\n I got off at 10 am leaving Julia & unclear They will remain at the hotel & go to Rock Island tonight -- It was hard to part with the dear \"Old Lady\" but I am tough \n Long tedious ride. Dinner at Topeka supper at Florence Change cars at Newton & arrive at Wellington 12 at night. Went to see about conveyance tomorro but got little satisfaction \n To bed at 1 am --\n Wednesday Dec 17"
        },
        {
            "pageid": 112851,
            "pagefilename": "d9e1d9a5494e8644df3a420b6afdd621.jpg",
            "pageorigfilename": "GR_1110-10_0008b_o2.jpg",
            "transcription": "wanted to stop. I know all the tricks of alkali & assured him that his only chance of saving the horse was to keep him going\n\n However the fellow at last pulled up in spite of me & the horse almost immediately laid down\n We got him out of the harness. He got up staggered around a moment & fell dead. We made the other animal as pack horse piling all the things on him & trudged into Pond Creek where we arrived at"
        },
        {
            "pageid": 112852,
            "pagefilename": "c17c93a69a8469050ca47681b99d9c03.jpg",
            "pageorigfilename": "GR_1110-10_0008_o2.jpg",
            "transcription": "with the horses hitched in?\n\n It was very hard on them but \"twas none of my funeral\" & I said nothing\n At \"pole cat\" station about half way, one of the horses showed symptoms of illness \n Hard driving alkali \n water & a feed of corn.  \n However it was so slight that the driver after bleeding the horse he started again.\n We went on nicely for some time but the horse was evidently growing worse\n On & on we went. The driver was frightened &"
        },
        {
            "pageid": 112853,
            "pagefilename": "f1a1d9bc54d90a3ada77c74b12f5e386.jpg",
            "pageorigfilename": "GR_1110-10_0009b_o2.jpg",
            "transcription": "Friday 19th\n\n Hoped to have got some Turkeys last night but was too tired. It has been quite cold. Had to make something more of a march than I intended yesterday as we found the grass burned where I wanted to camp.\n Got off 830 am & arrived at post without accident at 1 pm.\n Found everything going on well. Joe much better in health -\n All serene - Am glad to get The Comfort of home"
        },
        {
            "pageid": 112854,
            "pagefilename": "94858e92ad8bb59822717f3b5817dc0d.jpg",
            "pageorigfilename": "GR_1110-10_0009_o2.jpg",
            "transcription": "7 O clk at night having walked 4 miles in the dark\n\n Found my party with ambulance etc. tent pitched, bed made & after a good supper I turned in & slept all the better for the mishaps of the day.\n Thursday 18 Dec\n Got off at 9 am.\n Paid my driver $12 for conveyance & $1 for himself. Wrote to Julia a short note - started off lighthearted with good teams - all night - Camped on Walnut Creek --"
        },
        {
            "pageid": 112855,
            "pagefilename": "28489260be9605e8257f24d5bbf602cf.jpg",
            "pageorigfilename": "GR_1110-10_0010b_o2.jpg",
            "transcription": "Jany 21st 1880\nClarke & I started on a trip to see if any game is left in the country. Left Post about 10 am with a nice escort & all comfortable. Turned our heads South West towards the Canadian a country we have not before hunted in /\n\n Travelled about 15 miles mostly across burnt ground seeing nothing to shoot as Went into camp about 4 pm on a pretty little tributary of Canadian - remained"
        },
        {
            "pageid": 112856,
            "pagefilename": "1e9170ed498cba0c24096f93ebc59335.jpg",
            "pageorigfilename": "GR_1110-10_0010_o2.jpg",
            "transcription": "Spent a month at home with varying comforts & pleasures\n The days go by so fast I can scarcely keep account of them.\n Have put up ice made every body comfortable  - renovated & refitted my own house\n built me a stable & now that the work is all done I take a play day for a week preparatory to real military work - which I commence 1st Feby."
        },
        {
            "pageid": 112857,
            "pagefilename": "0a4e1263ead50b280d1118c9a48e70ae.jpg",
            "pageorigfilename": "GR_1110-10_0011b_o2.jpg",
            "transcription": "me. So I gave my gun to Boon - Clarke is now out down the Creek & Boon up. They have been gone an hour & there has been no shot\n\n Routz on my striker left my cartridges so I sent an Indian back after them, & will wait tomorrow until they arrive\n I ought to get something tomorro morning - for there is plenty of sign of game."
        },
        {
            "pageid": 112858,
            "pagefilename": "1ebbd39d2b7dc73fdba5380a6c595a75.jpg",
            "pageorigfilename": "GR_1110-10_0011_o2.jpg",
            "transcription": "on the maps - Excellent water wood & grass - The sandy bed of the creek was marked in every direction with Turkey & our tracks - but though Clarke & I went through beautiful woods looking for a roost we found no sign of where any Turkey had roosted.\n\n Came back & sent Boone up the creek on same errand. He came back just at dark having found no sign of a roost - This discouraged"
        },
        {
            "pageid": 112859,
            "pagefilename": "ccb257f4df714313c678d4a4a196b14d.jpg",
            "pageorigfilename": "GR_1110-10_0012b_o2.jpg",
            "transcription": "gone down the creek & saw nothing. Told him about the roost & we planned a campaign. Nap in afternoon We started out after dark rode 4 miles to the roost & had the satisfaction of hearing a hundred turkeys go off the roost unclear on ever getting a shot --\n\n Have never seen birds so wild - My cartridge came all right - Shot a squirrels head off with rifle My bag 2 Turkeys 1 squirrel Total 3 Turkeys 1 squirrel"
        },
        {
            "pageid": 112860,
            "pagefilename": "6771bae650fefeb4b3706765815d8dd9.jpg",
            "pageorigfilename": "GR_1110-10_0012_o2.jpg",
            "transcription": "Jany 22d 1880\nClarke came in about 11 last night with a magnificent gobbler 20 lbs at least  Only one he got a shot at. Saw but 3 -- I started out about 8 this am - worked hard found a large roost & came upon a drove of some 50 turkeys - Got only 2. Though I am sure I mortally wounded several more. Got back to camp about 12 m - Clarke had"
        },
        {
            "pageid": 112861,
            "pagefilename": "8619ead948774ac47d88c44051c20c88.jpg",
            "pageorigfilename": "GR_1110-10_0013b_o2.jpg",
            "transcription": "Followed Jeb's trail for about 10 miles, where it turned upon the high dry divide. Left it & pulled off to the North East. Camped on a small branch near unclear. No sign of game of any kind. Fanny my Setter Bitch distinguished herself today finding several bunches of grouse prairie chickens They were however very wild & it was very difficult to get near them. I managed to bag 2 one at nearly 80 yards off with a No 2 wire cartridge"
        },
        {
            "pageid": 112862,
            "pagefilename": "b5d573832fb63adb4ce51e30635fa539.jpg",
            "pageorigfilename": "GR_1110-10_0013_o2.jpg",
            "transcription": "Jany 23d 80\nBroke camp at 8.30 \nTook Tebigess? trail hoping to come to some good hunting ground. Crossed Canadian near mouth of Creek, & on south side found another beautiful Creek - plenty of water & well timbered, but no game. Soon discovered the reason in an abandoned Indian Camp only ten days or 2 weeks old - The very same ruffians who spooked our hunters on the other side of the river"
        },
        {
            "pageid": 112863,
            "pagefilename": "c5903606ef020bacc230fce63e5871b9.jpg",
            "pageorigfilename": "GR_1110-10_0014b_o2.jpg",
            "transcription": "Jany 23rd 1880\nRainy during night & this a.m. Did'nt like looks of clouds & in spite of rain moved camp across Canadian\n\n The bed is almost dry now & it is easy to cross anywhere but a few inches of water changes it to one of the most difficult & dangerous of stream.\n Came north & camped on a lovely little stream far up in the hills - Clarke & I walked up to look for a Turkey roost - We found a splendid one but we found also the camp search a week old of that infernal batch of Indians"
        },
        {
            "pageid": 112864,
            "pagefilename": "c29e5f4435e44259424b1a3405ad4a23.jpg",
            "pageorigfilename": "GR_1110-10_0014_o2.jpg",
            "transcription": "Clarke was in specially bad luck & got nothing. The water we are on is very alkali & we have rather a poor camp -\nTomorro I shall pull across the river & try our luck on that side - There is nothing here. In fact the country is unclear of game by the Indians -- We have been today through perfectly lovely hunting grounds -- & found nothing \n\n Disposed to rain tonight.\n Beat Clark badly at Cribbage\n Total bag - 3 Turkeys 1 squirrel 2 grouse - Sent Turkeys to post."
        },
        {
            "pageid": 112865,
            "pagefilename": "7faea23063cb14b0cf16a9d77fdad67b.jpg",
            "pageorigfilename": "GR_1110-10_0015b_o2.jpg",
            "transcription": "Jany 25th 1880\nStarted about 9 am\nClark went off to the west to hunt the creek he failed to find last night - I had to remain with the wagons as we anticipated serious work getting through the Black Jacks Boon & I differed as to the best chance for getting through but though he had been well up on the north he proposed to take. I did'nt like it & took my own way -- Result a perfect success -- found a most excellent route & got through the Blackjack"
        },
        {
            "pageid": 112866,
            "pagefilename": "9da6fba7b4156fc5df58b6084289b4c6.jpg",
            "pageorigfilename": "GR_1110-10_0015_o2.jpg",
            "transcription": "whose traces we seem destined not to escape from - We have passed 3 of their camps & they have cleared the country of game\n\n They must have killed 50 deer in this camp judging from the hair. We got nothing of course. except 4 quail from a small covey that came into camp in evening. Clarke Boon & Monahan went out after dark to try to find a roost on a creek further west -- but came back empty \n Beat Clark again at cribbage - My bag today 3 quail Total bag - 3 Turkeys 1 squirrel 2 grouse 4 quail --"
        },
        {
            "pageid": 112867,
            "pagefilename": "71fec44090e22029984477c8d169ace1.jpg",
            "pageorigfilename": "GR_1110-10_0016b_o2.jpg",
            "transcription": "blessed in having it. I am now camped on the head of Deep Creek in country that Monahan said, two days ago -was utterly impossible for wagons. Yet I came in today without the use of axe or spade - & shall go out tomorro just as easily - I guess its knowledge - for luck would not always stick to me. \n\n My teamsters almost believe I am a wizard for as the proper moment when the route in front seems absolutely"
        },
        {
            "pageid": 112868,
            "pagefilename": "1db0f9fb4b89c7d5bf99ed575bc2aacf.jpg",
            "pageorigfilename": "GR_1110-10_0016_o2.jpg",
            "transcription": "without cutting a branch. I am certainly wonderfully successful in finding routes, & in taking wagons across country - It is of course experience & knowledge to some extent - but if I were asked why I took the route I did today I could only answer that I thought it would prove the best - I could give no reason beyond what might be a mere instinct. I believe the success comes from knowledge or mere luck - I am greatly"
        },
        {
            "pageid": 112869,
            "pagefilename": "d367d9f3ea8858866a7e722bdbf5566d.jpg",
            "pageorigfilename": "GR_1110-10_0017b_o2.jpg",
            "transcription": "Our cook this morning told me he was out of fresh meat - so I was hunting for dinner & breakfast tomorro - \n\n Clarke hunted all day but got nothing.\n Boon went out after deer but saw nothing but a Bear track. There is no game in the country \n Cold disagreeable south wind all day - It is getting monotonous\n My bag 1 grouse 5 quail \n Total - 3 Turkeys - 3 grouse - 9 quail - 1 squirrel 1 robin"
        },
        {
            "pageid": 112870,
            "pagefilename": "3b25f75f5d6bdf554d534b1cc7a9c37f.jpg",
            "pageorigfilename": "GR_1110-10_0017_o2.jpg",
            "transcription": "impracticable. I gallop ahead & in a few moments return to conduct the wagons through an easy gap, & all goes smooth again.\n\n The dogs found a fine covey of grouse, but they were wild as hawks. I got only one. Saw a good many deer tracks in the Black jacks, but all old -- After I got into Camp I walked down the creek for half a mile found a covey of quail & got (5) five. I also murdered a robin."
        },
        {
            "pageid": 112871,
            "pagefilename": "02455a69d7b661720d6f7171c8319930.jpg",
            "pageorigfilename": "GR_1110-10_0018b_o2.jpg",
            "transcription": "ought to be 5 miles below us but which was above. I recognized the situation at once. We had not camped on the head of Deep Creek but on a more easterly stream Crossed the river. Struck the road, & the trail of our wagons & arrived again at the river to find the 6 mule team stuck in quick sand. Worked at them a little while & got them out. Had a few good chances at grouse. Bagged one early in the day. a very long shot my bitch came to a dead point on"
        },
        {
            "pageid": 112872,
            "pagefilename": "f4cf28618a3dc428ba19473f8d8b1d31.jpg",
            "pageorigfilename": "GR_1110-10_0018_o2.jpg",
            "transcription": "Jany 26th 1880\nDirected my party to go from fish pond opposite the mouth of Deep Creek & go into camp - Clarke & I went off across country & crossed river about 2 miles above mouth of Creek & west downward. When we got to the place where we ought to have found our pond it was not there. Clarke insisted  that it was below, & I thought so also, but before deciding I mounted a Sand Hill & looked all about. At last I discovered what I believed to be Cottonwood grove - which"
        },
        {
            "pageid": 112873,
            "pagefilename": "21895cad28193ff2b9a3b373e250e8ed.jpg",
            "pageorigfilename": "GR_1110-10_0019b_o2.jpg",
            "transcription": "I am sure he could'nt have bagged three at his distance for they were further from him than the others were & he was on my right.\n\n I am very sure I bagged birds but I allowed him one by counting. After he got in camp tried fishing but got no bite -  A good many ducks came around but were very wild & we got no shot --\n played Crib at night. Clark beat me 3 games in 30 --\n My bag 5 grouse 1 quail I claim - Total bag 3 turkeys. 8 grouse  10 quail - 1 squirrel 1 robin"
        },
        {
            "pageid": 112874,
            "pagefilename": "04490b33e790fdced9b7e0337458e3d9.jpg",
            "pageorigfilename": "GR_1110-10_0019_o2.jpg",
            "transcription": "the trail above Deep creek\n\n I got down & walked towards her. At about 60 yds off two grouse got up & went off leisurely. I waited till they got together & brought them both down with a single shot. Soon after we found a covey of 5 birds which got up a long way off, but I took it coolly being loaded with wire cartridges.\n When the two left birds got together I fired & both fell.\n To my great surprise Clarke claimed three,"
        },
        {
            "pageid": 112875,
            "pagefilename": "1ce76935b2a8dc75d5b6d0ab8514be3a.jpg",
            "pageorigfilename": "GR_1110-10_0020b_o2.jpg",
            "transcription": "lying, when a turkey got up before her & then another. If I had been properly loaded & prepared I could have got both --\nD____ing ----\nFound ambulance, put dogs in - got in ourselves & reached post about 4 pm. Letter from Sis Anne Mother & Father safe in Rockingham.\nSplendid notices of Fred\nMy bag of trip - 2 Turkeys 8 grouse - 18 quail - 1 squirrel 1 robin - Clarke 1 Turkey 5 quail\nTotal 3 Turkeys - 8 grouse 23 quail 1 squirrel 1 robin"
        },
        {
            "pageid": 112876,
            "pagefilename": "66b0c623c668ca847744306f27ec2526.jpg",
            "pageorigfilename": "GR_1110-10_0020_o2.jpg",
            "transcription": "Jany 27 - Tuesday - 1880.\n\n Our luck has been so poor that I determined to go to the post today. unclear Boon to wait for me at my duck pond near Sheridans roost -- Clarke & I went through the Sand Hills\n Found 2 coveys of quail \n I bagged 9, & he 4. I am now satisfied that I can beat him shooting 2 to 1. Bitch came to a point, but the place was so unfavorable for quail that I rode up to her & accused her of"
        },
        {
            "pageid": 112877,
            "pagefilename": "d822fbbe0e40e654358d3d59f2c281c6.jpg",
            "pageorigfilename": "GR_1110-10_0021b_o2.jpg",
            "transcription": "Thursday Feby 19, 1880\nVery cold last night. The pond froze & the ducks that were in had to seek other quarters. Randal & I got on our horses about 7 am & took to the sand hills - \n\n Nothing rewarded our labors until we got near my favorite fish pond where we discovered a small flock of Turkeys - \n I put after them as fast as old Baxter could go through the sand. Soon one got up before me & I bagged him neatly. After some hunting I flushed another & broke"
        },
        {
            "pageid": 112878,
            "pagefilename": "7d135825e7234786346e1eb1df67d9a5.jpg",
            "pageorigfilename": "GR_1110-10_0021_o2.jpg",
            "transcription": "Feby 18th 1880 --\nThis time I took Randall with me - Got off about 9 am - Kept to ambulance until near Sheridan Roost then took to our horses.  At a favorite duck pond 4 Mallards got up They were so far that I had no hope but I let fly - to my delight one fell - so I let off the other barrel & got another - It was too far for Jake & his gun.\n\n Bagged 2 birds of a kind new to me - a species of Jay I think\n Camped at Cottonwood grove plenty of water & good camp \n Bag - 2 Mallards -"
        },
        {
            "pageid": 112879,
            "pagefilename": "5da89b9a003a617e8b3b26f53681a1c3.jpg",
            "pageorigfilename": "GR_1110-10_0022b_o2.jpg",
            "transcription": "swim to perfection. I laughed till my ribs were sore at Jake He is not much of a shot & requires deliberation. A duck would pop up. Jake take deliberate aim & by the time his shot got to the duck he was safe under water again.\n\n He must have fired a dozen times before he succeeded in killing unclear. Just before we got to camp we came on a splendid drove of Turkeys at least fifty - They were not very wild & would not fly but they managed themselves so well that I could not get a shot -- I might have"
        },
        {
            "pageid": 112880,
            "pagefilename": "40ee0bf3a1f176f692ecd694f541ecf1.jpg",
            "pageorigfilename": "GR_1110-10_0022_o2.jpg",
            "transcription": "his wing. My orderly Carter & I had a lively chase & I had to shoot him again\n\n Randall got a couple of good shots, but his horse unclear him. We then went to my pond a fine flock of ducks got up at long range & I got 2 right & left - One long tail & one unclear\n Found several nice ponds but it is rather too early for the ducks - One had a fine flock of shell drakes. I knocked down two & set Randall to killing them. They were wounded so they could not fly but they could dive &"
        },
        {
            "pageid": 112881,
            "pagefilename": "a86923e1b9f56460e5be49cf72ba26d3.jpg",
            "pageorigfilename": "GR_1110-10_0023b_o2.jpg",
            "transcription": "Friday Feby 20\nBad Medicine today -\n\n None of the hunters found a roost last night, so nothing added to the bag.\nThe morning was wretched rain & very windy. Hunters everywhere but could not find Evers old trail\n Had to strike out on my own hook. Struck head of main branch of Evers Creek, crossed its dry bed & there took the divide between that & a Creek to the west hoping to get down between them"
        },
        {
            "pageid": 112882,
            "pagefilename": "42e4eec456ced3f45810030f60209ce9.jpg",
            "pageorigfilename": "GR_1110-10_0023_o2.jpg",
            "transcription": "done so by dashing up on old Burke but the chance of bagging was so small that I preferred parting for tonight. \n\n Camped at Osage Springs.\n Excellent camping place. Sent Boon out to hunt a coot, but he came back at dark without having found one.\n Today has been very delightful bracing, almost cold, & tho we did'nt kill much we had fine fun -\n\nBag today -\n\n 2 turkeys - 1 Long tail duck 1 med grouse 2 shell drake\n I shot unremarkably well & my gun outdid itself."
        },
        {
            "pageid": 112883,
            "pagefilename": "ed2100967bacf74cce53796310ef890d.jpg",
            "pageorigfilename": "GR_1110-10_0024b_o2.jpg",
            "transcription": "with difficulty from which we would have to extricate ourselves tomorrow -\n\n Camped on main branch of Evers Creek - just where the water begins. All this Country is Gypsum formation & the water horrible - we brought own from Osage Sp. Plenty of deer, but though I walked myself almost to death, I saw nothing but tracks. Bears & panthers also plenty. No sign of Turkey. I find no shot today. Several shots were had at deer by the men\n Not a thing bagged"
        },
        {
            "pageid": 112884,
            "pagefilename": "7467737849cff470dccd536d7d55681c.jpg",
            "pageorigfilename": "GR_1110-10_0024_o2.jpg",
            "transcription": "The divide is high & the branches on each side interlace, in Canon fifty to 100 feet deep & perpendicular We got through the rather bad places by the skin of our teeth, but quickly came to one, where the Cañons overlapped & ran together so as to make one canon 100 feet deep - so we had to turn back. To our right as we came I had noticed an apparently good lateral divide - Went back to it - & got along very well knowing of course that we were getting"
        },
        {
            "pageid": 112885,
            "pagefilename": "17f815da9bec930455f1f4a67e5eaa54.jpg",
            "pageorigfilename": "GR_1110-10_0025b_o2.jpg",
            "transcription": "of fresh tracks of deer but the animals themselves kept well away -- After a while the Canon became so bad, that I feared my Indian might get the wagons into serious difficulty -- So I went to them just in time - got them over a terribly bad place.\n\n Its an awfully broken country. Almost as bad as the Black Hills & more because it fools you at the time - To stand on a high divide & look even an experienced"
        },
        {
            "pageid": 112886,
            "pagefilename": "a418dcc55c8a1a3ace15a4cd41f365d0.jpg",
            "pageorigfilename": "GR_1110-10_0025_o2.jpg",
            "transcription": "Saturday Feby 21, 80\nOne of my Indian Scouts - Buffalo - joined us last night - to my delight for I am tired of playing guide when I want to hunt.\n\n This morning I started him out with the wagons while I went down the creek hunting. The gorge was so narrow & the thicket so dense that we had great difficulty in getting through, & made so much noise that all the game was scared off before we could see it -- I saw plenty"
        },
        {
            "pageid": 112887,
            "pagefilename": "cf618ebe6b073b372f9c8faddc8237c8.jpg",
            "pageorigfilename": "GR_1110-10_0026b_o2.jpg",
            "transcription": "a straight line - but we have travelled more than 15 \n\n It took us 6 mortal hours & only about 20 minutes of that in work --\n I got after a swale covey of quail, which were in a canon 100 feet deep, & not so wide.\n I killed 3 birds in 3 shots but could not find one. \n I was well satisfied to get 2 for I had no dog & even had he been along he could have done nothing. I got in with difficulty & had to chop? a tree to get out. Buffalo & Boon each got a Jack Rabbit"
        },
        {
            "pageid": 112888,
            "pagefilename": "c276a10b2a96f568de38af8d8ed3b588.jpg",
            "pageorigfilename": "GR_1110-10_0026_o2.jpg",
            "transcription": "plainsman would say \"I can go so & so\" but when he tries it he cant Like all other countries it is cut & scored in every direction by water ways --\n\n These being flush with the general level do not show but when you get to them they are nasty ditches 50 to 200 feet wide & as many deep - with banks straight up & down May of them cannot be crossed even on horseback & wagons have to head them. We have we have made today not over 8 miles in"
        },
        {
            "pageid": 112889,
            "pagefilename": "8ad2ae43d85359e95d03707ce30cca53.jpg",
            "pageorigfilename": "GR_1110-10_0027b_o2.jpg",
            "transcription": "Sunday Feby 22, 80 --\nHad the only good shot at a deer that I had had since the Winter Campaign of 1876. I plastered him all over with Buck shot, so that it only ran a few hundred yards & laid down --\n\n This it kept doing, my luck being always to be a long way off when it got up & none of the others could hit it \n Followed it over two miles through the sand hills by tracks & blood"
        },
        {
            "pageid": 112890,
            "pagefilename": "ba31ddcdf1ce858479c8c84ece5cd16a.jpg",
            "pageorigfilename": "GR_1110-10_0027_o2.jpg",
            "transcription": "Near the mouth of Evers Creek came to a cattle Ranch.\n\n They say that hundreds of hunters have been in the Country & almost all the game is killed or run out -- Buffalo brought in across the Cimarron to a Turkey roost he knew of but on examination we find that the Turkeys have all been run off.\n So no game today --\n A splendid day & I have enjoyed every moment \n Camped North of Cimarron"
        },
        {
            "pageid": 112891,
            "pagefilename": "a9ab64df426df79b858bb7145b65bc11.jpg",
            "pageorigfilename": "GR_1110-10_0028b_o2.jpg",
            "transcription": "Monday Feby 23, 1880\nAnother lovely day.\nGot a long shot about 100 yds - at ducks & killed 3 -- Wire cartridges\n\n Got safely across the Cimarron - I always have a certain uneasy feeling when I am on that moving side of that abominable bed of sand & a comparably? feeling of relief when on the right side \n Found two small coveys of grouse of which I bagged"
        },
        {
            "pageid": 112892,
            "pagefilename": "a081192516ca2e220d4c8dda40a79d68.jpg",
            "pageorigfilename": "GR_1110-10_0028_o2.jpg",
            "transcription": "find at it five times hit it every time & yet it got away. It was covered with blood & in undoubtedly dead now but I did nt bag it\n\n Killed one rabbitt one grouse & 2 ducks \n Had a long hard journey 25 miles of sand --\n Camped on Eagle Chief Buffalo says he will show me some Turkeys tomorro --\n Tried fishing but got no fish -- Lovely Day but a bit too warm"
        },
        {
            "pageid": 112893,
            "pagefilename": "22b06c707f3bddf72529ddda77efe9f9.jpg",
            "pageorigfilename": "GR_1110-10_0029b_o2.jpg",
            "transcription": "regular roost, & that if Buffalo found them here very plenty it was because they had been driven from better roosts -\n\n The timber is too small - & much scattered & the ravines in which they are, are almost unpassable in daylight \n I took a turn of about a mile satisfied myself that I had no use for any such hunting -- Shot at & wounded a solitary old gobbler - which however got away"
        },
        {
            "pageid": 112894,
            "pagefilename": "9d2f4dc9b1f51b3215e440bc95af95e3.jpg",
            "pageorigfilename": "GR_1110-10_0029_o2.jpg",
            "transcription": "4. Randall 1 - Buffalo got a Jack Rabbitt almost as big as a calf -- I think the largest I ever saw --\n\n Went into camp on the edge of the Black Jacks about 2 pm Buffalo found & fired at a flock of Turkeys.\n I ordered all shooting stopped til night\n I went out on foot to examine this great coast. & very soon satisfied myself that it is not a"
        },
        {
            "pageid": 112895,
            "pagefilename": "ea5f853ab66d6e30d7094c93baeeac4b.jpg",
            "pageorigfilename": "GR_1110-10_0030b_o2.jpg",
            "transcription": "Tuesday Feby 24 _ 80 _\nNothing. got in about 10 am __\nDear Father died __"
        },
        {
            "pageid": 112896,
            "pagefilename": "98056dccdf389382c26fca5f204e385e.jpg",
            "pageorigfilename": "GR_1110-10_0030_o2.jpg",
            "transcription": "& came back to camp disgusted.\n\n Let all the would be hunters go out at night lending one my gun All came back in an hour or two played out & disgusted -- Turkeys are here but so well protected by the nature of the ground, that even Buffalo came back without one --\n We are within 10 or 12 miles of the post \n We try one grand effort tomorro ---"
        },
        {
            "pageid": 112897,
            "pagefilename": "7ae01367a49bf67c30cad88c4d3448d8.jpg",
            "pageorigfilename": "GR_1110-10_0031b_o2.jpg",
            "transcription": "Thursday Mch 25, 80\nMy diary has lost its interest in a great measure since dear Father's death - since much that I wrote about - particularly hunting & fishing was for his enjoyment.\n\n Last mail I received a letter from Ford telling me that he & his Mother would be in Leavenworth on 1st April -- I telegraphed words smudged Pope for leave \n got 20 days & started"
        },
        {
            "pageid": 112898,
            "pagefilename": "fce01f98d3395b036869002e9d08731d.jpg",
            "pageorigfilename": "GR_1110-10_0031_o2.jpg",
            "transcription": "Blank Page"
        },
        {
            "pageid": 112899,
            "pagefilename": "a5696d58a5275248b4367115a13ae53e.jpg",
            "pageorigfilename": "GR_1110-10_0032b_o2.jpg",
            "transcription": "Friday Mch 26\nUp about 4 am Roused Randall. Had breakfast by candle light. Randall & I parted at sun rise \n\n Road pretty good. Boon an excellent driver.\n Thousands of brown places on the prairie & saw Curlew. Bagged 1 chicken & 8 plover - Arrived at Pond Ck 2.50 pm\n\n42 miles in 8 hours 20 m\nEscort wagons got in about 5 pm. Hail & rain storm - tired went to bed early -"
        },
        {
            "pageid": 112900,
            "pagefilename": "2f9ec1ac4a9c9cd0b699b72001a5d5bf.jpg",
            "pageorigfilename": "GR_1110-10_0032_o2.jpg",
            "transcription": "this morning after getting everything at the post in excellent order --\n\n At Walnut Ck found Randall in camp & camped with him tho I wanted to go further\n He is on his way to take Comd of Ft Reno _ His compy has been detached from my port entirely\n He gives me good hope of my getting an expedition this summer.\n We gassed till 10 pm then went to bed.\n Got 1 duck redhead\n 24 miles"
        },
        {
            "pageid": 112901,
            "pagefilename": "2598addf1fdccf0eb3953115c46741b4.jpg",
            "pageorigfilename": "GR_1110-10_0033b_o2.jpg",
            "transcription": "of one side of my tent. Ten feet more to the west would have saved any more writing in this diary & given promotion to somebody --\n\n I did not even hear it fall \n the general commotion outside & inside preventing my noticing any special sound --\n Very cold & blustery this am\n Got off at 8 am -- & arrived at Pardus camp at 1 pm.\n tired cold & disgusted --\n Found all right in camp.\n The men have settled down after their grand spree with 4 mos pay to spend & all seems to be in good shape"
        },
        {
            "pageid": 112902,
            "pagefilename": "309fe936791b4e3735710ebbb2a6345b.jpg",
            "pageorigfilename": "GR_1110-10_0033_o2.jpg",
            "transcription": "Saturday Mch 27, 1880\nA furious wind storm all night with occasional rain.\n\n Soon after I got to bed I had to call the sentinel & have my tent secured. He told me that a tree had just been blown down across one of the tents of the men. He had heard it cracking & got them out in time.\n I dont think I was ever in a more furious wind storm but I finally went to bed & to sleep\n This morning when I came out I was not a little surprised to find a large branch of a tree lying on the tent cords"
        },
        {
            "pageid": 112903,
            "pagefilename": "059e2425e61b412e93e2ce82049fbf5b.jpg",
            "pageorigfilename": "GR_1110-10_0034b_o2.jpg",
            "transcription": "Sunday 28, Mch -\nLeft my baggage wagon at Paeden Camp, & with Boon & ambulance went for Wellington, making the distance 24 miles in 3 hours 10 minutes\n\n Soon found Heinicke & got every thing ready for taking back - {seeds I mean).\n Stopped at _________ Hotel - All the hotel poor - Spent the evening with Heineki & wife.\n Monday 29 Mch\n Took train 3.40 am - & arrived at Kansas City without delay or accident 6 in afternoon\n Found the Company at the"
        },
        {
            "pageid": 112904,
            "pagefilename": "43a356f9f8abdc412961132679012159.jpg",
            "pageorigfilename": "GR_1110-10_0034_o2.jpg",
            "transcription": "After dinner I went up to Caldwell to see if I could find some onion sets etc.\nNothing to be had - spent a quiet evening with the boys - \nThe prairie today was covered as I never before saw it with wild fowl. Thousands of brown plover. Some few field plover. Curlew, Kindur? ducks, prairie chickens --\n\n Had it been a decent day I could have bagged a load but twas so cold & windy that I did not hunt - shot two or three times at antelope at long distances & running"
        },
        {
            "pageid": 112905,
            "pagefilename": "b9f9668e0efaf771237d423998cf3637.jpg",
            "pageorigfilename": "GR_1110-10_0035b_o2.jpg",
            "transcription": "Tuesday 30th March.\nSpent the day pleasantly with Fred loafing about shopping etc\n\n At night he played Shylock. It was only his second appearance in the part but his acting was most marvelous.\n Wednesday 31st March\n All went up to Leavenworth Fred & I went out to post & installed ourselves with the Dodge's both of whom were delighted to see us.  Went to see the General & had a good time with my friends.\n Lady of Lyons at night\n A large party at the post"
        },
        {
            "pageid": 112906,
            "pagefilename": "1015b8148acab651e99ee533581bb7e2.jpg",
            "pageorigfilename": "GR_1110-10_0035_o2.jpg",
            "transcription": "Clk's House but to my great disgust the Clerk told me as I registered that \"Mrs Dodge is not with them\" --\n\n Went up to Fred's room found him with a bad cold, but otherwise well - sitting in a cold room writing (found out afterwards that he is essaying a novel) He was delighted to see me - for he was by no means sure I could come to visit them\n Julia was left behind sick having been over come with heat in New Orleans --\n He played Hamlet delightfully in the evening. He has very greatly improved"
        },
        {
            "pageid": 112907,
            "pagefilename": "f2c9568a4f4493a47dee65d4d97e86a2.jpg",
            "pageorigfilename": "GR_1110-10_0036b_o2.jpg",
            "transcription": "before Julia arrived -- She had been sick with rush of blood to the head in New Orleans & went to Macon Georgia to recuperate - While there an old sweetheart Monroe Ogden found her out & made her time very agreeable. He is married & living there. \n\n She had a series of adventures & wound up by losing her most valuable trunk -- She is very well now & happy to get back to cool weather - A delightful evening - visitors keeping aloof Left Minty? in town with her mother"
        },
        {
            "pageid": 112908,
            "pagefilename": "9bcb5b5742988e55b991d3398bb2741f.jpg",
            "pageorigfilename": "GR_1110-10_0036_o2.jpg",
            "transcription": "but nearly all our friends went to City & saw Fred play before going to it. Fred & Mrs Dodge went & had a good time \n\n I went to bed.\n\nThursday April 1 -\n\n Telegram from Julia yesterday. She will be here tomorro. Had a good time all around. visited city & did some shopping. Shylock at night\n Friday April 2\n\nAll the post wild over Fred's Shylock. The Company went to Topeka this am - I remain behind. Fred had not been gone an hour"
        },
        {
            "pageid": 112909,
            "pagefilename": "1316b8f339cef87169c1a12c19bae4a6.jpg",
            "pageorigfilename": "GR_1110-10_0037b_o2.jpg",
            "transcription": "Monday April 5\nLeft at 10.45 am - all hands of us & \"unclear the show\" again.\nWent to Atchison. Miserable hotel poor house at night \nLady of Lyons -\n\n Tuesday April 6\n\nWent to Lincoln. Good hotel \nLined out: Took Julia out riding in a buggy. Beautiful country\n\n Hamlet at night to a poor house.\n Wednesday April 7\n Took Julia out buggy riding - Beautiful country & lovely day - Enjoyed ourselves\n Fools Revenge to a not very good house - Telegraphed"
        },
        {
            "pageid": 112910,
            "pagefilename": "25a1fcce27ae59c6ef42144a258b1c49.jpg",
            "pageorigfilename": "GR_1110-10_0037_o2.jpg",
            "transcription": "Saturday April 3d -\nWent down town with Julia on a trunk hunting expedition. Drew my pay for March & made many purchases - We got back just before dinner.\n\n Lots of visitors in evening --\n Sunday April 4th\n\nJulia & Mrs D. went to Church & I went to Popes Sunday School where I met nearly all the higher Offs of the post. Fred arrived about noon. All of us went to Mrs Dunnes? to Tea & had a delightful evening - Fred had poor houses in Topeka."
        },
        {
            "pageid": 112911,
            "pagefilename": "7db610058c53560cd77d7b62c168c2db.jpg",
            "pageorigfilename": "GR_1110-10_0038b_o2.jpg",
            "transcription": "accommodations abominable - All of us glad to get to Des Moines at 1 pm. Got dinner at once - Went to Kirkwood House, a very fair hotel - played Romeo to Miss Eldriges Juliet. I forgot to say in the proper place that Miss Gussie DeForest has left the Compy & Miss Eldridge taken her place. The latter joined us at Atchison. She is very pretty but too large for Fred & not to my thinking as good an actress as Gussie - Fred's Romeo is  beautiful."
        },
        {
            "pageid": 112912,
            "pagefilename": "0e008291b97ccf6241f77edf6df7b915.jpg",
            "pageorigfilename": "GR_1110-10_0038_o2.jpg",
            "transcription": "Lined out: Thursd to Genl Pope asking him to extend my leave five days --\nThursday April 8\nReached Omaha 6 pm. Found telegram extending my leave -\n\n Several friends called. Mrs Crook among them. Shylock at night to a good House.\n\nFriday April 9th\nHad to start at 5 am. Hard work getting up but Julia has gotten so she can \"make an effort\" when necessary.\n\nNo breakfast - Miserable abortion of an eatery house at Spoon Lake - & all"
        },
        {
            "pageid": 112913,
            "pagefilename": "654d43c4a023f35517b92fbb4016f810.jpg",
            "pageorigfilename": "GR_1110-10_0039b_o2.jpg",
            "transcription": "Sunday April 11\nLovely day. Took a long walk. Julia went to Church\n\n Fred played at night to a good house -\n\nMonday Apl 12\nWent to Rock Island. Fred well received. Shylock.\nApril 13\nCompy went on. Julia & I remained. Intended to go to unclear but was so windy that we staid at home. I left her in the afternoon for Kansas City\nApl 14\nArrived Kansas City - late"
        },
        {
            "pageid": 112914,
            "pagefilename": "2e2671888a5fcf5481f33cf405aa0b37.jpg",
            "pageorigfilename": "GR_1110-10_0039_o2.jpg",
            "transcription": "Saturday April 10th\nBlustery day - Matinee. Claude Melnotte - Evening, Shylock to good houses. Fred is well received in Des Moines, & is urged to play in Hamlet tomorro night. He played two Sundays in New Orleans but this is the first northern city where he has been asked to play on that day. Being a good Catholic he has no scruples about it & Hd man Loveday announced the performance for tomorro between the acts tonight - Supper at night with Julia & Fred at a nice Restaurant"
        },
        {
            "pageid": 112915,
            "pagefilename": "fc8773ce8e65fd4f069ccc176208bbb8.jpg",
            "pageorigfilename": "GR_1110-10_0040b_o2.jpg",
            "transcription": "Big Creek\nMay 7th 1880\nWhen I was in 11worth Genl Pope told me that there was a possibility of my taking the field against the Utes in Comd of 15 Cos --\n\n The possibility was so remote that I scarcely allowed my self to hope --\n Today it is a fixed fact & I am in Comd of 3 Cos of my Regt. en route for Fort Garland - \n Ten days ago I got a letter from Dep Hodges repeating the possibility -\n Then we heard that 2"
        },
        {
            "pageid": 112916,
            "pagefilename": "7a597ab977328b9038ef6f03264fbf32.jpg",
            "pageorigfilename": "GR_1110-10_0040_o2.jpg",
            "transcription": "Ran into a car on side track. woke every body up but me. Delayed us 2 hours. The A.T. & S. F Train had waited for us. So nothing was lost.  Arrived Wellington midnight\nApl 15. Ambulance & escort waiting. Started 8.30 Arrived Pardes? Camp 12.30 - lunched got my own team - & arrived Pond Ck in good time - 16th camped on Walnut - 17th got home - & thus ended a glorious trip without a flaw on accident --"
        },
        {
            "pageid": 112917,
            "pagefilename": "f83bd279c0b9a05d6ca4596cf6da6f92.jpg",
            "pageorigfilename": "GR_1110-10_0041b_o2.jpg",
            "transcription": "the mail arrived but no order came - Telegraphed at once to the General & asked orders by telegraph & to delay march until after my Comd was paid - On Wednesday 6 - after a day of anxious suspense - got an order to march as soon as paymaster had paid the Comd \n\n On Thursday 10 am the paymaster arrived.  The Comd was paid same afternoon Orders were given for a start today 7th at 8 am \n Visited paymaster & called on the ladies at night"
        },
        {
            "pageid": 112918,
            "pagefilename": "e79238de2ca1d2ef7eb71b531cbc1a3f.jpg",
            "pageorigfilename": "GR_1110-10_0041_o2.jpg",
            "transcription": "Cos at Supply had been ordered to hold themselves in readiness to march - A week ago they got orders & started last Monday --\n\n On Saturday I knew that orders for my move had been issued but had not received them\n Expecting them to arrive by Tuesdays mail I got ready designated the Companies expecting to start on 8th - \n On Tuesday morning I recd a telegram directing me to march my command as soon as I recd orders by mail - Two hours after"
        },
        {
            "pageid": 112919,
            "pagefilename": "6adb011e4b13d6c28ab8fe3433fac70c.jpg",
            "pageorigfilename": "GR_1110-10_0042b_o2.jpg",
            "transcription": "Walnut Ck May 8\nGeneral? at 6. assembly & broke camp 6,30.\n\n Pleasant march though twas very hot after 12 m\n Long shot at an antelope & didn't get him. Bagged 3 ducks - men killed several rattlesnakes - saw a large mtn cat but no shot - \n Camped where road leaves Walnut - good place\n Wood water & grass -\n Henry Kuling overtook us\n en route to Caldwell\n Replenished my ice -\n Distance 16 miles"
        },
        {
            "pageid": 112920,
            "pagefilename": "7b8ada89853ac61d854275ff437f0dbd.jpg",
            "pageorigfilename": "GR_1110-10_0042_o2.jpg",
            "transcription": "Was invited to breakfast by Mrs Wheaton. At 8 am the Comd was formed & marched out of the post not a man being drunk or absent a most remarkable unheard of thing only having been paid yesterday.\n\n Cool - excellent day for marching. I got breakfast bade all good by - paid all my bills - & started about 10 o clk - overtaking the Comd after a brisk gallop about 2 miles from my camping place -- Only 12 miles today - No water good wood & grass -"
        },
        {
            "pageid": 112921,
            "pagefilename": "a4900b4c6dd0c0466ef85735f6564ade.jpg",
            "pageorigfilename": "GR_1110-10_0043b_o2.jpg",
            "transcription": "Pond Ck - May 10th 80\nCold & very windy morning - started 5.20 am as we had a 20 mile march without water \n\n I went ahead in ambulance to look for camping place. No water in Pond Ck - except a few small springs trickling from bank -\n Wrote postals to Julia & to Mother\n Comd came in making distance of 21 miles in 7 hours at an hour ahead of what I expected -- All well & in good condition\n Country all burned up from lack of rain. Nice camp except its want of water. The creek now dry is sometimes half a mile wide - Fred opens tonight at Chicago."
        },
        {
            "pageid": 112922,
            "pagefilename": "e100ec099fdafbb1ded8b1c24549e744.jpg",
            "pageorigfilename": "GR_1110-10_0043_o2.jpg",
            "transcription": "Panther Ck May 9\nOff at 6.30. Men marched splendidly.\nVery hot day - but cool wind. Inside my tent is now 9 pm stifling - outside it is delightful -\n\n Boon made some excelent long shots at antelope but did not get one - \n A mule escaped yesterday afternoon & has evidently started for Missouri  We heard of it tonight beyond Pond Ck & going on the road. Road lovely \n Fair camp - Distance 20 miles --"
        },
        {
            "pageid": 112923,
            "pagefilename": "5d7d354e3a0219693824252a1496ff54.jpg",
            "pageorigfilename": "GR_1110-10_0044b_o2.jpg",
            "transcription": "Tebyn? go with him Old Tom's head utterly gone - cant put a Comd in camp -- Very nice camp ground. My spot in a grove of large trees -- \n\n Terrible storm came up at night fall & still continues - Rain wind & ?sharp? lightning\n I don't know that a lovely grove is the best place after my Pond Creek experience six weeks ago -- Mail at night -- nothing important\n Distance 24 miles"
        },
        {
            "pageid": 112924,
            "pagefilename": "e965294bc1333347e9b74d59fe411f05.jpg",
            "pageorigfilename": "GR_1110-10_0044_o2.jpg",
            "transcription": "Bluff C. Near Caldwell\nMay 11, 1880\nBroke camp 5.15.\nWent ahead in ambulance \nReached Caldwell or rather Bluff Ck a little after 9. & had a rousing breakfast, or lunch I suppose I ought to call it\nWent to Caldwell after  -\nAlso to camp of I Co.\nVery hot day. Commd did not get in until near 3 pm & then very much played out.\nSent Claggete? on to Wellington - & let"
        },
        {
            "pageid": 112925,
            "pagefilename": "c15ff96f3285c9d843e3f70a2ab9ae6a.jpg",
            "pageorigfilename": "GR_1110-10_0045b_o2.jpg",
            "transcription": "On Cars May 13th --\nReceived last evening by hands of Dr Comfort, telegram from Dept Hdqrs prohibiting my taking any transpn except 6 mule teams & wagons. - Am disgusted - Sent Claggettt into town with telegram\n\nBroke Camp 5.30. went with Wellington ahead of Comd \n Found a lot of my men who had sneaked into town last night\n Train all waiting for us\n When Comd arrived about 7 am went up with it - put sentinals & N.C. Offs on watch to keep the men from slipping away & went to work - Goods in stores - took wagons to pieces?"
        },
        {
            "pageid": 112926,
            "pagefilename": "33c515161d506ed5bd49a4141faec6b9.jpg",
            "pageorigfilename": "GR_1110-10_0045_o2.jpg",
            "transcription": "Shoo Fly May 12 -\nStarted early. 5.15. another hard march - A dozen drunkards last night & lots of stragglers or those who would like to straggle -- got five out of jail - Got through town without delay.\n\n Left Lockwood to bring up all stragglers.\n Camped on head ponds of Shoo Fly. Water poor & no wood - but we brought both with us. Animals drank the creek water eagerly -\n Distance 22 miles\n Dr Comport passed us north to Ft Reno --"
        },
        {
            "pageid": 112927,
            "pagefilename": "6e81638d05ff9c41f4c994e2a5bf2c1f.jpg",
            "pageorigfilename": "GR_1110-10_0046b_o2.jpg",
            "transcription": "Telegram from Dep Hdqrs refusing to let me take my horses but saying there is plenty of transpn at Ft Garland\n\n Swapped Boon for one of his 6 mule drivers to his great delight & take him along I had to send his ambulance back -\n On Cars May 14 1880\n\nSlept pretty well woke up about Pawnee Rock. Got no breakfast until we arrived at Dodge City 12 m. Stopped here 3 hours & had mules taken out of Cars fed & watered\n\nSaw Bob Wingert & many other old acquaintances"
        },
        {
            "pageid": 112928,
            "pagefilename": "19827e8ed5ad4d64a3987546dbe77838.jpg",
            "pageorigfilename": "GR_1110-10_0046_o2.jpg",
            "transcription": "loaded those - then got shoes off my mules - loaded them & finally got all the men on board by 3.30 pm . About 4 we got off - Supper for ourselves & coffee for men at Newton - Mrs Hay left for west & old Julian for east - We are all very comfortable - 3 of Smiths men got away in Wellington & were left. I am not sorry for they were miserable drunken wretches - S's Comp is in a horrible state of discipline - owing to his own bad habits - I had to sit on him very heavily."
        },
        {
            "pageid": 112929,
            "pagefilename": "3f0c4ec83b9f66726bdefe579aa7f62d.jpg",
            "pageorigfilename": "GR_1110-10_0047b_o2.jpg",
            "transcription": "Pueblo - May 15th 80\n\nWoke up at daylight after a sleep of 9 solid hours to find that we had made only about 75 miles since I went to bed. Took a lunch breakfast arrived at La Junta 10 am & took another. Country all a parched desert. Improved on our time & finally arrived at Pueblo 3 pm. Found telegrams of no importance Pope passed up yesterday to Garland & is expected to go back tomorrow -\n Got our Compy property transferred to Narrow Guage very soon"
        },
        {
            "pageid": 112930,
            "pagefilename": "cacc89b7d2ac7cc1f8b639084f67699b.jpg",
            "pageorigfilename": "GR_1110-10_0047_o2.jpg",
            "transcription": "The country is absolutely burned up - no rain for a long time & not a green thing to be seen - Maj Affling & wife came to Depot by accident - He is ordered to join me & is all packed & ready  I told him I was going to wait 3 hours & he went off for the Fort at a great rate to get his baggage and join us - As he did not return, I suppose his wife persuaded him to take regular train - Replenished my stock of canned stuff & had a good lunch about six & went to bed at 8 pm - just about Lakin on RR  - Rain storm in evening"
        },
        {
            "pageid": 112931,
            "pagefilename": "f1006690501efdcb06d6ab48fab12b93.jpg",
            "pageorigfilename": "GR_1110-10_0048b_o2.jpg",
            "transcription": "Ft Garland May 16, 80\nNo man who has not tried it can realize the difficulty of getting a good nights rest, on a car of narrow guage -\n\n I woke up at La Veta, & after a long delay went up the mountain. It is simply impossible to do justice to the scenery & the experiencing? It is the most remarkable work I ever saw. Just over the summit we meet the train going East. On it were Genl Pope & Mackenzie. Had a few moments conversation with Pope who went East"
        },
        {
            "pageid": 112932,
            "pagefilename": "429a7ae6dba9132ab4bdd432bec6813d.jpg",
            "pageorigfilename": "GR_1110-10_0048_o2.jpg",
            "transcription": "but there was no end of trouble to get cars for men & animals Govt Agent - Rankin - Head RR man very obliging but not extremely? efficient - However he finally got the cars - got supper in town.\nTransferred the men about 8.30 pm. & went to bed having been pumped dry by an Interviewer Got coffee for men & had animals taken off car for food & water Have had a tedious but very pleasant trip"
        },
        {
            "pageid": 112933,
            "pagefilename": "b8a1573006f3edeb803a58ade4682b2c.jpg",
            "pageorigfilename": "GR_1110-10_0049b_o2.jpg",
            "transcription": "Springs. 7 miles from Garland\n17th May 1880\nHad my wagon loaded up early - a hard thing to cut 2 loads into one & decide just what I must take & must leave. Had to leave my desks but when I told Mackenzie he ordered them to be sent out by first train. Had a great deal to do but got through all, & the Comd started half hour a head of time. I went up to post to see Mc. & write letter to Mother & Julia.\n\n Finished & caught Comd just as it was about to pass the camping place.\n 7 miles"
        },
        {
            "pageid": 112934,
            "pagefilename": "bed8158b4747d745749c681b99a6a169.jpg",
            "pageorigfilename": "GR_1110-10_0049_o2.jpg",
            "transcription": "Mackenzie went back with us to Garland. He tells me I must get off tomorro - gives me only one wagon, says I shall not take Laura etc. etc. I know him well however & am not scared. Got my troops in camp Rec'd my orders from Mackenzie & assumed comd. Have 11 comps organized into 3 Batns. - Webb comd 1st. Brady 2d. Offley 3d.\n\n Lunched with Mackenzie. Got an ambulance & authority to take Joe & Laura. Ordered everything to be ready to march at 2 pm tomorro. Cant find out where we are going nor what we are going for - No letters --"
        },
        {
            "pageid": 112935,
            "pagefilename": "486d21989fc4a2245f67d7e7d1f3d190.jpg",
            "pageorigfilename": "GR_1110-10_0050b_o2.jpg",
            "transcription": "waste of sand & sage brush\n\n These Springs are a feature\n They are artesian. The water from some high elevation finds outlet here & in course of time has thrown out mud & sand enough to build elevation higher than the general level from the top of which the springs break out. Some of my miserable drunkards who left at Wellington came up this p.m. How they got along the R R is a mystery - I hoped I had lost them. Seven others deserted last night. Our pay system is a persuasion? on desertion\n\nDistance 13 miles."
        },
        {
            "pageid": 112936,
            "pagefilename": "a8b683437f62fd9581378682be9c4440.jpg",
            "pageorigfilename": "GR_1110-10_0050_o2.jpg",
            "transcription": "Washington Springs\n18th\n5 miles from Alamosa \nBroke camp 6.20 am.\n\nPart of my Comd paid yesterday so I had lots of drunkards lined out: yesterday & Vance on rear guard had a hard time.\n He is a weak man anyhow\n Today there are many big heads, but all are so much improved that the rear guard was up unclear with the wagons\n Beautiful day but very warm.\n Tho' the spring brook on which we camped was frozen this am Our route is through - across the San Louis Park - & a dreary monotonous"
        },
        {
            "pageid": 112937,
            "pagefilename": "d7fed97a9b389b25501447844151db67.jpg",
            "pageorigfilename": "GR_1110-10_0051b_o2.jpg",
            "transcription": "Jacksons Ranche -\nWednesday May 19, 80\nMy 53rd Birth-Day - & by no means a hilarious one but not unpleasant\nBroke Camp 6.20 am.\nTook ambulance & went into town (Alamosa) bought some necessaries, saw Dorsh about the wood & hay I used yesterday. He says its all right - River very high quite a business little town with many good stores.\n\n Bought all I needed - Joined Comd before it passed - Camped at Jackson - Short march 11 miles"
        },
        {
            "pageid": 112938,
            "pagefilename": "2f5bcd0f94890432fb1c733431eb5219.jpg",
            "pageorigfilename": "GR_1110-10_0051_o2.jpg",
            "transcription": "About 5 pm freight train came by bringing wood & hay - Keeling came in it also -\n\n St Hay went to town, with telegram to Mackenzie.\n  He sent back an orderly with notice that wood & Hay were to be delivered to me as I pass Alamosa  tomorrow. sent orderly back notifying him that I can not take it.\n  Miserable sand camp.\n  If there had been wind we would have suffered - It is a good omen that the wind has stopped for us here"
        },
        {
            "pageid": 112939,
            "pagefilename": "a157afedf0b18f12c1b6a7a6975271b7.jpg",
            "pageorigfilename": "GR_1110-10_0052b_o2.jpg",
            "transcription": "Mr B came down & invited me to his house which is the more comfortable & best furnished I have seen on the trip -\n\nFilled Hay & I up with beer & invited us to dinner but we had just lunched.\n About 3 pm there came up a furious wind & dust storm. A great many tents were blown down, mine withstood the blast, but was so filled with dust that one could scarcely see anything.\nIt lasted until after 5 pm \nNow all is calm & peaceful -"
        },
        {
            "pageid": 112940,
            "pagefilename": "019107584f7d007a7db4de5d58400623.jpg",
            "pageorigfilename": "GR_1110-10_0052_o2.jpg",
            "transcription": "Bedells Ranch\nSagarata Ck\nFriday May 21, 80\nBroke Camp 5.15 am\nRoad excellent, but we had to make 19 miles without water - The Sagarata a nice creek. Many Ranches bottoms all fenced in & no good camping places.\n\n Mr Bedell a rich & hospitable man gave me a field to camp in Also got from him wood & some straw - Hay not to be had - Soon after Comd got to camp"
        },
        {
            "pageid": 112941,
            "pagefilename": "e064c8addb5a6453ab3a4d366b4c3002.jpg",
            "pageorigfilename": "GR_1110-10_0053b_o2.jpg",
            "transcription": "Russell Springs\nMay 22d\nBroke Camp 6.15 am\nCalled on Mr Beadell to thank him & wife for their kindness, & to bid good by - Men somewhat used up by yesterdays march\n\nTook it easy today -\nGood road & several streams of water - Camped here at 11. am. Good water - & bought wood & hay - very good camp. Ben Clark came by en route to visit Mackenzie. No news -\n\nPleasant day. \nDistance 13 miles --"
        },
        {
            "pageid": 112942,
            "pagefilename": "a88b6493a4ce88ed7c96d206f81cac5e.jpg",
            "pageorigfilename": "GR_1110-10_0053_o2.jpg",
            "transcription": "Got a man with measels Ordered Hospl Steward to take him to Rose Camp in ambulance tomorro.\n\n Beaumont passed us about 2 pm- went into camp on canon? 4 miles beyond. Pack mule train also along camped in next field - \n Men badly used up today by the long march without water - Mr Bedell gave me a sack of potatoes -\n This is a fine agriculture country. Also a great mining country.\n Distance 23 miles"
        },
        {
            "pageid": 112943,
            "pagefilename": "dea369f298dc1e430cac44021930bd57.jpg",
            "pageorigfilename": "GR_1110-10_0054b_o2.jpg",
            "transcription": "Upper Crossing\n\n Saguache Ck\n\nSunday May 24th\nBroke Camp 6 am\nGood road & marching except the wind which blew directly in mens faces carrying great clouds of dust making it altogether the worst day we have had.\n\n I arrived in camp 11 am found Cavy Sergt with hay. Tried fishing couldn't get a bite - hardly stand up for wind - Comd arrived 1 pm \n\ngood camp - Met paymaster\nDistance 17 miles -"
        },
        {
            "pageid": 112944,
            "pagefilename": "ed233a388c6b8e6737c7b6d0972875bd.jpg",
            "pageorigfilename": "GR_1110-10_0054_o2.jpg",
            "transcription": "Near Saguache\npronounced Siwatch\nSunday May 23d\nBroke camp 6.10\nRode in in ambulance \nArrived town 7.30.\nGot mail - Letter from James. Mother improving No letter from Julia or Fred. \nBought many things.\nComd arrived 9.50 -\nRode out ahead & selected camp 2 miles from town \nBeautiful Camp. Went fishing. got 3 trout - Wrote to Mother Julia & Clarke at night --\nDistance 10 ½ miles"
        },
        {
            "pageid": 112945,
            "pagefilename": "b60f7910656aeb5a8c3b1e4511f852ef.jpg",
            "pageorigfilename": "GR_1110-10_0055b_o2.jpg",
            "transcription": "Cavalry leave tomorro\nI next day -- Visited Roses cantonment - He has done a deal of work but not in as ship shape a manner as I like -- Quite busy today -- Mac has kept me going with all sorts of orders. \n\nTook McMurm my orderly - I took OBrien in his place - & got another man on Hdqt guard \nVery Cold -\nOur camp is 10000 feet above the sea\nSnow last night -- & last winter snowy not yet all gone about us"
        },
        {
            "pageid": 112946,
            "pagefilename": "bc75eb6020a0924fbcba1ef62c031232.jpg",
            "pageorigfilename": "GR_1110-10_0055_o2.jpg",
            "transcription": "Cochetopa pass \nMay 25 1880\nCourier from Mackenzie last night. In accordance with my request he authorized me to remain over one day either at Creek or at pass -- Creek very tempting - nice camp etc. but I have number of barefooted mules & so moved to this place to have them shod --\n\nArrived at Mc's Camp 8.30 - had satisfactory talk with him - got all arranged to suit me - \n Beaumont"
        },
        {
            "pageid": 112947,
            "pagefilename": "0e8b96eb1975bd7ed4c25ec6a3f57856.jpg",
            "pageorigfilename": "GR_1110-10_0056b_o2.jpg",
            "transcription": "taken the Supce Dept with him & my Officers have no supplies -- wrote to wife & Mother --\n\nAt night wrote to Cop - Northing new -- pleasant day but cool ---"
        },
        {
            "pageid": 112948,
            "pagefilename": "f0248a350264927253b5839d944ea5c4.jpg",
            "pageorigfilename": "GR_1110-10_0056_o2.jpg",
            "transcription": "We have been constantly on the move 19 days without a rest or break. Fonero is our first days rest - & wish it will close what I consider the first chapter of this expedition --\n\n Scenery today very wild & beautiful _ roads very bad -\n Distance 8 miles --\n Had a glorious hot bath & for the first time a stove in my tent-"
        },
        {
            "pageid": 112949,
            "pagefilename": "b7bc56d46ac4510c4b2de59baa35063d.jpg",
            "pageorigfilename": "GR_1110-10_0062_o2.jpg",
            "transcription": "Back Cover - Mottled, dark rust color\nNOTICE - THE DEALERS AND CONSUMERS: - Books made by other manufacturers must not be used or fitted to our flexible covers, as both book and cover are patented.\nREYNOLDS & REYNOLDS,\n\n    DAYTON, OHIO."
        }
    ]
}