{
    "id": "1334",
    "cataloglink": "https://mms.newberry.org/xml/xml_files/Dodge.xml",
    "pages": [
        {
            "pageid": 112136,
            "pagefilename": "cd58ed752951a75038144629b1ef8ac1.jpg",
            "pageorigfilename": "GR_1110-4_0001_o2.jpg",
            "transcription": "Powder River Campaign \nWinter 1876-7 \nNo 4"
        },
        {
            "pageid": 112137,
            "pagefilename": "1ccd995d2454f71522ee017407102819.jpg",
            "pageorigfilename": "GR_1110-4_0002b_o2.jpg",
            "transcription": "Resume´ ____ \nA Winter Campaign is a terrible ordeal for troops, but it is really the most effective against Indians, who cannot stand cold so well as whites, nor can they travel rapidly with their half famished skeletons of horses"
        },
        {
            "pageid": 112138,
            "pagefilename": "64137fd29a27bff0b360849f7830b5f3.jpg",
            "pageorigfilename": "GR_1110-4_0003b_o2.jpg",
            "transcription": "Compelled to move their village not less than twice to leave the game region of the Rosebud in which they had pitched their winter camp and to take refuge in the barren inhospitable and comparatively gameless bad lands of"
        },
        {
            "pageid": 112139,
            "pagefilename": "f7411e1f86a21523d873d2a6c9ac7cf5.jpg",
            "pageorigfilename": "GR_1110-4_0003_o2.jpg",
            "transcription": "Take it in its entirely our Campaign has been a marked success \nThe Cheyenne have received a blow such as they have never had before, & from which they will not soon recover. While the hostile Sioux leader Crazy Horse has been"
        },
        {
            "pageid": 112140,
            "pagefilename": "578591e2476936c78768a6e78fdb1315.jpg",
            "pageorigfilename": "GR_1110-4_0004b_o2.jpg",
            "transcription": "has not been so evidently successful as it might have been and while the facts are fresh in my mind I wish I put on record what in my opinion was the cause of the comparative failure"
        },
        {
            "pageid": 112141,
            "pagefilename": "a92ce94f6ee9d524f2583a82c3a3271a.jpg",
            "pageorigfilename": "GR_1110-4_0004_o2.jpg",
            "transcription": "the Little Missouri \nThey have learned by sad experience that at no time & in no place are they safe from the pursuit of the troops - \nPremising this it must yet be conceded that the Campaign"
        },
        {
            "pageid": 112142,
            "pagefilename": "68d8657ed4e02c9e4ddeb02476e57b39.jpg",
            "pageorigfilename": "GR_1110-4_0005b_o2.jpg",
            "transcription": "time & again among  the Indians & holding intercourse with them - \nAmong Indians eloquence is a great power. All their instruction must necessarily be oral -  \nManner also has influence Genl C. has the worst manner I ever saw. He has generally very little"
        },
        {
            "pageid": 112143,
            "pagefilename": "5af12f01235a7714a4683220c3876cbe.jpg",
            "pageorigfilename": "GR_1110-4_0005_o2.jpg",
            "transcription": "Genl Crook has a most wonderful knowledge of the Indian character & this knowledge gives him a power over them which I have never before seen possessed by any one - nor can I for the life of me understand it even after seeing him"
        },
        {
            "pageid": 112144,
            "pagefilename": "609174205eca41dd6aa6a90f7a27eccf.jpg",
            "pageorigfilename": "GR_1110-4_0006b_o2.jpg",
            "transcription": "for a delinquency than like a general comdy an army. \n\n In spite of all this there is no shadow of a doubt as to the high extrication in which he is held by the Indians \n He is a good strategist, & has wonderful tenacity of purpose, will & pluck & is entirely careless of"
        },
        {
            "pageid": 112145,
            "pagefilename": "fd4676f5d63a3c5e8279a97cf749dd0c.jpg",
            "pageorigfilename": "GR_1110-4_0006_o2.jpg",
            "transcription": "to say at any \"talk\" & that little is said in a few words his eyes downcast, his hands in the pockets of his old gray pants - voice low & hesitating - & in all respects he looks & acts far more like a schoolboy trying to fabricate an excuse"
        },
        {
            "pageid": 112146,
            "pagefilename": "474da69825df149a84644429f721dc96.jpg",
            "pageorigfilename": "GR_1110-4_0007b_o2.jpg",
            "transcription": "is a problem which to him has no solution.\n\n His ignorance of such things is remarkable & painful. It is even ludicrous for he carries it to such an extent as to regard with the most profound admiration any man who evinces even a moderate ability in this direction.\n He must be fully"
        },
        {
            "pageid": 112147,
            "pagefilename": "bba06d4d14ece62f0944823de4f28588.jpg",
            "pageorigfilename": "GR_1110-4_0007_o2.jpg",
            "transcription": "personal discomfort\n\n He lacks but one thing to be a very great man - that is Administrative ability -\n He can decide how many & what troops to take into the field with him, but there his power ends. How to fit them out & care for them afterwards"
        },
        {
            "pageid": 112148,
            "pagefilename": "6079a8d29fd39a2b68ea0c1742415d35.jpg",
            "pageorigfilename": "GR_1110-4_0008b_o2.jpg",
            "transcription": "This would be admirable did he only get hold of first class men, but though a fair judge of human nature, he  yet in the nature of things sometimes gets a man unequal to his work.\n\n The success of an expedition depends more on the administrative ability of the staff than the genius? of the"
        },
        {
            "pageid": 112149,
            "pagefilename": "7ccb3ba7b77c5bf11c9ba3aaf9209c32.jpg",
            "pageorigfilename": "GR_1110-4_0008_o2.jpg",
            "transcription": "aware of his own deficiency in this respect for having selected  Officers to do this work for him. He never interferes in any way by order or suggestion & when he gets hold of a man who does tolerably well. He can never advise him sufficiently or praise him enough"
        },
        {
            "pageid": 112150,
            "pagefilename": "67e579cb9b1ed885c7b02485f337e3c5.jpg",
            "pageorigfilename": "GR_1110-4_0009b_o2.jpg",
            "transcription": "Genl C. had not yet succeeded in divesting himself of a certain contempt for - or rather an undervaluing of the Infantry arm.\n\n When he was about starting on the Rosebud Campaign I said \"Genl I wish you would take me & 6 or 8 Cos of the Regt. with you\" - \"Why what\" replied he \"Could I do"
        },
        {
            "pageid": 112151,
            "pagefilename": "96769d6610991b906ab37fa59ed53acc.jpg",
            "pageorigfilename": "GR_1110-4_0009_o2.jpg",
            "transcription": "General & this is more true in Indians, than in Civilized warfare - for in the former each army or active force must depend entirely on itself for every thing on the purely military organization of our winter expedition I have no comments to make except that that at its start"
        },
        {
            "pageid": 112152,
            "pagefilename": "4afbce2b6a47e52a4c8df983e227b63f.jpg",
            "pageorigfilename": "GR_1110-4_0010b_o2.jpg",
            "transcription": "I do expect to take a couple of Comps as escort for the wagon train\". \n\n Well Genel\" I said \"you of course will do as you please but the very best campaign ever made against Indians in this country were made by Infantry. Let me have the management of the men for the first three weeks & after"
        },
        {
            "pageid": 112153,
            "pagefilename": "9b596712760092409cbdf95facc243f1.jpg",
            "pageorigfilename": "GR_1110-4_0010_o2.jpg",
            "transcription": "with Infantry against Indians? Every thing I said \"that you can do with cavalry except perhaps dash in & capture stock - but that inability will be more than compensated by the bitter & unclearfighting they will do\"\n\n \"Well\" he answered \"I dont think Infantry any account against Indians though"
        },
        {
            "pageid": 112154,
            "pagefilename": "1c5a7b0e3518263711c576e22701a047.jpg",
            "pageorigfilename": "GR_1110-4_0011b_o2.jpg",
            "transcription": "of Infantry against Indians --\n\n Long after this - & after the battle of the Rosebud I asked him rather to his surprise \"if\" he did not think of me during that battle? He laughed at the recollection & said \"Well Dodge when my Cavalry got scattered all over creation & I"
        },
        {
            "pageid": 112155,
            "pagefilename": "b319dcd3ab66c4fb444a7ab9a219e929.jpg",
            "pageorigfilename": "GR_1110-4_0011_o2.jpg",
            "transcription": "that I will guarantee to march just as far & as long as the Cavy - to run down the Indian stock - provided only that you keep me supplied with rations\" --\n\nIt was of no use - He couldn't be talked into any opinion of the staying qualities"
        },
        {
            "pageid": 112156,
            "pagefilename": "bdae95326b89f0363bf7cfc6cf6cafdb.jpg",
            "pageorigfilename": "GR_1110-4_0012b_o2.jpg",
            "transcription": "while I - though not there know that it was lost for lack of Infantry - \n\n However Mackenzies affair cured him of all that Cavalry foolishness & he will never again go out with a preponderating Cavalry force. \n His ideas in regard to the use of a large force of friendly Indians were"
        },
        {
            "pageid": 112157,
            "pagefilename": "ea275eecb85a20473179ff32a881c0f8.jpg",
            "pageorigfilename": "GR_1110-4_0012_o2.jpg",
            "transcription": "could not get it together or to obey orders, I did wish for a few companies of the Old Regt. However even yet he was not cured of his prejudice for he thinks to this day that the Battle of Rosebud was lost through the neglect & indisposition of some of the Cavy Officers to do their duty."
        },
        {
            "pageid": 112158,
            "pagefilename": "f75156f63c58786f9a08ba1d006271c5.jpg",
            "pageorigfilename": "GR_1110-4_0013b_o2.jpg",
            "transcription": "all the supplies for his expedition had to be collected & forwarded by the Chiefs of Staff who were in Omaha - with these Officers he never once communicated for nearly eight months - They knew nothing of the force he intended to take with him of the time he expected to be out - nor even of the point which was to be"
        },
        {
            "pageid": 112159,
            "pagefilename": "4cb8d6c971e30b84485f369883e7a03a.jpg",
            "pageorigfilename": "GR_1110-4_0013_o2.jpg",
            "transcription": "admirable & carried out with great ability -- His management of the troops was sufficiently good - except where an improvement would have brought him in collision with one of his Staff - But having said this I have given him all the credit I can & I now have to speak of his deficiencies --"
        },
        {
            "pageid": 112160,
            "pagefilename": "9a05765b8eef132e686b5ae4bdef7d89.jpg",
            "pageorigfilename": "GR_1110-4_0014b_o2.jpg",
            "transcription": "accumulated very large supplies at three different places. Fetterman - Laramie - & Red Cloud - & for each of timely information the supply of forage at Fort Fetterman was never sufficient - \n\n  When I left to join Crook Bob Williams implored me to write to him by every mail & give him all the information I could"
        },
        {
            "pageid": 112161,
            "pagefilename": "337e871c39f5986ef10819f4316efbf6.jpg",
            "pageorigfilename": "GR_1110-4_0014_o2.jpg",
            "transcription": "his base of supplies -\n\n His own field staff issued orders to Companies in various parts of the Dept to join him, & it was only from these orders that the Chiefs of Staff were enabled to guess how many troops he had & where he would start from - As it was they were forced, in order to be surely right to"
        },
        {
            "pageid": 112162,
            "pagefilename": "d2286a8c5058b570e391d41e7f682020.jpg",
            "pageorigfilename": "GR_1110-4_0015b_o2.jpg",
            "transcription": "with the single exception of the Quarter Master.\n\n This was Capt Fury, a regular q.m. an industrious energetic hard-working man. A gentleman in manners & education & with the disposition to be a good officer. He did the very best he could but he did not know how to do. Consequently we all suffered & the Campaign was a failure -"
        },
        {
            "pageid": 112163,
            "pagefilename": "9eeb0389041305d03c1c8c5e2dbce4c8.jpg",
            "pageorigfilename": "GR_1110-4_0015_o2.jpg",
            "transcription": "pick up, as to how many men & animals - how long we would be out & where we expected to go.\n\n \"For\" said he \"we are now working entirely in the dark & by guess & any item you may give us, may be of great service to us & to you\" --\n  The field staff of the expedition was excellent"
        },
        {
            "pageid": 112164,
            "pagefilename": "3d8265467f435849ec93d11913cca4d6.jpg",
            "pageorigfilename": "GR_1110-4_0016b_o2.jpg",
            "transcription": "forage for 30 days, & yet had ample wagons for all the extra qr mr things iron horse shoes etc etc. that were necessary --\n\n Instead of this we never had at any time more than 15 days rations & ½ forage for the same time \n Consequently we were never in condition to pull away from our base for more than a week"
        },
        {
            "pageid": 112165,
            "pagefilename": "e6a8955a847fcf45ac2b70597e259cc6.jpg",
            "pageorigfilename": "GR_1110-4_0016_o2.jpg",
            "transcription": "Fury had a train of over 250 wagons & 300 pack mules. The fighting force of the Comd was about 1650 men. The non combattants swelled the number of mouths to feed to about 2,000. \n\n  With the means of transfer at our disposal we should have taken 40 days rations for the whole Comd & ½"
        },
        {
            "pageid": 112166,
            "pagefilename": "7400f7065ec9bc6b1717317b544a15be.jpg",
            "pageorigfilename": "GR_1110-4_0017b_o2.jpg",
            "transcription": "wagon train, that it could only haul less than half its capacity.\n\n Before we left Ft Fetterman the troops had been reduced to 3 blankets per man - a common tent to every 4 & a Sibbley Stove to every 8 men. \n When the wagons were sent to the Cos to be loaded up it was found that each teamster had a roll of bedding larger than any Officer of the Comd - while every"
        },
        {
            "pageid": 112167,
            "pagefilename": "1547e5d955be5b23a0032734d6edd25b.jpg",
            "pageorigfilename": "GR_1110-4_0017_o2.jpg",
            "transcription": "at a time - when we left Fetterman we had 62 days rations with us or at that base but our supply of forage was short all the time - most of the rations left at Fetterman were sent to Reno for us so that at all times we had an ample supply at the latter place -\n\n Now we will see where the trouble was with the"
        },
        {
            "pageid": 112168,
            "pagefilename": "33623da30ffd77706f6076a0b4beae8a.jpg",
            "pageorigfilename": "GR_1110-4_0018b_o2.jpg",
            "transcription": "(none of the troops were allowed them) A unclear chest with plates etc - as many boxes, barrels etc of supplies as they chose to carry - & an extra man to cook for them - who of course had his extra allowance of baggage\n\n The consequence was that the 300 teamsters wagon masters & cooks had more actual weight & bulk of baggage than all the"
        },
        {
            "pageid": 112169,
            "pagefilename": "a0dab21b183f7a2074f6bb96b67f4cf5.jpg",
            "pageorigfilename": "GR_1110-4_0018_o2.jpg",
            "transcription": "3d or 4th wagon was half full of utensils of all sorts - It soon transpired that each 2 wagon Masters (& there were about a dozen) had a wall tent Sibbley Stove & bedding ad lib. Each 4 teamsters had a wall tent & Sibley Stove - Each 8 teamsters had an extra wall tent a huge 4 or 6 plate cooking stove"
        },
        {
            "pageid": 112170,
            "pagefilename": "4c5e009bc322fc74b357336603a4949e.jpg",
            "pageorigfilename": "GR_1110-4_0019b_o2.jpg",
            "transcription": "& then disappear to be seen no more by any of the troops until such time as it suited them to put in an appearance in the morning. All went off to the general train to sleep & eat. It seems almost incredible, yet I state it as a face; that on many occasions my rear guard had to remain"
        },
        {
            "pageid": 112171,
            "pagefilename": "38a97116bc6a7071aede0761353e6b80.jpg",
            "pageorigfilename": "GR_1110-4_0019_o2.jpg",
            "transcription": "Officers & men of the whole fighting force, 1650 men, put together --\n\n Nor was this all - The teamsters were under no sort of discipline & did just as they pleased. Getting into Camp late - they would unhitch the mules tie them to the tongue throw a little corn into the feed bags"
        },
        {
            "pageid": 112172,
            "pagefilename": "6f635e86b6c25f2ef7ddd62435a8c25e.jpg",
            "pageorigfilename": "GR_1110-4_0020b_o2.jpg",
            "transcription": "ashamed of myself - \nBut not unfrequently my men would get into camp by 2 or 3 pm & have to wait in the snow until long after dark without shelter or food - & all because the teamsters were too lazy to get up in the morning - It was a most infernal outrage & would not have been tolerated an instant by any"
        },
        {
            "pageid": 112173,
            "pagefilename": "9b71491e29079992544d69dd44e58fbc.jpg",
            "pageorigfilename": "GR_1110-4_0020_o2.jpg",
            "transcription": "in camp until half past 9 or 10 Oclk am, waiting for the teamsters to hitch the mules to the wagons which had been loaded & ready to move since half past 6 am. This condition of affairs was intolerable & I quarrelled with  Fury & with Genl Crook about it until I felt like a common scold & was"
        },
        {
            "pageid": 112174,
            "pagefilename": "d17955bfe11152749ed299149cc2c6c7.jpg",
            "pageorigfilename": "GR_1110-4_0021b_o2.jpg",
            "transcription": "& found Genl C & staff around a camp fire -\n\n I was very angry & went after the Genl strong - I told him that it was an outrage on my men - on human nature & demanded that some steps be taken to remedy the evil - He looked at me in a helpless sort of way for a moment then walked away without a word. I then went for the staff all of"
        },
        {
            "pageid": 112175,
            "pagefilename": "3b4190f7e969d53bf39ad8e46e9fbb3a.jpg",
            "pageorigfilename": "GR_1110-4_0021_o2.jpg",
            "transcription": "Comdy officer that I know of except Genl Crook.\n\n On Christmas day the mercury was frozen in the bulb. My Comd got off in good season 6.30. Some of the wagons not being hitched up I waited until 9.30 am then left in disgust - I arrived in camp after a march of over twenty miles."
        },
        {
            "pageid": 112176,
            "pagefilename": "7aeb186558a7c7e3f0c5e19e47c439eb.jpg",
            "pageorigfilename": "GR_1110-4_0022b_o2.jpg",
            "transcription": "here & let them go\n\n The clerk subsided & Mackenzie who was by hooked his arm with mine & led me over to his tent & gave me a drink.\n \"I think\" said he \"you are too hard on Fury. He does the best he can\" - \n \"Admitted\" I replied \"but that best leads to suffering of my men & it is time somebody was put"
        },
        {
            "pageid": 112177,
            "pagefilename": "5c23ceb70d709a53750cd225862972a6.jpg",
            "pageorigfilename": "GR_1110-4_0022_o2.jpg",
            "transcription": "whom held their peace - At last Fury's Chief Clerk standing near said, \"It cant be helped Colonel, the teamsters have a ring & if we were to discharge one, a hundred would go \"Well let them go\" I said \"I will give you a better man in the place of every scoundrel who leaves - put them off in the prairie"
        },
        {
            "pageid": 112178,
            "pagefilename": "1e1e06515663e13a00aff93a004cd984.jpg",
            "pageorigfilename": "GR_1110-4_0023b_o2.jpg",
            "transcription": "Mackenzie giving it to poor Fury worse than I had ever done - so hard was he indeed that he afterwards apologised  to me & said he was sorry he had said so many mean things to Fury  ---\n\nAnother result of this condition of affairs"
        },
        {
            "pageid": 112179,
            "pagefilename": "916707f397ba62f03a98db5810e6f75e.jpg",
            "pageorigfilename": "GR_1110-4_0023_o2.jpg",
            "transcription": "in his place who can do better than Fury's best\" -\n\n\"You have your own unclear & your train is under your own control. The Genl will not allow me to have control of mine -- My men suffer yours dont, & there is all the difference\" -\n The very next night I happened to walk over \n\n-"
        },
        {
            "pageid": 112180,
            "pagefilename": "723225c6bd614ff1ea4fb9faaaa560d7.jpg",
            "pageorigfilename": "GR_1110-4_0024b_o2.jpg",
            "transcription": "The order was obeyed by turning the mules loose & driving them off some distance from camp\n\n Then all the teamsters (who should have remained with the mules) came back & went to bed -\n The consequence was that next morning the mules were scattered for miles & took hours"
        },
        {
            "pageid": 112181,
            "pagefilename": "6994d464d69a221f9fa60721ca0ab402.jpg",
            "pageorigfilename": "GR_1110-4_0024_o2.jpg",
            "transcription": "was that the teamsters took no sort of care of their mules - In the whole trip. though out & among the wagons at all hours. I never saw a mule curried or a wagon greased --\n\n Once or twice orders were given to herd the mules at night -"
        },
        {
            "pageid": 112182,
            "pagefilename": "4f840db473cf80590a8e7c5a6f169971.jpg",
            "pageorigfilename": "GR_1110-4_0025b_o2.jpg",
            "transcription": "care of we ought to have lost none - for our marches were short & by no means continuous.\n\n In the whole two months we marched but little over 400 miles -- There were however very many nearly broken down & abandoned & this result was not due to hard work but simply a party to neglect -- unclear Trout"
        },
        {
            "pageid": 112183,
            "pagefilename": "0f066ad3787d410248f5bb1a79b17696.jpg",
            "pageorigfilename": "GR_1110-4_0025_o2.jpg",
            "transcription": "to find & collect together -\n\n This was done only a very few times & the poor mules as a rule had nothing whatever to eat except a pint or two of corn.\n Of course they were soon starved out & broken down. Had the mules been properly taken"
        },
        {
            "pageid": 112184,
            "pagefilename": "913b4d4db268584d31bfdcfc564acf14.jpg",
            "pageorigfilename": "GR_1110-4_0026b_o2.jpg",
            "transcription": "the failure of the Expedition -- for had we been supplied with as much rations & forage as we could have carried we could have marched three times as far & probably struck Crazy Horse"
        },
        {
            "pageid": 112185,
            "pagefilename": "7c133c0c2c5801c67a46c065ded2cb78.jpg",
            "pageorigfilename": "GR_1110-4_0026_o2.jpg",
            "transcription": "been Quarter Master of that Comd we would not have lost a half dozen mules all told --\n\n The lack of knowledge & management in the qrmr entailed unnecessary suffering on the men lost many mules to the Govt & caused"
        },
        {
            "pageid": 112186,
            "pagefilename": "a7dd0574ba97d443cf003049bd376308.jpg",
            "pageorigfilename": "GR_1110-4_0030_o2.jpg",
            "transcription": "Back Cover\nWinter campaign\n1876"
        }
    ]
}