{
    "id": "803",
    "cataloglink": "https://mms.newberry.org/xml/xml_files/Gallentine.xml",
    "pages": [
        {
            "pageid": 52036,
            "pagefilename": "c5c0538775cfff27d16cdfaa5b203735.jpg",
            "pageorigfilename": "http://publications.newberry.org/civilwarletters/archive/fullsize/3e37ac67e3dfcb10f0f9ae02ee2e37a4.jpg",
            "transcription": "8 Continued 5\nthe bay horse did and at ten o'clock I attended church and heard an excelent sermon now I can hear some men playing at cards in the tent joining. Our parade ground is on the Sangamon bottom but there is a large strip of timber between the grounds and the river. This timber is filled with logs over which our horses leap as we go and return from watering. I have seen grape vines in there that are big enough to make one cord of hickory wood and sloats that would make good peach pies . . . The next time you see Maria tell her I bid her good by just as much as I did the rest and be shure and dont make ratter sick the next time you ought to have my pony (I call him suse) to ride"
        },
        {
            "pageid": 52037,
            "pagefilename": "4199f4b734f078b25d8d348a1e7f0ebd.jpg",
            "pageorigfilename": "http://publications.newberry.org/civilwarletters/archive/fullsize/ff7e437de3822c3753a63e48bf989c34.jpg",
            "transcription": "6 \nhe wouldent get sick. I don't know whether I told you or not what our horses was appraised at. Wm. horse went in at $1x33 cts. and my horse at $1x25. The horses of our company averaged very well. ... You told me that you had something good to tell me but that you couldent if you had wrote it down it would have done just as well as if you had told me. I don't see what the reason is that you didn't write it. The next time I want you to print it down. I received a letter from Chas. Nelson the other day, he says there is considerable talk in Farmington about Po Cass comeing back and he wants me to say what I know or think about the matter. My opinion is that Po was sick, if he wasent he acted the oposom prety well"
        },
        {
            "pageid": 52038,
            "pagefilename": "e5a60d4e9ff4b7ca46dc41b9de6696e1.jpg",
            "pageorigfilename": "http://publications.newberry.org/civilwarletters/archive/fullsize/85f78f1fa3000ecc1d963df62a961e36.jpg",
            "transcription": "7 \nI send three shirt [stucts?] that I got by buying paper in a kind of prise consern. I want you to take posession of them and take care of them and do the same with my other jewelry also take care of mine and Wm. Clothes and see to my books a little for I will have kneede of books when I get back. You stated that if there was any thing we wanted you would send it. I would like to have $.75 cts or a $1.00 to buy paper and ink and pay postage until we get some money and that won't be very soon. Perhaps if you send it out of my money it is all right and if you that is Mother will send it to me I will send it back as soon as U. S. pays us any. Our rations are good enough when we have good appetites but we don't get any"
        },
        {
            "pageid": 52039,
            "pagefilename": "5dfab22db6b1028a5005baa93705d926.jpg",
            "pageorigfilename": "http://publications.newberry.org/civilwarletters/archive/fullsize/a9f92eaad40a20a8a9d7a7eb67939c12.jpg",
            "transcription": "8\ndainties. If a fellow has plenty of money he can get one dozzen apples for five cents and one little pie for five cents, one cegar for five cents, one plug of tobaco for five cents, one Cigar for five cents. I cannot [the ink is too faded to read the next two lines] just for them they will be sent prety [faded word] probably. I believe I have wrote enough for the present so hoping to hear from you without delay. I am your affectionate Brother Chas W. Gallentine. Direct you letters to Chas W. Gallentine, Camp Butler, [illegible] [illegible] [illegible] Springfield Ill."
        },
        {
            "pageid": 52040,
            "pagefilename": "918c77f944321db854bacef265b20e26.jpg",
            "pageorigfilename": "http://publications.newberry.org/civilwarletters/archive/fullsize/f0b994c81688b08c0e5cf72136fa0969.jpg",
            "transcription": "9  1st \nCamp Butler, Springfield Nov 1st, Dear sister, I take my pencil in hand sharpen it and place my self in close proximity with a small box containing the necessary material on which to write a letter, by which means I desire to inform (\"the folks at home\") that Wm and I are both blessed with good health and by the same means (by letter) we express the hope that these lines will find the \"folks at home\" in the enjoyment of the same favor. We received your letter in due cource of time and it is unnecessary for me to say that we were glad to hear from you as you will be willing to admit without my asserting it. If you will continue to do the same with the same punctuality we will not complain. I have delayed answering your letter longer than would be excusable under"
        },
        {
            "pageid": 52041,
            "pagefilename": "2815c0935b330095accfc31ba472029b.jpg",
            "pageorigfilename": "http://publications.newberry.org/civilwarletters/archive/fullsize/3a1a2e54fd264eb5deeb428f30037147.jpg",
            "transcription": "2nd \nany other circumstances but I know you won't be mad when I tell you that I wrote to Caroline last evening and there is four letters lying on the box before me as if they were mutely demanding answers besides that there is only once in a while that I can write frequently. I haven't time for sevral days sometimes it is to cold for jack frost beg me to traverse this region and scatter the leaves. We have had prety chilly weather lately and several slight freezes, but we have no good fires to write by nor even a close room however we prefer cold weather to wet. We sleep pretty comfortable. There is six sleeps in a tent being three pairs. Wm Milam from the vicinity of Uniontown, are associated together and between us we have four blankets and he has one heavy quilt and we each have a heavy overcoat that we employ as pillows at night. Wm is not in the same tent that I am but I guess he fares well at any rate"
        },
        {
            "pageid": 52042,
            "pagefilename": "507882b9907a0c8ed0b5c8f96cd8a2ca.jpg",
            "pageorigfilename": "http://publications.newberry.org/civilwarletters/archive/fullsize/e2744a112209707f59c7e0fca6689e58.jpg",
            "transcription": "3ed\nHe don't complain any. There has been considerable complaint lately about the rations the thing finaly reached the sumit and we divided off into messes of twelve as formerly and now we get a plenty to eat. We had been all in one mess with three cooks for the company. On the 23ed of last month the whole camp prety nigh both cavalry and infantry had a grand parade drille together on the cavalry parade ground. We were reviewed by the Govnor and a vast number of civilians was present. I wish you had been here to have seene us and to have heard the cannon boom. How it did roar when the cavalry put it through at a charging rate. And when the infantry was put through on double quick how the people did laugh to see some of the old men and fussey officers use their utmost ability to cary their earthly tabernacle forwards"
        },
        {
            "pageid": 52043,
            "pagefilename": "a37de2873b7f15c6e4a87dce5b2f4052.jpg",
            "pageorigfilename": "http://publications.newberry.org/civilwarletters/archive/fullsize/47af1aad71d17c2c3c684b6dc07442da.jpg",
            "transcription": "4th\nAnd how the people did laugh to se the short leged duck and [insh?] puff under their big packs and finaly fall behind. The Americans are the best runners. Last week or in the fore part of this week rather we all fell in and marched down to Springfield both infantry and cavalry. We had to be out on the parade ground ready to march by daylight. When we got to Springfield we paraded through the principal streets the cavalry going ahead. We all marched in sections of four and our line extended pretty nigh all through town. When I came along side the state house I was forcibly strict with the opinion that it was considerable of a house. I though I would like to buy it. We now retired to a praire close to Springfield and fed our horses got our dinners which consisted of bread and fat pork that we had taken with us"
        },
        {
            "pageid": 52044,
            "pagefilename": "bfa1351a4c57f24677c28810205336c8.jpg",
            "pageorigfilename": "http://publications.newberry.org/civilwarletters/archive/fullsize/4b9745e56f2227ed73d268c2fc5a9544.jpg",
            "transcription": "1 \nIn camp near Corinth Mississippi, May 17th, 1862, Gen. Pope's division, 7th Ill. Cav., Co. D, Dear Sister, With pleasure I improve the present opportunity of writing a few lines to let the folks at home know that Wm. and myself are in possession of good health though the extremely hot weather has placed a great many of our soldiers horse in combat. Wm. arived here the folowing friday after he started havin made a quicker trip than is generaly made. He was so well fed while at home that he was a little dainty at first about eating fried pork and hard bread mashed down with strong coffee but of such and such only is our subsistes composed except such as we buye at the sutters. At the sutters 1 one dozzen eggs may be had for the small sum of $0.30 and eight little cakes for ten cts. one lemon for ten cts. and four very small apples for ten cts. with other things in proportion. Those who leave God's country and come down here are a little supprised to find the foliage so heavy the vegetation is exuberant with apples and peaches as large as small grape shot or about the size of a hulled walnut. This country is not rich enough to produce grass though the people raise cotten and corn they won't mak much hearabouts this season. There is no open country here except where it has been cleared. A great many peices have been cleared out wore out and turned out. The Union Army that is in the country have made use of all the rails encloseing the crops to build roads"
        },
        {
            "pageid": 52045,
            "pagefilename": "2f02b57ece6dde192ece50e0c40b6fd0.jpg",
            "pageorigfilename": "http://publications.newberry.org/civilwarletters/archive/fullsize/87ade8401f76e136e48c922495668f9c.jpg",
            "transcription": "across the muddy bottoms. The wheat in this section has been headed out these two weeks. Gen. Pope's divis. went on board boats at New Madrid during the 12, 13 and 14th of Apr. Our reg. got on board during the 14th and proceeded down the Mississippi about fifty miles but something did not work as expected so after some delay we returned up the Mississippi, up the Ohio and up the Tennessee rivers being on the boats until the 22nd when we landed at Hamburge landing Tennessee two miles below Pitsburge landing. The rivers were all very high especialy the Mississippi and Ohio. There was a vast amount of water in Cairo and the water threatened to wholy submerge that place. Below Cairo there was but few places that any earth could be seen. Island no. 10 remained high above the water and looked savage as ever. Our reg. has moved many times since we have been here and we have had sevral skirmishes. Major Arlington with sevral others of this reg. has been killed and sevral horses killed. The Secessionists don't stand well before the western unionists. I think the rebels will suffer a severe defeat at this place unless they manage to evacuate and that will afford them but a short relief. I suppose you are posted in regard to the vast military opperations taking place here and of our glorious success at other points. We have papers up to the 14th and they cost $.15 per coppy. When the decisive opperations will commense here I cannot say. The union coil is daily being placed around the rebels in Corinth at every squirm they make the coil becomes tighter and the bones will soon begin to crack. The hospital at Hamburge, two miles above Pitsburge instead of below"
        },
        {
            "pageid": 52046,
            "pagefilename": "52c52c643490d069b7d376fc296ee8b6.jpg",
            "pageorigfilename": "http://publications.newberry.org/civilwarletters/archive/fullsize/dbc53bace8cb16024ba83ad4226df2e3.jpg",
            "transcription": "is a mamoth consern notwithstanding the sick are shiped north as fast as possible. Sevral men are constantly bulding boxes in which to inter the dead. ... When we left New Madrid Capt. Hodge remained and drew our money and when the boats returned we drew our cash. After we got here a young man by the name of Barthelman started home having been discharged, and I sent $1x12.00 by him to Knoxville. Two dollars is for Father, $15.00 belongs to Wm. and the remainder ($95.00) belongs to me. .. I want Mother to take posession of it as soon as it is convenient and place it out at interest at the same time I want her to have an eye more to the security of the principal than to a large percentage. With those other notes I want her to act the same as she would for herself and did not want the money. We are expecting our third payment shortly and then Wm. will be able to send home a large sum besides buying him a horse. Walace Bone owes him $75.00 for the horse he owned before going home and is ready to pay $40.00 whenever it is asked for. ... I kept Wm.s papers safe through all our wanderings but I was obliged to leave his saddle at Hamburge landing Tenissee and I guess it has gone by the board. I haven't saw Steven Thurman since we were at Tiptonville in west Tennessee. I received a letter from Thomas Munhall on the 15th inst. he is well and acting as orderly for Gen. Wallace in third division. None of the Farmington boys was hurt during the late battle their reg being engaged but little. Andrew Montgomery wrote me a note yesterday he is on his pins but his brother Robert was mortally wounded at Pitsburge and has since died at Mound cty Ill."
        },
        {
            "pageid": 52047,
            "pagefilename": "0f36d8a48ff20c99e05da90582be4735.jpg",
            "pageorigfilename": "http://publications.newberry.org/civilwarletters/archive/fullsize/4c64f5e14725aca1042085eef7dcffe6.jpg",
            "transcription": "I would not be supprised if we get a chance to come home this fall though it is not certain. I hope we will for I am tired of soldiering but I would not have a discharge if I could get it. I wan to see the rebellion put down and the supremacy of the best governments on earth fully established. It is likely that a strong force of cavalry will be retained, even after the rebel armies are broken up and their strongholds retaken, for the purpose of suppressing gurilla bands. Tonite a large number of D deserters have come to us from Corinth and we have taken prisnors in large numbers. They all report southners badly disheartened and their papers show the same. ... I have not received a letter from the north for a long time. I wrote to Caroline not long since. Hoping to hear from you before long, I remain your Brother, Chas. W. Gallentine. Direct to Pitsburge landing Tennessee, Pope's divis. 7th Ill. Cav. Co. D"
        },
        {
            "pageid": 52048,
            "pagefilename": "5f768026b8b4d291d94f62cab3353d38.jpg",
            "pageorigfilename": "http://publications.newberry.org/civilwarletters/archive/fullsize/0e386cd8ad678d30212af1e3a848cbf8.jpg",
            "transcription": "the\n777777\nJacinto Tishomingo Co. Mississippi, July 15th 1862, Dear Sister, [words missing] borow a pen this morning with [words missing] to scribble you a few lines [words missing] to let you and the rest of [words missing] [and?] know that Wm. &amp; Chas. [words missing] ntime are in possession [words missing] health and they hope these lines will find the folks at home groaning under the same blessing. That little chap called Chas. Gallentine has not had a sick day since he left home but he has taken a little medicine for the dihorea and he now talks of using a skeepeshin plaster, not for any bodily infermity, but to see if it won't draw a letter from home as it has been [words missing] two months since I had a letter [words missing] that interesting point. This makes [words missing] [fourth?] letter that I have wrote"
        },
        {
            "pageid": 52049,
            "pagefilename": "14ccd3e93d6802d4323babadb98da897.jpg",
            "pageorigfilename": "http://publications.newberry.org/civilwarletters/archive/fullsize/32ae3c3d8ff86c5b64b3bb4d8f604677.jpg",
            "transcription": "you since I received any from home but I read one very interesting little document that Capt. Hodge received from that locality. On the 18th of June we (1st battalion) left this place and traveled [words missing] miles in the night to Blackland [words missing] the 1st Battalion of the 3ed Mic [words missing] stationed at that place but after a [words missing] we had too much business on our [words missing] we fell back and camped in the wood [words missing] in a few days after we fell back to [words missing] a strongly fortified town. From there our battalion went on sevral scouting expeditions in order to see what the rebels were doing. On one of these occasions we got two men wounded and one horse killed. On making these excursions we suffered much from the heat and dust. The fine particles of earth being stired up by our horses hoofs rose in murky clouds wreathing itself into fantastic shapes lodging upon our clothing [words missing] in our whiskers entering unbiden [words missing] our mouths and nostrils."
        },
        {
            "pageid": 52050,
            "pagefilename": "a215f354062f8a5bcfe45fa4f857b25f.jpg",
            "pageorigfilename": "http://publications.newberry.org/civilwarletters/archive/fullsize/f8d546c3845bdd7bfe03eca9ea6415db.jpg",
            "transcription": "I have worked at the hind part of thresshing machines. I have shook old carpets and I have frequently been under water near a minnet but these all put [words missing] is not as bad as Mississippi dust [words missing] the 5th inst. we rejoined the reg at this [words missing] While we were at Black land one [words missing] [company?] (Wm. Dennis) was taken [words missing] came back here and went into [words missing] pital where he remained untill day [words missing] yesterday when he died. He had the Typhoid fever. Yesterday we buried him. The manner of burying a soldier is as follows: in marching to the grave the band takes the lead on foot playing a plaintive tune. Next comes eight men on foot from the company to which the deceased belonged. These are termed the escort and they are fully armed and equiped. [insertion above \"equiped\"] armes reversed [end insertion] After the escort comes the ambulance bareing the dead and [words missing] it is led the deceased's horse full [words missing] soned after which follows the remainder [words missing] [company?] in regular order keeping step to the music"
        },
        {
            "pageid": 52051,
            "pagefilename": "04b5570b17fbfac71c2ac05d981d82de.jpg",
            "pageorigfilename": "http://publications.newberry.org/civilwarletters/archive/fullsize/6feab5fbb8531043baaa4e62a8ce108b.jpg",
            "transcription": "When arrived at the grave the proceedings are about the same as in civil life. Co. D. has been going home by platoon lately being discharged because they were not able to stand the service. On an average we have thirty-five men able [words missing] duty. July 12th this reg. went [south?] [words missing] here fifteen miles on a  scout, or rat [words missing] started on the 12th about four o clock [words missing] That evening we went out about te [words missing] then turned off on an old track and [words missing] down hill another mile crosed a [small?] [words missing] tunnel into a small field and laid d [words missing] the ground for the night meen time holding our horses by the haltars of course a sufficient number was detailed for pickets. I never saw such hill thrown around a little stream as there was there. I thought we were comeing upon a roaring rushing foaming mountain torent but instead there was a poor puny stream that hardly made a run of it. When I looked at the hills and then at the stream it looked very much like like employing a five dollar beaver hat to protect three cts. worth of brains. Either one or the [other?] [words missing] a waste of raw material. If these hi [words missing] been judiciously used they would have [words missing] states as large as Rhode Island"
        },
        {
            "pageid": 52052,
            "pagefilename": "42e790a5d7898e50cb30cedeec7a3339.jpg",
            "pageorigfilename": "http://publications.newberry.org/civilwarletters/archive/fullsize/2c34051cdc96d027596a4dc9ef2e6663.jpg",
            "transcription": "1st \nCourtland, Alabama, Lawrance Co., Aug. 4th, \nDear Sister, While we were camped at Jacinto Tishomingo Co. Mississippi I received a letter bareing date of July 13th to which was attached your name in glowing and unmistakeable characters. It was the first letter I had received from home for a long time though I had writen you four times. I suppose you will eventually get those messages so that I kneede not go over the same ground again. Directly after receiving your letter it and I in company with the 7th reg Ills cav was on the road to this place. We prepared to take up"
        },
        {
            "pageid": 52053,
            "pagefilename": "d789c7ea876b41bde09c48a0f160aba1.jpg",
            "pageorigfilename": "http://publications.newberry.org/civilwarletters/archive/fullsize/f059d815a225f36f211c2a6785f3f290.jpg",
            "transcription": "2d \nour line of march on the twenty first of July but we dident start until the 22nd. I wrote to Caroline a few days before we started and I told her that we wer under marching orders but at that time we didnot know where we were going to though we thought we were going to Nashville, Tennessee but that time guess work dident hit. The first days march without any thing of importance transpiring or without much interest to us as we dident get but little outside of our scouting boundary. At night we turned of the road we were pursueing on a road leading to Inca and camped. That night it rained upon us very hard for about eight hours so that every stitch of clothing or bedding we possessed was thouroughly soaked with water. The next day we passed into the state"
        },
        {
            "pageid": 52054,
            "pagefilename": "d62c62bcbd7d0d656f5a8ec1d8fc9cf8.jpg",
            "pageorigfilename": "http://publications.newberry.org/civilwarletters/archive/fullsize/aef10e17dd04b6e1d6bc5aaae7c89ef2.jpg",
            "transcription": "3\nof Alabama. I dident see any thing of the state line but I saw some large hills with large and small rocks strewn promiscuously over them. The large stones grew in patches like hazel bush some of them protruding a bulk above ground equal to a smoke-house. Towards evening we decended an immense hill and found our selvs in the valey of big bear creeke and here we saw some sublime sceneries such as huge rocks that no Ajax might heave, immense bluffs from which protruded purpendiclar rocks the whole crowned with towering pines and cedar bushes. On that bottom I saw a spring gurgling up from among the stones that exceeded anything I ever saw before in the line of springs. There had been a splendid bridge thrown across bear creeke"
        },
        {
            "pageid": 52055,
            "pagefilename": "6fe3c72ed6f18e5c203cb99cdbbacf07.jpg",
            "pageorigfilename": "http://publications.newberry.org/civilwarletters/archive/fullsize/3f9d86744f0a573ce09ce95cd39a73dd.jpg",
            "transcription": "4 \nat the point we struck it but that interesting little animal called secessh had destroyed it but it hindered us but little as a good ford was found half a mile below. That stream is about the sise of spoon-river. We camped but a short distance on this side of it. The next day July 23 we passed through the best farming country that I have seene since we left Ill. and luxuri crops of corn and cotton was growing upon it. The fences in places consisted of smal stones piled up in a long string, it was the first fencing of the kind I ever saw and my impression was that it would be quite durable. I think Father better try the same kind of fencing material. During the day we passed some wealthy plantations. We saw twenty-three negroes at work in one little patch of cotton"
        },
        {
            "pageid": 52056,
            "pagefilename": "49c712703f1981faec321bf60de0af60.jpg",
            "pageorigfilename": "http://publications.newberry.org/civilwarletters/archive/fullsize/a37d47d30d6630051938aaf0eb2455dc.jpg",
            "transcription": "9\nback and forth the wholl day [scoreing?] it to those that could not keepe up and if the worthy brute got tired of whipping he would make one of the slaves do it and he said he would rather be whiped twist by a white-man than by a slave once for the slave knows that if he does not put in his best licks he will get it himself. The slaves have imbibed freely of the idea that this war will eventually free them. If the government was to take the proper steps in arming or if they were insured their freedom they would seized arms with joy and fight like tigers. A negroe overseere is not a creature of the immagination nor a speeces of animal that existed during the antedeluvan ages and finally became extinct"
        },
        {
            "pageid": 52057,
            "pagefilename": "b9fcaee0b2c57d3dabb73629bc6aaf58.jpg",
            "pageorigfilename": "http://publications.newberry.org/civilwarletters/archive/fullsize/cc3ce9c4eda8bc0330a1eb404f26b1e8.jpg",
            "transcription": "10 but they are here where we are and I have saw them riding about generaly with a handy little raw hide in their hands. . The weather is quite-warm here. We are enjoying an abundant peach and apple crop young corn is no rarity with us and we frequently have watermelons. Sometimes we press a bee hive into service. The day we arrived here our mess of ten men had seven chickens for supper. You would display no military turn of mind in asking if we pay for these things. .. Did Henry go to Indi to stay if so what induced him to take such an unaccountable steps. I want Mother to let out all the money, I send home, by the year if she can until further orders. I would as soon Chapman should have it as any one. Wm. wants his put out for one year"
        },
        {
            "pageid": 52058,
            "pagefilename": "8e2f5faaed1f4091fc802112a3005784.jpg",
            "pageorigfilename": "http://publications.newberry.org/civilwarletters/archive/fullsize/ccea25e65219f3c3b25c2a64f798b9a4.jpg",
            "transcription": "3 1st Page, 1862 \nCorinth, Mississippi, Oct 15th, Dear Sister, I suppose your all anxious to hear from us as it has been a long time since I have writen to you or any one else. We have been so constantly on the move that I have had no opportunity to write. We were at Courtland, Ala. when I received your last letter. On the 24th of Aug. we pulled up stakes and left there and after two days march we camped in the mountains eighteen miles south of Tuscumbia. There was but a part of our Reg. and a part of the 3rd Michigan there. After doing considerable picketing and scouting in that vicinity and having taken some rebels we struck our tents and started for Tuscumbia. We started about ten oclock at night Sept. 5th and arived at Tuscumbia a little before day. The next evening our reg. was placed on guard all around the city while infantry and bagage trains were evacuating the place and going west with all possible dispatch. About midnight, the place having been evacuated sevral hours, we were called off and followed on after the rest and we traveled on double quick until we caught up. Sept. 7th we marched all day and set down at night on buzzard-roost creek near Buzzard-roost station. That night we got a good sleep with the exception of getting up at three o clock in the morning. . That was the morning of the 8th and we had to travel back sevral miles to guard a railroad bridge until some cotton could be hauled off. Sept. 11th we marched on and stopped a few miles west of Buzzard-roost and near twelve o clock at night. Sept. 12th arived at Big-bear creek. Co. D was left to guard a bridge and supposing we were going to remain sevral days we put up our tents erected tables etc. etc. but about nine o clock having just gone to bed and while it was raining and darker than Egypt the order came for us to pack up and travel and a little before day on the morning of the 13th we arived at Iuca where we unsadled and laid down for a short nap. But about sun up we were roused up by the reports of firearms and before we could roll up our beds and saddle artilery as well small arms began to play showing that things was rapidly coming to a crisis. We stoped on the north side of town while the alarm was on the south side. We passed through town on the double quick raising an immense volume of dust from the"
        },
        {
            "pageid": 52059,
            "pagefilename": "e9522b68a22d1e5b9b9034773c318080.jpg",
            "pageorigfilename": "http://publications.newberry.org/civilwarletters/archive/fullsize/9d96ba60e3dd1b4f820777f9021f6799.jpg",
            "transcription": "2nd page \nthe dry streets the rain I spoke of not having reached Iuca. The citizens of Iuca especialy the females and negroes was in a frantick state of alarm. When we arived at the scene of action we found that the rebel cav. had been quite up to the breast-works but had fell back to a long gunshot. Our reg. immediately passed out formed in line and charged. We drove the rebels over a mile where they were strongly reinforced insomuch that they outflanked us both on the right and left. Co. D was on the extreme right and for a little while we were in pretty close quarters there first thing we knew we were left unsuported the order having been given to pull back without our hearing it and before we were aware of our predicament the rebels were well nigh all around us and then we skedadled. A great many rebels fired at us at not more than ten paces distant yet there was not a man in Co. D killed but the Co. lost three men taken prisoners had sevral horses wounded and lost on in the mud. We fell back and formed in line in front of the breastworks and stood there all day but there was but little more firing. In the evening we reconoitered out over a mile on the road the rebels had came in on and a part of Co. D, Wm. and I among the number was left on picket. Nothing of importance occured during the night of importance but early in the morning we heard a gun a short distance in advance of us and a few minutes after we saw the rebels advancing. We fired upon them whereupon they fronted into line without halting or resuming the fire. We fired as fast as possible and fell back as slow as we could. The union force at Iuca consisted of the 8th Wis. infantry two companies of sharp shooters two guns and about one half of our cav. A rebel we took at Ripley the other day said they had three reg.s of cav. and a large force a few miles back. . Colonel Murphy of the 8th Wis. was in command. On the morning of the 14th as we were driven in off picket we were astonished to find the town wholy evacuated a large amt. of flour, salt and cotton being left behind. There was about twelve of us in Iuca and a large force of rebels in sight. We concluded not to hold the place so we skedadled in a hury and after running about four miles we came up with the rear-guard. Major Nelson having been hurt the day before Capt. Webster was in charge of the rear guard and more than that he was as drunk as whiskey could well make him which accounted for our being left on picket the way we was. The rebels fired upon us some during the day dident do much hurt"
        },
        {
            "pageid": 52060,
            "pagefilename": "67f2970827512d16c4d8dcbeccea5b05.jpg",
            "pageorigfilename": "http://publications.newberry.org/civilwarletters/archive/fullsize/29b84e7c3b8b5e3bbc26f36f48c4575d.jpg",
            "transcription": "15 Oct 62 p3\nthen it changed to the center and was very severe for a while, about nine o clock there was a lull but it was portentous for the rebels soon advanced in great force on our right. Heavy seige peices  within forts and field peices boomed away in voleys making Corinth tremble upon its foundation and musketry rolled in volumes yet the rebels advanced and without running and without noise they marched up to the only fort in that quarter. Some were killed in the dich and some were blown away from the fort in torn shreds others were killed while climbing over the guns yet they took the fort and advanced into town. The fight was now transfered to the streets. A partially finished battery of heavy guns in the center of town now opened upon the rebels with terible effect insomuch that they fell back closely folowed and again the fort they had taken opened upon them and slew them with a great slaughter. The rebels also lost a good many of their men taken prisoner in this last movement. It was near noon when the rebels commenced falling back and they never halted in the vicinity but continued to retreat. About one o clock Gen. Grants division began to pour in but they were a little too late the victory had been won. In the evening our reg. went to our camp and for the first time we saw the recruits that had come to fill up our company and again saw our quinine brigade (as we call them) or those that are never able for duty or at least never ready always having some excuse such as a lame horse or a horse with a soar back a boil on their own posterior the tooth-ache or something else. Early on the morning of the [illegible] we left the quinine Brigade and the recruits, as they have no arms or saddles yet and started in persuit of the Butternuts. Our reg. and the 7th Kansas cav. (whith whom we are brigaded) a small force of infantry and two guns went out on the same road that we came in upon, on the night of the 3rd. while a large force folowed right after the rebels. The first night we camped on our old posis. 15 miles west of Corinth, and near Kosouth. During the night Co.s D &amp; K went to Danville near Rienzi to see if we could find any rebels. Oct. 6th we camped on the Hachie and caught a rebel picket force there without fireing a gun. The next day (7th) we advanced cautiously towards Ruesserville expecting to find a large force there"
        },
        {
            "pageid": 52061,
            "pagefilename": "38802802c69e0d3d83702e616c20443f.jpg",
            "pageorigfilename": "http://publications.newberry.org/civilwarletters/archive/fullsize/7bd34d9048b75897a7f48c61528b22e4.jpg",
            "transcription": "and shure enough we did but they were Union troops which had reached there in advance of us. Towards evening the 7th Kansas and our reg. took the lead for Ripley. We drove a strong rebel picket about eight miles and entered Ripley about one o clock at night. Oct. 8th sevral scouting parties were sent out. Co.s H &amp; D took a rebel who had been at the fights of Fort Donnelson, Shilo, Iuca and Corinth. On the night of the 10th we were out scouting. On the night of the 11th Co. D was on picket and it was a dark wet cold night. At 12 o clock on the night of the 12th we were routed up to go to Corinth via of Rienzi and guard through a long train and some prisoners, we arived at Rienzi in the evening of the 13th and staid all night. The next day (14th) we arived at Corinth and we were right glad to see our quinine Brigade and new recruits after having been away from them so long. We have settled down here and formed a regular camp as if we were going to remain here sevral days and rest. . There is no crops within six miles and the earth is thrown up into piles and riges to protect men from bullets and the timber is filled to prevent charges. ....... Capt Reynolds received a letter making inquiries about us. After this I won't give you so much trouble for if I have no chance to write a letter I will write you a line with a pencil. Wm. and I are all right and kicking. The secesh haven't got us and won't be likely to as long as we have good horses. . Our horses was valued at the highest figure or one-hundred dollars each. I don't know when Uncle Sam is going to pay us for them, he already has his mark on them. We wanto hear from you as soon as possible. I must bring this lengthy letter to a close and go and wash a shirt for I haven't washed one these six weeks past, but hoping to hear from you often. I remain your affectionate brother, Chas. W. Gallentine. P. S. Direct to Corinth, Miss."
        },
        {
            "pageid": 52062,
            "pagefilename": "603fcd442744e5c7511b89e2ced5dca7.jpg",
            "pageorigfilename": "http://publications.newberry.org/civilwarletters/archive/fullsize/d5346e9394239093516c6c7c55cc1d36.jpg",
            "transcription": "1862 \nBolivar Tennessee, Nov. 2nd, Dear Sister, I improve my time this evening by penning you a few lines in order that you may know that Wm. and I are in good health and have plenty to eat. After I wrote you last we settled down at Corinth and nothing of importance transpired while we remained there. We drilled with our new recruits, stood picket went forageing etc. On the 29th of Oct. we received marching orders and on the 30th we started, got into Corinth and stood there all day. While there I saw Steven Thurman he was not very well. In the evening we traveled sevral miles out of Corinth and stoped. On the 31st we marched all day. Nov. 1st we reached this place in the evening and camped. We came pretty nigh starving to death on this last march. During the three days we were out I subsisted on three biscuits or rather the first day I had three biscuits and after that nothing. You don't appreciate what a favor it is to have plenty to eat. I don't know of any regiment that gets starved as often as we do. While I write an order comes for us to be ready to march in the morning at day light with five days rations and 250 rounds of cartriges. There is going to be a movement made from Corinth and this place perhaps on Holly-springs. The 103ed Ill. infantry and sevral other regiments arived here to day. The 103 is from Fulton Co. Dickesman formerly our quarter master is Colonel. To day I saw Henry Harris, Robert Little and had a chance to wish Jo Cone much joy in his matrimonial relation. This town is considerable of a place and fortify to some extent. I was in hopes that we would remain here sevral days. The Hatchie a beautiful clear stream of water runs within one hundred yds. of our camp. Our recruits are not all armed and are not all going with us tomorow. I will leave this with some of them to start it. I don't know"
        },
        {
            "pageid": 52063,
            "pagefilename": "a906bce9c02551b4bcbe0d0ae26839b4.jpg",
            "pageorigfilename": "http://publications.newberry.org/civilwarletters/archive/fullsize/12cdf61861fe9a792b721986ec888a36.jpg",
            "transcription": "where we will stop next. It has been a long time since I had a letter from you. Probably I will get one in a day or two. I wish you would send me $0.50 worth of postage stamps for they cost five cts. a piece here and I haven't but fifteen cts. in money and that is borowed. I guess you had better direct to Bolivar Tennessee. I will write again at the first opportunity. For the present good bye. Charles W. Gallentine."
        },
        {
            "pageid": 52064,
            "pagefilename": "62f03c2b3e009b7d011bb30e849f4868.jpg",
            "pageorigfilename": "http://publications.newberry.org/civilwarletters/archive/fullsize/c870d3ebe3d9675d26898eccbd585e28.jpg",
            "transcription": "La Grange Tenn. Jan 17th 1863, Dear Sister, A great many circumstances have combined to keep me from writing for a long time but I improve the present opportunity of writing you a few lines. William and I are both well and neither of have been taken prisoner or hurt. About the first of December Gen. Grants Army moved southward from this place the Cav. taking the lead but I cannot enter into the details of the skirmishes and incidents that transpired on the way. We passed through Holly Springs, Oxford and other towns on to Coffeeville. After we passed Oxford we picked up a great many prisoners some fifteen hundred in number. On the third of Dec. our reg. and the 2nd Iowa had a skirmish with the rebels at Springdale. There was ten rebels wounded and two men of our reg. wounded. The next day Dec. 4th the 2nd Iowa and our reg had another little fight at Watervaley. Companies A, G and D were dismounted and put in the bush the remainder of the reg. and the 2nd Iowa remained mounted. The rebel cav. made a desperate attempt to check us and without halting charged upon us but they charged out again full as fast. They left nine dead on the ground and we took near one hundred prisoners. I don't know how many they had wounded. We had one man killed and sevral wounded. John Wine of our Company was wounded in the calf of the leg. That night we camped at Watervaley and it rained all night."
        },
        {
            "pageid": 52065,
            "pagefilename": "59f7518a9bf9c870f28e8d9d272131b9.jpg",
            "pageorigfilename": "http://publications.newberry.org/civilwarletters/archive/fullsize/d8d7a32800af3b15504cde84c0f3d27f.jpg",
            "transcription": "The dead rebels lay in the mud and rain until morning. At that time our infantry and artilery was a long way behind having been detained at the Tallahtchie where the rebels burned the bridge. The rebels had powerful fortifications at the crossing of the Tallahatchie but they abandoned them after making just stand enough to stop our advance of cavalry. The Tallah is about eighteen miles from Holly springs and sixteen miles from Oxford. On the 5th of Dec. the 7 Kansas, 3rd Mich., 5th Ohio, 2nd Iowa, 7 Ills. Cav. regs. advanced from Watervalley towards Coffeeville the mud being tremendous deep. The rest of the Coffeeville affair you know as well as I do. The rebels was too strong for us. Our advance was driving in their pickets when suddenly they formed themselves on a long line of rebel infantry which arose and poured in a volley. We continued to skirmish with them awhile when all at one the commenced to advance on the double quick and folowed us four miles or until after dark. Our cav. was formed in line after line but the rebels outflanked us farther than we could see so that ever line we formed gave way after delivering one tremendous round. Some of our regs. was armed with revolving rifles which shoot five times without reloading and when they delivered their fire it was awful to hear. I don't know how many was killed on either side. We fell back to Watervaley and at midnight just after we had gone to bed we were routed up (it was raining hard) and went back sevral miles farther. There was two men of our Company wounded at Coffeeville and the Captain and thirteen men was taken prisnors. I have just received a letter from George E. Edrington of Galesburg who was taken at Coffeeville he is at home and he sends me the power of attorney so that I may draw his pay if we are paid before he returns. Some of the boys dident get home but are in St. Louis. They complain of poore feed"
        },
        {
            "pageid": 52066,
            "pagefilename": "945b64d6fad4e6b509254f9431805fb5.jpg",
            "pageorigfilename": "http://publications.newberry.org/civilwarletters/archive/fullsize/35ca0d13cd029762703831d05b8f1238.jpg",
            "transcription": "3ed page  \nwhile they were in the hands of the rebels. In a few days after our fight at Coffeeville the 2nd Iowa and our reg. took a scout through Pontotoc and south of there some thirty miles to Tupelo, Harrisonburg, and Saltilo. We were there two weeks without a ration but got what we could in the country to eat and we took every horse and mule we could find. We took a few pris and eigh secesh wagons eigh six mule teams 125 new tents that had never been streched sevral boxes of canteens a large quantity of corn meal two casks of whiskey etc. etc. We had to burn the things as the roads was so bad we could not get away with them. As we came back through Pontotock the rear guard of a large force of rebels was just leaving town. The force consisted of Cav. and mounted Infantry. It was the same force that made the decent on Holly Springs. Their rear guard formed in line to receive us but they were as many as five to one of us so we let them be and they dident trouble us. We then took another trip to Coffeeville we found but few rebels that time. We took sevral other scouts in truth we have been in camp but very little for two month. When our army commenced falling back the Cav. started the other way and made some demonstrations. In comeing back the 2nd Iowa and 7th Ill. had to swim the Tippa river a rapid stream with ugly banks. Some streams we so bad that we had to drive"
        },
        {
            "pageid": 52067,
            "pagefilename": "d1e758eb82f952ea569f3efd76c667ae.jpg",
            "pageorigfilename": "http://publications.newberry.org/civilwarletters/archive/fullsize/16df0af98b1a46ebf847d496a8fbbaf6.jpg",
            "transcription": "our horses over and carry our equipage over on a log. Colonel Murphy of the 8th Wisconsin infantry was in command at Holly Springs when the rebels attacted that place and he surrendered his reg. without fireing a shot the 2nd Ill. Cav. doing all the fighting that was done. Murphy was sent to Memphis in irons. He is the same man that caused such a bother and so much hardship for our reg. and his own at Iuca. I hope he will be shot. Our reg. arived here on the 12th inst. The weather has been very cold her for a few days. The snow lays four inches deep. There is a vast amount of sickness in our army brought exposier and bad weather. The winters is a great deal more disagreeable here than up there though it is not so cold. Holly Springs, Oxford, Coffeeville and Pontotock are county seats so you can find them on the map. A large part of Gen. Grants army is gone somewhere the report is that some have gone to reinforce Rosencran and part to Vixburge. This Company is under the command of Lieut. D. W. Bradshaw. We have not had any pay yet but it is rumored that the paymaster is paying off the troops at Memphis. The last letter I had from home was writen by HCL. Who is he? Is he married? how old is he? What made him sign Mothers name Mary Jones? Did he catch any fish? Is he not trying to catch a shad? I understand that there is censiderable among the people of Ills. about the emansipation of slaves. I believe it would be a good thing if the rebel cav. would make a raid into Ill. then the people would realize that there is war they would not be so fastidious. I hope to hear from you speedily. Your affectionate brother, Charles W. Gallentine"
        },
        {
            "pageid": 52068,
            "pagefilename": "ef1e9f81e5aeb54671326a37e10b5564.jpg",
            "pageorigfilename": "http://publications.newberry.org/civilwarletters/archive/fullsize/1eee38c0492d7c1dac4deeca784ff342.jpg",
            "transcription": "6\nincompl\nQuarters/Company D 7th Illinois Vol. Cav., La Grange Tenn. March 9th 1863, Friend Charlie... I have just received your welcome letter of Feb. 18th so you see it has been detained a long time by the mail which will excuse any apparent negligence on my part in not answering it sooner... The mails has been very irregular lately on account of the railroads having been broken in various places in this section by the unremitting constancy of the rains and consequent high water: but of course your letter would come through or burst its envelope and through it did come brim full of news and humor. And that was not all for accompaning the letter was a couple of beautiful valentines (not gallentines) one for William and one for myself and you will please accept our thanks for the letter and more especially for the valentines. I dident consider it necessary for me to keep the valentine in order to show my respect for the sender so I sent it to another person that they too might have an insight into the mystiries of and the realities of life. I wouldn't wonder if you was to hear from it again anon. I am in just medium health not very well nor very ill. William was in good health yesterday morning how he has got along since then I cannot say. This regiment and other reg.s and parts of regiments started out on an expidition yesterday morning to capture a rebel camp said to be within twenty miles of here. I was prevented from going with the company by unforeseen events. We have done a great amount of scouting in various"
        },
        {
            "pageid": 52069,
            "pagefilename": "a8ed80112834d7a2ac172a6fd11ac96f.jpg",
            "pageorigfilename": "http://publications.newberry.org/civilwarletters/archive/fullsize/4d107a50cbef6bed49247c7f4165efe8.jpg",
            "transcription": "directions from this place. There has been three Cav. reg.s camped here during the winter and there has been a battalion more or less out nearly all the time notwithstanding the bad weather and muddy roads. The first battalion of this regiment, (that is companies A, G, D &amp; K) were out on a two days scout. We took a circle around pretty nigh to Hollysprings and captured two secesh officers and one that wasent an officer but who made it his especial business to skulk about and pop over unlucky cotton buyers and rob them, he may be summarily dealt with. There is a great activity at present in the removal of infantry from this place and other points along this railroad line. They were going all last night and still continue to go. While I write I can hear iron horses running, wheezing and whistling and now and then a train loaded with soldiers rattles off as if the old scratch was after it. The troops are going by rail to Memphis but I don't know where they go from there. It is my opinion that every thing is in readiness at Vicksburge for the grand assault and that all the available troops are being drawn from the various points to participate. Whether there will be any use for cavalry at that place or if there is whether or not this regiment will be called upon I cannot say. This place may be entirely abandoned and it may not. The ways of those in command are inscrutable and past finding out. I have quit makeing conjectures as to the probable termination of the war but we are certainly nearer the end than when we first began. I suppose the copperheads in Illinois would rejoice to hear of our being defeated at Vicksburg but there will be a day of reckoning for those vill traitors. But I am not going to comment upon their evil doings words don't reach their case. Like a passionate man that I once knew from whom the most trivial vexation would call forth a torrent of oaths he was upon a certain time hauling turnips up a steep hill when the end gate came out of his wagon and the turnips tumbled out and rolled to the bottom of the hill. He looked at the spectacle a moment"
        },
        {
            "pageid": 52070,
            "pagefilename": "c837367ff201e5492397f8e2e76b43c3.jpg",
            "pageorigfilename": "http://publications.newberry.org/civilwarletters/archive/fullsize/99b6a53de3e4629030f74ea263b30045.jpg",
            "transcription": "Memphis, Tenn., Aug. 18th 1863, Dear Sister, I received a letter from home a few days since a part of which had been writen on the 30th of July and a part hadent. A part had been writen by you and a part hadent and I was glad to hear that if you were not well that you were getting well, may these lines find you entirely recovered. We remained camped on the same ground we occupied when I wrote to you last, and there has but few events of special interest transpired so my letter will be short and prosey. This company, with others in all about 150 men, has been on one little scout of three days and went pretty nigh around Memphis at the distance of seventeen miles more or less. We crossed some pretty ugly streams, one that we had to ferry, a recent rain having caused the creeks to get on a high. Every thing was quiet in this vicinity, we only saw one rebel during the scout. We saw where four gurrillas had stopped five days loaded with cotton within eight miles of Memphis. They burned the cotton and took the mules with them. Government had nothing to do with the affair... Citizens suffer more from the gurrillas than uncle sam... The prospects are very favorable at present, for a speedy termination of the war. It might have been ended long ago if there had not been so many traitors in the north, as it is a sufficient number of men"
        },
        {
            "pageid": 52071,
            "pagefilename": "2841fccee06f4cac4be533ccdfd6e547.jpg",
            "pageorigfilename": "http://publications.newberry.org/civilwarletters/archive/fullsize/eee875cd767f8b9924703614354e0460.jpg",
            "transcription": "would not enlist so that a draft had to be enforced, the draft goes forward very tectiously and at a great expense owing to the opposition by northern traitors. Those copperheads not only keep men out of the field but they are a source of great encouragement to the southern rebels. Those two-hundred rebel officers that we guarded up the river from Port Hudson, rejoyced with exceeding great joy over the news of the riot in New-York Boston and other places that was the only encouragement left them all else was dark and discourageing. They had lost much valuable ground with many thousand men but the draft in the north had been openly resisted and on that fact the rebels formed their hopes of a southern Confedracy. The weather is exceedingly hot down here in the sunny south but as far as I know the health of our army is tolerable good but all those soldiers that run into excesses of various kinds, soon take up their quarters in the hospital, such at least has been the case in this regt. There is three men from this company in the hospital and six in the guard-house, there is thirty or forty in the guard-house from the regt. one with a ball and chain attached to his ancle. One commissioned officer of this company is under arrest. Taking all these things into consideration you can have some little idea how bad the men act while camped so close to this big wicked city. If Memphis was weighed in the ballence it would be found wanting ten righteous men to save it. A number of men belonging to this regt.have been robbed in Memphis, generaly while in a state of intoxication or at houses of ill fame"
        },
        {
            "pageid": 52072,
            "pagefilename": "87211d7acf7ec47acf53ac40b4f29d8e.jpg",
            "pageorigfilename": "http://publications.newberry.org/civilwarletters/archive/fullsize/215592a41f17d171faea96148adf07fd.jpg",
            "transcription": "One man belonging to company D was robbed of one-hundred dollars at one time and thirty-five at another. Hostilities will not be carried on very actively I don't think until we have cooler weather and consequently the war news will be meager for some time to come. The Yankeys though seem to be determined to take Charlestown without further delay..... I think it was very kind of Mr. Lincoln to write a letter for you when you couldent do it for yourself. Tell him that I am very much obliged to him and that I consider it a great favor to be permitted to read his beautifully composed and well writen epistles. I would like to see Mr. Lincoln. If he becomes my brother-in-law I suppose I will have an opportunity to see and form an acquaintance with him. But Sarah if you get married before we get home I will always think you shouldent oughter have done it. I recon you had a good time up at Davenport and Rock-Island but I don't see how it happened that you got so far from home. Wasn't you skeered when you thought of the long miles that interveened between you and Mother. I advise you to run away from home as often as possible and let that lazy Nancy and lazier Josephine flourish the dish rag and go through the manual of broomsticks, attend the comisary department and clean up camp, order them to march up to the wash tub and charge upon the cook-stove for it will do them good. It will develop their mussels and give them experience in an important branch of the service"
        },
        {
            "pageid": 52073,
            "pagefilename": "3f5366b527a73eabf2e3627db78b3761.jpg",
            "pageorigfilename": "http://publications.newberry.org/civilwarletters/archive/fullsize/1fc6f8eba4013639d22cabc8e7f9d576.jpg",
            "transcription": "The next time you write, report to me your prospects for fruit this fall, such as potatoes, apples, peaches, pears, plums, grapes and cabbages. Is old dan alive yet if so does he ware specks. Is the front fence painted. Good Night. C. W. Gallentine"
        }
    ]
}