{
    "id": "1338",
    "cataloglink": "https://mms.newberry.org/xml/xml_files/Dodge.xml",
    "pages": [
        {
            "pageid": 112621,
            "pagefilename": "bb93e562313242699ff9fd57010f13c3.jpg",
            "pageorigfilename": "GR_1110-8_0001a_o2.jpg",
            "transcription": "No 2.\nNov. 5th 78\nto\nDec. 10th 78\nTurkey hunting"
        },
        {
            "pageid": 112622,
            "pagefilename": "855c5bc2b091054018109e5d33afc91a.jpg",
            "pageorigfilename": "GR_1110-8_0003a_o2.jpg",
            "transcription": "talked to him & were talked to by him all the way to Emporia. Capt Rose 16 Infy joined our party at Junction. Plum is remarkably posted on & has kindly feelings for the Army. Supper at Emporia.  Remington joined us there. Arrived at Parsons 11 30 & had to wait until 2 for train. Got sleeping berths but did not sleep well. A consumptive man kept up a"
        },
        {
            "pageid": 112623,
            "pagefilename": "2f6d54b797704103458cba340a4d171d.jpg",
            "pageorigfilename": "GR_1110-8_0003b_o2.jpg",
            "transcription": "continuous coughing under me. The car was full close & dirty. Rose & I had an oyster stew in Parsons. This is a lovely country. The Neosha Valley is a garden spot."
        },
        {
            "pageid": 112624,
            "pagefilename": "87359b2b281efe3cb49470ec42fb1e52.jpg",
            "pageorigfilename": "GR_1110-8_0004a_o2.jpg",
            "transcription": "Nov. 6th\nWas roused early & found Gibson & his clerk on Bd.  Seems  that a larger party is to go from Caddo to Sill. 16 persons arrived at Caddo at 2 30 pm. No transp'n  from Sill. We hoped to find it here so we could go out a few miles camp & wait for balance of party.\nStopped at Hotel R.R.  For our evening we went out to look for chickens. I found none, but Rose"
        },
        {
            "pageid": 112625,
            "pagefilename": "ae60ac807998168d6dcdf717e55bdd4c.jpg",
            "pageorigfilename": "GR_1110-8_0004b_o2.jpg",
            "transcription": "got one.\nNov. 7th\nGood nights rest. Wanted to go hunting, but waited for for the transp.   Gibson who got off yesterday to pay Lt Gibson arrived in the night, but owing to his going off to other Hotels went without a bed all night,  Rose had a D_l of a nightmare & roused the house.  Last night I called on Mrs. Marchand formerly Miss Young of Leavenworth now a wife & mother of two children. She & husband wanted me to dine today but I"
        },
        {
            "pageid": 112626,
            "pagefilename": "348f4c383c5eab91f20d9aacf4209a96.jpg",
            "pageorigfilename": "GR_1110-8_0005a_o2.jpg",
            "transcription": "declined on a/c of the hunt. At 2 30 pm Mrs Davidson & 2 other ladies arrived. Also Genl Smith & Capt Taylor. We are now all ready & start tomorrow am  11 offs 3 ladies. The transportation unclear St Lassiter arrived at about 12 noon.   Mrs. D had tents pitched  for herself & the other ladies, and went into Camp.   I suspect she has spent all her money sent & cant afford the Hotel Bill. Just at nightfall saw a chicken light in a corn field & went after him. Found six or eight, but"
        },
        {
            "pageid": 112627,
            "pagefilename": "7c91325205f47c30b353adcf2079226d.jpg",
            "pageorigfilename": "GR_1110-8_0005b_o2.jpg",
            "transcription": "so wild I could get only the longest shots. I tried 3 times, wounded all but bagged only 1 bird. Gave it to the ladies for breakfast. Wrote to Father & Mother - Bought bread beef sausage apples eggs unclear for mess. Went to bed 10pm.\nNov 8, 1878\nStarted about 8 30 am-   There is always trouble & delay in getting started.  Van, myself, Remington, & Rose in one amb. Gave a Negro man unclear & food to Sill for his unclear. A couple of Indians in"
        },
        {
            "pageid": 112628,
            "pagefilename": "c34a2b478a0e5763e7744116bed41ec2.jpg",
            "pageorigfilename": "GR_1110-8_0006a_o2.jpg",
            "transcription": "front of us frightened up a flock of turkeys, we followed, They lit in a thicket but all ran, except one which squatted a while. [?Mr V] was fortunate enough to stumble on a bag. I saw none. Rose saw them but got no shot.\nArrived at camping place 1 30 pm. Took a nap but was so shaken up with the miserable side seated ambulance that I didn't go out to hunt. Delightful day and pleasant evening.\n18 miles"
        },
        {
            "pageid": 112629,
            "pagefilename": "f635fba55e8e14618b1f85fb1920bfe2.jpg",
            "pageorigfilename": "GR_1110-8_0006b_o2.jpg",
            "transcription": "Nov 9th\ngot out of camp soon after daylight to get ahead of Mrs. Davidson who in pure perversity will go ahead and drive the game away. It was no use. She overtook us in an hour.\nStopped at the Blue 10 miles, a lovely stream clear as chrystal. Can plainly see the bottom in 6 feet water. Tried very hard to get some fish but got not even a bite. Van & Rose went hunting. V saw nothing  _ When I was tired fishing. I went"
        },
        {
            "pageid": 112630,
            "pagefilename": "3458e3db21bbbbd40b4ff06bfb0e6794.jpg",
            "pageorigfilename": "GR_1110-8_0007a_o2.jpg",
            "transcription": "back to ambulance & he & I had lunch. Shortly after Rose came in, in a great state of excitement & said he had mortally wounded a deer & wanted us to go help him find it. We went & we looked but found no deer. Rose also claimed to have seen a large flock of turkeys & some ducks. He brought in 4 quail.\nWe then hitched up & came on to camp on Pennington Creek. Getting in to find all our tents pitched & every"
        },
        {
            "pageid": 112631,
            "pagefilename": "48b33839ffe90dbc78ca89c2cd612141.jpg",
            "pageorigfilename": "GR_1110-8_0007b_o2.jpg",
            "transcription": "thing prepared for a rain which soon set in & continued all afternoon. Had an excellent dinner in spite of all & enjoyed ourselves, but failed to have our afternoon hunt.   Played 5 cent poker with Van & others until 9 pm. took a drink. Turned in. Wrote this & am now on the sleep. It has cleared off beautifully. Distance today claimed to be 22 miles is really about 17 or 18"
        },
        {
            "pageid": 112632,
            "pagefilename": "8471ef213b30f7f315d020027d2e4434.jpg",
            "pageorigfilename": "GR_1110-8_0008a_o2.jpg",
            "transcription": "Nov 10 Sunday\nUp early. Gibson being evidently a man of bad conscience cannot sleep in the morning. The morning was murky & threatening, but cleared off & we had a lovely day.  Finding we are to pass a post office today I wrote to Father and Mother a short note. The rain made the road heavy & our mules are very poor.  The distance is called 22 miles & we were six hours. Camped on Rock Creek - a beautiful stream"
        },
        {
            "pageid": 112633,
            "pagefilename": "e76b44982d1bd83a86a6bfe37a5cf897.jpg",
            "pageorigfilename": "GR_1110-8_0008b_o2.jpg",
            "transcription": "clear as possible the bottom being perfectly clear at 6 or more feet. There are many bass in it - but the disgust I have this day contracted for the Bass Family I hope will be [avenged?] on it by my family to it's latest generation. I saw a low bank under which was deep water. Creeping on hands and knees, I got position & silently dropped my line with the hooks each hidden by a tempting grasshopper. There was a dash & a swirl & In a moment I could see some 15 or 20 bass & almost as"
        },
        {
            "pageid": 112634,
            "pagefilename": "1d4e796503f248a6ae8e97c4002d4b82.jpg",
            "pageorigfilename": "GR_1110-8_0009a_o2.jpg",
            "transcription": "many sunperch surrounding] the bait at a distance never less than 2 feet. They ?...nity held a council for after a few brief moments the leaders  a pair of bass of at least 1½  to 2 lbs each quietly turned away & sailed off taking all the rest.\nBy hard & careful work I got 6 perch & 1  ch. cat.  only 3 quail. Rose reports shooting at another deer. A poor day for hunting or fishing. Hunt, Gibson Clerk got 1 small bass & 1 Cat. Distance 22 miles"
        },
        {
            "pageid": 112635,
            "pagefilename": "dbaa0a6536a73a2384566801b2da166d.jpg",
            "pageorigfilename": "GR_1110-8_0009b_o2.jpg",
            "transcription": "Nov 11\nStarted 7am. Had a hard time today with dysentery. Could not hunt or do anything but gripe & run.\nBeautiful country. Crossed Washita & camped 3 miles beyond the Paul's Valley - a lovely and fertile place. Here is a large store kept by a man named Green.  Bought some chickens. Wrote postal card to Father.\nSaw 2000 acres corn in one field. The party got some quail. I went to bed. Was sick all day, but better tonight.\nDistance 24 miles."
        },
        {
            "pageid": 112636,
            "pagefilename": "d8d14bfef41a3ab7b3ac81e6f4220bea.jpg",
            "pageorigfilename": "GR_1110-8_0010a_o2.jpg",
            "transcription": "Nov 12\nLovely day - quite good luck hunting the party getting 17 ducks & 8 grouse. Beautiful country. [tried?] fishing but [?]   there were plenty of bass. They would not bite. Pleasant camp.\n26 miles\nNov 13\nSick in night & sick all day. Killed 4 grouse & 1 quail in spite of sickness. Party got 7grouse 3 quail 2 ducks 2 snipe. Had I been well"
        },
        {
            "pageid": 112637,
            "pagefilename": "05e22244287a03ccb97c516726e3cd1a.jpg",
            "pageorigfilename": "GR_1110-8_0010b_o2.jpg",
            "transcription": "we would have got much more as was the best hunting ground we've had.\nNov 14\nRainy bad morning. Growing worse all the time. We determined to make the whole distance 28 miles & got in by 2pm after a very hard drive. Went at once to the Post traders? where we had secured rooms. as we intend to mess together at Sill. instead of staying with the officers. Smith - Taylor & the Pay Dept are provided for at the post   Our mess - Van -  Remington -"
        },
        {
            "pageid": 112638,
            "pagefilename": "c289a77d58bea84eae8f6ac648beb024.jpg",
            "pageorigfilename": "GR_1110-8_0011a_o2.jpg",
            "transcription": "Rose & myself take care of ourselves & are very comfortable. Davidson has done everything to make us as comfortable as possible. Pitched tents for our mess & cooking &c &c. Rained hard at night, but Remington & I went to the saloon & played a few games of billiards. Went to bed early.\nNov 15\nPayed my respects to Davidson this am before the Court met. Sat on Court from 10 to 2.35 on the trial"
        },
        {
            "pageid": 112639,
            "pagefilename": "b457aa924dfc294fecd0ff872ceca73a.jpg",
            "pageorigfilename": "GR_1110-8_0011b_o2.jpg",
            "transcription": "of Capt Lee 101th Cavy -. Tedious work. Wrote to Father & Mother -  also to Joe & Laura. Played billiards & received visits in evning - \nNov 16\nStill at work on court. Prosecution closed today. Spent evening at Genl Davidson's   Received lots of letters one from Julia, Father & Mother, both Kates &c.  To bed about 11 pm. Have almost entirely recovered from my dysentery"
        },
        {
            "pageid": 112640,
            "pagefilename": "669615f2930f909b902376d3bf41995e.jpg",
            "pageorigfilename": "GR_1110-8_0012a_o2.jpg",
            "transcription": "Nov 17 Sunday\nWent up to look at unclear ?Morietry?. Spent an hour pleasantly in Davidsons office.Then took a ride to the Indian farm to the Agency & school. Got a drink or two of very fine brandy from the Indian Trader. Good dinner thanks to Davidson who sent us a young wild turkey. Visitors & plenty of gass in evening.\nTo bed at 10 pm\nWrote to Julia"
        },
        {
            "pageid": 112641,
            "pagefilename": "97796882aaa8613a4024cf9df95657a9.jpg",
            "pageorigfilename": "GR_1110-8_0012b_o2.jpg",
            "transcription": "Nov 18 \nCourt martial again. Slow & very tedious.\nWrote to Gilman on the important potato question. Also a note to Cash -  With Van & Remington paid visits to all the people who have called on us except the Doctor - we will do him tomorrow. \nLovely day. Too beautiful to waste on a court. I ought to have been fishing. Letter from Father & Mother - all well -"
        },
        {
            "pageid": 112642,
            "pagefilename": "56a72475a92c661e5afa1acc7278955b.jpg",
            "pageorigfilename": "GR_1110-8_0013a_o2.jpg",
            "transcription": "Nov 19\nAt last we have come to an end of the Court. The defense having stopped short on it's witnesses. Many Off's & Ladies in the Court room to hear the argument of council. Invited to a hop - & went to find only three Ladies. Everybody is quarreling at the post. It is a most wretched condition socially.   Faults on every side. Wrote to unclear on 17th asking if he will give me escort & transfer from Reno to Supply."
        },
        {
            "pageid": 112643,
            "pagefilename": "88ed48f6e64ab7deedf4add52a2b867d.jpg",
            "pageorigfilename": "GR_1110-8_0013b_o2.jpg",
            "transcription": "Have to wait here until I hear from him\nNov 20\nAfter breakfast Remington & I started with Davidsons son Ed to try fishing.  He had no bait & had to catch it on minnow hooks. After immense effort I got 10 little minnows which were gone in no time, the bass biting well. He got 5 very nice fellows. R 3 & I 2. I also got 4 good perch. If we had had plenty of minnows I think we would have taken a large number of bass"
        },
        {
            "pageid": 112644,
            "pagefilename": "ed6a11bd0a3c4de47292e5df8f7227cc.jpg",
            "pageorigfilename": "GR_1110-8_0014a_o2.jpg",
            "transcription": "They were quite plenty & bit well on live bait. The snags & branches interfered greatly with us & we lost more than we caught.\nMrs. Davidson gave the Court a very pleasant little party at night. Cards & dancing, champagne & gas & a very nice supper. Van V. claimed that he was just properly gentlemanly drunk. I was about 40 per ct behind him. Made arrangements for another fishing frolic tomorrow with ?J....... Remington goes to the mountains with the girls."
        },
        {
            "pageid": 112645,
            "pagefilename": "c0bba155eb43cca11e5f3d920be196fb.jpg",
            "pageorigfilename": "GR_1110-8_0014b_o2.jpg",
            "transcription": "Nov 21\nWas waked up this morning by a colored Sergeant  who reported himself in charge of a party to escort me to Reno. Almost immediately after rec'd postal card from unclear telling me that he would give me everything I wanted -  Jumped out of bed & gave directions to get ready to start. After breakfast went up to see Davidson. He was thoroughly disgusted somebody having ordered my transfer & escort for today instead of tomorrow."
        },
        {
            "pageid": 112646,
            "pagefilename": "22d0c8110c9d82796009fbef57861af8.jpg",
            "pageorigfilename": "GR_1110-8_0015a_o2.jpg",
            "transcription": "It was an accident - a blunder really - such as should not occur at a well regulated post - but I was delighted as it enabled me to get off a day sooner. Got some Com'y stores -  bade Mrs. D & the girls good by - packed up & got the baggage wagon off at 10 am. Went to the store & wrote a letter to Father & Mother - & one to Trout telling him to have Ambulance & wagon at Ft Dodge for me on 6th Decr"
        },
        {
            "pageid": 112647,
            "pagefilename": "701fa84aa2d25c6ddeaf61ba0c590ed9.jpg",
            "pageorigfilename": "GR_1110-8_0015b_o2.jpg",
            "transcription": "Remington Rose & myself got off at 11 am Smith & Van V left earlier. going to Caddo. We went nearly West & camped 2 pm on Cache Creek. Making what is here called 16 miles tho it's not so much. Real nice camp. No game too many Indians - passed many camps & houses Tried fishing. Only 2 perch. Sat up late gassing with Remington.  Courier from Davidson informing me that the Cheyennes have broken out again. Lordy day -"
        },
        {
            "pageid": 112648,
            "pagefilename": "b1840e0c5bb793c1e53caf10be6e4e2c.jpg",
            "pageorigfilename": "GR_1110-8_0016a_o2.jpg",
            "transcription": "Nov 22\nStarted 7.30.  On top of divide found a crazy lot of quail - Remington & Rose potted the whole covey 26.  The foolish birds would neither hide nor fly.  At the Wachita River the geese were abundant & all tumbled out of the ambulance to get a shot.  I got 4 shots but only 1 goose wounding one or two others - We intended to camp at some ponds but found them miserable mud puddles & went on to Sugar Creek 3 miles from the Agency -  The Indian arrives for"
        },
        {
            "pageid": 112649,
            "pagefilename": "96f346989ebec142143d306b58f2817d.jpg",
            "pageorigfilename": "GR_1110-8_0016b_o2.jpg",
            "transcription": "the Cadoos kitchen &c is at the crossing of the Wachita on North Branch - There are a good many houses.  the farms of the Indians are large & look well - These Indians are as civilized as the average southern Cracker live in the same kind of houses & are quite as well educated -  The country is very lovely but sandy & I think poor -  Camped on sugar ck - 2 p.m.  Gibson & Taylor passed in stage just as we finished dinner - They came up & took a drink with us - I went out after they left & bagged 2 more quail - Rose was"
        },
        {
            "pageid": 112650,
            "pagefilename": "6fb2e7f1df3755d192ff658f578529e9.jpg",
            "pageorigfilename": "GR_1110-8_0017a_o2.jpg",
            "transcription": "terribly annoyed at not getting a goose & while I was after ducks in the pond he took a horse from the escort that here overtook us & went back - He returned at 8 pm with nothing & very much put out - He is oddity itself & the hugest \"blower\" I have ever met - He claims to be a first class shot - when really he is no better than I & to be an expert on hunting matters while he is really very ignorant   Beautiful weather - could not be finer - Davidson & Gibson have the Cheyenne \"escape\" very much [nixed?] mixed  - 22 miles"
        },
        {
            "pageid": 112651,
            "pagefilename": "6c84fde89bdededb3edec906833e55db.jpg",
            "pageorigfilename": "GR_1110-8_0017b_o2.jpg",
            "transcription": "Nov 23d\nGot a long shot at geese that flew over camp before breakfast but got none tho' I hit a fellow badly - Started 8 am - Got a long shot at a prairie chicken but didn't get him - marched to the Ranche of a Caddo Indian who calls himself Geo. Washington  very pretty & thriving farm.  The road was very sandy - bad today so I determined to Camp at Washingtons as there is no wood or grass on other side of Canadian & only the river water which is very alkaline & bad"
        },
        {
            "pageid": 112652,
            "pagefilename": "6e8145b5f6ec374e8627509a879607d7.jpg",
            "pageorigfilename": "GR_1110-8_0018a_o2.jpg",
            "transcription": "A very good & comfortable camp - Took a nap in afternoon - Gibson & stage party stuck in river & got everything wet.  Had to be taken out & carried to Reno in ambulance sent for them   Gibson came near drowning  \nThe above was written just before I laid down to take my nap & I expected that a very few words more would end the Diary for this day - a singular adventure however awaited my waking - Just before I laid down Rose fired his gun off at a tree - Soon after both he"
        },
        {
            "pageid": 112653,
            "pagefilename": "82110e285507759e97eb2a226191b391.jpg",
            "pageorigfilename": "GR_1110-8_0018b_o2.jpg",
            "transcription": "& Remington came into my tent - I told them that I was going to take a nap & said \"now Rose if you go popping off your gun any more I'll fill your bottom with No 4 shot & Remington if you go making any noise around this Camp I'll put that foot on you\" at the same time holding up my foot - they soon after left the tent, everybody apparently in a good humor -\nGeorge waked me up with call to dinner - I soon got ready & went out to find Rose walking up & down near the tents & Remington gone down to the corn field"
        },
        {
            "pageid": 112654,
            "pagefilename": "5237e30d605816bb5ba20a5fe48f602e.jpg",
            "pageorigfilename": "GR_1110-8_0019a_o2.jpg",
            "transcription": "Calling to Rose to come I sat down to dinner - He still walked about uneasily but he is so odd that I paid little attention to it.  Soon I called to him again, saying \"Rose why dont you come to dinner\"  He answered, \"I'm not hungry.\"  While eating I sent George to fix my bed & after he got through I saw him & Rose at work on Rose bed.\nAs I rose from the table I was met by Rose who had his overcoat on, his gun in one hand & India Rubber boots in the other.  He said \"Colonel I think I will walk"
        },
        {
            "pageid": 112655,
            "pagefilename": "e8bf871ecf0fb8670055e786fb3db25f.jpg",
            "pageorigfilename": "GR_1110-8_0019b_o2.jpg",
            "transcription": "into Reno tonight\" - I said very much astounded, \"what on earth do you want to do that for\"  \"Well, said he \"You dont seem to like my popping my gun around & I think I'd better go - \"Why Rose\" I said \"you are acting very foolishly  my remarks about your popping were only in fun & its very absurd in you to act this way\" - I then went to my tent for my pipe leaving him standing just in front some ten paces off - As I came out again advancing towards him he said, \"I am used to have people speak"
        },
        {
            "pageid": 112656,
            "pagefilename": "32ed20f347db427db71e5d44c879fb34.jpg",
            "pageorigfilename": "GR_1110-8_0020a_o2.jpg",
            "transcription": "out when they dont like what I do & I dont like these insinuations - I dont seem to suit you people & I think I'll go in - \"  The remark about insinuation made me lose my temper & I replied rather hotly, \"Capt Rose I do not use insinuations  When I want to say anything I say it - If you want to leave this party you can do so as soon & in any measure you wish -  He made some reply to the effect that he intended to go at once.  I told him that he was making a fool of himself"
        },
        {
            "pageid": 112657,
            "pagefilename": "c7559954a011d31a58c27ed380339d2d.jpg",
            "pageorigfilename": "GR_1110-8_0020b_o2.jpg",
            "transcription": "but that he might go just as quick as he ____ pleased  Whereupon he turned on his heel & went off without another word taking the road to Reno - Remington came back just as the last passages between us were [?] & heard all that passed after I came out of my tent with my pipe\n\n  I am very sorry that this thing occurred.  Rose is a dogmatic, illiterate ill informed man - uncouth in manner  dirty in person & the most infamous \"blower\" as to his own prowess & exploits I"
        },
        {
            "pageid": 112658,
            "pagefilename": "5280fb3f496094f125d69764829eba17.jpg",
            "pageorigfilename": "GR_1110-8_0021a_o2.jpg",
            "transcription": "have ever met - He is the oracle on hunting in his Regt & claims to know everything so positively that he has evidently been accostomed to put down every difference of opinion -  Remington & I dont think much of his shooting & take him up on his \"blowing\" assertions not disagreeably but enough enough to show him his own absurdity - For instance today in conversation with me about crossing the river in front of us, he asserted that \"at 19 years old he knew more about quick sands than any man in Kansas -\" I said \"now"
        },
        {
            "pageid": 112659,
            "pagefilename": "56e5f07bf9dcfc025f90fb4718c5f66c.jpg",
            "pageorigfilename": "GR_1110-8_0021b_o2.jpg",
            "transcription": "Rose, weren't you brought up in the East - Yes, he replied \"At 19 years old had you ever seen a quick sand\" I asked \"no he replied but I was a very smart boy.  Well I continued what an absurdity for you to make such a statement as that just made\"    This kind of \"taking up\" has been of almost daily occurrence & though all has apparently been pleasant they have evidently rankled in him.  Added to this he has been about two thirds drunk ever since we left Sill - He has \"blowed\" about his skill as a shot & success as a hunter, but has brought in very little game & when hunting with"
        },
        {
            "pageid": 112660,
            "pagefilename": "70c2f81bcee91f17e80a0c264c76eed7.jpg",
            "pageorigfilename": "GR_1110-8_0022a_o2.jpg",
            "transcription": "Remington or I has not beat either of us - He \"blows\" about his woodcraft & knowledge of country - Both of us know far more than he does -  He brings in a lot of Spoonbills & calls them Mallards & we laugh at him & while not one single really unpleasant thing has occurred, the accumulation of mortification at his want of success as a hunter & his ignorance as a man, has driven him to the desperate resolve to seperate from us - I am sorry because I'd rather have had all"
        },
        {
            "pageid": 112661,
            "pagefilename": "d0d74db152274d77897768f5b15cdd3c.jpg",
            "pageorigfilename": "GR_1110-8_0022b_o2.jpg",
            "transcription": "pleasant on the trip - I am not sorry to get rid of him, but I am sorry for the manner of the riddance - It is at least 12 miles to Reno & a nasty river intervenes - I would willingly have given him a horse had he asked it - but I would not offer it - He has acted like a fool but I doubt not he has repeated it before this is written - Whether so or not he has punished himself worse than any court would have punished him - Verily the folly well punishes the fool -\nDistance 24 miles\nNo game\nExit Rose"
        },
        {
            "pageid": 112662,
            "pagefilename": "cd830863f1478a3caded9c3c241c7a77.jpg",
            "pageorigfilename": "GR_1110-8_0023a_o2.jpg",
            "transcription": "I forgot to say that Rose had rolled & packed his bedding & everything before he came to speak to me   Remington says that all the time I was asleep he sat outside [evidently?] deeply cogitating something - He has undoubtedly had this in his mind for the last day or two - I believe that my killing the goose yesterday instead of him had much to do with it -"
        },
        {
            "pageid": 112663,
            "pagefilename": "18d8a0f1829912c0cb27f7fb6acc9927.jpg",
            "pageorigfilename": "GR_1110-8_0023b_o2.jpg",
            "transcription": "Sunday Nov 24th\nCold blustery & disagreeable - Got off soon after 8 am   Gave a man a dollar to show us the best ford over the Canadian - Arriving at that stream I mounted one of the spare horses - The Ambulance & horsemen got over beautifully though the channel was quite deep - but narrow - We got into no quick sand but we saw our danger in a stage & buckboard hopelessly stuck - sent back the leaders of ambulance team hitched them on to our baggage wagon & it"
        },
        {
            "pageid": 112664,
            "pagefilename": "278478b39064e4970eafb86d870b33e4.jpg",
            "pageorigfilename": "GR_1110-8_0024a_o2.jpg",
            "transcription": "came across beautifully without a stop - I confess to being a little uneasy as to Rose.  We found his boots on the bank   I asked our guide if he had heard anything of a man who had crossed on foot the night before - \"A man with a gun\", he exclaimed, why he came near being drowned - He stood on the sand in the river & directed the buck-board how to go - When it stuck, he abused the driver for being stupid & started to reach the further bank - In a moment he went down completely out of sight -but got out"
        },
        {
            "pageid": 112665,
            "pagefilename": "6fb90ef17caa1d343eccda665ca54838.jpg",
            "pageorigfilename": "GR_1110-8_0024b_o2.jpg",
            "transcription": "such a thorough wetting -\"  We came on against a stiff cold norther & about 11 am arrived at Ft Reno - We were met by Capt Clapp who invited me to his house  Arrangements had also been made for Remington & as the weather was exceedingly bad we accepted the invitation - On going in, Rose came out of the bed room & in a half smiling half sheepish way held out his hand I took it & said \"Well Rose I am glad to see  you have got safely out of your foolish scrape\" -"
        },
        {
            "pageid": 112666,
            "pagefilename": "8eb5a112015bdc3761d13689bb81223d.jpg",
            "pageorigfilename": "GR_1110-8_0025a_o2.jpg",
            "transcription": "He made no intelligible reply - After taking a drink & getting my things unloaded I went over to see Mizner at his adjutants office.  He met us very cordially - We also found Gibson & Taylor & [?sallied?] them on their ducking - Gibson really had a very narrow escape - Everything they had was thoroughly soaked & on getting to the bank they built a fire, unloaded their trunks took out everything & hung them up to dry - They did not reach the post until 12 M (23d) & would not then had not Mizner"
        },
        {
            "pageid": 112667,
            "pagefilename": "0b43731002ee2240e02ec50936ec7240.jpg",
            "pageorigfilename": "GR_1110-8_0025b_o2.jpg",
            "transcription": "thoughtfully sent an ambulance for them -\nFrom the Adjts Office we all adjourned to Mizners house  met the madam  took a drink & had a good time - They invited us to dinner & gave an account of Rose.  About 10 pm the night before there came a ring at the door - Gibson was nearest & opening it was surprised to see Rose looking dazed & wandering - He was invited in, but he was either crazy or figured to be so - He accounted for leaving my camp by saying that"
        },
        {
            "pageid": 112668,
            "pagefilename": "478afba181abdb3414e6a927377c230f.jpg",
            "pageorigfilename": "GR_1110-8_0026a_o2.jpg",
            "transcription": "he & I had had a difficulty & that he had got the worst of it - He had got thoroughly soaked in the river & had walked near 12 miles in the teeth of a stiff norther - He said he got along very well until within 5 miles of the post where he fell & remained partially unconscious for some time - He was fed & condoled with - & Clapp was sent for & took him off & put him to bed - He could give only the most incoherent account of his nights wanderings or of the cause of them -"
        },
        {
            "pageid": 112669,
            "pagefilename": "672994d9cdb8c4f8c6432660d9eec998.jpg",
            "pageorigfilename": "GR_1110-8_0026b_o2.jpg",
            "transcription": "Clapp thought he was somewhat demented (or he certainly acted so -)  On being asked if he had had a very serious quarrel with me, he replied \"No.  only a little one & I have no feeling in the matter - I got punished for it\" -  After we left Mizners, I went back to Clapps & dressed for dinner - Had a most excellent dinner & good wines.  Enjoyed it immensely.  About [?6?] ock I went back to Clapps & held a levee almost all the Officers of the post calling on me.   Had a very pleasant"
        },
        {
            "pageid": 112670,
            "pagefilename": "f8981ec1a7431f9ad39cf9b79c1daf7e.jpg",
            "pageorigfilename": "GR_1110-8_0027a_o2.jpg",
            "transcription": "evening & did not get to bed until after 1 am - Of course I let Rose understand that he could not go on with us & he will remain here until well & then go home by stage -\nMizner ordered all I need for the trip to supply & I get off tomorrow - Weather very disagreeable Cold & windy - a regular norther -  distance 13½ miles -"
        },
        {
            "pageid": 112671,
            "pagefilename": "34c515b8826f8618092f02a6225dab7c.jpg",
            "pageorigfilename": "GR_1110-8_0027b_o2.jpg",
            "transcription": "Monday Nov'r 25th 1878\nThe wagon reported at 8 am & was soon loaded & started off.  Directed the Sergeant to go with wagon & escort to Ravine springs - the day was cold & blustery, looking like continuous bad weather\n\n  Clapp gave me a most excellent breakfast after which I wrote a short note to Father & Mother & a postal card each to Julie & to Trout - Went over to the Post Traders store & walked about with Mizner - at 10 ½ went"
        },
        {
            "pageid": 112672,
            "pagefilename": "739e95cd5395f17f05d08155b492b727.jpg",
            "pageorigfilename": "GR_1110-8_0028a_o2.jpg",
            "transcription": "& bade good by to Mrs Mizner - Dr Chase & several of the Officers came to see us off & at 11 am we got into our ambulance & turned our backs on Reno -   Poor Rose looked badly - disconsolate enough but I did not invite him to come with us as I do not propose to be tortured with & have the responsibility of such a man -   Had a cold ride up the river in view of numbers of Indian Villages -  We are now  at the Cheyenne & Arrapahoe Agency -"
        },
        {
            "pageid": 112673,
            "pagefilename": "26700c5e770cec532f3e40489f7e3f2e.jpg",
            "pageorigfilename": "GR_1110-8_0028b_o2.jpg",
            "transcription": "Twelve miles from the post we passed the sand hills made famous by the escapade of Dull Knife.  Here were their fortifications wonderfully well constructed which they held while getting ready for their flight to the North - I did not go to see them as the day was so disagreeable - but I had seen a place of the defenses - Just before 2 pm we came up with the wagon & escort & passed, arriving at Ravine Springs about 2 30 pm - Soon after I went out after quail"
        },
        {
            "pageid": 112674,
            "pagefilename": "89b9a34bd5a5fe972193064d1d5c6f5d.jpg",
            "pageorigfilename": "GR_1110-8_0029a_o2.jpg",
            "transcription": "which were very plenty but the weeds were so high & the thickets so dense that I had poor success getting only 5 birds - I never saw birds so wild or fly so fast & I did really well to get a bird for every 2 shots - The wagon a 6 mule team, arrived late & we did not get supper until after dark - It is now clear tho' still cold & windy & we hope for a good day tomorro.  Remington saw some Turkeys but didn't get a shot\nExcellent Camp - distance 20 miles\nOnly 7 quail all told"
        },
        {
            "pageid": 112675,
            "pagefilename": "827abc58c7ce82e897e603b7642c067d.jpg",
            "pageorigfilename": "GR_1110-8_0029b_o2.jpg",
            "transcription": "Tuesday Nov 26th\nBroke Camp 8.30 am  Remington & I went ahead on foot & worked hard for a chance to kill something - After a 3 mile tramp the horses overtook us & we then worked harder - I at last found a flock of some 25 turkeys but got none - Remington had a like fate - I fired twice but far off - all the ground between the river & road has been burned  - about 12 M went back to the ambulance tired & mad - took"
        },
        {
            "pageid": 112676,
            "pagefilename": "47299af6a715215a1506e3ebbae13545.jpg",
            "pageorigfilename": "GR_1110-8_0030a_o2.jpg",
            "transcription": "a drink for pure spite - The day was very cold & windy up to 2 pm, then cleared off very prettily.  Made a nice camp on the North Fork at which we in ambulance arrived before 2 Ock.  After putting the ambulance as a starter for camp R & I started to see what we could see & after an absence of an hour & a half we returned to camp.  I with one poor quail - he with nothing - I had however found a small Turkey roost,  He claimed to have found the paradise of deer"
        },
        {
            "pageid": 112677,
            "pagefilename": "a1cea88d73bc1712314a0c96f74d3cde.jpg",
            "pageorigfilename": "GR_1110-8_0030b_o2.jpg",
            "transcription": "& Turkeys - We got dinner & by a little after 4 pm R started for his deer & Turkey stand - I waited till dark & then with Shof went to my little Turkey Roost.  It was an awful thicket but we worked with a will -  The trees were tall - the night was dark - How I hated myself for not bringing my field glass - The turkeys were much scattered not more than 2 or 3 in a tree   I shot & shot - sometimes a turkey would fall. sometimes the dead silence would proclaim that I had fired at a bunch"
        },
        {
            "pageid": 112678,
            "pagefilename": "c54033cf96a06fc03cc99632fd5d274d.jpg",
            "pageorigfilename": "GR_1110-8_0031a_o2.jpg",
            "transcription": "of leaves or dead branch.  sometimes a fluttering commotion & disappearance would indicate that I had only wounded my game.  Twas pitch dark below in the thicket & I could only get along by feeling - one moment I'd run into a brush pile or lap of a dead tree - the next my eyes were assailed by numberless twigs of willow & other such underbrush.  A grape vine would tangle my legs at one step - at the next a bamboo brier would catch me around the"
        },
        {
            "pageid": 112679,
            "pagefilename": "35ef7b434db03a76b9da24e939aad61f.jpg",
            "pageorigfilename": "GR_1110-8_0031b_o2.jpg",
            "transcription": "neck & try to throttle me - One limb would take my hat, another seize my gun another lay hold on my coat - I looked to Heaven so constantly & earnestly that like many other good people I became dizzy, lost my head & turned around indiscriminately - Oh, I had a glorious time & came in by 7.30 wet to the skin with perspiration to find the water in camp so frozen that I had to thaw it out to get a drink - but with 5 splendid Turkeys  I fired 14 shots - killed"
        },
        {
            "pageid": 112680,
            "pagefilename": "68c685c43c5656c33e4a197d6c0df438.jpg",
            "pageorigfilename": "GR_1110-8_0032a_o2.jpg",
            "transcription": "5, mortally wounded 2 that got away - fired 5 times at bunches of leaves or branches that looked like Turkey & missed two - They were on large branches & I think were in this way protected - My shot were I think too large with smaller shot I would have fired at the heads - Remington has this moment got in - 9. pm - having bagged 9 Turkeys after a longer & harder tramp than I had -\nDistance 17 miles   14 Turkeys 1 quail - 1 duck\nClearing up"
        },
        {
            "pageid": 112681,
            "pagefilename": "a573bd4c6bb4a72ec76118235b59e7d0.jpg",
            "pageorigfilename": "GR_1110-8_0032b_o2.jpg",
            "transcription": "Wednesday Nov 27th - 78\nStarted 8 am - Went after my turkeys which I had hung up in a tree last night - found & took them to wagon - Found a pond & bagged a duck  Chilly for horseback riding & we got into ambulance - About 1 pm arrived at a place which the Serg & men of the Escort said was Sheridan's roost - Remington got on his horse & went to look - at once he pronounced it [underlined] not Sheridan's Roost. Which looking about I came on to a large flock of Turkeys"
        },
        {
            "pageid": 112682,
            "pagefilename": "39216bd51ce53f04844e7cd60cea2923.jpg",
            "pageorigfilename": "GR_1110-8_0033a_o2.jpg",
            "transcription": "In a moment I was off my horse & in another knocked over 2 when there arose such a cloud of Turkeys that I was utterly disgusted that my second barrel got only one instead of a dozen  R. got one with each barrel & off they flew - Following them up I got 8 in a very few moments.  R got 4 -  R thought that Sheridan's roost was only about 4 miles on so I came on - After a mile or so the driver called to all that there were Turkeys ahead.  Mounting my horse I went for them & soon returned"
        },
        {
            "pageid": 112683,
            "pagefilename": "bab36e602050d0b41da8a41b9551f138.jpg",
            "pageorigfilename": "GR_1110-8_0033b_o2.jpg",
            "transcription": "with 3  We found it a long & very tiresome march to the Roost - The road was deep sand & at 4 pm I went into camp at a water hole east of the roost - everybody tired & worn out & I specially disgusted that I did not camp at the Marsh where we killed the Turkeys.  I walked out with my gun from camp. saw lots of Ducks, but did not fire as I wanted a deer - Just before getting back to camp I came upon an opussum & nailed him - the only one I ever saw in the Ind'n Ter.Y."
        },
        {
            "pageid": 112684,
            "pagefilename": "5bbbd19333632f1a5ed0b189254d459c.jpg",
            "pageorigfilename": "GR_1110-8_0034a_o2.jpg",
            "transcription": "I had my gun to clean & shells to load & was too dead tired to go out though there are beautiful looking trees near us - About 8 pm R tho' tired summoned resolution to try it.  He is out yet - Had I camped at the Marsh (as known on the Map) I would have had a delightful day - & probably got lots of Turkeys tonight.  I was too greedy - made a labor of pleasure searched too far  - tired everybody out & got nothing - Wont do it again - Have really had a delightful day in spite of all -"
        },
        {
            "pageid": 112685,
            "pagefilename": "3069baf4fda8432cda20726c425e0a4f.jpg",
            "pageorigfilename": "GR_1110-8_0034b_o2.jpg",
            "transcription": "I have bagged 11 Turkeys, 1 duck 1 rabbit & 1 possum & could have got a great deal more small game - I saw immense flocks of ducks - Good camp 1½ miles east of Sheridans Roost - The country is very wild & broken full of sand Hills & blackjack timber - a very paradise for Turkeys & deer - I shall make only a very short march tomorrro -\nDistance today 23 miles - the road was very heavy -\n15 Turkeys, 3 quail - 1 duck 1 rabbit & 1 possum - Weather very fine  Total Turkeys 29"
        },
        {
            "pageid": 112686,
            "pagefilename": "4ae314d9c89a94b0f48e5a6e1fc1aaa8.jpg",
            "pageorigfilename": "GR_1110-8_0035a_o2.jpg",
            "transcription": "Nov'r 28th 78    Thanksgiving - Thursday\nWent out early to get some ducks.  the slough was too wide & miry - only got 3 - Took rifle shot gun & orderly & went for a deer - Hunted hard & well - saw two - one a magnificent Buck but got no shot.  At last came on a small flock of Turkeys - only 10 - They were not wild - gave me a rake with No 6 shot which bagged 5 & I got another with second barrel - soon after I discovered another lot of 4 - got 3 - 2 with first barrel & 1 with second - felt pretty"
        },
        {
            "pageid": 112687,
            "pagefilename": "f5bd646513e20a89a434bcaf234c5dac.jpg",
            "pageorigfilename": "GR_1110-8_0035b_o2.jpg",
            "transcription": "good - 9 Turkeys with 4 shots  Coming on found another flock from which I got only 2 with 4 shots, wounding 3 others mortally but they got away - Struck the road at upper Sheridan's Roost to find that the wagons had gone on - I followed & at 2  pm came into camp at Cottonwood Grove   Remington had been unable to find water at Sheridan's Roost  & was forced to come on - Took a nap on getting in for I was very tired - After dinner a flock of Turkeys came down to water just at our camp  I fired at them, but got"
        },
        {
            "pageid": 112688,
            "pagefilename": "9cb4d06fdfdb4cbb0366c7c99e745f39.jpg",
            "pageorigfilename": "GR_1110-8_0036a_o2.jpg",
            "transcription": "none.  I then went out to get some ducks - great flocks flying about - but they were very wild - I gave that up but as I was about to return to Camp I saw a large flock of Turkeys fly into the trees above the Camp - In a few moments they were banged at from all sides by the men & driven out - I went off onto the prarie & fired several long shots - bagging only one   After lugging it awhile I saw another flock ahead & threw my turkey down putting my white handkerchief"
        },
        {
            "pageid": 112689,
            "pagefilename": "d22f3f37756602960b965a1f80a09b20.jpg",
            "pageorigfilename": "GR_1110-8_0036b_o2.jpg",
            "transcription": "on the grass to mark the spot.  When I came back I could find neither handkerchief nor Turkey - but I had driven a large flock or two into the trees around camp & R was plugging into them manfully  - I came in only on the tail of the affair but got 7 - making 19 for the days work - Numbers were in the Black Jacks half a mile from Camp, but I was too tired to go after them - R bagged eleven (11) so that in spite of the fact that we have lost the [?shooling?]"
        },
        {
            "pageid": 112690,
            "pagefilename": "fa8fdd9c9e42f56b957fec09f953cd7d.jpg",
            "pageorigfilename": "GR_1110-8_0037a_o2.jpg",
            "transcription": "at Sheridan's Roost, the best place in the country we have done pretty well   R says he saw thousands in the upper Roost but would not shoot as he expected the night hunting  - He is terribly disgusted at not finding water there   All were in by 6.30 pm water poor - wood & grass abundant\nI got 19, R 11 Turkeys - I got 3 R. 1 duck - R got 8 quail at a shot - Total 30 turkeys, 4 ducks 8 quail - Weather beautiful\nTotal Turkeys 59 - (64)\nOne of the men killed 5 Turkeys with Carbine -"
        },
        {
            "pageid": 112691,
            "pagefilename": "f34f89757a989c8bd767fbdd09e109b4.jpg",
            "pageorigfilename": "GR_1110-8_0037b_o2.jpg",
            "transcription": "Novr 29 1878  Friday\nOur [?] day of course - Started at 8½ am - I went to look after my handkerchief & Turkey - I found the former, but the latter was gone - I expected he would be as the wolves were thick but he was not eaten - He had evidently recovered & gone off on his own account.  This was pretty good for Turkey - after being killed & carried by the head for 200 yds.  He was a polite Turkey for he left his card - I got a long shot at Turkey, but failed to get him - Also shot"
        },
        {
            "pageid": 112692,
            "pagefilename": "edd2f8a3a007b61ae7e77c4cd3f514af.jpg",
            "pageorigfilename": "GR_1110-8_0038a_o2.jpg",
            "transcription": "with Carbine at the head of a deer standing in the tall grass 150 yds off - I think I touched his neck as he appeared to fall - but he went off at a great rate   Just before reaching our camping place I went off to look for deer - All along the river to our left is a range of huge sand hills - Between that & the trail lie immense level bottoms with tall grass heavy thickets & sloughs running in all directions - I went into these bottoms - After a long tramp on horseback a splendid"
        },
        {
            "pageid": 112693,
            "pagefilename": "e9389a19dde8b427f6dee562972ac3f7.jpg",
            "pageorigfilename": "GR_1110-8_0038b_o2.jpg",
            "transcription": "buck jumped out of the grass & went off, when about 75 yds I gave him a dose of buckshot.  He disappeared at once & I thought I had killed him - but soon after my Orderly say [sic] him going over a sand hill  I found no blood & dont know whether I hit him.  He was a glorious fellow - Came back to camp - After dark tried the Turkeys but found none   R is out yet - but I have not heard his gun - Lovely Camp & fine day - About 18 miles - No game  saw no turkeys except those we frightened last night"
        },
        {
            "pageid": 112694,
            "pagefilename": "386172071e6370f73f7623c639d27151.jpg",
            "pageorigfilename": "GR_1110-8_0039a_o2.jpg",
            "transcription": "Nov'r 30th Saturday\n\"Who can tell what a day may bring forth\"?  Yesterday was lovely & we all went to bed with the full assurance of a delightful morrow -  In the middle of the night I was awakened by what appeared to be rain & sleet - I feared our Turkeys might be spoiled but was too wedded to my blankets to get up & soon went to sleep - When George came in to make my fire this morning I noticed that his boots were covered with snow - & on"
        },
        {
            "pageid": 112695,
            "pagefilename": "2e0eb00e2716a8830c6bec8d1aa51ae4.jpg",
            "pageorigfilename": "GR_1110-8_0039b_o2.jpg",
            "transcription": "further investigation found at least 3 inches already fallen & it continuing as if there never would be a let up - There was a terrible old Norther   We have a beautifully sheltered camp but the wind howled in the branches of trees overhead & the whole air was thick with falling snow - No move in such weather - so I gave orders - the morning dragged along wearily enough R & I played Cribbage until we got tired - About 12 M the snow ceased - & by 2 pm the sun was out smiling"
        },
        {
            "pageid": 112696,
            "pagefilename": "5bea7fe84dd4a2dc1415d07051c99a6a.jpg",
            "pageorigfilename": "GR_1110-8_0040a_o2.jpg",
            "transcription": "Though full 6 inches of snow covered everything we ordered our horses & went out - We had a long & tiresome tramp  - the snow in the pass being nearly to the knees of the horses   I saw 2 deer but got no shot & returned at sundown with one Turkey.  R got 2 - played cribbage & gassed until near 11 pm - It has cleared off beautifully & is now cold - We will make a move tomorro - 3 Turkeys 2 quail  Total Turkeys 62 & all in splendid condition yet"
        },
        {
            "pageid": 112697,
            "pagefilename": "764628a4fff7ddf30008e454c913ff7a.jpg",
            "pageorigfilename": "GR_1110-8_0040b_o2.jpg",
            "transcription": "Sunday  Dec'r 1st 1878\nThe sun rose bright & clear with every prospect of a lovely day.  Gave orders to march but it is a cold & tedious business to break a camp in 7 inches of snow -  At 9 am all were off - The road a mere wagon trail was greatly blocked with drifted snow & my intention was to keep ahead of the wagons & break the road for them.  Near Taylors creek however the deer & Turkey tracks got so thick that I could'nt stand it  Went"
        },
        {
            "pageid": 112698,
            "pagefilename": "51cde0cab3bc2fa9b76c6c668bf339aa.jpg",
            "pageorigfilename": "GR_1110-8_0041a_o2.jpg",
            "transcription": "off to the left   Came on to a flock of Turkeys but in so dense a thicket that though I could see twenty I could'nt hit one - At last a big fellow gave me a show & I bagged him - The others flew in every direction - Noting the direction of some that went on open ground, I followed, found the tracks, pursued on horseback started them up from the grass in which they squatted & bagged 3 more - all beautiful shots at long range & from a horse that has not been shot off of before -"
        },
        {
            "pageid": 112699,
            "pagefilename": "7d308ba62e7bf9d14b937230dc1abd31.jpg",
            "pageorigfilename": "GR_1110-8_0041b_o2.jpg",
            "transcription": "I could'nt spare much time to hunt as I expected a long march.  Overtook the wagon in 3 or 4 miles - put my turkeys in & went ahead - Crossed the river at what is called the 22 mile crossing  Camped at Cedar Bluffs said to be 16 miles from Cp supply.  Splendid Camp.  Cleared off the snow & made ourselves comfortable  Wagon arrived 2.30 pm - good dinner & pleasant Evening -  Wolves  arround us in great numbers  Distance 17 miles - called 20 by the people here - R got no game - Total turkeys 66 of which I have bagged an even 40 -"
        },
        {
            "pageid": 112700,
            "pagefilename": "bc028d3247fbd7f60ae841be4c79e9df.jpg",
            "pageorigfilename": "GR_1110-8_0042a_o2.jpg",
            "transcription": "The foregoing is not to be read by my Mammy as she will be shocked at the idea that her boy baby hunted on Sunday - Thats a mistake, he only protected himself from the Turkeys that attempted to bite him - Being a soldier he has always to gaurd himself against the enemy - The weather today has been lovely & but for the snow-covered ground one could not believe it the first day of winter - We camped in a Cedar Brake & had roaring camp fires."
        },
        {
            "pageid": 112701,
            "pagefilename": "a4e64c882c26da353bb73f8de5860ad7.jpg",
            "pageorigfilename": "GR_1110-8_0042b_o2.jpg",
            "transcription": "Decr 2d 1878\nStarted 8.15 am  Beautiful day - about 4 miles from camp I met Capt Gunther with 2 Cor Cavy in charge of the Cheyennes who surrendered to Miles last winter - There were only about 40 fighting men & possibly 150 women & children - They left supply on the day before the storm - 29th & were delayed by it until 1st.  Were about to break camp [?Manck?] came in with 2 Cor & an order from Pope to disarm the Indians"
        },
        {
            "pageid": 112702,
            "pagefilename": "45f2f5f961f3426a42dc73dad02beec9.jpg",
            "pageorigfilename": "GR_1110-8_0043a_o2.jpg",
            "transcription": "& take away their war ponies - These Indians had surrendered voluntarily nearly a year ago, & had been employed by Miles as soldiers & scouts  They had done excellent service against the Nez Perces & were provided with excellent characters & discharged in writing from Miles & with the promise of both Crook & Miles that they should keep their Arms & ponies.   When they understood that they were to be disarmed they went to their Teepees painted themselves & put"
        },
        {
            "pageid": 112703,
            "pagefilename": "907cc9aa51878cb800c289238c0043e7.jpg",
            "pageorigfilename": "GR_1110-8_0043b_o2.jpg",
            "transcription": "on a war aspect - [?Manck?] talked & urged - the Indians pulled out their papers insisted that they had the promises of big Chiefs &c &c & finally tore their papers to shreds & stalked back to their tents still keeping their Arms.  the Indians were greatly out-numbered & surrounded by the troops - but stubbornly refused to surrender.  About 2 pm Manck told them that at 3 he would commence to fight that all Indians disposed to obey orders & give up arms should come to his tents, all determined to fight were to"
        },
        {
            "pageid": 112704,
            "pagefilename": "8bc83e4b111b081caad70e7337824f3a.jpg",
            "pageorigfilename": "GR_1110-8_0044a_o2.jpg",
            "transcription": "remain in their own Camp  This was too  much - The Women & Children & peaceably disposed men came in & by 3 pm all, led by the force of example had surrendered\nManck, whom I met a short time after at the Post told me that it was the most disagreeable duty of his life.  The Indians were in the right & an attack on them would simply have been a massacre - They had only about 14 Rifles all told & were not at all dangerous.  From all I can gather the whole affair was a"
        },
        {
            "pageid": 112705,
            "pagefilename": "7b7f87771cf68ee3134d8799136ac9b9.jpg",
            "pageorigfilename": "GR_1110-8_0044b_o2.jpg",
            "transcription": "strong commentary on the miserable inefficiency of a Govt, whose promises are not binding\nArrived at Camp Supply abt 1 pm & went to Capt Lyster - Comdg. - He & wife are very Kind & hospitable - after dinner got a box & sent 14 Turkeys to Hdqrs. by stage - Wrote to Taylor about them - also a short note to Trout & to Comdg Off Ft Dodge - played a few games billiards  - Had a pleasant evening & went to bed 11.30 pm   We have to remain here 3 days - Distance 17 miles - 1 quail"
        },
        {
            "pageid": 112706,
            "pagefilename": "db06148417fcfb374cedb6887de83a30.jpg",
            "pageorigfilename": "GR_1110-8_0045a_o2.jpg",
            "transcription": "Camp Supply - Dec 3d\nNothing to add - Spent the day very quietly  Played billiards at night for the delectation of the Offs & Ladies of the post - beat the post champion every game very easily - Only a few Officers here & the post extremely dull - Wrote note to Father & Mother also one to Julia -\n\n A quail hunt is proposed for tomorro -"
        },
        {
            "pageid": 112707,
            "pagefilename": "0abb5a9cb01b88df88698af32326fab2.jpg",
            "pageorigfilename": "GR_1110-8_0045b_o2.jpg",
            "transcription": "Decr 4th\nIntended to go out hunting quail today but felt too tired & good for nothing.  [?Lysle?] & Remington went but got only 8, after a hard days work - Played several games of billiards & bought some little presents for Joe & Laura - Took a nap in afternoon & wore the day away after a weary fashion -  Only one day more here if it please the powers - Dined with Lieut Ivy son of [?] [?(Elsynd Rebel & dead)?]"
        },
        {
            "pageid": 112708,
            "pagefilename": "c93e5f2f3379a981615e1a57b82d6a38.jpg",
            "pageorigfilename": "GR_1110-8_0046a_o2.jpg",
            "transcription": "Dec 5th\nJust a month since I left home - to look back on it, it seems like half a year - Went around with Lyster & looked at his post - It is larger badly constructed, illy situated.  That he cant help - It is delapidated & dirty which he could help at least to some extent - Played a few games of billiards with Lt Bud in the morning - took a nap in afternoon during which Mrs Lyster's brother arrived with teh transportation we have been impatiently waiting for."
        },
        {
            "pageid": 112709,
            "pagefilename": "0a6e97d8bfdc805eed88b1395c49fcfb.jpg",
            "pageorigfilename": "GR_1110-8_0046b_o2.jpg",
            "transcription": "Returned all my calls - first on Lieut Vance who is a bachelor - Then on St Ivy whose mother arrived today  found her very pleasant & we had many memories in common.  Her husband was hardly a friend as we were not much together, but I knew & liked him - she is a [?rank?] Catholic & came near embracing me when I told her I was baptised by Bishop Ives - Next on Dr                & wife - They leave for [?Sty?] in a few days - We leave tomorrow - spent the Evening pleasantly at Lysters - He is an excellent"
        },
        {
            "pageid": 112710,
            "pagefilename": "5b63966398b5c69f74bf1e6e3b43bfdd.jpg",
            "pageorigfilename": "GR_1110-8_0047a_o2.jpg",
            "transcription": "kind hearted, hospitable man & his wife is a very agreeable & pretty woman - I have been most kindly & pleasantly entertained.  Gave orders for the wagon to get an early start - We will go leisurely after breakfast -\nDecr 6th\nWagons reported late - & that for baggage proved too small - Another was ordered - & we got off with flying colors 10 am  Day cold & a biting wind directly in our faces -"
        },
        {
            "pageid": 112711,
            "pagefilename": "5029f8ec6e770d28d11edadc21406431.jpg",
            "pageorigfilename": "GR_1110-8_0047b_o2.jpg",
            "transcription": "Soon after getting to Buffalo Springs all the mules gave evidence of playing out & it transpired that the 3 teams were all new & had not before been driven in a trot - By hard work we got to the Cimarron Ranche at 5.30 pm almost dark - without accident - The mules were not broken down but only leg weary from being driven at an unacostomed [sic] gait -  Got a tolerable supper & a passable room - To bed early   Distance 36 miles"
        },
        {
            "pageid": 112712,
            "pagefilename": "f14d9b30a3911007d1e98d9a23db1560.jpg",
            "pageorigfilename": "GR_1110-8_0048a_o2.jpg",
            "transcription": "Dec 7th\nSent baggage off very early.  Started ourselves at 8.30.  cold raw & very disagreeable day - threatening snow or rain - Our team is an aggravating one looks as if it were working tremendously (but all its efforts are up & down.    However I wont abuse it as we came into Bluff Ck Station at a quarter past 2 pm in good order & well conditioned - 30 miles in 5.45 hours - Ranche full of the wild element of the frontier - Might draw a picture or make a story of it - At least 30 men - good bad"
        },
        {
            "pageid": 112713,
            "pagefilename": "fd695d0c0ebd4c7ec2dd516aafe71387.jpg",
            "pageorigfilename": "GR_1110-8_0049a_o2.jpg",
            "transcription": "written in the morning)  Where the other 20 guests are stored is a question - but they all seem to acquiesce in the arrangement & to admit our right to the room - All sat together in the bar room after supper & discussed the subjects of Indians & horse thieves - They were well posted in the Dull Knife affair & gave many particulars of the escape - which if true would go very far to d_____ the 4th Cavy as a nest of cowards - Several were with [?S...?] when he was killed & say that there was but a single Cavy Captain with his Compy in that fight"
        },
        {
            "pageid": 112714,
            "pagefilename": "ae7af590c2992a2fe8607198a6266604.jpg",
            "pageorigfilename": "GR_1110-8_0050a_o2.jpg",
            "transcription": "& that the Indians were not over 2 or 3 hours ahead - On the [?Sappas?] [?] came in sight of the Indian rear g'd & on Frenchman the whole com'd was in good charging distance of the Indians - in plain view & stopped 2 hours to lunch - I dont believe these stories fully, but they are worth investigating\nDec'r 8th\nGot off soon after 8 1m.  Miserable day cold & very windy - Crossed Arkansas without accident &"
        },
        {
            "pageid": 112715,
            "pagefilename": "70ba0323e854af19b336f50e1ac210d5.jpg",
            "pageorigfilename": "GR_1110-8_0051a_o2.jpg",
            "transcription": "Played several games of Billiards with Vernon one of the Crack young players of the present age & beat him easily.  I played in good luck however - He ought to have beat me as he was used to the table & the light very poor for my old eyes -\nCowles went to Dodge with me - & saw me off = Got a berth - soon went to bed - bound for Topeka"
        },
        {
            "pageid": 112716,
            "pagefilename": "0497cce1b2ff71c57c51ece7e8b58738.jpg",
            "pageorigfilename": "GR_1110-8_0052a_o2.jpg",
            "transcription": "up for the lost dinner - got into conversation with a man named Fitch on the cars - had a pleasant talk - He is about to settle at Russell -\nArrived at Hays City 1.15 am of the 10th.  Had telegraphed to Trout to send for me & was met by an ambulance - got over all safe - found fires & lights but nobody to meet me - Shall bully them all tomorro for their laziness."
        },
        {
            "pageid": 112717,
            "pagefilename": "754d0b0a0de673cd581e2e75cf50b637.jpg",
            "pageorigfilename": "GR_1110-8_0052b_o2.jpg",
            "transcription": "Dont feel a bit sleepy though it is now near 2 am.\nHave been absent just five weeks & had take it all in all a most delightful trip\nCowles brought me two or three letters to Ft Dodge & I hope to find some here but I dont see any thing of them yet -\nDecr 10th\nUp late - sent word to Capt Hinton to ok the Office work as"
        },
        {
            "pageid": 112718,
            "pagefilename": "d03c6507873d790e7e761c2dfa1c57a2.jpg",
            "pageorigfilename": "GR_1110-8_0053a_o2.jpg",
            "transcription": "I was too late for it - After Breakfast went all over the post & inspected everything.  All is in admirable condition & the Amount of work done by Trout during my absence is really wonderful -\n\n He actually surprised me with the quantity & quality of his work   The stables & Cowsheds of all the Officers are completed as I ordered - The Men's qrs ceiled & partitioned & the ice house which was"
        },
        {
            "pageid": 112719,
            "pagefilename": "3c63dad135ca60f0e4d36e759d36cb35.jpg",
            "pageorigfilename": "GR_1110-8_0053b_o2.jpg",
            "transcription": "my bugbear is ready for ice though not yet done - Another month of good weather & I'll have the prettiest cleanest & best arrayed post in this Dept - The Hospital fence is done & the whole building painted inside & out - Looks first rate.  I had all these works cut out & started before I left & I ordered the work to go on during my absence   It is a great satisfaction though a rare one to be able to go away"
        },
        {
            "pageid": 112720,
            "pagefilename": "a2c2d4356bd9f60db7cd1354e550d5bf.jpg",
            "pageorigfilename": "GR_1110-8_0054a_o2.jpg",
            "transcription": "for a month or two & return to find that everything has gone on according to your wishes & as rapidly & well as if you had been present.\nThat I can do here."
        },
        {
            "pageid": 112721,
            "pagefilename": "37b1d75abe8cc1446e9aa45ea242cb5b.jpg",
            "pageorigfilename": "GR_1110-8_0054b_o2.jpg",
            "transcription": "And now you see dear Dad & Mam what constitutes a real good time on a hunt - for I have had a \"real good time\" & enjoyed every moment of the outdoor life - We could of course have bagged much more game by working harder & hunting at night but we got as much as we could get along with - We took into Camp Supply nearly 60 Turkeys & would have brought them to our post but for the unfortunate delay of 3 days there -"
        },
        {
            "pageid": 112722,
            "pagefilename": "d980e9c19b97445bc34e48fed07dd700.jpg",
            "pageorigfilename": "GR_1110-8_0055a_o2.jpg",
            "transcription": "As it was I sent a box containing 14 by stage to Dodge City to be shipped to Dept Hdqrs.  Remington sent about the same number to his post Ft Dodge.  The remainder we divided among the Offs & men of Supply - Joe & Laura tell me I am as thin as a rail but I weigh 200 lbs yet though my pants & [?] are a \"world too wide\" at the waist -  I have not had a moments sickness since I arrived at Ft Sill    I thought you might like to know what we"
        },
        {
            "pageid": 112723,
            "pagefilename": "45a34bbca2a8abc7bad06858561857fa.jpg",
            "pageorigfilename": "GR_1110-8_0055b_o2.jpg",
            "transcription": "live on in the woods so I leave the Mess account just as it is - You will see that we nearly starved as we went along - I took all my mess outfit which is very complete & we had every thing about as nice & comfortable as if we had been at home & a deal cheaper -  I have not entered in my diary with any discriptions of Country - That would take too much time & labor - The Indian Territory is however one of the most beautiful & fertile portions of our vast"
        },
        {
            "pageid": 112724,
            "pagefilename": "690feff902fa0d108cafd12fd6a17a13.jpg",
            "pageorigfilename": "GR_1110-8_0056a_o2.jpg",
            "transcription": "Country - perfect for the growth of Cotton & it is a sin & shame that so magnificent a country capable of well sustaining 10 millions of people should be set aside for 50 thousand red vagabonds about on a par with the white corn crackers of the South -  It will not last long however - sentimental foolishness will not be allowed to stand much longer in the way of the advance of Civilization -\nKeep this book with the other until I come"
        },
        {
            "pageid": 112725,
            "pagefilename": "a8ea34f0cd79a2e09e44b092d44d9591.jpg",
            "pageorigfilename": "GR_1110-8_0060a_o2.jpg",
            "transcription": "[back cover of notebook - no text]"
        }
    ]
}