{
    "id": "973",
    "cataloglink": "https://webvoyage.carli.illinois.edu/nby/cgi-bin/Pwebrecon.cgi?DB=local&v1=1&BBRecID=132054",
    "pages": [
        {
            "pageid": 62252,
            "pagefilename": "bdb7e4cc8e92f5da34f5236742f0046f.jpg",
            "pageorigfilename": "Ayer_MS_341_00001_o2.jpg",
            "transcription": "George R. [in circle] L. S. \n[above: Indians 472]\nAdditional Instruction for our trusty and well Beloved Robert Monckton Esq, our Captain General and Governor in Chief of our Province of New York, and the Territories depending thereon in North America; and in his Absence to our Lieut Governor or Commander in Chief of said Province for the Time being.  Given at our Court at St James's the ninth Day of December 1761 in the Second Year of our Reign.  \nWhereas the Peace and Security of our Colonies and Plantations upon the Continent of North America, does greatly depend upon the Amity and Alliance of the Several Nations, or Tribes of Indians, bordering upon the said Colonies, and upon a just, and faithful Observance of those Treaties and Compacts, which have been heretofore solemnly entered into with the said Indians, by our Royal Predecessors, Kings and Queens of this Realm. And Whereas, notwithstanding the repeated Instructions which have been from Time to Time given by our late Royal Grandfather to the Governors of our several Colonies upon this Head, the said Indians have made, and do still continue to make, great complaints, that Settlements have been made, and Possession taken of Lands, the Property of which, they have by Treaties reserved to themselves, by Persons claiming the said Lands under Pretence of Deeds of Sale, and Conveyance, illegally, fraudulently, and surreptitiously obtained of the said Indians; and whereas it has likewise been represented unto us, that some of our Governors, or other chief Officers of our said Colonies, regardless of the Duty they owe to us, and of the Welfare and Security of our Colonies, have countenanced such unjust Claims and Pretentions, by passing Grants of the Lands so pretended, to have been purchased of the Indians.  We therefore taking this Matter into our Royal Consideration, as also the fatal Effects, which would attend a Discontent amongst the Indians, in the present Situation of Affairs, and being determined upon all Occasions to"
        },
        {
            "pageid": 62253,
            "pagefilename": "035102a2bbb69a7ce5ecbd260cd99536.jpg",
            "pageorigfilename": "Ayer_MS_341_00002_o2.jpg",
            "transcription": "to support and protect the said Indians in their just Rights and Possessions, and to keep inviolable the Treaties and Compacts which have been entered into with them, Do hereby strictly enjoin and command, that neither yourself, nor any Lieutenant Governor, President of the Council, or Commander in Chief of our said Province of New York, do upon any Pretence whatsoever, upon Pain of our highest Displeasure, and of being forthwith removed from your or his Office; pass any Grant or Grants to any Persons what[so]ever, of any Lands within, or adjacent to, the Territories possessed, or occupied by the said Indians, or the Property or Possession of which has at any time been reserved to, or claimed by, them [some text scratched out: (said Indians)?].  And it is our further Will & Pleasure, that you do publish a Proclamation, in our Name, strictly enjoining and requiring all Persons whatever, who may either wilfully, or inadvertently have seated themselves upon any Lands so reserved to, or claimed by, the said Indians, without any lawful Authority for so doing, forthwith to remove therefrom.  And in case [^you] shall find upon strict Enquiry to be made for that Purpose, that any Person or Persons do claim to hold or possess any Lands within our said Province, upon Pretence of Purchases made of the said Indians, without a proper License first had, and obtained either from us, or any of our Royal Predecessors, or any Persons acting under our or their Authority, you are forthwith to cause a Prosecution to be carried on against such Person or Persons who shall have made such fraudulent Purchases, to the End, that the Land may be recovered by a due Course of Law.  And Whereas the wholesome Laws, which have at different Times been passed in several of our said Colonies, and the Instructions which have been given by our Royal Predecessors, for restraining Persons from purchasing Lands of the Indians, without a License for that Purpose, and for regulating the Proceedings upon such Purchases, have not been duly observed; It is therefore our express Will and Pleasure, that when any Application shall be made to you, for License to purchase Lands of the Indians, you do forbear to grant such License until you shall have first transmitted to us, by out Commissioners for Trade and Plantations, the Particulars of such application, as well in Respect to the Situation, as the Extent of the Lands"
        },
        {
            "pageid": 62254,
            "pagefilename": "320503defe87928bde78746234ffd499.jpg",
            "pageorigfilename": "Ayer_MS_341_00003_o2.jpg",
            "transcription": "Lands so proposed to be purchased, and shall have received our further Directions therein.  And it is our further Will and Pleasure, that you do forthwith cause these our Instructions to you to be made publick, not only within all Parts of our said Province inhabited by our Subjects, but also amongst the several Tribes of Indians, living within the same, to the end, that our Royal Will and Pleasure in the Premises may be known, and that the Indians may be apprized of our determined Resolution to support them in their just Rights, and inviolably to observe our Engagements with them.  \nG. R. \nA true copy of the original Examined by W Banyard Secretary"
        }
    ]
}