{
    "id": "1161",
    "cataloglink": "https://mms.newberry.org/xml/xml_files/raster.xml",
    "pages": [
        {
            "pageid": 86437,
            "pagefilename": "b7eb07732c342aa50f8d797367aa453d.jpg",
            "pageorigfilename": "mms_raster_box_007_fl_133_001_001_o2.jpg",
            "transcription": "Anna Hercz\nELMAN'S\nBook Store\n2300 W. Van Buren St.\nName  Arthur R. Hercz\nSubject Chemistry 1\nClass 250  5+6    Date Feb. \nInstructor Wilson\nDr. Neymann\nNote Book No 64"
        },
        {
            "pageid": 86438,
            "pagefilename": "6b4ece4c97c6de9b1d0f0cce8c8b3892.jpg",
            "pageorigfilename": "mms_raster_box_007_fl_133_001_003_o2.jpg",
            "transcription": "Dreams. Anna Hercz.\n1st night, July17.\nWalking with Mrs. Waller and some other person away from the Sanatarium along a country-road with street-railway.  Mrs. Waller urging me to take the street-car, but I insisted on walking which led her to suspect that I wished to avoid people, especially the police, fearing arrest.  (On the night before this dream I had seen a movie full of detectives and pursuit).  \nBeing somewhere in a house, (not familiar in waking) packing for a trip abroad, where I was being sent for \"nerves\".  My aunt (who made her home with us for eight years and is now in Germany, very sick after a cancer operation)"
        },
        {
            "pageid": 86439,
            "pagefilename": "4dbe9c2c090f5536f42ed5a83efd75e3.jpg",
            "pageorigfilename": "mms_raster_box_007_fl_133_001_004_o2.jpg",
            "transcription": "was with me and, vaguely, my daughter.  My brother (who died four years ago) came in from Milwaukee, inquired about the trip and was told by my aunt that I was being sent away for \"Wechselfieber\".  (This term I had heard from my mother who used to tell me that as a child she had had this complaint).  It seemed to be understood by all of us that my brother, himself a nervous type, had better not be told about my nerves.  (On the day preceding this dream I had received long letters from my brother's daughter, now traveling abroad, and from my aunt in Germany).\nMerely a vision of an old furnace (in the basement of"
        },
        {
            "pageid": 86440,
            "pagefilename": "1a1cfa6e708481e127b5816067ee84f6.jpg",
            "pageorigfilename": "mms_raster_box_007_fl_133_001_005_o2.jpg",
            "transcription": "the house where I was born and lived for 30 years), with the points of a large pair of open scissors showing beneath the ash door.\n2nd night, July 18.\nTaking treatment at the Sanatarium.  Being put with another patient on a small sliding platform and rolled along while hot and cold air was blown at us.  I was told to hold on to the other patient, a very thin woman, who finally vanished entirely, leaving me with her empty négligée in my arm.\nLater at the Sanatarium.  A meal being served in the basement to some other patients and myself.  An attendant brought"
        },
        {
            "pageid": 86441,
            "pagefilename": "803a95e5ab1a05c925199d7f7d71adba.jpg",
            "pageorigfilename": "mms_raster_box_007_fl_133_001_006_o2.jpg",
            "transcription": "me one of my own pearl-handled knives, quite blackened and broken and apologized for its appearance.  (Upon my return home from the Sanatarium I had found all my silver blackened or stained).\nLater at the Sanatarium.  Mrs. Johns, another patient, and I wished to pack our things to go home, but were told by Mr. Ayers that everything had been locked away and could not be taken out at this hour.  Our things seemed to be in a small store-room behind a door camouflaged by a book-case.  (I had recently read about such a door).  Finally Mr. Ayers gave Mr. Johns and myself permission to go in.  It was pitch-"
        },
        {
            "pageid": 86442,
            "pagefilename": "2d19f0009fb18a6c63329b192f3cb016.jpg",
            "pageorigfilename": "mms_raster_box_007_fl_133_001_007_o2.jpg",
            "transcription": "dark and we could not find our things.  Mr. Johns rather familiarly put his arm around my shoulder.  (Mrs. Johns had often spoke about his manners with disapproval to me).  It seems that we all finally left the Sanatarium somehow."
        },
        {
            "pageid": 86443,
            "pagefilename": "b870a2eec7e75e02c9ec5a3c703b4aa1.jpg",
            "pageorigfilename": "mms_raster_box_007_fl_133_001_008_o2.jpg",
            "transcription": "July 29th\nNight-mares every hour, waking up at 2, 3, 4 a.m.  All more or less confused about Sanitarium patients, riding on trains, being insane myself.  The last impression deepest, causing very serious depression on day following. (Intestinal disturbance).\nAugust 1st\nRestless sleep, thumping in head.  Riding in a car from West to East down-town with some-one (brother or husband, vague).  Getting off by myself because I thought destination was reached.  Found myself far from loop with high office-buildings stretching endlessly"
        },
        {
            "pageid": 86444,
            "pagefilename": "c1fb94714bbb4ee4b107f6b1186fcecd.jpg",
            "pageorigfilename": "mms_raster_box_007_fl_133_001_009_o2.jpg",
            "transcription": "towards East.  Faced necessity of walking the distance and worried about anxiety of my companion when he should discover that I was not on car (He had been on rear platform).  Saw the car I had left passing, but it was just a black locomotive.  Watched for other cars; they were also all single locomotives.  Woke with great noise in right ear. Nervous, hot-water bottle.  Later dreamt about some neighbor coming in for house-cleaning; face very familiar, but could not place it and became very uneasy trying to do so, fearing my faculties were leaving me.  Woke up restless."
        },
        {
            "pageid": 86445,
            "pagefilename": "64d5c8ea6e1abe46c41d2a8ab00a2deb.jpg",
            "pageorigfilename": "mms_raster_box_007_fl_133_001_010_o2.jpg",
            "transcription": "August 2.\nDreamt about Sanatarium Dr. Neymann and Sana. staff (doctors & nurses, but not the identical ones of Parkway) and myself taking troop of children, Boy Scouts (Mrs. Waller's nephew) on a hike, to a ravine, lakeshore.  Dr. N. angry with them, tried to soothe him by smoothing his hair, like Bubi's.  Like Bubi, he said: don't do that, impatiently.  Later at Sana. top floor, very cold.  Janitor said he did not know how to handle furnace, I told him my brother would show him when he came.  My"
        },
        {
            "pageid": 86446,
            "pagefilename": "529f3540f364f0e68814874891a5da4a.jpg",
            "pageorigfilename": "mms_raster_box_007_fl_133_001_011_o2.jpg",
            "transcription": "brother came, laughed at small open furnace.  Later I was at large, open studio (some artist Oscar Gross? Hoffmann? Hassmann?) host.  Brother came in light-gray suit, quite sporty, took cigaret from host's pocket immediately and lit up.\nAugust 3.\nBeing at some sewing-club or class, making fruits and vegetables of felt.  One member showed me her work: one piece a cherry (vague) and another a carrot, green with yellow top in which she put pins to show it's use as pin cushion"
        },
        {
            "pageid": 86447,
            "pagefilename": "8b4c2c12ea2f2bbc220b19674fb30c17.jpg",
            "pageorigfilename": "mms_raster_box_007_fl_133_001_012_o2.jpg",
            "transcription": "August 4th\nBeing on ocean-liner and then somewhere in a European restaurant with O.O. McIntyre and his family: wife and two children.  Drinking iced drinks.\nAugust 16th.\nBeing at Dr. Neymann's office, or rather, being through with treatment and starting home.  Dr. Neymann offering to drive me (as he had done in reality the last time) and walking with him to the auto we passed a street (like Stratford or Hawthorne) with gardens and pigeons strutting in one of them."
        },
        {
            "pageid": 86448,
            "pagefilename": "d5da700f8688bf3b015e22edd0f3371d.jpg",
            "pageorigfilename": "mms_raster_box_007_fl_133_001_013_o2.jpg",
            "transcription": "One pigeon was yellow as a canary and I remarked upon it, but Dr. said that that was not unusual.  Also passed some people seated at a table, like in a beer-garden. (Vaguely, Dr. Luckhardt seemed to be one of them.)  When we reached auto, it was an old-fashioned buggy and Dr. N. asked me to put up the top, which worked something like a dentists' chair, going up in jerks by pressure on a foot-rest.  While doing this, I woke.\nPrevious to this dream, I dreamt, vaguely, of a quarrel with my husband about some thing some-one had said about"
        },
        {
            "pageid": 86449,
            "pagefilename": "e59482779f53e9063424c1695a6369d6.jpg",
            "pageorigfilename": "mms_raster_box_007_fl_133_001_014_o2.jpg",
            "transcription": "him or myself.  All this I barely remembered on waking.\n17th\n(Dreamt this immediately after Mrs. Waller visited us and we had put her out).  \nGoing from my house with Mrs. Waller, with the object of taking her away, to a hotel where some friends (Notz's and Kranz's) lived.  Found them playing cards in their room, asked to join them.  The mother was putting the little girl (Mrs. Charles Hines?) to bed in a room across the hall and I"
        },
        {
            "pageid": 86450,
            "pagefilename": "deb35c935adb2c689096722e3776e249.jpg",
            "pageorigfilename": "mms_raster_box_007_fl_133_001_015_o2.jpg",
            "transcription": "helped her. Mrs. Waller stayed with the men in the other room and there put on the gown I had loaned her. \nLater returned somewhere and watched people passing in the street, particularly a family of ten pairs of little twins, all almost the same size, walking in a row. (Had seen a pair of cute twins the afternoon previous).\n22nd August\nSomebody piercing or lancing me in the spine (at waist) and waking with a very slight pain there. - Being with some children (son & nephew) in a garden,"
        },
        {
            "pageid": 86451,
            "pagefilename": "0ba146eba1518f1ba645fe166def67a9.jpg",
            "pageorigfilename": "mms_raster_box_007_fl_133_001_016_o2.jpg",
            "transcription": "then finding them in a very dirty little house (pig-sty?) eating \"corn-husks\" as they said, - a sort of gray, dry, net (like lufa-sponge) the shape of an ear of corn, tasting like breakfast-food. \nLater, driving about with my mother on a Sunday, when all stores were closed, to shop a gift for my little niece or nephew."
        },
        {
            "pageid": 86452,
            "pagefilename": "408cc187b6af6471ced4dae12acc85e7.jpg",
            "pageorigfilename": "mms_raster_box_007_fl_133_001_017_o2.jpg",
            "transcription": "24th\nNight-mare. (Had been nervous during day thinking about possibly becoming insane).\nBeing in some kind of asylum, going repeatedly down cellar to a class, seeing insane people about me, grasping their sleeves, suddenly gone empty, hearing insane laughter (forgot the rest immediately on waking). \nAwoke with rushing & singing noise in ear, very warm sudden heavy covering, head fallen from pillow; also some heart-palpitation! -"
        },
        {
            "pageid": 86453,
            "pagefilename": "0166f4d12044ecdec4922b7925e05e39.jpg",
            "pageorigfilename": "mms_raster_box_007_fl_133_001_018_o2.jpg",
            "transcription": "26th\nDisagreeable dream of cooking in kitchen (had been working there at baking all day) and taking a liver to fry (chicken-liver or a piece of liver), dropped it on floor where it seemed to turn into something alive, with mouth and closed eyes, moving and suffering. Felt suffering, very night-marish, - awoke feeling nervous, with head-noise. Back to sleep, dreamt of visiting, with my mother, some-one in a very pleasant, cottage-like hospital: Mrs. Meixner.  On first floor were offices of \"Hansa\" or something"
        },
        {
            "pageid": 86454,
            "pagefilename": "9b4456cd94bf8db950ac678bcdc4375c.jpg",
            "pageorigfilename": "mms_raster_box_007_fl_133_001_019_o2.jpg",
            "transcription": "similar.  Were told we could not see her now because some one else, Mrs. Buhl? was with her.  Waited down-stairs where there was a pleasant dining-room.  Young boy-waiter asked to be of service, or brought glass of water, or something, - all vague.  Mother wanted to go to ladies toilet and asked me to go with her, - awoke.\n31st\nBeing somewhere (in a garden) with my mother and, vaguely, old Mrs. Fleischmann.  Mother agitated & fearful at the thought of her approaching death, saying"
        },
        {
            "pageid": 86455,
            "pagefilename": "9e8cd932e57ec4e2e1be5f81c8d28952.jpg",
            "pageorigfilename": "mms_raster_box_007_fl_133_001_020_o2.jpg",
            "transcription": "she was now 76 and had, at best, not much longer to live.  I soothed her with a long piece of philosophy.  Later, in a room, Ella Piper arrived from Powers Lake and was given breakfast by me, especially very hot coffee, served by Mrs. Aermel (who also had figured somewhere in a dream of that night as sitting at a table sewing for me).  Also my niece Susi appeared somewhere from N. Y., briefly.  Then my daughter came home with the young man she was going to marry, not Mr. B., but vaguely, Grant Strathern.  (I had written to Mrs. \"  \"  that afternoon.  I was dissatisfied and deeply hurt by"
        },
        {
            "pageid": 86456,
            "pagefilename": "2c6c69be6df97be6e38f05da88962381.jpg",
            "pageorigfilename": "mms_raster_box_007_fl_133_001_021_o2.jpg",
            "transcription": "Greta's behaviour, especially by her saying that she was going away to be married in the West and would stay away.  Later she came to me with a number of gifts she had brought home, made by herself, some very intricate metal-work (this partly due to place-cards seen at party & things from India at Eitels).\nThen M. Arnold (friend who died last year with cancer) came home too and embraced me, calling attention to the fact that she was again able to wear a tight stiff corset, but when my hand touched the open laced space at the back she screamed and said I had hurt her, that"
        },
        {
            "pageid": 86457,
            "pagefilename": "61c1c661c34806bdc2df9f15c622fd05.jpg",
            "pageorigfilename": "mms_raster_box_007_fl_133_001_022_o2.jpg",
            "transcription": "the dr. had told her not to touch that spot, and she cried.  I felt remorseful & frightened, thinking that now, through my fault, she might die sooner. -\nSomewhere in the dream I was looking out of a window, all this seemed to happen in a sort of boarding-house or small hotel, and looked into a large, airy                expressing-place, where [wagons were comin - crossed out] loads were coming in and big boxes & trunks were being handled.\nThen, it seemed, I was preparing a meal in a room all littered up, my old desk, opened, standing in a corner, a large pot of soup boiling near"
        },
        {
            "pageid": 86458,
            "pagefilename": "21078d769ad74ff2a86a85ebcc36ebcc.jpg",
            "pageorigfilename": "mms_raster_box_007_fl_133_001_023_o2.jpg",
            "transcription": "Jung essay: \"Krebs'-dream.\nthe floor probably on a small heater.  I used the desk as a kitchen table & prepared what seemed like a calf's heart (had been cleaning out squabs the day previous).  In each valve of the heart I found a queer substance), 2 different ones, a compact mass each.  I called to my mother in the door-way to come & see.  One of the pieces turned into what looked like a lobster-claw, whitish, and the other into a small flat fish.  Both began to move.  Mother came and closed the desk-lid on them, which seemed to squeeze the fish.  When I quickly opened the lid, there was a"
        },
        {
            "pageid": 86459,
            "pagefilename": "66e92868719a4bfe10067fed02f6ef3c.jpg",
            "pageorigfilename": "mms_raster_box_007_fl_133_001_024_o2.jpg",
            "transcription": "smaller fish hatched out. \nThen mother cried, \"Your soup is boiling over and as I sprang to remove it, there was a sudden deluge of water from the ceiling over my desk in the corner, like a shower- bath. We looked up and say a leak in the ceiling, tried to think of a way to stop it,-- awoke.\nSept. 1st\nVery vagues dreams. One of them in which my father seemed to be sick in bed somewhere and quite irritable. Mother & my brothers also somewhere about. I was writing picture-post-cards."
        },
        {
            "pageid": 86460,
            "pagefilename": "1015027e42ca4f09fe0aaf586f210710.jpg",
            "pageorigfilename": "mms_raster_box_007_fl_133_001_025_o2.jpg",
            "transcription": "Took packages of them from a dresser.  One package turned into a parcel of oil-paintings, or card-board, still wet, I handed them to the patient in bed for criticism (vaguely, he seemed to have my husband's authority on paintings).  Another parcel of cards, large ones, had pictures such as I lately saw in the movies with rivers and lakes of moving water.\nLater was driving in a park with parents and brother, car (or carriage) slipped from a pier or steep road into a pond or swamp, but I neither saw nor felt the water, there seemed to be no danger, we were not"
        },
        {
            "pageid": 86461,
            "pagefilename": "e9eb97de78fe2973b816d81b9c0c1c2f.jpg",
            "pageorigfilename": "mms_raster_box_007_fl_133_001_026_o2.jpg",
            "transcription": "submerged and soon extricated.  Later, sat in some restaurant near by, ordering food - - vague.\nAlso dreamt about a friend (Mrs. Meixner) showing me a box, which she opened and which was empty, that she had brought from abroad as a gift for some-one.  It was exactly like a little chest (only somewhat larger) that was given me when I was about thirteen (also brought from abroad) and in which I first kept intimate letters of my girl friends and later the little souvenir trinkets of my little son who died."
        },
        {
            "pageid": 86462,
            "pagefilename": "17fa859edff47064b20984049a679557.jpg",
            "pageorigfilename": "mms_raster_box_007_fl_133_001_027_o2.jpg",
            "transcription": "Analysis:\nSomething to do with my grief and remorse at my mother's premature death.  Also something to do with a \"cancer\".  Uncertainty about my daughter's future.\nWhat are boxes and trunks (especially open ones) a symbol for?\nSoup boiling on small stove probably something to do with the \"furnace\" symbol.\nWhat are small living and squirming things a symbol for? \nWater-leak probably something to do with sex-symbol. -"
        },
        {
            "pageid": 86463,
            "pagefilename": "384851aabccfc1a28b93d81805e9a3a8.jpg",
            "pageorigfilename": "mms_raster_box_007_fl_133_001_028_o2.jpg",
            "transcription": "Sept.20.\nOn awakening, the dream had already become very vague, it seemed to be all about being in a rather large, nice house with my mother (Christmas-time) and somewhere a poor family to be looked after.  Then my guardian Mr. Pietsch, arriving from somewhere with a son, to persuade us to do something we did not wish to do (it seemed to be to go somewhere with him, or for me to marry his son, or something about money).  He brought a gift (as a bribe), a sort of chandelier of"
        },
        {
            "pageid": 86464,
            "pagefilename": "9fd182d9b4fc2a0117b04a60bde297e1.jpg",
            "pageorigfilename": "mms_raster_box_007_fl_133_001_029_o2.jpg",
            "transcription": "Venetian glass, many small yellow bulbs or ornaments on it.  Then, trying to attach it to the ceiling (it may have been my mother who tried to do this, or myself) it fell and crashed to pieces.  Mother and I seemed glad of it. - Finally consented to go out with the Pietsches, but stopped in hall way to consider necessity of taking care of furnace-fire first.  Mr. Pietsch said he would do that and went to look after it. -\nThen vaguely, we were with the poor family to whom we were supposed to give Christmas presents, - all very vague"
        },
        {
            "pageid": 86465,
            "pagefilename": "c179025f1aa77a75706df06d5b8f4848.jpg",
            "pageorigfilename": "mms_raster_box_007_fl_133_001_030_o2.jpg",
            "transcription": "Sept. 25.\nMany fleeting, confused dreams, all forgotten.  Vaguely remembered: Starting somewhere on trip in auto-bus or auto with various people (forgotten), one of them Nelda Meiners, (Possibly Greta, too.)  My mother also there, Leaving a trunk (packed) behind, right on curb of street.  Nelda and I protesting to my mother about leaving it so unguarded and asking her to take out valuables, at least.  Where upon Mother opened trunk and took out my little  pearl pin with Greta's picture. - Something"
        },
        {
            "pageid": 86466,
            "pagefilename": "8a734b13533daade5ca1734fed8447bf.jpg",
            "pageorigfilename": "mms_raster_box_007_fl_133_001_031_o2.jpg",
            "transcription": "more, vague, about showing each other clothes, newly bought. -\nSept. 26.\nAt dentist's, having tooth extracted: one large, hollow lower molar on right side.  No pain.\nMy friend Mattie Arnold packing books, manuscripts, etc. for a trip."
        },
        {
            "pageid": 86467,
            "pagefilename": "e65a8bdf5751a05370db27025b5b2f45.jpg",
            "pageorigfilename": "mms_raster_box_007_fl_133_001_032_o2.jpg",
            "transcription": "November 30. [date underlined]\nVisiting Marie Arnold dying at Hospital with E. Eitel & Clothilde Hotz. Mattie saying: \"well, one of us must be the first to go. I wonder which one will be next?\" Also telling of Lily Brand being ill like herself. - - Looking at a new car of Eitels; inside something like the old-fashioned hansome cab, done in maroon and lavender. Silly conversation, Emil saying: I tell Emma to get a lavender suit to match the car.\" And I replying: \"then you ought to get yourself a maroon one, to make it perfect.\""
        },
        {
            "pageid": 86468,
            "pagefilename": "e6888124735e1536e30f6b68945bb8bb.jpg",
            "pageorigfilename": "mms_raster_box_007_fl_133_001_033_o2.jpg",
            "transcription": "December 7. [date underlined]\nVery vague about Dr. N. being at our house in library(totally strange surroundings) instructing me from a small book, which he claimed was a most wonderful treatise. I had work to do (or to go out, or having company coming) and realized it was getting late (about 11[superscript]30 a.m. by clock) and was inwardly impatient, but said nothing.\nLater went to County Hospital with Walt to see Tante Hansen. Entering and mounting stairs, a nurse plugged my Aurophone so that it would not be ruined in passing through a certain electric Zone. (This due to something similar I had just read). Found Mrs. H. in bed in"
        },
        {
            "pageid": 86469,
            "pagefilename": "96395f0511fb1c7648f0eaa8306848cf.jpg",
            "pageorigfilename": "mms_raster_box_007_fl_133_001_034_o2.jpg",
            "transcription": "[Begin underline] Mrs. H. had died on Dec. 1, a week before [End underline] \na very pleasant room with 2-3 other patients. Her bed at large window with curtains overlooking tree in garden and nice street. She much better and very well satisfied. Said she had cancer (of throat?) and would be sick there a long time. A doctor and nurse came and started to shave her face about the eyes. Her complexion during this process was that of a negro. She did not seem to like it, but submitted. On leaving we asked if she were contented there and she said yes."
        },
        {
            "pageid": 86470,
            "pagefilename": "49cee6d1e0374aec07974a755d527360.jpg",
            "pageorigfilename": "mms_raster_box_007_fl_133_001_035_o2.jpg",
            "transcription": "December 12. [ Date underlined]\nSomething vague about being in a kitchen and somebody (vaguely my brother Edwin) was playing with a small box of kitchen matches. I warned him, but he did not heed and then the box caught fire. He threw it into the sink where it flared up into a tall yellow flame (like a taper) that touched and even slightly blackened the ceiling, so that I feared the fire would spread, but it died down. Also, vaguely, little spurts of fire (perhaps matches carelessly thrown) here and there, before above happened."
        },
        {
            "pageid": 86471,
            "pagefilename": "38757159bbf40b274ec376bd69cb26b5.jpg",
            "pageorigfilename": "mms_raster_box_007_fl_133_001_036_o2.jpg",
            "transcription": "[Begin underline] January 11 [superscript and underlined] th. [End underline]\nBeing at some resort (hotel) with mother. Mrs. Neymann also there and Dr. Neymann. Mrs. N. telling me that her lungs were much better, one entirely cured, and sang a few bars to prove it. Dr. N. sitting in chair listening. I complimented Mrs. N. on her lovely voice. She said she was going to California for a complete convalescence. Later mother and I walking in rather crowded street of resort-town, seeing (or looking for) an [lined out] a shop to buy Dr. N. something for his aquarium. Much more to this dream, but all vague & forgotten."
        },
        {
            "pageid": 86472,
            "pagefilename": "9a1839e5f218b4bba5e795b161d43c9b.jpg",
            "pageorigfilename": "mms_raster_box_007_fl_133_001_037_o2.jpg",
            "transcription": "[Begin underline]January 25[superscript and underlined]th[End underline]\nA bit night-marish after a bad day. First dreamt something about cooking in the old home kitchen and going to fetch something in the old barn. Nasty feeling of being followed up a stair-case (spiral) by a cat or two (one, I believe, white). Wet spots on stair-case, somewhat disgusting. Having in my hand a package of sliced bacon and tearing off pieces to drop down to cat to keep her from following me. The rest vague. Woke with disagreeable feeling.\nLater dreamt of house-cleaning in large house (reminiscent of Emma's flat with white walls, etc.) Greta washing pictures for me. Telling her I was glad to have some-one else do it after so many years. - Feeling sick (as in daytime) and Dr. N. came"
        },
        {
            "pageid": 86473,
            "pagefilename": "49bdb2c17002ab1c3c5268eb9c14530d.jpg",
            "pageorigfilename": "mms_raster_box_007_fl_133_001_038_o2.jpg",
            "transcription": "in to see me. Told him (as I had told husband on night before dream) that I ought to be in an institution. (Or perhaps he told me.\nFebruary 14.[date underlined]\nShort dream of passing Dewes house with my son and noting that it had been torn down and replaced by a modern Clubhouse building. Looked into lobby and admired the modern plan of straight, hight stairs, in three sections (from pictures I had looked at before retiring). My son and I were troubled to think of the disappointment to my husband when he should find his house destroyed."
        },
        {
            "pageid": 86474,
            "pagefilename": "face06df43e7ad4becc07cfee2ef9cd8.jpg",
            "pageorigfilename": "mms_raster_box_007_fl_133_001_039_o2.jpg",
            "transcription": "February 15[superscript underlined]th [whole date underlined]\nWoke early disturbed by present worries. Fell asleep again later and had night-marish dream of being lost in strange streets. Had been in house with Miss A. Michaelis (our old seamstress who suffered terribly before her death  with some brain or nerve trouble) and some other person whom I do not remember. The other person (a woman relative?) said that she was going out and I had better go down and get Miss A. her lunch, it being far past time. I went to kitchen, but wandered out to street instead (sense of having lost my mind throughout dream) and was lost in strange surroundings. Went a few blocks, then tried to return and entered a hotel to make inquiries. In a beauty or\nbarber-shop  at entrance a male attendant (unfamiliar) answered my questions, seemed concerned about my condition, thought I might be an amnesia victim. I asked him if he had seen anything about my disappearance in papers; told him my name. He said"
        },
        {
            "pageid": 86475,
            "pagefilename": "8b2879ed91247917b217a3182f70c002.jpg",
            "pageorigfilename": "mms_raster_box_007_fl_133_001_040_o2.jpg",
            "transcription": "no. I wandered out again. In vestibule with glass doors and marble floor met many ladies and children, beautifully dressed, coming in. One tiny child in white misbehaved and left puddles of water on floor through which we others passed with some disgust. - Out in street, I was confronted with the same bewilderment, strangeness, sense of having lost my way and mind. Also realized it was very late & Miss A. was still waiting for her lunch. Awoke with disagreeable sense this night-mare always leaves. Head-ache too."
        },
        {
            "pageid": 86476,
            "pagefilename": "9f6807e3e4c73e3a432f2b12a4546678.jpg",
            "pageorigfilename": "mms_raster_box_007_fl_133_001_041_o2.jpg",
            "transcription": "Indian lecture March 27[superscript underlined]th [entire date underlined]\nJust before awakening (with head-noises and in cramped position) dreamt vividly of being with my two brothers somewhere (bright, light place) immediately following my mother's death. A coffin or perhaps treasure-chest (of mother's) was standing near, covered with a bright red cloth embroidered with gold disks* [there is a line drawn from the phrase \"gold disks\" up to the phrase \"Indian lecture\" at top of page]. There was some talk about \"who would be next\" and an atmosphere of peace & contentment, as of pleasant memories of mother (vaguely reminiscent of girlhood scene with brothers & Will H. whistling at piano, of which I had just spoken to my husband)."
        },
        {
            "pageid": 86477,
            "pagefilename": "7de97ecf3023f353380be5e4f9758908.jpg",
            "pageorigfilename": "mms_raster_box_007_fl_133_001_048_o2.jpg",
            "transcription": "Tell Dr. - not reluctant about talking because afraid of him, - he a very sympathetic listener, - it ought to be a release, an escape, but is just the opposite."
        },
        {
            "pageid": 86478,
            "pagefilename": "be74e9c01cd3d9ce3eee7fa086917f1e.jpg",
            "pageorigfilename": "mms_raster_box_007_fl_133_001_049_o2.jpg",
            "transcription": "Did not quite cover the subject: intellectual interest & vast pity for humanity (Upton Sinclair). [the preceding words constitute the entire contents of this page and are crossed out]"
        },
        {
            "pageid": 86479,
            "pagefilename": "52c948bea79b2e7b4c046ee0450abc13.jpg",
            "pageorigfilename": "mms_raster_box_007_fl_133_001_085_o2.jpg",
            "transcription": "January 28 [superscript and underlined]th after Greta & father had been to Dr Neymann with me the night before\n________________________________________________________________________________________________\nGreta had told Dr. about her affairs and he approved her attitude. He told me he did not want me to make \"odious comparisons\" between her life and mine. From what he said later (his surprise because I said I believed her life to be unhappier than mine had been) I gathered that he meant by \"odious comparisons\" jealousy on my part. Since he had never thought of this before and I knew that Greta had (from remarks he made at the time of her affair with Bob) I knew that he had gathered it from Greta. Much upset because of this feeling of contempt (subconscious) on Greta's part; inferiority feeling.---------------------\nJealousy on my part because of Dr.'s approval of Greta's conduct and disapproval of mine. Why"
        },
        {
            "pageid": 86480,
            "pagefilename": "8d85c85c943eab34586e2d8992944519.jpg",
            "pageorigfilename": "mms_raster_box_007_fl_133_001_086_o2.jpg",
            "transcription": "did Dr. Neymann say that Greta was not a good influence for me?"
        },
        {
            "pageid": 86481,
            "pagefilename": "e47a58d3be43e158eb9df7ca7207bf58.jpg",
            "pageorigfilename": "mms_raster_box_007_fl_133_001_088_o2.jpg",
            "transcription": "2nd[underlined] Contin. of Jan. 17 [superscript underlined]th\nsuperior to them, but I never had feeling that I was not[underlined] so. Being in Sana. first gave me that idea. Else why should I be there? Nobody explained. --- Being called abnormal and disagreeable by Dr. has only intensified dissatisfaction & disgust with myself & made me self-conscious. Depressed by father, because he is constant reminder of life wasted on him. Self-reproach for having made him unhappy[last three words crossed out] kept him married to person he did not care for. ---  About doing what is expected of me. Not for lack of self-confidence but because I wanted others to be comfortable X Most important thing in my mental life: this putting myself in another's place.\nrather a feeling of strength to be able to do so.[line drawn under \"comfortable\" to \"X\" and on to \"rather\"]"
        },
        {
            "pageid": 86482,
            "pagefilename": "9018daa4c74d335ce2e21d3b62d41ada.jpg",
            "pageorigfilename": "mms_raster_box_007_fl_133_001_089_o2.jpg",
            "transcription": "Continued January 17.[underlined]\nThe fact that I subconsc. did not like my mother stirs me only to more self-reproach, as I may inadvertently have hurt her by this mental attitude. (Ask about this \"putting myself in another's place\") Not as pronounced now as it used to be. What does he mean by \"normal\"? I have known many people intimately and no 2 exactly alike in emotions, views, re-actions. What is the standard? -- What I gathered from Dr.'s philosophy is this: nothing is very important in life, or worth thinking and feeling about, but just go on living & doing things from day to day, which is just what I have been and am doing. --- He said he put me in Sana. so that I should see nuts and feel"
        },
        {
            "pageid": 86483,
            "pagefilename": "177b437452cfd19aa1487ead7749221d.jpg",
            "pageorigfilename": "mms_raster_box_007_fl_133_001_090_o2.jpg",
            "transcription": "January 17. [date underlined]\nFelt  badly after visit to Doctor on night before, when he told me that I had never been normal. Chief cause for mental distress: \nself-reproach, because if [crossed out] (although this is no new [underlined] thought for me) I must have unintentionally done much to make those dependent upon me unhappy. Also depression because it is too late to reprieve anything and not worth changing for the few remaining years of my life. Dr. merely corroborated my own opinion of myself (enforced by statement of abnormality) thereby adding to inferiority feeling.\nDr. told me I had never liked my mother. The inference is that my self-reproach at her death was due to this sub-conscious feeling. But self-reproach was merely for not being with her. Also I had it at Franz's death & am always having it in regard to my marriage. (turn back)"
        },
        {
            "pageid": 86484,
            "pagefilename": "e8f5dbb1f44b56098bd5faca456d1c0d.jpg",
            "pageorigfilename": "mms_raster_box_007_fl_133_001_091_o2.jpg",
            "transcription": "NOV. 30. HAD ADAPTED MYSELF TO MY HUSBAND IN AGE, CANNOT AFFORD TO BE YOUNG AND I AM WITH MY CHILDREN.\nTELL DR. THAT, WHILE I AM NEGATIVELY HAPPY, I AM NOT SATISFIED FUNDAMENTALLY. I AM APPRECIATIVE AND\nGRATEFUL FOR WHAT I HAVE; RESTORED HEALTH, COMPARATIVE HEALTH OF MY FAMILY, NO IMMINENT LOSS OF GRIEF,\nSHELTER, FOOD, FRIENDS. THIS DOES NOT SATISFY, DOES NOT COMPLETELY ABSORB MY INTEREST; I MUST APPLY\nMYSELF TO SOME WORK, TRY TO BE SUCCESSFUL AT IT. ( LIKE DR. N. HIMSELF, WHO WOULD BE HAPPY WITH HIS\nPROFESSION). AM NOW DOING THE SORT OF FUTILE THINGS I HAVE BEEN FORCED TO DO ALL MY LIFE AND VAINLY \nSTRUGGLED AGAINST. DO NOT LIKE BEING SUBMERGED BY THEM AGAIN. IT IS NOT CONSTRUCTIVE WORK WHICH\nALONE GIVES SATISFACTION. SPEAKING OF \"KITCHEN-JOB\" WAS ONLY BECAUSE OF IMMEDIATE NECESSITY."
        },
        {
            "pageid": 86485,
            "pagefilename": "6cbc43a18f37c32db27bf14f768d6e2d.jpg",
            "pageorigfilename": "mms_raster_box_007_fl_133_001_092_o2.jpg",
            "transcription": "DR. N. \nTUESDAY. NOV 25.\nPROTEST BECAUSE HE SAID HE WOULD NOT HAVE STOOD FOR MY STAYING AT HOME, ETC. TELL THAT I \nSIMPLY WAS NOT ASKED OUT.\nTell about this Sat. eve. & preliminary conversation (crossed out)\nSAY THAT ANAL. IS NOT HELPING FEELINGS. HE COULD NOT SAY ANYTHING. 1/2 AS DISAGREEABLE ABOUT MYSELF\nAS I HAVE KNOWN ALL MY LIFE. AND REASONING THAT I MUST NOT TRY TO HAVE ALLES ODER NICHTS ( ALL OR NOTHING)\nDOES NOT HELP EMOTIONS. ELSE IT HAD DONE SO LONG AGO, SINCE I HAVE TOLD MYSELF ALL THIS AND ACTED\nACCORDINGLY. BUT HOW DOES IT HELP?  AM ASKING THIS NOT FOR ARGUMENT, BUT BECAUSE I WANT TO BE\nHELPED.\nWAS PERFECTLY SATISFIED WITH WHAT I HAD FROM MY HUSBAND A FEW MONTHS AGO, NOW AM DISSATISFIED\nWILL NOT REGAIN JOYFUL ATTITUDE. WANT TO LEAVE FATHER FOR HIS SAKE. REALLY BELIEVE MYSELF SANE ON\nTHIS ONE SUBJECT. NOW QUITE MYSELF WITH FATHER. TOO HARD FOR HIM.\nLIFE'S ONE REDEMPTION FROM FUTILITY WHEN ALL ELSE IS SAID. (crossed out)"
        },
        {
            "pageid": 86486,
            "pagefilename": "118ad6673c2e4378d2f2bee439c376d3.jpg",
            "pageorigfilename": "mms_raster_box_007_fl_133_001_093_o2.jpg",
            "transcription": "ASK DR. N.\nWHEN I SAID \"THAT LEAVES 2 OPENINGS FOR THE PSYCHO-ANALYST\", I EXPRESSED MY THOUGHT BADLY. \nWHAT I MEAN IS THAT THE DR. WOULD CONCLUDE THE DREAM (EMPTY SLEEVE) INDICATED A RESISTANCE\nTO PSYCHO-A. UNLESS HE WERE TOLD CERTAIN DEFINITE FACTS OF THE PAST LIFE AND CONSCIOUS\nTHOUGHT OF PATIENT. IN OTHER WORDS THE DR. CANNOT POSSIBLY DRAW THE MORE IMPORTANT\nCONCLUSIONS WITHOUT KNOWING SOME OF THE PATIENT'S CONSCIOUS THOUGHTS AND MEMORIES.\nQUESTION: WHY, IF THIS IS SO, DOES DR. SAY ( AS HE DID ) THAT HE IS NOT INTERESTED IN THE\nCONSCIOUS THOUGHTS, ACTIONS, AND MEMORIES OF PATIENT BECAUSE THEY ARE NOT HELPFUL?"
        },
        {
            "pageid": 86487,
            "pagefilename": "ad5b448e7de2b7f5b884be61d640ea7c.jpg",
            "pageorigfilename": "mms_raster_box_007_fl_133_001_094_o2.jpg",
            "transcription": "IMMUNITY TO ALL THE ILLS OF EARTH.\nA CRYSTAL WALL BETWEEN THE WORLD AND ME.\nA HOPE. AN OPALESCE HAZE TO GUARD [____] MY THOUGHTS"
        },
        {
            "pageid": 86488,
            "pagefilename": "5a25fedeb82531a6188896ea390f031e.jpg",
            "pageorigfilename": "mms_raster_box_007_fl_133_001_096_o2.jpg",
            "transcription": "blank -- back cover"
        }
    ]
}