{
    "id": "1261",
    "cataloglink": "https://webvoyage.carli.illinois.edu/nby/cgi-bin/Pwebrecon.cgi?DB=local&v1=1&BBRecID=154528",
    "pages": [
        {
            "pageid": 100625,
            "pagefilename": "8390a55e2339138c9a103a42c2103009.jpg",
            "pageorigfilename": "GR_768_0001_o2.jpg",
            "transcription": "[journal cover, no text]"
        },
        {
            "pageid": 100626,
            "pagefilename": "633bbdb0a0fa6a4e3e40114262ee7e65.jpg",
            "pageorigfilename": "GR_768_0002_o2_2.jpg",
            "transcription": "January the 1st 1860\nBx 24\nCash $15.00\n\n            1.25\n\n[?]       16.25\n[?]\n$ [?]\n\n484 \n\n  10 0\n\n4840\n242\n72.60\n5.56\n$300\n20\n40\n320\n120\n?\n480\n1200\n10\n1200\n1200\n4800 \n2000\n8000\n8\n10\nSep 26 1858    Wells      Pork PH     40"
        },
        {
            "pageid": 100628,
            "pagefilename": "dff95fecdb9bf4cb1b8901fbf395494a.jpg",
            "pageorigfilename": "GR_768_0003_o2_2.jpg",
            "transcription": "1840 Memorandum & Diary of J Clyman\nDay 1 Light showers of snow a light wind from the NE I am nearly all pealed? with some kind of inflamation so as to scarcely be able to sit up Heard yestarday that the stat bank of Illinois had surrenedered her charter to the Legislature good sleighing = Ross is making a sleigh in yard\nContracted with John Plumb for Building a frame house 42 ft long 14 ft wide with a porch on the S side 14 ft by 10 Plumb to cover and enclose Paid Plumb in advance for the work\nJohn Plumb Dr\n? 1 Yoke Steer 65 $45  Bush potatoes $67 50\n1 Barrel pork  20$                                       20 $97.50\nof all People it seems to me those are the most tiresome who never convers on any subject but their misfortunes\nPut on a damp night cap & then relapse\nHe thought he would have died he was so bad\nHis Peevish Hearers allmost wish he had"
        },
        {
            "pageid": 100629,
            "pagefilename": "b89e46bf4f7711f175f249aa7c8a5865.jpg",
            "pageorigfilename": "GR_768_0004_o2_1.jpg",
            "transcription": "2)\n1840 Jany 2 Morning overcast with light clouds pleasant winter weather\n3d  It snowed moderately nearly all night last night - Fine winter weather Snow 5 or 6 inches deep   Two things Infinite Time and space  Two things more appear to be attached to the above infinity (viz) Matter and number matter appears to prevade the infinity of space and number attempts to define the Quantity of matter as will as to give  bounds to space - which continually Expands before matter and number - and all human speculation is here bounden in matter and number leaving space at least allmost completely untouched.   About the year 650 from the founding of Rome the difficulties commenced Between Marius and Sylla from which I date the commencement of the decline of the Roman commonwealth"
        },
        {
            "pageid": 100630,
            "pagefilename": "4880c70f37d0cd599b7c8a55425ccd12.jpg",
            "pageorigfilename": "GR_768_0004_o2_2.jpg",
            "transcription": "3)\n1840  Jany 4th Fine fair day\nSent to Town for Medicien have been confined to the house for 2 weeks  During the years from 1823 to 1827 I passed my time with furr Traders on & about the Region of the Main Chain of the Rockey Mountains and had frequent opportunities for observation and have frequently thought that the great Quantities of mud Brot down by the Misourie was owing to the whole Region of the main mountain chain hving at some remote period been burned and torn to pieces by internal volcanic eruptions & as in that high and dreary region there is continual and never varying strong west wind blowing the as his mileed? would be continually carried and lodged on the Eastern verge of the mountain owing to its dry Chimical and vitrious Qualities it never yet has been sufficiently saturated to give it solidity but is carried away continually in prdegious large Quantities in the spring season when the snow thaws the water on many large tracts being almost as thick as it can move."
        },
        {
            "pageid": 100631,
            "pagefilename": "5d773442c641d22e931ef9708a899c00.jpg",
            "pageorigfilename": "GR_768_0005_o2_1.jpg",
            "transcription": "4)\n1840 Jany 5 This morning has some appearance for a thaw\nSent some money to town yesterday & got it Exchanged at the Brokers Office paid 15 per cent for Exchang\n\n Cash ILL Paper 110 $ Dr\n To Exchang By Broker                        16.50\n\nBot Medicine of ?ovt? Castteman? Unpd\nEvery Person that has ever passed through the western country must have observed the Quantity of Granite Boulders that lay scattered all over the vast extent of country north west of the Ohio River and which seem to grow larger and more plenty in allmost Regular progression as you traverse the Region northward from the mouth of the Ohio as more of this rock is found in regular strata it has been matter of much speculation to know how they came situate where they are as likewise where they came from and as all Speculation on this head must be mere conjecture my opinion is that remote period the whole of the Missisippi valy was covered with water at which time those"
        },
        {
            "pageid": 100632,
            "pagefilename": "cff3df43fa23511923c3c16a0b33b8a5.jpg",
            "pageorigfilename": "GR_768_0005_o2_2.jpg",
            "transcription": "5)\n1840  Jany 6  Snowed lightly all day yesterday and last night Still Shews like thawing\n\n   Bot of Mr Eggleston 3.600 feet of oak lumber at 5$ per M? ____  18.00\n\nrocks were brought from the base of the Rocky Mountains in the ice and carried southward were let lose? as they progressed by the thaws sunk where they are now found  some have thought that they were seen lying in Regular pairing on the prairey of Illinois But from my own observation I see nothing to confirm that Singular idea\n_____________   __________________     _____________________________\nIn our passage from the headwaters of White River of the Misouri to the Shanon River we passed over a high and most singular Tract of country of about 15 or 20 miles from East to west how far it Extends N. & S I cannot tell it is almost Completely clear of vegetation nothing growing except here and there a stinted prickly pair the soil being of a most loose sterile nature possible and the appearance extremely singular it having been all carried away by the thawing of the snows and showers of rain in to ravines of Extreme depth leaving the plain very uneven"
        },
        {
            "pageid": 100633,
            "pagefilename": "60102419dc64877ff50150cbf0359fad.jpg",
            "pageorigfilename": "GR_768_0006_o2_1.jpg",
            "transcription": "6)\n1840  Jany 7th Quite moderate\nAnd standing full of rounded conical hillocks of pyramidal form some large at the Base and upwards 100 ft hig and all sizes from that down to ordinary hillocks not more three feet high  From its present Shape I would Judge that at about the depth of 50 feet from below the common surface of the earth the top being carried away to that depth from some cause or other perhaps from a greate accumulation of moisture a slight formation of sand stone accum which shields the tops of all the Larger mounds and from which causes unclear present elevation the earth being of all sho? from Light gray to a dark brown and becomes remarkably easyly? saturated on the surface Mixing in large Quantities of with the water the wather when filled with earth has a sweet taste causing those that are under the necesity useing it to be remarkable castius?"
        },
        {
            "pageid": 100634,
            "pagefilename": "285b27591e5b348ba5b69f484b8d0aab.jpg",
            "pageorigfilename": "GR_768_0006_o2_2.jpg",
            "transcription": "1840 January 8 Cloudy and warm for the season\nAfter passing through this last — — you arrive at the foot of the Black Hill a region of hills or rather rounded knobs and valleys but without timber and a great scarcity of water although they are finely covered with nutritious grass and herbs.\nThe Black Hills are the first or most Eastern range of the Rocky Mountains and are generally well wooded with the various species of pine lumber here we observed a peculiar feature in the substrata not found to my knowledge in any other part of this vast range of mountains the formation of straight rock in a vertical pole with a regular stratification of from 4 to 12 feet high and I observed in some deep ravines from 10 to 18 layers on top of each other in nearly a  perpendicular pile some strata having a small inclination one way and some another with the horizon.\nThis day the anniversary of Battle of New Orleans appears to be almost forgotten no firing salutes \nThe — day no gay parties of pleasure"
        },
        {
            "pageid": 100635,
            "pagefilename": "d297a8c7a90c6f81ea4358d5c520743d.jpg",
            "pageorigfilename": "GR_768_0007_o2_1.jpg",
            "transcription": "9) 1840 Jany. the 9 Cloudy warm & Thawy =no military parade no rich dinners no splendid feasts of Champagne no high sounding patriotic toasts no gay cotilion parties no Bacanalian revelry- all still and quiet Save only the common affairs of life no Bustle no hurrying to + fro no anxious and inquisitive looks- no \"unclear\" \"save?\"not then the sound of the woodmans axe or the lonly teamster calling to his sluggish oxen as he slowly drive along How different to the days I have before seen.  So hath passed a many of the greater days of Festivity now forgotten and given place to others like the returning sound of the ancient forest oak which when first uptorn makes a tremendous crash but as it passes the echo  grows more dull more distant untill it is lost in the surrounding   The whole of this forrest of \"petrifactions?\" appear to have been deeply embeded in the earth By ancient convulsion of the earth and the continual washing away of earth are now bringing them again to the light of day the stumps stand some nearly perpendicular But mostly in an inclining posture some one way & some anther look at page 11"
        },
        {
            "pageid": 100636,
            "pagefilename": "7becabd3d6ba390a7572eb0d7688c0a3.jpg",
            "pageorigfilename": "GR_768_0007_o2_2.jpg",
            "transcription": "10\n1840 Jany 10th  Cloudy thawy misting with Rain\nAfter passing the before mentioned Black Hill Range of of Mountains we came into an uneven vally in which the heads of the Shianne and Powder River rises  the former passing the Black Hills and taking an Eastern direction falls in to the Missouri The taking a Northern Route falls in to the yallow Stone River in this vally and on the high of Land\n\ndividing the two river we found a great Quantity of petrifactions  Mostly of the vegatable Kingdom and on the North side of a ridge we pased all most an entire forrest of petrified Timber apearantly of the pine species the stumps of which was standing thick one of which I rode up to and which required some exertion for me to reach the top sitting on horseback the trunk of which lay  scattered along in large chunks the Branches Broken up  more small these petrefactions are very hard and bring fine form\n\nlook at page 9"
        },
        {
            "pageid": 100637,
            "pagefilename": "b3dbdd6237863f8f6630ae36097d8925.jpg",
            "pageorigfilename": "GR_768_0008_o2_1.jpg",
            "transcription": "11\n1860 January 11th. It rained and snowed all night last night this is Terrible stormy with and snow from the East. I do not recollect that I saw any primitive rock in this place except some granite boulders all the rock that I saw being secondary Lime rock although all the petrifactions and even pebble stone are very hard and flinty and in fact all the rock formation in this region is Transition and secondary except it may be the slate beforementioned. I have thought here it would not be uninteresting to give a description of the Buffaloe with its habits althoug they have been so frequently described by others -  The Buffaloe are of the gregarious Class and the females and all the young under three years old go sometimes in immense herds particularly in the fore part of winter when they collect in the lower valies and most Sheltered parts of of the vast plains they inhabit where they remain all winter if not interrupted.  The female keeping quite fat untill the Spring thaws commence when all at once they become verry poor and lean in the course of a few days"
        },
        {
            "pageid": 100638,
            "pagefilename": "b54928533b707c32ab10b1f52ea00b1d.jpg",
            "pageorigfilename": "GR_768_0008_o2_2.jpg",
            "transcription": "12\n1840 Jany 12th It froze considerably last night\nThis is probably owing to the peculiarities of this climate which is remarkably dry through the summer and fall months the vegitation having come to full maturity by the fore part of July. The winter snows having nearly all gone by that time the shower all on a sudden cease to fall and the vegitation immediately dries up the earth becomes dry & parched the vegitable matter remaining dry and unbleached with the next springs thaws the winter commencing without rain the first fall being snow which usually commences about the first of November. By this peculiarity of climate the grasses retain nearly all their substance through the long Rocky Mountain winter But to return again to the Buffalos in spring the thaws having commenced the animals becoming poor rapidly the hunter thin is looking daily for white Liver so called in the hunter phrase this white liver is allways from in female that forward with young which peculiarity is no way accounted for The liver instead of being red and bloody as usual becomes of a pale light ash colour"
        },
        {
            "pageid": 100639,
            "pagefilename": "46e8c78c5adf2859bc84918bd897aa92.jpg",
            "pageorigfilename": "GR_768_0009_o2_1.jpg",
            "transcription": "13\n1840 January the 13th Cloudy Cold & Freezing \nand so tinder that it hardly holds togeather and is a complete lump of fat/ and is considered the most delicate mess ever found in the animal\nIn the later part of April and through the month of May the female brings fourth their young which are all of a red colour and verry helpless for a few days frequently if the herd should be interrupted and leave the the immediate place the females leave their young and follow the main herd never returning\nImmediately after the grass begins to spring the Buffalo Begin to scatter from the lower plains and ascend the more lofty parts of the mountain region in small heards the males generally solitary and alone find their way into the small mountain glens where they remain feeding on the young and tender vegitation and when satiated continually rubbing off the old winters coat against trees rocks banks or any hard body they"
        },
        {
            "pageid": 100640,
            "pagefilename": "2b97a4ea5029386cf9d516dc89e6b55c.jpg",
            "pageorigfilename": "GR_768_0009_o2_2.jpg",
            "transcription": "14\n1840 Jany the 14th Cold and Clear\nCome across making a low grunting nois not much unlike the grunt of a hog the males which came through the winter nothing but skin and bone now begin to [?] remarkably fast and in 5 or 6 weeks after the young herbage begins to spring they are fine fat fleshy and a good beef as are the females likewise that do not give suckle and from a weatherbeaten light brown they all now become a fine sleek black about the middle of July they again begin to assemble in large heards their running time having commenced a short time previous\nThis appears to be the night the time of sleep and rest for the vegitable kingdom leafless and frozen they are now taking their rest and maturing the subsistence they received during the last summer it apiars as if the revolution of the earth around the sun was the day & night for the vegitable as is the earths revolution on its own axes"
        },
        {
            "pageid": 100641,
            "pagefilename": "681df5342e8bf8dc3bc1edea2321f327.jpg",
            "pageorigfilename": "GR_768_0010_o2_1.jpg",
            "transcription": "15\n1840 Jany 15th Clear and verry cold\nthe time for activity and rest to animal tribes\nSleep is a curious and singular phenomenon in the more active animal as likened in human species nearly all the animals that prefer night time for collecting their subsistance seem to have the peculiar adaption to the taking of a long and torpid sleep in the winter however many animals that would seek subsistance in day light in their nocturnal wild state are so timerous and fearefull of man that they are compeled to take the night for what they would prefer the day and therefore seem to prefer what is entirely contrary to their natural [inclination?]\nThe velocity of light seems to be the greatest of all known principals unless electricity should be greater some have thought that electricity is instantaneous throughout all universal space. I can hardly think this to be the fact but if it should"
        },
        {
            "pageid": 100642,
            "pagefilename": "f648a33969865fe730efe4ffc0a15ba8.jpg",
            "pageorigfilename": "GR_768_0010_o2_2.jpg",
            "transcription": "16\n1840 Jany 16 Clear & still more cold\nIt puts to rest the difficult question of infinity of space for if any known and palpable principle is instantaneous through eternal space then eternal space may be infinite as to bounds and duration and mater may likewise be infinite as to [quantity] and duration But on the contrary if no known palpable or impalpable principle or matter can be found but what is limited by size or time then infinity means nothing more than such an immense map of space matter or time as becomes immeasureable and incomprehensible to all means of comparison for instance\nWe may comprehend the globe we inhabit pretty fully and even the sollar system but a million of such systems becomes incomprehensible allthough even a million such systems may fall verry short of the quantity of matter in existance throughout the universal kingdom"
        },
        {
            "pageid": 100643,
            "pagefilename": "b9c609a3c8c501eb92d3c00f408f89f0.jpg",
            "pageorigfilename": "GR_768_0011_o2_1.jpg",
            "transcription": "17) \n1840. Jany 17th verry cold but append to moderat a little\nBut notwithstanding this immense quantity still Finity becomes a part of infinity and the globes being Finnite or measurable so by comparison of one part or particle of infinite matter occupying a speck of space may we gather some crude idea of infinity itself allthough this Idea may ammount to nothing more than to say all things have thier Bounds and limits Space has its bounds and time has its limmits mater occupies all space and time wears out all things some seem to think that infinity means something that can not Even have a beginning nor an end and that if it were possible to move with the velocity of Light for millions and millions of years and even time without limit that you then have not more than set out But admit all this and say that after you have flown with the velocity of light for as many [?] as there is particle of sand included in the"
        },
        {
            "pageid": 100644,
            "pagefilename": "5bb2a9eddbef30ce5a825cedfcc62405.jpg",
            "pageorigfilename": "GR_768_0011_o2_2.jpg",
            "transcription": "18\n1840 Jany 18th Quite moderate\nwhole Solar System even at that immense time and immense Swiftness if you have advanced a Quarter of an inch comparatively you at once give imaginary Bounds to Space although it may not be posible to measure or comprehend but a verry small Quantity of Space or matter\nThe Jewish History of the beginning and formation of matter gives deffinite bounds as it ware in respect to time but not so deffinite as respects Quantity.  It says in plain words that the grate universal and eternal esence of matter was six days in making or rather in collecting and arainging three of the great globes of our solar System (viz) The earth the sun and moon   The sun however as the center should come first the earth second and in this we have a Tolerable fair history first chapt of Genesis 1st verse In the begining God created the Heaven and the earth -- \nNow here appears to be three distinct periods"
        },
        {
            "pageid": 100645,
            "pagefilename": "df93469fa41d7abb0e103f325b7ee421.jpg",
            "pageorigfilename": "GR_768_0012_o2_1.jpg",
            "transcription": "19) \n1840 Jany 19th Clear & pleasant\nThe first as to time which is in the beginning T second as to space The Heaven. the third as to matter the earth. Now as to time allthough these could be no time much criterion to the beginning nor no place anterior to space which I take the word Heaven. Here to mean in fact thier could be no measure for time as we now understand the term, untill some matter was brought into actual motion and the first revolution of the first globe of matter would be the actual beginning of all things but in the second verse we read the spirit of god rested upon the waters = which I take to mean that the water then existed in that part of space now occupied by the Earth"
        },
        {
            "pageid": 100646,
            "pagefilename": "82f2477e2e6abce9e02fd2ac4060a9ba.jpg",
            "pageorigfilename": "GR_768_0012_o2_2.jpg",
            "transcription": "20)\n1840 Jany 20th warm and thawing a little"
        },
        {
            "pageid": 100647,
            "pagefilename": "9a01d5753922bcbfe367ad1c2846c265.jpg",
            "pageorigfilename": "GR_768_0013_o2_1.jpg",
            "transcription": "21)\n1840 Jany 21st Cold strong wind from the w."
        },
        {
            "pageid": 100648,
            "pagefilename": "3a7b021be84630487595418cc2511865.jpg",
            "pageorigfilename": "GR_768_0013_o2_2.jpg",
            "transcription": "22)\n1840 Jany 22nd Clear & Cold"
        },
        {
            "pageid": 100649,
            "pagefilename": "319864059cbcc5d8ac2e9f54823425d8.jpg",
            "pageorigfilename": "GR_768_0014_o2_1.jpg",
            "transcription": "March 10th    Oliver P Nichols {dr?}  So 1 Barrell Pork $15.00\nApril Mr. Plumb Old Gent 1 BBl Pork 15.00\nMr Cornwell 1 Barrel Pork 15.00\nSept 20  O G  Nichols [[  ]] 1 Cow 25.00\n\" 1 Barrel Pork 15.00\n\" [[ ]] Chopping 27 acres 15.00\n\" Labour on dam 28.75\n\" [[ ]] Cash p.67\n' ' 1 Barrel Pork 15.99\nOct 13 [[ ]] clearing foundation 3.00"
        },
        {
            "pageid": 100650,
            "pagefilename": "2a9a4ccb62902a5e3f68400f20d8337c.jpg",
            "pageorigfilename": "GR_768_0014_o2_2.jpg",
            "transcription": "24\n1839\nHiram I Ross in act with James Clyman Dr and Cr\n[overwritten whole page:  Settled}\nOct  Cr  to Cash at land sales $112        112.00\nDec  Dr  For Cash Paid Eggleston   18.00\n1840\nJany  \"     \"       \"      \"   Brazel for corn   5.00\n\n       \"     \"       \"      \"   Underwood for Hay   5.00\n\nFeby \"    \"      \"    Lent to Root River for bats   5.00\nApril 4  Paid John Plumb Cash 5.56          5.56\n\n       1    \"    John Plumb 1 Barrel Pork 15$     15.00\n      12   \"      \"        \"       1 Pair Pumps 2$      2.00\n      18  Dr  John Plumb By Charles Abbott To Repair Boots  4.50     4.50\n\nMay        one Chalk Line           25             .25\n\n                                                             57.31\n             one Barrel of Pork    $15.00      15.00\n                                                             72.31\n            30 lbs of Cut nails at 10  3.00\n           Hinges Butts Screws &c  2.50\n\nJune 6  [?] with John Plumber and Paid him for various small jobs of Carpenter and Joiner work  51-\n[unclear words in margin]\n51.83\n31.50\n_________\n82.83"
        },
        {
            "pageid": 100651,
            "pagefilename": "6ab76f3a17fd72446793daae49b82d27.jpg",
            "pageorigfilename": "GR_768_0015_o2_1.jpg",
            "transcription": "[overwritten the whole page:  Settled]\nBrot over\n1840\nJune 6   Brot over Cr To Cash   $112 \n\n             Dr For Sundries  82.83\n              \"  Paid for oats to Brown 2.50    2.50\n                 Paid for nails and Sundries  10.62    10.62\n      20   H. I. Ross To Cash  $52.00     52.00\n\nSept      Paid John Plumb 10.00            10.00\nOct 25  Settled with Plumb Found due him 8.50\n\n            Paid Harvy Cowen for Sundry Labour on flume 17.50   17.50\n             \"    Making Harrow frame  1.50    1.50\n            Paid Mr Lyons For Splitting 1,000 rails  7.50   7.50\n               \"   Mr Lyons [?] hr. for 2 months & Six day Labour at 14$ per month 31.66   31.66\n                        For Labour on dam  4.00   4.00\n            Paid Mr Clark For Labour    18.00     18.00"
        },
        {
            "pageid": 100652,
            "pagefilename": "8e9db1d79836277ef67bd52f15a0f843.jpg",
            "pageorigfilename": "GR_768_0015_o2_2.jpg",
            "transcription": "[ Settled written across whole page]\nBrot up\n18.40  Paid Mr. Hollister For Splitting 2,000 rails  15.00   15.00\n\n          Paid P. Abbott For Choppings    8.00   8.00\n          Paid A. B. Paddock For Shingles     26.00   26.00\n             \"    John Plumb one yoke of Steers   60.00   60.00\n          Paid old Mr Plumb For Chopping   15.00   15.00\n             \"   Nicholas White For Chopping   21.00   21.00\n\nDec 25 1841 [?]    Paid Lyons & Farnum    3.00\n\n          Paid Ross for Plank nails and Trimmings   20.00   20.00\n\nMarch     \"   Paint & oil       19.00   19.00\n\n          Trimming & nails    4.00  4.00\n\nCarried over"
        },
        {
            "pageid": 100653,
            "pagefilename": "80db592207e2bf34d170fcb6042ab193.jpg",
            "pageorigfilename": "GR_768_0016_o2_1.jpg",
            "transcription": "[Settled written over whole page]\nBrot over\n1841 \nMarch    Paid Lyons & Farnum Cash   $5.00\n\n               \"    52 lb Flour & 26 lbs of Pork\n\nMay        \"  Paid Henry West 15$\n\n              \" Patrick Murry 2 Barrell of pork\n             Pay Lyons & Farnem       32.00\n               \"  West   20.00\n                   Cornwell  15.00\n\nCr By Note to Ballance"
        },
        {
            "pageid": 100654,
            "pagefilename": "7454668ce9724069d810938824285241.jpg",
            "pageorigfilename": "GR_768_0016_o2_2.jpg",
            "transcription": "Sept 22nd 1840\nHenry I cowen Dr To 1 Barrell Pork    15.00\n\n  Cash         1.78\n\nCr By Labour to 16.78    16.78\nDr to cash   1.00\nDr to Sundries $1.50\n2 yoke Steers 62.50  $125.00\n1   \""
        },
        {
            "pageid": 100655,
            "pagefilename": "1cd03954d1e95a76f81cbb8ae62ad341.jpg",
            "pageorigfilename": "GR_768_0017_o2_1.jpg",
            "transcription": "2 yoke Steers   65.00\n1   \"  work cattle   60 --\n2 ox chains   12.50\nPaid Keefer 1 BBl whiskey  9.50\n\n \"  Potatoes Butter& Cheese  17.00\n\n1 grind stone      3.50"
        },
        {
            "pageid": 100656,
            "pagefilename": "63d8f46f9e7195b85ad28cec12b3b6bc.jpg",
            "pageorigfilename": "GR_768_0018_o2_2.jpg",
            "transcription": "December 23 1848\nSeteled with a Warden and found his due  $89.27\n[?] & Selers\nCorn Bushels  12 ½   $3.13\n[?] 6 Bushels   $2.25\nto Pork 25 Pounds  $2.50\nto Cash and flour  $8.40\n17.28"
        },
        {
            "pageid": 100657,
            "pagefilename": "99bf850e98e43409fc615ff973379d19.jpg",
            "pageorigfilename": "GR_768_0019_o2_1.jpg",
            "transcription": "[Settled written across whole page]\nBrot Over\n1841\nMarch  Paid Lyons & Farnum Cash $5.00\n\n             \"  52 lb Flour & 26 lbs of Pork\n\nMay    \" Paid Henry west 15$\n\n          \" Patrick Murry 2 Barrell of pork\n          Pay Lynde & Farnem   32.00\n            \"    West      20.00\n                  Cornwell   15.00\n\nCr By Note to Ballance"
        },
        {
            "pageid": 100658,
            "pagefilename": "d27fbe16d019e518025e1f1aafee7f4d.jpg",
            "pageorigfilename": "GR_768_0019_o2_2.jpg",
            "transcription": "[Duplicate of GR_768_0016_o2_2.jpg]\nSept 22nd 1849\nHenry I cowen Dr To 1 Barrell Pork 15.00\n\n   Cash    1.78\n\nCr by Labour to 16.78   16.78\nDr to cash   1.00\n[words in margin covered up by torn page]\nDr to Sundries $1.50\n2 yoke Steers 62.50   $125.00\n1   \""
        },
        {
            "pageid": 100659,
            "pagefilename": "95ed9614238b7b87fc2f8ee464e4d478.jpg",
            "pageorigfilename": "GR_768_0020_o2_1.jpg",
            "transcription": "[Duplicate of GR_768_0017_o2_1.jpg]\n2 yoke Steers   65.00\n1   \"  work cattle   60 --\n2 ox chains   12.50\nPaid Keefer 1 BBl whiskey  9.50\n\n \"  Potatoes Butter& Cheese  17.00\n\n1 grind stone      3.50"
        },
        {
            "pageid": 100660,
            "pagefilename": "5b6fb3230da85b95f04e685aa3fa6a6a.jpg",
            "pageorigfilename": "GR_768_0021_o2_1.jpg",
            "transcription": "$2.00\n\n 1.90\n 3.00\n 2.00\n\n_______\n\n 8.90\n\n15\n10\n______\n2  5\n.10\n2.50"
        },
        {
            "pageid": 100661,
            "pagefilename": "69e8ad1024d7b6fd5d1c73108bb2747e.jpg",
            "pageorigfilename": "GR_768_0021_o2_2.jpg",
            "transcription": "[Duplicate of GR_768_0018_o2_1.jpg]\nDecember 23 1848\nSeteled with a Warden and found his due  $89.27\n[?] & Selers\nCorn Bushels  12 ½   $3.13\n[?] 6 Bushels   $2.25\nto Pork 25 Pounds  $2.50\nto Cash and flour  $8.40\n17.28"
        },
        {
            "pageid": 100662,
            "pagefilename": "9430af60f2b75867edaf336e97803d21.jpg",
            "pageorigfilename": "GR_768_0022_o2_1.jpg",
            "transcription": "Aprile 12 1852\nBaut of Nathen Perl skirting  $1.00\nAprile 22 Bout goods of perl    $2.49\nApr 1 Paid Thomas 1 [?] [?] on Perl for Cuting logs  $10.00\nApr 13 Paid S.L. Margan Cash   $15.00"
        },
        {
            "pageid": 100663,
            "pagefilename": "5b942a635c080af84bc2f5a21b9c44d5.jpg",
            "pageorigfilename": "GR_768_0022_o2_2.jpg",
            "transcription": "Sep 29 1852\nWork on plank road for Company Ways\nSep 29 Ross & catel $3.00\n\n      30     do             $3.00\n            hors teams 2   $2.50\n              do     do       $2.50\n            to timber for culvert 50 feet 5 cents pur foot $2.50\n\nOct 1   Ross and catel Monday 8/  3.00\n\n      2   span of horses and wagons  2.50\n      3   Ross & teams [?]    $4.50\n      4   hors teams 2   $2.50\n           catel and plow 2 yoak $1.00\n          Ross 1 day   $2.00\n\nOct 5  Ross 1 Day   $2.00\n\n          2 span horses        $2.50\n          oxen 1 yoak   .75\n                            _________\n\nOctober 5 1882     $32.25\nO  13   hors in 2 span    1.50\n\n          catel my one [?]  2/00"
        },
        {
            "pageid": 100664,
            "pagefilename": "f148f2fc67881f5420faa98a48ce5fc0.jpg",
            "pageorigfilename": "GR_768_0023_o2_1.jpg",
            "transcription": "Sep 28 1852\nhands on road   8    $6.00\nSep 30 ----------- 8    $6.00\nOctober 1 hands on road 8  $6.00\n\n    3          by laber on road ways  8  $6.00\n\nOct 4    by laber on road 7  $4.80\nOct 5   laber on road - hands 7   $4.80\n\n O 13  laber on road hands 7   $4.80\n     14 laber on road  hands 6   $4.12\n     25     hands on road  5    $3.41\n     26       do             2 ½     1.80\n                                         _________\n\n                                          47.73\n\nOc  19    teams 2 on road   $2.75\n\n             myself on road      $2.00\n\nOct 25    hors teams 2        $2.75\n\n              my one laber        $2.00\n      26    teams 1 day         $2.37\n              one half day         $1.00\n                                     __________\n                                       $69.69"
        },
        {
            "pageid": 100665,
            "pagefilename": "fed7ff02095be7cd1c09304b33210c09.jpg",
            "pageorigfilename": "GR_768_0023_o2_2.jpg",
            "transcription": "Paid [?Gonius?] the Dutchman\nCash $2.00\nhenry Cash  $2.00\nJames  ---     $2.00\nOct  4  Paid hours Cash   2.00\n\n      4  Paid Philip  Cash  $3.00\n      5  Leny    Cash   $3.00\n          Phillip  Pardner   $3.00\n\n\n$47.06\n\n 69\n\n________\n116"
        },
        {
            "pageid": 100666,
            "pagefilename": "c7dd99c6010108d620be2291b8983c01.jpg",
            "pageorigfilename": "GR_768_0024_o2_1.jpg",
            "transcription": "November 15 1852\nPhilip H  father in law to work 8 days   $5.46"
        },
        {
            "pageid": 100667,
            "pagefilename": "3682fa7d0204ebd2e2d9c820e052fd29.jpg",
            "pageorigfilename": "GR_768_0024_o2_2.jpg",
            "transcription": "Philip and father\nNovember 15 1852\nDb to cash on Cow to hay half tun  $6.00\nto potatoes 2 bushels"
        },
        {
            "pageid": 100668,
            "pagefilename": "c4b092bfe87a70df2bcb7b45a813e456.jpg",
            "pageorigfilename": "GR_768_0025_o2_1.jpg",
            "transcription": "Nov 10 1852\n[?] rick Db to half tun of hay  $3.00\nDec 18  Db to hay ½ tun   $3"
        },
        {
            "pageid": 100669,
            "pagefilename": "a56edc4b7119bdeef259fd7dcc573a41.jpg",
            "pageorigfilename": "GR_768_0026_o2_1.jpg",
            "transcription": "Nov 18 1852\nLeury worked on Dore yard 2 days    $1.37\nPhilip 1 day           .62\nButch ring Philip ½  Leury ½         .62"
        },
        {
            "pageid": 100670,
            "pagefilename": "0f27ea622e8e4e88af1f705e753c0d4d.jpg",
            "pageorigfilename": "GR_768_0026_o2_2.jpg",
            "transcription": "November 10 1852\nPhilip to hogs head pounds 106   $2.12\nNo 23  Philip to Cash  $3.00\n\n   salt pounds 17   .17\n\nNo 28  to potatoes  Bush 2   .75\n\n                               ______________\n                                 $6.04"
        },
        {
            "pageid": 100671,
            "pagefilename": "84df27a4d9131a1aa1b885c44c3a5d7b.jpg",
            "pageorigfilename": "GR_768_0027_o2_1.jpg",
            "transcription": "Aprile 20 1852\nLeny & Phillip to move order on \nNathin Perll     $5.00\nMay 22 Philip to Cash   $5.00\nJune 7  Len & Philip to Du bill on\nPerl   $5.00\nto flour Pounds 20 .40\nJuly 20  Philip to Cash  $2.00\nAugust 6  Leny to Cash   $2.00\nSeptember 1 to wool Pounds 7   $1.27\nSep 7 to salt pounds 7      $.07\nSep 18  Philip to cash  $3.00\nOct 30 Philip to cash    $5.00\n\n                           _____________\n                               $28.74"
        },
        {
            "pageid": 100672,
            "pagefilename": "ed8cc8c7646dfd844514d8ca4e162aa8.jpg",
            "pageorigfilename": "GR_768_0028_o2_1.jpg",
            "transcription": "November 25 1852\nG B Wolcot Db to Plowing 1848 2 days 18.49  2 days 1850 2 days   1852 2 days to Plowing $16.00\n\n  to buter pound  50  6.25\n  to lard Pounds 1   ,80\n to oats 8 Bushels  $2.00\n to wood 3 Cords    $5.25\n\n1 load hay baled Danels  2.00\n1 Cord wood      $1.75\nHaled by Danels wood 3 cords  $5.25\nNo 25     to Potatoes bushels 4 ½  1.62\n\n                                               ___________\n                                                      40.92\n\nDec 6      to wood cords    2     $4.00\nDec 10    to wood cords    1     $2.00\nDe 26      Do    wood         1     $2.00\n\n                   Do                  1      2.00\n\nJan 18         Do                  1      $ 2\n\n      23       Do                   1       2\n              hay                             $2\n                                  _______________\n                                            $ 16.00"
        },
        {
            "pageid": 100673,
            "pagefilename": "69c6715bad4fef41eb2e3b59ec40f7a6.jpg",
            "pageorigfilename": "GR_768_0028_o2_2.jpg",
            "transcription": "Decembere 1852\nMr Shin Db to wood 2 Cords  $4.00\nDe   1 Cord   $2\n\n       3           $6\n\nJan 25 Do  1 Seteled  $2.00\n\nDe 2  Bolden to wood 2 cords  $4.00\n\n    6      do        wood  1           $2.00\n\nDe 6      do        wood C 2        $4.00\nDe 11    do        wood C 1        $2.00\nDe         do        wood C 4        $8.00\nJan 9     do        wood  2           $4.00\n\n                  to cash     $10.00\n\nJan        do        cord 3              $6.00\n\n           do         cord 4              $8.00\n\nJan 23 Reseaved cash  $20 -\nJan 31   wood cords 2               $4.00"
        },
        {
            "pageid": 100674,
            "pagefilename": "85390892fe052abc1e7c0f8ee0683160.jpg",
            "pageorigfilename": "GR_768_0029_o2_1.jpg",
            "transcription": "January 25 1853\nE B Holcot to wood cord 1    $2.00\nFeb 1 1853 Holcott wood cord 1  $2.00\nFeb 14   to wood wone cord 1  $2.00\nFeb 18  to wood     cord 1    $2.00\n\n       Potatoes Bu 1     .37\n\nMar 4   wood Cords 1      $2.00\n\n      5    to Potatoes B 1    .37\n      5    wood cord 1     $2.00\n    10    wood cord 1     $2.00\n\nMarch 24   to Potatoes  B 2    .75\n\n                                 ______________\n                                      $15.49\n                                        16.00\n                                        50.92\n                           __________________\n\nCared fro the other page   70.41\n\nMarch 4   Emans to wood Co 1    $2.00\n\n         5    wood   cord   1             $2.00\n\nmoved"
        },
        {
            "pageid": 100675,
            "pagefilename": "b0f7ebf50f9c74decec935b7546374d6.jpg",
            "pageorigfilename": "GR_768_0029_o2_2.jpg",
            "transcription": "February 1 1852\nBeldin to  wood cords 1   $2.00\nFeb 11  to wood cord 1   $2.00\nFeb 26  to wood cords 2  $4.00\nFeb 28 to wood cord 1    $2.00\nMar 1   to wood cords 2  $4.00\n\n      2   to wood cords 2   4.00\n      7   to wood cords 2  $4\n      8       do       do    2  $4.00\n\nApr 28     do  wood c  4  $8.00\n\n       --------     wood  2\n\nMay 20    wood  3            6\n\n\"            cords  1     2.00\n\nJune     10 and 11  to cords   5  10.00\nDb   cash     14.00\nAprile 24 credit by cash  $12.00\nA   28    cash        $02.00\nMay 25  ca       4\nJune 20 reseaved cash $5.00\n\n                         ____________\n                             37"
        },
        {
            "pageid": 100676,
            "pagefilename": "06af7a6905b7dabc56bb5e2b6fa87d86.jpg",
            "pageorigfilename": "GR_768_0030_o2_1.jpg",
            "transcription": "Aprile 1 1853"
        },
        {
            "pageid": 100677,
            "pagefilename": "043b01807688aa60140317eda830a42e.jpg",
            "pageorigfilename": "GR_768_0030_o2_2.jpg",
            "transcription": "A D Smith   May 28 1853\nto wood  cords 1       2\n\n                       1       2\n\n\n$9    18.50\n\n         4.87\n    ________\n       23.37"
        },
        {
            "pageid": 100678,
            "pagefilename": "48892e1f336cc70fd02bad2b4340eab5.jpg",
            "pageorigfilename": "GR_768_0031_o2_1.jpg",
            "transcription": "May 20 1853\nSarah [?] mark  May 21\n\nJun   to cash   $4.00\n\n       Sundrys   .56\n       fix [?Bunir?]    $1.50\n       1 dres       $1.50\n\nJul 2   to cash        $1.00\n\n         to cash     $1.12\n         to wone pare shoes        $1.00\n         one pare shoes      $1.25\n                           ________________\n                           12.93\n\nPaid And seteled"
        },
        {
            "pageid": 100679,
            "pagefilename": "178e7c1d6056a4f2483be32636b689bd.jpg",
            "pageorigfilename": "GR_768_0031_o2_2.jpg",
            "transcription": "May 17 1853\n26   59\n23     2 ½\nGearg Thomson Comenced work for H J Ross at $9.00 per month to Cash   .25\nJune 15 to cash        $2.00\nJune 20 to 1 Pare Shoos    $1.25\nJuly  to 1 Shirt      $1.00\nJuly 5   cash         $1.00\n\n                     ________________\n                           5.50\n\n\nLost Time days 1 ½\n16.00\n11.25\n_____\n\n 5.25"
        },
        {
            "pageid": 100680,
            "pagefilename": "5a3d918812516ab920a7311df10be8ac.jpg",
            "pageorigfilename": "GR_768_0032_o2_1.jpg",
            "transcription": "July 9 1853\nBeldin to wood cord 1   $2.0\nNovember 18 1853\nMr Beldin Db for wood\nOctober cords 4       $8.00\nNo 18    cords 4       $8.00\nDec 2    cords 7      $14.00\n\n      8       do   1        $2\n    10       do   1        $2.00\n\nDec 29  to wood  Cords   $6\nJan 24 to wood  cords     $4.00\nJan 31  to wood          $18.00\nFeb 4  to wood         $6\n\n      6 to wood          $4.00\n  Credit by Cash      $2.50\n    Db Cash            $50.00\n   [?]                       $1.00\n  [?] Diners   8          2.00\n                        _____________-\n                             55.50"
        },
        {
            "pageid": 100681,
            "pagefilename": "32ba050a91e13c5ad816e4eebd823170.jpg",
            "pageorigfilename": "GR_768_0032_o2_2.jpg",
            "transcription": "July 9 1859          36\nCredit leny cash  $4.00\nBeldin to wood    Cords  6   $12.00\n[?Dec?]  16   credit B cash   $15.00"
        },
        {
            "pageid": 100682,
            "pagefilename": "680bafdf78b22508b1b5969786c97707.jpg",
            "pageorigfilename": "GR_768_0033_o2_1.jpg",
            "transcription": "November 3 1853\nSeteled with Philip and father in law and found their due  $9.13\nPaid Philip Cash $8.00\nDecember 1   Cash $1.00\n\n Dutch man pork  pounds 100   $5.25\n Philip hogs feet   100    .50\n legs heads  Pounds 125   $2.00\nDe 8   to Lard  p 12    $1.50\n\nDe 10  Philip cash   $1.00\n\n        to Lard p 12    $1.50\n\nD   7  to Cash     $2.00\n\n    7  to milk [?] q   .25\n\nDec 20  to cash  $2.00\n\n    to milk q 4  .12\n\nDec 26   milk  q  7    .21\nDc 30   milk    q  8    .24\n\ndo  do   to cash      2.00\n                _________________\n                       $ 7.59"
        },
        {
            "pageid": 100683,
            "pagefilename": "a30f1d20b256c007b64ad0f470238f48.jpg",
            "pageorigfilename": "GR_768_0033_o2_2.jpg",
            "transcription": "Dec 10  1853"
        },
        {
            "pageid": 100684,
            "pagefilename": "a99b07d4c3271ca5ecd7fcfbcb504238.jpg",
            "pageorigfilename": "GR_768_0034_o2_1.jpg",
            "transcription": "[crossed out:  October]  November 1 185[?]\nMr Hale  Db for \n[crossed out: Corn B 7 ]  $1.40\nFebruary 1 1854 \nP P Hale Db to oats Bushels 10    $3.75\nTo wood  Cord 33 ¼   $33.25\nto hay T 4 at 7 pur ton  $ 28.00"
        },
        {
            "pageid": 100685,
            "pagefilename": "2b5df95a32c6fcf0db102011a616e753.jpg",
            "pageorigfilename": "GR_768_0034_o2_2.jpg",
            "transcription": "November 15 1853\nCharles Ginkins \nDb for wood  Cords 2   $4.00\nDe 26 to wood Cords 2   $4.00\nJan 19  to wood  Cords 4  $8.00\n\nMr. Drew  Db for wood\n\n   Cords 2   $4.50\n             2     4.50"
        },
        {
            "pageid": 100686,
            "pagefilename": "4d1c289bc687b04a9d56fb64c388e181.jpg",
            "pageorigfilename": "GR_768_0035_o2_1.jpg",
            "transcription": "January 4  1854\nPhilip to milk q 5   .15\nJan 11 to cash   $14.00\n\n      12  to milk q 8    .24\n       12 to salt  p 16   .16\nJan   to Potatoes  1 B    .28\n\nJan 26 to milk  q 9    .27\n\n     29   to cash   $2.50\n\nJ Feb 17  to cash    $4.00\nMarch 4 to cash   $5.00\nMa    Potatoes 1 P     .37\n\n                       1 B    .27\n                  ______________\n                          18.44\n\nFlower Pounds 100   $2.25"
        },
        {
            "pageid": 100687,
            "pagefilename": "80e7ea170e77d1083cb45b50de70c2f2.jpg",
            "pageorigfilename": "GR_768_0035_o2_2.jpg",
            "transcription": "November 1853\nPhilip to Pork Pounds  5\nLewy   [?]   $7.85\n\n Pork   Pounds   $3.58\n\n187\n4\n________\n348"
        },
        {
            "pageid": 100688,
            "pagefilename": "244fe3db296f03ba8b676f5f73a46158.jpg",
            "pageorigfilename": "GR_768_0036_o2_1.jpg",
            "transcription": "Santford   1856   to\nPlowing and draging  1 ½  days   $3.50\noats B. 5    $1.85\nPeas B 2   $1.00\nCorn 2  $1.00\nWheat B 2   $2.25\nPlowing buy the acor  10 acors $15.00\nReseaved cash $10.00\nPotatoes  B2  .62\nDraging ½ Day  $1.25\nCorn B 4   $2.00\nPotatoes  B 1  .37"
        },
        {
            "pageid": 100689,
            "pagefilename": "d33e6194a7a3b9b0402e5bd96d821f00.jpg",
            "pageorigfilename": "GR_768_0037_o2_1.jpg",
            "transcription": "Thomas Burnes  Comest work March 3 1854\nMarch Thomas Burnes Db to H J Ross 1 yoak oxen $90.00\n\n          wagon and plow                                           $40.00\n                                                                            __________\n                                                                               130.00\n\nto Cash $          $5.00\nDe 9  to cash     $2.50\n\n                          9.50\n                         _______\n                        17.00\n                        12.00\n                        ________\n                        29.00"
        },
        {
            "pageid": 100690,
            "pagefilename": "45afa7cfc5fcedc69d01514fef1b0b58.jpg",
            "pageorigfilename": "GR_768_0037_o2_2.jpg",
            "transcription": "lost time March 2 days\nlost days   6"
        },
        {
            "pageid": 100691,
            "pagefilename": "b555502568a0a7e4c35350241a68ae6b.jpg",
            "pageorigfilename": "GR_768_0038_o2_1.jpg",
            "transcription": "May 17 1854\nMr Hale Db for oats B 2  0.75\nJuly      4  Db for oats  10  3 .75\n\n       at [?]   12 $4.50\n\nAugust   do  oats  14 $5.25\n\n                              __________\n                                 14.25\n                           ____________\n\nHale to wood cords 8.5 $14.25\n\n                                       76.50\n                                    ________\n\nHales acount                  $90.75\nMay 1 1855\nReseaved wrent of Philip & Lenny for Jenkins  $18.00\nMay reseaved of Philip  $6.00\nMay 30 reseaved wrent of Cent for Jenkins   $10.00\n\n                                                                   $16.00\n                                                                   $10.00\n                                                                   $10.00\n\npaid\nJenkins"
        },
        {
            "pageid": 100692,
            "pagefilename": "35f36abd1ae8ff12aa70477e5f9655b7.jpg",
            "pageorigfilename": "GR_768_0039_o2_1.jpg",
            "transcription": "May 30 1854\nSeteled with Philip Piper and found my deue   $7.81\n1854  Reseaved cash  $2.75\nDecem Philip Piper Db to H J Ross for [several crossed out items]\n\n      halling brick  [?]  $2.0\n\nFeb 7  to Pork  Po 70   $2.80\n\n          to flour  Po 91  $3.[?]8\n          salt P 1          .02\n\n21 to wry flour  p 87    $2.17\nSeteled with Philip"
        },
        {
            "pageid": 100693,
            "pagefilename": "bf096c2369974dd6a5c8c8c19bbb020f.jpg",
            "pageorigfilename": "GR_768_0039_o2_2.jpg",
            "transcription": "May 30 1854\nSeteled with Georg Knap and found his deue   $3.30\nto Plowing 2 A    3.50\nto Rent for land 2 A  $8.00\nDecember 21 1854\nto thrashing oats R 97   $1.85\n\nDe 21  Philip uncle to cash $3.00\n\n   to cash    $5.00\n\nFeb 7   to Pork pound 68    $2.69\nMa 17  to cash    $3.00\n\n                    _______________--\n                     $13.73"
        },
        {
            "pageid": 100694,
            "pagefilename": "f7a2f20457f2ed7d3d6e9026a565236e.jpg",
            "pageorigfilename": "GR_768_0040_o2_1.jpg",
            "transcription": "June 6 1854\nSmith McCormuck  \nDb for Potatoes  B 1   0.37\n\n               do                .37\n\nto Pork  LB  30 ½ \nPork poiunds 15    $3.68\nCredit Lenny work Days 1 ½\nJanuary 12 1855 smith Mc\n\n Cb to tater Pounds 20   $2.60\n\n[?] 7  to Pork  [?]  $3.4\n\n   19  to corn B 1  .62\n            do            .62\n\n[?caste?] for medison  .34\nto-liet clth  $1.45\nto Buter  1.36\nto hay    $5.00\nwone Pig  1.80\n\n             __________\n              15.68   [crossed out  $16.69]\n\nSeteled  $7\n\n              7\n             ______\n              8"
        },
        {
            "pageid": 100695,
            "pagefilename": "e748ae9d097672d95295555f5242b856.jpg",
            "pageorigfilename": "GR_768_0040_o2_2.jpg",
            "transcription": "1854\nMr Beldin  Db to H J Ross\n[?L..r?] rec'd  Sesoned wood  cords 3    $9.00\nDecember 10 1854   to Gren wood  cords 5  $15.00\nDec 18                           do              cords 2  $03.00\nDec 15 &16 to wood cords 3   $09.00\nJanuary 2 1855  wood  c 1   $ 3.00\n\n           4  wood cords 1  $3.00\n           5  wood cords 1   $3.\n\nJan  9   to wood cords 2    $6.00\nJanuary 17 to wood cord 1   $3.00\n\n           20 to wood cords 2   $6.00\n           25  to wood cords 2  $6.00   \n\nfeb 1    to wood cord 2    $6.00\n\n     2            do          1    $3.00\n   10            do   cords 2      $6.00\n   17            do   cords 4     $12.00\n   19           do     cord 1          3\n\nJanuary 25 [?] as it leuy cas  $10.00\nFeb 1    to Cash    $20.00\n\n     19   to Cash    $10.00"
        },
        {
            "pageid": 100696,
            "pagefilename": "f4dc215c30a928c3f5466cc543079524.jpg",
            "pageorigfilename": "GR_768_0041_o2_1.jpg",
            "transcription": "Febuary 23 1855   Beldin\n\n  to wood  Cords  7       $21.00\n\n27  to wood Cords 2          6.00\nMar 3  wood Cords 8       24.00\n\n                                      ______\n                  cords            50\n                                        3\n                                 __________\n                                  $150.00\n\nReseaved cash                40.00\n\n                                __________\n\nmy deue                      $110.0\nMarch 28 Reseaved cash $20.00\nApr  to cash  $10.00\ncredit to $50.00\ncredit 3 years 15.00\nSeptember 3 1855  Beldin \n\n to wood  lard  11 ½   $34.50\n    paid"
        },
        {
            "pageid": 100697,
            "pagefilename": "d9ac7ccdbed1bdc75245c43ee3685093.jpg",
            "pageorigfilename": "GR_768_0042_o2_1.jpg",
            "transcription": "Nicklis Wells  July 1855\n4 to Cash   $4.00\nto cash           .50\nto Pork  P  10   $ .80\nto meal  B 1    .62\n15  Paid georg for wells cash   $3.12\nDecem 10  Wells to flour      $1.92\n\n    to Pork  Pounds 25   $1.50\n   to Alum salt  Po 26    .68\n\nJan 1856  to flour  Po    $1.82"
        },
        {
            "pageid": 100698,
            "pagefilename": "7f8b63725e2b7d38564f944361cfacc4.jpg",
            "pageorigfilename": "GR_768_0042_o2_2.jpg",
            "transcription": "July 15 1855\nPaid Cutlow cash   $4.00\nCutlow Commenet work July 10\nDecember 3 1955\nNicklis Wells & Bud\nDb to Pork LB 310   $2.40\n\n  to bread  p. 15    .37\n\nDec 29  to flour  Po 55   $2.45\n\n  Bud to Cash    $9.00\n Nicklis Wells to cash  $7.00\n\nJan 19 1856 to flour  Po 58  $2.52\n\n Bud to Cash      $1.00\n\nJan  to flour  P 26  $1.44\nBud to cash    $2.00"
        },
        {
            "pageid": 100699,
            "pagefilename": "30305a347b64d748899e4e9e6b451bf7.jpg",
            "pageorigfilename": "GR_768_0043_o2_1.jpg",
            "transcription": "Seteled with Philip Paper\n[crossed out:  December 15 1855 and found my deue  $20.51]"
        },
        {
            "pageid": 100700,
            "pagefilename": "c4a0bcce5881cf84c7066394588da612.jpg",
            "pageorigfilename": "GR_768_0043_o2_2.jpg",
            "transcription": "1856\nMay 5  Wells to Labour\nflour  p 36   $1.44\nPotatoes  P 2   $1.50\nPork  p 8   .88\n[?] on pork    .75\nPotatoes ½    .35\nMay 6  to Potatoes  B 2   $1.50\nto Cash       $2.00\nJune 10   to flowe  p 31  $1.25\n\n       19 to cash    $2.00\n     [crossed out:   to cash  $1.00]\n\nJuly 7  to cash   .50\n\n     7 to flour   35    $1.06\n    17  to flour  36   $1.12\n    19 to cash  Paid   $1.00\n         to cash     1.00\n     26   do   1.00\n         Laber  Days 6         $2.00\n\n  paid   paid"
        },
        {
            "pageid": 100701,
            "pagefilename": "bfa5427926e4d3bd3579748b3b8827c2.jpg",
            "pageorigfilename": "GR_768_0044_o2_1.jpg",
            "transcription": "Horis Beldin  Aprile 15 1856\n[crossed out:  Reseaved $1]\nDb to lard P 23    $1.20\n15  to Buter  P 4 ¼    .85\nMay 5     to Buter P 4 ¼  .85\n20  to Buter  p 5 ½   $1.35\n[crossed out:  to Buter P 7  $1.40]\nJune 9  to Buter  9  $1.80\n\n      14  to Buter 10 ¼   $2.15\n      30  to Buter  17 ½     $2.50\n\nJuly 19  to Buter  19 ½    $2.70\nAugust 7  to But  11    $2.20\nAug 30   To Bute  15    $3.00\nSep 13   to Buter 15 ½    $3.10\n\n     27   to Buter 19      $3.80\n\nOctob 18  to Buter 11     $2.20\nOct     31  Buter 7     1.40\n\n      Card  4       .40\n                     _________________\nBeldin                 $30.60\n\nMay 23   Reseaved Cash    $10.00\nJune    20  Reseaved Cash   $5.00"
        },
        {
            "pageid": 100702,
            "pagefilename": "b68ac1f436745850e4d38054b4b2b076.jpg",
            "pageorigfilename": "GR_768_0044_o2_2.jpg",
            "transcription": "Aprile 14 1856\nSmith McCormick \nDb for Pork  P 26¼   $2.60\n\n  lard   p. 8 ½    .85\n  buter  p 1[?]     .30\n\nMa  26  to Pork  p 29    $2.90\n\n      to Potatoes   B 1½    $1.12\n     wintering corn    $10.00\n\nJun 4 to Eges   .12\n\n           ________________\n                $17.89\n\nTo Pork P 200.00    $11.00\nto [?] po  25  = 82.00\n\n                      28.81\n\nto buchering [?]  $1.50"
        },
        {
            "pageid": 100703,
            "pagefilename": "7004e542fc59b805c934e4275c1d15e2.jpg",
            "pageorigfilename": "GR_768_0045_o2_1.jpg",
            "transcription": "Apr 28 1856\nFredrick Stip to [?]\nSholder  po 17   $1.70\npotatoes  .37\nto pork 17   $1.70\nflour  p 36    $1.44\nPork  p 6    .66\nMay 1  Pork  p 9   .90\nto Potatoes  B1    .75\nto flour  p 31   $1.24\nto Pork  p 10    $1.00\n[crossed out:  21 to Cash  $3.00]\n23 Flour  P 27   $1.48\n26 to Pork p 10     $1.00\nJun 4   to flour  11   $1.60\n\n   12    to Pork  11½    $1.15\n   16    to flour  32  $1.32\n           cowfish      .46\n           to flour P 28   1.12\n           to Pork  p 8    .81\n\nAugust to cash      $10.00\n\n       to cash             5.00\n\nSep 24   to Pork  p 7       .70\n[?Mintin?]  15"
        },
        {
            "pageid": 100704,
            "pagefilename": "12d09af9e1701ae27c851d2b461bdd3b.jpg",
            "pageorigfilename": "GR_768_0045_o2_2.jpg",
            "transcription": "Fredrick Stip\nto laber  days 2        $2.00\nTo work  days 2 ½    $2.50\nMay 5 [crossed out: to flour p 35   $1.44]\n[crossed out: M 5 pork p 3   .60]\nM 5 [crossed out Choclit  .25]\nMay to Days  work 4    $4.00\n\n    to Days work 5    washing Lake up  ½     $5.00\n   to work Day 3 ½     .50\n\nJun 4 to wrk. day 1-    $1.00\n\n    14  to work days  9      9.00\n        to work days 4    4.00\n        to work days 1 ½     $1.50\n       Gradlin   days 2   $3.50\n\nJuly   manning 2   $2.00\n\n     crad line  2         3.50\n     to manning   2     $4.50\n    work days   3         5.25\n   Grandlin   days 3         5.25\n\nGradling  d  1         1.75"
        },
        {
            "pageid": 100705,
            "pagefilename": "0e6fb7a0f73b0dd1560314ba8de90acf.jpg",
            "pageorigfilename": "GR_768_0046_o2_1.jpg",
            "transcription": "Cristy Db\nBalance on setelment $2.50\n1 sholder pounds 19  $1.90\n20 reseaved Cash     $2.00"
        },
        {
            "pageid": 100706,
            "pagefilename": "892d33876df33153c95d101e12e553a9.jpg",
            "pageorigfilename": "GR_768_0046_o2_2.jpg",
            "transcription": "May 17 1856\nReseaved of Lewy Plowing  $5.00\non wrent                              $5.00\n26   to cash                         $5.00\n\n                                          $5.00\n\n\nSeptember 18 1856\nWells to    to pork  Pounds      25   $2.50\nSep 24  to pork  P 11       $1.10\nto Cash                            $1.00"
        },
        {
            "pageid": 100707,
            "pagefilename": "05a8b6fc99a98b43817380d4f8fd4af8.jpg",
            "pageorigfilename": "GR_768_0047_o2_1.jpg",
            "transcription": "Horis Beldin   May 5 1857\nDb to H J Rass for Buter  A [?] P  12 1/2   May     5   15    $7.06\nMay 20   to Buter p 14 [?]  $3.56\nMay 30  to Buter Pounds 19 3/4   $4.94\nJune 13 to Buter Pounds 19    $4.75\nJune 20  to Buter  P 14 3/4    $3.69\nJuly 1  to Buter  P 16    $4.00\nJuly 30   to Buter  p  35    $5.75\nAugust 21   to Buter  21 1/2    $5.37\nSep 12   to Buter  31     4.75\nSept 21  to Buter  25    $6.25\n\n    to Card  8   1.60\n\nOct 8   to buter  40     $10.00\n\n                     ______\n                     251 3/4\n\nNov 9   to butter  13 1/2 @ 25  $3.37 1/2\nBalance due on buter   $7.90"
        },
        {
            "pageid": 100708,
            "pagefilename": "a4b8dfefcdb078d7af43ccb01a7d2de5.jpg",
            "pageorigfilename": "GR_768_0047_o2_2.jpg",
            "transcription": "May 5 1857\nReseaved cash of Belain\non buter   $10.00\nAug 21 to cash   $25.00\nOct 21  to cash  $25.00\n\nDue Danels Cash    $[?180.00?]\nJuly 25 1857  Danels to cash     $20.00\nOct 21  credit to cash   $45.40"
        },
        {
            "pageid": 100709,
            "pagefilename": "ae8259018ade9ea9eb6914f18403850e.jpg",
            "pageorigfilename": "GR_768_0048_o2_1.jpg",
            "transcription": "M E Shinn  Db\nfor team work at the Babtis Churc   $5\nto halling 2 loads lime   $1.50\nto [?move?] load wood   $3.50\n\n1857  Due Mason Danels Cash  $130.00\nJuly 25  Paid [?bush?] to wife    $20.00\n\n [?] 21  paid man not for him leaving [?] his [?duty?]   $45.44\n                                  ______________-\n                                     $114.56\n    to Cash                         $5.00\n                       ________________\n                                      109.56\n\nDecember 11 Paid Danels Cash   9.50\nBalance due Danels    100.06\nFebuary 4 1858\nPaid Danels Cash $10.00\nMay 1 to cash [?]   $10.00"
        },
        {
            "pageid": 100710,
            "pagefilename": "cc61684ffa5fbb67b682a0660e08c3bb.jpg",
            "pageorigfilename": "GR_768_0048_o2_2.jpg",
            "transcription": "August 8 1857\n[?] Db tp J K Rpss fpr  [?] bow   $33.00\nCredit buy Cash   $10.00\nDeb for rents for wone year  $24\nReseaved wry Bar 33   $14.85\nthrashing oats  Bushels 400    wheat bushels 44\nPhilip [?] Db for hay\n\n to H J Ross   $22.000\n to Hay   $6.00\n to pork  Pds   .89\n Credit buy Cash   5.00\n\nDesember  to corn B 2 1/2   $1.25\n\n84.06\n23.37\n______-\n\n7.43\n\nto Buck wheat flour P 56 $1.06"
        },
        {
            "pageid": 100711,
            "pagefilename": "76de94564c670b15e84a1f3773a7d2c4.jpg",
            "pageorigfilename": "GR_768_0049_o2_1.jpg",
            "transcription": "Horis Beldin Jenuary 185\nDb for buter p 23  $5.75\n\n  to buter p 13 1/2  3.37\n\nMay 23 1858  Danels Db to \n\n   hay  hay 765   $3.66\n  to oats  B 12   $3.24\n  to wood  1 Cord   $3.00\n\nJune 7  to oats  B 16  $4.32\nJune 21  to oats  B 20  $6.00\nJune 23   to hay 200   $1.00\nJuly 6  to hay 600 pounds  $3.00\nAugust  to pork  p 7 1/2   0.75"
        },
        {
            "pageid": 100712,
            "pagefilename": "9011d896588910d95500becc56bce98b.jpg",
            "pageorigfilename": "GR_768_0049_o2_2.jpg",
            "transcription": "May 31 1858\nCum mins to Cash    $5.00\nCum mins to Cash    $2.00\n\nWhit [?] to Cash       $5.00\n\nto Buter  Pounds 16 $4.00\n\nJuly 2  to Cash          $5.00\n\nJuly 1 Poles to Cash  $5.00\n\n    18\n    16\n\n_________\n\n  104\n  18\n\n_______-\n284"
        },
        {
            "pageid": 100713,
            "pagefilename": "7aa1a49f50dbf2b5a1f5348045feb2ac.jpg",
            "pageorigfilename": "GR_768_0050_o2_1.jpg",
            "transcription": "Mr Herlinger  [?]\n\nDb to H J Ross\n  to oats   B 10 1/2               $3.15\n  Buckwheat flour  270           6.10\n  [?] hog                             $13.00\n\nJuly 2 to Oats  B 15              $4.61\nJuly 7 to Oats B 25               $7.50\n\n         do           10                 3.50\n         Beaf  Po 116              $4.83\n                                       ________\n            Total                      $43.69\n        balance due Mr Ross    5.00\n                                      _________\n        Herling & Johnes         48.69\n                                      ________\n       Db for wood lumber   $12.40\n            ft 1,500\n       hay bals tun                $4.00\n                                    _________-\n                                          16.40\n\nJohenis to Beaf p 65           $1.95\nBuck wheat flour p 100         3.00\n\n                                       _________\n                                           4.95"
        },
        {
            "pageid": 100714,
            "pagefilename": "5d95f64bd1ed6ff86f3f94e56527ffaa.jpg",
            "pageorigfilename": "GR_768_0050_o2_2.jpg",
            "transcription": "Reseaved of Heslinger\n[?] lumber ft 600              8.00\n\n  43 p 2 by 4 / 4 long\n\nReseaved        Cash      $10.00\n[?] to lumber feet 2500    20.00\n\nlumber ft 2000                16.00\n                                    ________\n                                       54.00\n\n\n10\n16\n25\n45"
        },
        {
            "pageid": 100715,
            "pagefilename": "766593d0555df4711fa27e0f58f4d28f.jpg",
            "pageorigfilename": "GR_768_0051_o2_1.jpg",
            "transcription": "October 13 1856\nJay Skiner comenced work for H G Ross October 13\nJune [?han nis knap?] days 12\npaid him cash    $2.00\n\n   cash              $1.00"
        },
        {
            "pageid": 100716,
            "pagefilename": "2a0a40e4dbf50cb50de3905e4ef532f9.jpg",
            "pageorigfilename": "GR_768_0051_o2_2.jpg",
            "transcription": "Cummins to work in harvest\nmowing Days 4        $4.00\nCuting wheat  1 1/2     $2.50\n\nCumings to Cash    $1.00\nSep 17  to Pork Pd 6 3/4     .67\nJohn to Cash   $5.00"
        },
        {
            "pageid": 100717,
            "pagefilename": "5276ca7026715479787628d57d790e34.jpg",
            "pageorigfilename": "GR_768_0052_o2_1.jpg",
            "transcription": "August 19 1858\nSeteled with Danels and found his due   $75.00\nAug  28  1858  Danels to hay 500  $2.50\nSep 8  to pork P 15 ½                   $1.55\nSep 13  to hay  [?]  600                $3.00\nSep 19  [?]  [?]  Cash                   $8.85\nSep 25  to Pork  P  9 ½                    .95\nSep 29   to hay  266                      $3.00\nOct 9  to hay  500                          $2.50\nOct 18  to hay  200                        $1.00\n\n      27  to hay  400                          2.00\n\nNov 9 to hay    500                           2.50\n\n        to beaf  p 20                             .70\n\nNov  13  to ;hay  p  300                    1.50\nNov  28  to hay  p 1000                    5.00\nDecem 15 to pork  p  [?]               $10.00\nDe  7   to corn B 1                              .60"
        },
        {
            "pageid": 100718,
            "pagefilename": "5b42cfd17d259367e3935fe83a9b4aa5.jpg",
            "pageorigfilename": "GR_768_0052_o2_2.jpg",
            "transcription": "Wells worked 1858\ndays  18     $18.00\nWells Deb to H. J. Ross   $9.78\n\n to pork  P 4                       .40\n\nWells Timber"
        },
        {
            "pageid": 100719,
            "pagefilename": "9ea641dd2fe382866050529389c1f68e.jpg",
            "pageorigfilename": "GR_768_0053_o2_1.jpg",
            "transcription": "August 19 1858\nSeteled with Danels and found his due $75.00\nAug 28 1858 Danels to hay  500    $2.50\nSep 8   to pork  P 15 ½                  $1.55\nSep 13 to hay tun 600                    $3.00\nSep 19 buy [?orde?] Cash             $8.85\nSep 25  to Pork  p 9 ½                       ,95\n[entry obscured by paper covering the page]  $3.00"
        },
        {
            "pageid": 100720,
            "pagefilename": "9470f3f49275282f9efde879c34aa9ca.jpg",
            "pageorigfilename": "GR_768_0053_o2_2.jpg",
            "transcription": "[Duplicate of page GR_768_0052_o2_2.jpg ]\nWells  worked 1858\ndays 18       $18.00\nWells Deb to H G. Ross  $9.75\nto pork   4                          .40\nWells Timber   timber       $1.34"
        },
        {
            "pageid": 100721,
            "pagefilename": "6a14cbae1d5c24f6ee2e9400a95087a9.jpg",
            "pageorigfilename": "GR_768_0054_o2_1.jpg",
            "transcription": "October 20 1858\nWells to [?] [?] tobaco  .50\n\n  to ba co          .40\n     to cash    .25\n    to buter  Pound 52 ½      .42"
        },
        {
            "pageid": 100722,
            "pagefilename": "c3b2e4f7b4769e874b314384d7ee7a8c.jpg",
            "pageorigfilename": "GR_768_0055_o2_2.jpg",
            "transcription": "March  1862   Do\n10  Mr [?Wordern?]\nTo 500 lbs Hay           1.50\n\n\"  Threshing Peas 1 day\n\"  Building Arch's [?]\n\"  Threshing Oats 13 hr  .04      5.20\n\"  Hay  704      2.25\n\"  1 bu  Potatoes  3   .37 ½  1.12\n\"  ½ bu      \"      .18\n\n\"   1  Bu     \"     .37\n\"  to 12 00 Hay - Per. Hundred  4.80\n\"  3 bu Potatoes    37 ½    1.12 ½\n\"  5 \"      \"    Planting =\n\n\"  2 ½ bu Potatoes             .83"
        },
        {
            "pageid": 100723,
            "pagefilename": "b2ad0ec0d52ec35071e8d1dba2da39f8.jpg",
            "pageorigfilename": "GR_768_0056_o2_1.jpg",
            "transcription": "[blank page; no text]"
        },
        {
            "pageid": 100724,
            "pagefilename": "9d4d179ba303170c8339a3690ef3af27.jpg",
            "pageorigfilename": "GR_768_0057_o2_2.jpg",
            "transcription": "Mr. Angivini  1862\n[crossed out: To 10 00 lbs Hay]\n\n                                                         Dr\n\nTo 1 1/2  for Hay  =  $10.00         15.00\n\"   4 bush Potatoes   .37 1/2          1.50"
        },
        {
            "pageid": 100725,
            "pagefilename": "387973cb0fd004c053df26c9fa331af0.jpg",
            "pageorigfilename": "GR_768_0061_o2_1.jpg",
            "transcription": "[crossed out:  illegible.   Otherwise blank page]"
        },
        {
            "pageid": 100726,
            "pagefilename": "0dba4e5ce686e3a2068da8e517b0d541.jpg",
            "pageorigfilename": "GR_768_0062_o2_1.jpg",
            "transcription": "[?] Lewy S Philip\n$217.7 9   Cornish 6 & 3    3.00"
        },
        {
            "pageid": 100727,
            "pagefilename": "0e3bf6054fdf9d27b5008af7a51f3a3b.jpg",
            "pageorigfilename": "GR_768_0062_o2_2.jpg",
            "transcription": "Oct 20 1853\nT [?harness?] [?] to cut      $5.   \noverhalls p 2                       $1.12   \nto [?]                                       .18\n\n                                      _________\n                                          11.30"
        },
        {
            "pageid": 100728,
            "pagefilename": "f47297416625640ad70fd93630a5aeb1.jpg",
            "pageorigfilename": "GR_768_0063_o2_1.jpg",
            "transcription": "October 30 1853\nPhilip & Leery to\nPotatoes                   $3.00\nPotates   bus 6          $2.25\nCorn    Bus               $2.50\nPork Pounds 87        $2.69\nPork 1.55 p              $5.75\nhalf head  p 9               .12\n\n                               ________\n                             $17.28\n\nto Cradling wheat  and wry acars 17        $9.50\nto baling wheat and wry 5 days help to thrash    $5.00"
        },
        {
            "pageid": 100729,
            "pagefilename": "36bf091844dddf1f2a63ad82eecab75b.jpg",
            "pageorigfilename": "GR_768_0063_o2_2.jpg",
            "transcription": "August 1 1853\nReseaved of Philip cash on hand       $37.00\nAu 14 Reseaved of Leury Cash  $10.00\nAu 27 Reseaved Cash Philip   16.00\nSep 15 Reseaved cash     5\n\n                                      ______________\n                                         68.00\n\nReseaved Cash                $17\nReseaved Cash      $47\n\n                                    __________\n                                         75.00\n                                         47.00\n                                   ___________\n                                      125\n                                $      56.67\n                                  ___________\n                                      191.67\n\nharvesting   [illegible]"
        },
        {
            "pageid": 100730,
            "pagefilename": "08aaf0570fe66fb11605ec833506bca4.jpg",
            "pageorigfilename": "GR_768_0064_o2_1.jpg",
            "transcription": "Weds March 17 1855\n17 to cash     $2.00\n17  to smouk [?]    $1.44\n\n    p 24 cash         0.50\n    flour po 38      $1.32\n   Potatoes 1/2        .31\n   to lard Pounds 5 3/4   0.45\n   to smoaked sholder Pig  1.04\n   Pork p 9 1/2    .72\n\n28  to Cash    $1.00\n\n   to flour p 37   $1.47\n\nAp 7  to flour p 40 $1.40\n\n        Potatoes  1/2   $ [unclear: ?1.31?]\n       Smoked meat 12 1/2    $1.21\n               cash              .50\n      to Pork p 12 1/2    $1.00\n     to flour P 2 32    $8.12\n    10 wry flour  p 92   $2.76\n    Corn meal  p 2    $1.50\n\n20  smoaked meat p 15     $1.50\n\n     Potatoes    .31\n               _____________________\n                      $27.76"
        },
        {
            "pageid": 100731,
            "pagefilename": "26a42a126bdad0d5e57f86eaa25d88da.jpg",
            "pageorigfilename": "GR_768_0065_o2_1.jpg",
            "transcription": "January 10 1859\nPhilip haled wone load of hay to talegate    .62"
        },
        {
            "pageid": 100732,
            "pagefilename": "740495f84c3970e43ea0f5446dce0e2f.jpg",
            "pageorigfilename": "GR_768_0065_o2_2.jpg",
            "transcription": "December 16 1852\nSeteled with Levy & Philip and found their due $36\nDec 23 Paild Philip Cash $6\nJanuary 1 Paid Levy Cash $5.00\nJan 3 to cash   $3.00\n\nJanuary 1853\n\n   Potatoes  Bushel 1  .37\n\nPaid for threshing  Cash $3.00\nJanuary to wheat B 11 1.2   $9.\nJan 30 to Potatoes B 2       .75\n\n          do   =          - 1/2   .56\n\nFeb 8  Levy to cash    $3.00\nFeb 8  Levy to cash     $5.00\nFeb 14    Potates  1 B    .37"
        },
        {
            "pageid": 100733,
            "pagefilename": "ab6b24ba8b8b089f117053e135dc4bcc.jpg",
            "pageorigfilename": "GR_768_0066_o2_1.jpg",
            "transcription": "February 26 1853\n26  Leury to cash        0.50\nMarch 2 Philip potatoes B 1 1/2    .56\n\n         7  Leury to cash  $3.00\n\nMarch 31 1853 Leury & Phiip\n\n   wood and [?Rale?] beets  Choping   $30.25\n\nMarch 31  Leury & Philip\n\n  to wheat B 11  Price per Bushel 85   $0.35\n  Leury   cash        9.00"
        },
        {
            "pageid": 100734,
            "pagefilename": "0b2394b20cb9a728c2d86d81727bb987.jpg",
            "pageorigfilename": "GR_768_0066_o2_2.jpg",
            "transcription": "April12 1859\nSeteled with Leury & Phiip and found their due $56.67\n$ 179\n\n  156\n\n______\n6335\n3600\n_______\n9835\n7282\n________\n2527\n2040\n______\n4567\n1100\n_______\n5667"
        },
        {
            "pageid": 100735,
            "pagefilename": "a42a221f5d547394297134b05a9230e6.jpg",
            "pageorigfilename": "GR_768_0067_o2_1.jpg",
            "transcription": "June 1 1855\nWells Db to Pork Po 18  $1.44\nJune  to flour Pounds 118  $4.60\n\n        to Pork Pound 16    $1.28\n  9   to Pork p 13 1/2    $1.08\n       To Cash for corn    $12.00\n 21  to Pork Pounds 12 1/2  $1.08\n 21  to wool Pounds 5 1/2  $1.58\n 25  to Pork  Po  11 1/2     .92\n\nJune [?] Pork   Po 23 1/2    $1.88\n\n                                 ____________\n                                    $26.86"
        },
        {
            "pageid": 100736,
            "pagefilename": "0d33b52224c1bd2b04e6269d286d8190.jpg",
            "pageorigfilename": "GR_768_0067_o2_2.jpg",
            "transcription": "July 19 1855  [?]\n[?] and Days 2       $2.50\n[?] 1 day   $1.25\n& [?] & [?heap?] days 2 ½   $2.50\nwashing &  [?heap?] day 1       1.00"
        },
        {
            "pageid": 100737,
            "pagefilename": "56cc7fe4ddde9a28e2d53d7454fa5fa9.jpg",
            "pageorigfilename": "GR_768_0068_o2_2.jpg",
            "transcription": "June 1[?] 1844  [?]\n[?Magat?] Db To H J Ross for Plank Deliverd ft   100.22\n\n                                           Do                             80.81\n                                           Do                           100.60\n                                                                          100.10\n                                                                          100.17\n                                                                          100.14\n                                                                            90.90\n                                                                          100.30\n                                                                          100.52\n                                                                            90.82\n                                                                            21.62"
        },
        {
            "pageid": 100738,
            "pagefilename": "51e76c374dd0c15c7c9ead1f876de2b1.jpg",
            "pageorigfilename": "GR_768_0069_o2_2.jpg",
            "transcription": "Dec 1856 Smith Mc cormick Db for hay half ton $5.00"
        },
        {
            "pageid": 100739,
            "pagefilename": "9ece83fbc48e938c37d8e95da0c08f18.jpg",
            "pageorigfilename": "GR_768_0070_o2_1.jpg",
            "transcription": "[?] Pells Brother in law to meal B2   $1.50\nJune 1"
        },
        {
            "pageid": 100740,
            "pagefilename": "7c9c495c9c7703772d32710c2df0ae22.jpg",
            "pageorigfilename": "GR_768_0072_o2_2.jpg",
            "transcription": "[crossed out:  Philip & father and [?] Choped oak [?] bords]\n86 [?] of [?] 6.00\nhay gras  $4.00\nDecember 7 1856 [?]    .37\nPhilip D for lard P 18  $1.62\nhalling brick & wood  F 1    $2.00"
        },
        {
            "pageid": 100741,
            "pagefilename": "f62b8f285babf7e5fd39712bf530e269.jpg",
            "pageorigfilename": "GR_768_0073_o2_1.jpg",
            "transcription": "Mr Wels November  10\nDb to flour at $40 per hundred  P 28    $1.12\n\n       do                                    P 39     $1.56\n\nNov  23    Db flour  P 74  $2.96\n\n       24     to cash    $3.00\n                Potatoes 1 Bushel     .50\n                Potates   [?]              .25\n               Meal ½                       .37\n               flour Pounds s1 ½      .86\n\nDe 5        to Pork P 152   heads 81 feat     $70.60\n\n              salt P 20                       .50\n\nDe 7      to Meal 1 B                    .75\n\n    7      Potatoes 1 B                  .62\n    9     to cash                     $10.25\n  14     to cash                   $1[?].00\n  14     Potatoes   ½                 .25\n  16     to cash                   $10 00\n  21     to Potatoes  ½              .31\n                                       _______________-\n\n                                        23.89"
        },
        {
            "pageid": 100742,
            "pagefilename": "f92b81937a8e8c33c40ec56d3fa837cc.jpg",
            "pageorigfilename": "GR_768_0073_o2_2.jpg",
            "transcription": "Mason Danels Worked  \nJuly 30  worked for Ross [?] [?]\nBeans   B ½       62\nPotatoes B 2      62\nMr Wels [?Creat Bug work?]   1 ½ Day     $1.o.50\nWells Feb 7 1855 to Pork P 13    .52\n\n                          to flour Pounds 10  $3.75\n\nFeb 7 to Pork Pounds 160  $6.49\n\n      7 to Potatoes B 1 ½        .86\n      7  salt Pounds 22          .22\n          to Cash                $1.00\n    22 to tobaco       .31\n    23 Potatoes  [?]         .32\n\nMa 3  to flour [?] 30     $1.05\n\n        to cash         .50\n        to flour   32         $1.12\n   16   to flour P 39      $1.12\n              cash             $1.00"
        },
        {
            "pageid": 100743,
            "pagefilename": "dad386356c3f06383d9dfe141159d5f7.jpg",
            "pageorigfilename": "GR_768_0074_o2_1.jpg",
            "transcription": "Oliver Nichols account\n1840\nLabour on dam      28.75\nClearing Foundation   3.00\n½ Months Labour   10.00\nMaking Flume gates   3.00\nFilling dam        8.00\n\n                                      ____________\n                                           52.75\n\nPaid in Sundries By Clyman 49.67\n\n                                      __________\n                                            3.08\n\nOct 28 Cr To cash to Ballance 3.00"
        },
        {
            "pageid": 100744,
            "pagefilename": "02380fbb0f7ae35dc11aed3efbe516ea.jpg",
            "pageorigfilename": "GR_768_0074_o2_2.jpg",
            "transcription": "1840\nAct and Settlemen with I. Plumb\nBallance on Settlement                             4.82\nHewing 40 ft Timber 2 d                             .80\none Extra window                                     1.00\n50 feet Base                                             1.00\n1 Door & frame                                         3.00\nCasing 4 windows 1$                               4.00\nLaying 588 feet of floor                            14.76\nMoulding on 2 Doors                                   .37\n\n                                                               ________\n\nPaid Plumb 13$                                       29.75\nPaid by Ross              9.88\n\n \"     \"   Clyman        11.00\n                               _________\n                                20.88\n\nCash Paid Nichols 3.50"
        },
        {
            "pageid": 100745,
            "pagefilename": "a2e9e79046f14b8932402fb7b84f61fb.jpg",
            "pageorigfilename": "GR_768_0075_o2_1.jpg",
            "transcription": "December   23  1854\nPage 1[crossed out: Plumb John]   Mr Wells  2 B De to cash   $4.00\n25  to cash  $1.00\nDec 27 to flour Po 80   $3.10\n\n     28   to meal  Bu 2   $1.50\n\nJanuary 3 1855 to cash    $1.50\nJan 9 to flour  Pounds 75     $2.60\nJanu 12   to pork  Pounds 23  1.23\n\n        16     do         do     21   $1.32\n        17  Potatoes   1 B     .62\n        20  to Cash            $1.00\n\nJ 22 to Pork  P 17    .76\nMar  25  to flour  P 116       $4.01\n\n             to pork  P 19   .76\n            to cash      $1.00      \n\nApr   1  to Pork   21    .84                                                                                           \n\n    1 potatoes  B   1   1.62\n     wry flour  P   40    $1.00\n 26 to cash     $1.00\n 27  to potatoes B 1      .62\n                      _____________-\n                          $27.35"
        },
        {
            "pageid": 100746,
            "pagefilename": "a591d3af143fe73db99ce720ef07b9ce.jpg",
            "pageorigfilename": "GR_768_0075_o2_2.jpg",
            "transcription": "Aprile 29 1855\nWills Db cash         .50\nsmoaked meat  Po 8 ½    .84\nPotatoes            .31\ntobaco   P 1    .31\nSmoaked meat  P 10 ½     $1.10\nbuter     .12\npotatoes   B 1   .75\nMay to cash    $3.00\npotatoes   B 1 ½   $1.72\n10    Pork   P 16 ½    $1.34\n12   Pork   P  8 3/4    .76\nPotatoes   B  ½          .32\nMay 15 to Pork  P 20    $1.60\nto cash    .50\nto soap [?] \npotatoes  [?]   .56\nPork  po  10  .84\nto Bedsted Buy Richison    $1.00\n29 to pork  p 19 ½     1.08\npork  10 ½    .84\n26  pork 12 ½   1.00"
        },
        {
            "pageid": 100747,
            "pagefilename": "73b078bf2325ce6ae372cedd662f70b3.jpg",
            "pageorigfilename": "GR_768_0076_o2_1.jpg",
            "transcription": "Wels [?] to cash $3.00"
        },
        {
            "pageid": 100748,
            "pagefilename": "1c431cba0295b51bfd4f88aa0e344b59.jpg",
            "pageorigfilename": "GR_768_0076_o2_2.jpg",
            "transcription": "A C [?Write?] choped wood oak and [?] wood  Cords   35.00\nLewy Choped wood Cords  45\nPhilip & father law    37 6    590\n\n                                  4         4\n                            _____   ______\n                               148     1 60\n\nJanuary 9 1855\nMr Cent Db to & J Ross for hay hundred 300     $1.50\n\n   oats  B 4    $1.48\n   hay    hundred      $2.00\n straw   B 29          .75\n\nFeb 19  to oats  B1    .37\n\n                          ________\n                             $7.10\n\nMarch Corn  B2   $ 1.50\n\n          oats   B4      1.60\n                           ________\n                        $10.20"
        },
        {
            "pageid": 100749,
            "pagefilename": "38d52fa94364ced606548f27744017f8.jpg",
            "pageorigfilename": "GR_768_0077_o2_1.jpg",
            "transcription": "1  Main\n2  New Hampshier\n3 Massachussetts\n4 Rhode Island\n5 Conneticut\n6 Vermont\n7 New York\n8 Pennsylvania\n9 Delaware\n10 New Jersy\n11 Maryland\n12  Virginia\n13 Ohio\n14 Indiana\n15 Kentucky\n16 Tennessee\n17 N Carolina\n18 S Carolina \n19 Georgia\n20 Alabama\n21 Mississippi\n22 Louisiana\n23 Arkansas\n24 Illinois\n25 Misouri\n26 Michigan\n[upside down at bottom of page]\nJohn Duchman\nworked day 5 [?]   $3\nCharles Fuch [?]   $3"
        },
        {
            "pageid": 100750,
            "pagefilename": "d7eb70de4647d875eb98e236ee68bf69.jpg",
            "pageorigfilename": "GR_768_0077_o2_2.jpg",
            "transcription": "Illinois\n37 ½ \n\n  3\n\n_______\n1.12 ½\n50\n75\n______\n125\n1 2 3 4 5 6 7 8 9 10 11 12\nI  a c  h y o n w     I    L   E\n[difficult to read penciled calculations]\n29\n16\n______\n45\n[?Leuy?] & Philip [?] [ 15"
        },
        {
            "pageid": 100751,
            "pagefilename": "a9055098ce06fcd80a089ef1b114996f.jpg",
            "pageorigfilename": "GR_768_0078_o2.jpg",
            "transcription": "[back cover.  no text]"
        }
    ]
}