{
    "id": "1305",
    "cataloglink": "https://i-share-nby.primo.exlibrisgroup.com/permalink/01CARLI_NBY/i5mcb2/alma991574828805867",
    "pages": [
        {
            "pageid": 105567,
            "pagefilename": "93356460a84f94f5de114c15d92e1457.jpg",
            "pageorigfilename": "GR_4099-15_0001_o2.jpg",
            "transcription": "[Cover]\nTan; appears to be leather"
        },
        {
            "pageid": 105568,
            "pagefilename": "f81f765d484ee7d8c637251ffb9ec77c.jpg",
            "pageorigfilename": "GR_4099-15_0004r_o2.jpg",
            "transcription": "2\n\nJan- 1st,, 1867\nAnother year begins today. It is my wish to spend it more to the service of God and to my own improvement than the last one was. The day was spent in writing and other employments and one would not know from anything going on, that it was \"Happy New Year\". 2nd  The Crows are in a quandary about the Sioux. They have received orders from them to leave our vicinity and they are afraid to disobey, and yet would like to remain and help the whites. 3rd The Colonel is making arrangements with \"Iron Bull\" and a few other indians to stay as spies and scouts."
        },
        {
            "pageid": 105569,
            "pagefilename": "28799d10769620993819dbc8594e46fa.jpg",
            "pageorigfilename": "GR_4099-15_0005r_o2.jpg",
            "transcription": "3\n\njust like mulattoes.\nJan 7th Two indians went out as scouts this morning and in the afternoon came back accompanied by six or eight Crows who belonged to a party that went from the Crow Village to join the other band. They were on their way to the village, and stopped here over night. The report now is that the Sioux are encamped on the Big Horn near the month and are on their way up. \"Lone Horn\" \"The Roman Nose\" Sioux Chiefs were in the Crow Camp a few days before they moved and told the Crows that they were friendly to the whites and are going to leave the other Sioux and would join the Crows next spring and his with them. They told the"
        },
        {
            "pageid": 105570,
            "pagefilename": "edbcd4e3522f45b4999e9d717ec56d15.jpg",
            "pageorigfilename": "GR_4099-15_0005_o2.jpg",
            "transcription": "Jan 4 The indians raised camp early and moved to the river bank first above the Fort, intending to cross the river in the morning and move over towards Wind River valley. A great many came up to camp as they came by. Jan 5th Indians moved early. \"Iron Bull\" wouldn't stay, but \"Annahare\". \"The Black Eagle\" and three or four others remained. Jan 6th \"Shot in the face\" a chief of some importance remained behind and this morning moved up to camp and pitched his lodge. Fitted the indians out in uniform of which they are very proud, but I think it spoils their appearance and makes them look"
        },
        {
            "pageid": 105571,
            "pagefilename": "49dcd7b5d9b4f3cc7684223e8750dadc.jpg",
            "pageorigfilename": "GR_4099-15_0006r_o2.jpg",
            "transcription": "4\n\nappeared to be about 15 degrees on either side of the sun.\nThere were arcs of four different rainbows in the sky. each having their centers in a different point. The figure they formed was somewhat thus. ( * )\nJan 13th                                                                                                                                                                                                              __   (\n\n   Very stormy. Read some in the bible.\n\nJan 14th. This was one of the stormiest days I ever saw There was about 6 inches of snow on the ground and a very strong wind blew all day drifting the snow up in some places 15 feet deep. The hospital was completely snowed in. It was impossible to see more than a few feet at any time during the day owing to the stormy snow. The snow is drifted"
        },
        {
            "pageid": 105572,
            "pagefilename": "43ac2d6849a74342df42020edaa58fd1.jpg",
            "pageorigfilename": "GR_4099-15_0006_o2.jpg",
            "transcription": "Crow chiefs to come up and tell the whites to fortify as the Sioux to the number of several thousands would be here in a week or so.\nJan 8th Great preparations have been in progress for some time strengthening the fort, and preparing for a seige. \nJan 9th Hauled up a lot of ice intending to use it for water in case we are hemmed in.\nJan 10 Snowing again.\n\n\"    11 Ditto. The scouts report plenty of buffalo on the road to Phil Kearney, but say they are not moving. If they were moving this way it would be a sign that the mail was coming.\n\nJan 12  Saw a fine sight this afternoon. It was the phenominon  of the Sun dogs They were very distinct &"
        },
        {
            "pageid": 105573,
            "pagefilename": "9242e8e1bf8cdb22f2be4b698650cd94.jpg",
            "pageorigfilename": "GR_4099-15_0007r_o2.jpg",
            "transcription": "5\n\nJan 17th \"Shot in the face\" and family left for the Crow village. He said he didn't think the Sioux were coming here at present, but thought they would come in the spring. \nJan 18th The other indians with the exception of Amishace and one other left for the village.\nJan. 19th Nothing new.\n\n\"     20th    \"         \"\n \"     21st   \"         \"\n \"     23rd   Five or six indians came in from down the river: they have been living with the Gros Ventres and are on their way to the Crow Village. They say there are four white traders with the Arapahoes near the mouth of this river. They also said that some Cheyennes were on Tongue River some time ago and saw a great smoke"
        },
        {
            "pageid": 105574,
            "pagefilename": "689a9eecc73037d6f753cd1dc250e9db.jpg",
            "pageorigfilename": "GR_4099-15_0007_o2.jpg",
            "transcription": "up higher than the stockade in some places.\nJan 15th The wind fell suddenly last night and this day is comparatively pleasant. I saw a fire mirage down the river this afternoon. Could see the timber along the river for a great distance. Columns would shoot up over the little Horn Hills and suddenly disappear. Some of them would form in the shape of long thin clouds and assume all its fantastic forms imaginable. \nJan 16th The scouts report hearing a shot and to have seen the buffalo moving down the river. One went out again in the afternoon but didn't see any thing suspicious."
        },
        {
            "pageid": 105575,
            "pagefilename": "92cea20f9554949cf6a45303a4c22c22.jpg",
            "pageorigfilename": "GR_4099-15_0008r_o2.jpg",
            "transcription": "6\n\nJan 26th I have been rather unwell for a few days, but am better today. Lockwood took my gun out and shot 7 sage hens and some rabbits, so that we had a splendid dinner on rabbit pie and sage hen &c. &c. It has been 59 days since we received a mail. It is getting rather tiresome to be deprived of the mail with such surprising regularity.\nJan 27th I am afraid I spent the day rather unprofitably. Read some in the Bible.\nJan 28th. No mail yet although it is two months today since the last arrival.\nJan 29th I must say it is getting rather too much of the good thing, to be so long deprived of the news from the outside world. A warm wind melted most of the snow last night."
        },
        {
            "pageid": 105576,
            "pagefilename": "168fb55475f6cac5cc7cce0c38dbc6d8.jpg",
            "pageorigfilename": "GR_4099-15_0008_o2.jpg",
            "transcription": "in the direction of Piney Fork. That they went to see what it was and found Fort Phil Kearney in ruins having been burnt and abandoned by all the troops. This taken in connection with the fact that some Crows reported seeing this smoke when they were here throws a shade of possibility into the Sioux story.\nJan 24 The Crows that came in yesterday left for the village.\nJan 25th. The above named came back late at night being unable to cross the mountains on account of the snow. The weather is very cold now. The thermometer ranging from 10 to 20 degrees below zero at night."
        },
        {
            "pageid": 105577,
            "pagefilename": "c09c70401bdff83810edca19957b88c3.jpg",
            "pageorigfilename": "GR_4099-15_0009r_o2.jpg",
            "transcription": "7\n\nwould be the news. He proved to be John Richard with a party of ten men bring fresh vegetables and butter down for sale. They had been some 30 days on the road and were compelled to cache two wagon on Clarks Fork. They have no news later than Dec 15th, but say a telegram came just before they left saying that they had called for reinforcements at Fort Reno and Laramie. They say a negro has been elected to congress from \"The Hub\". A man having a charter for a ferry across this River came along: Also one wishing to settle and go into the farming business. \n\n Was off of the day and was in the house most of the time. Reas some in the Bible.\n\nNote to the side runs off edge of page"
        },
        {
            "pageid": 105578,
            "pagefilename": "83ef064e4878f001b4fe5de70660b0c5.jpg",
            "pageorigfilename": "GR_4099-15_0009_o2.jpg",
            "transcription": "Jan 30. Most of the snow gone and the ground thawed out. Quite a pleasant day. Bridger is very uneasy to hear some news from down below. He says the snow is so deep down there that they cannot travel, yet I think he thinks there may be a possibility of the indian story being true.\nJan. 31st A very fine day and every body looking for the mail.\nFeb 1st A small band of buffaloes in sight the first for some time. I think the drums drive them away.\nFeby 2nd The garrison was all astir from seeing a party with two wagons coming from the direction of Virginia City. There were many suppositions as to who they were, and what"
        },
        {
            "pageid": 105579,
            "pagefilename": "c56d8a25e717302c1eb0cbdbff87489c.jpg",
            "pageorigfilename": "GR_4099-15_0010r_o2.jpg",
            "transcription": "8\n\nwhile they (the Crows) were in the Sioux village, two runners came in from Laramie telling them they had better leave this country as the troops were coming after them. That they were acting upon this and were all crossing the Yellowstone.\nSome more Crows came from the main Village, including Asniahare's mother, or Aunt. \nFeby 7th Two Sergts of the 18th came in from Phil Kearney on foot, carrying dispatches. They confirm the last of Capts Fetterman & Brown & Lieuts Osimmund and Bingham and some 90 men. There are 11 cos at Phil Kearney troops having been sent from Laramie. Carrington has gone to Fort Casper. Genl. Wessells is in command of the Mountain"
        },
        {
            "pageid": 105580,
            "pagefilename": "00118464ef702bfd50b717a47906f5b5.jpg",
            "pageorigfilename": "GR_4099-15_0010_o2.jpg",
            "transcription": "Feby 4th 1867. With the Colonel and a party rode up on the mountain. All around us, it is snow, snow, snow. The indians say the ground around the Fort is medicine ground and the snow wont lie on it.\nFeby 5th Two young Crows came in from Blackfoots band. They are moving this way and will be here in a day or two. They found Richard's wagons but Blackfoot knew them and would not let them be disturbed. \nFeb 6th Twelve \"Mwmasaperrie\" came up the river to trade with Smith. Eighteen lodges are camped near the mouth of Little Horn. They say the Sioux last 60 men and 100 horses killed at Fort Philip Kearney. That"
        },
        {
            "pageid": 105581,
            "pagefilename": "f0cd6ccafecf3011230c93900f39aab3.jpg",
            "pageorigfilename": "GR_4099-15_0011r_o2.jpg",
            "transcription": "9\n\nFeby 9th The mail carried by the two sergts & Mikih Boyer left at unclear.\nFeby 10th Read in the Bible.\n\n  \"     11  Nothing new.\n  \"     12  The Mimeasaperries left yesterday taking Amahare with them.\n  \"     13th Richard left for home on the 9th carrying dispatches for the Governor of Montana.\n\nFeby 14th. Some little Crow indians who were up on the mountain hunting say they saw some indians in the Bad Pass just before dark, but whether they were Crows or not they could not make out.\nOne of Mr. Bridgers men who is up on the mountain cutting timber saw fresh pony tracks on the mountain."
        },
        {
            "pageid": 105582,
            "pagefilename": "0717e5004baebd579ebc16321de9bac4.jpg",
            "pageorigfilename": "GR_4099-15_0011_o2.jpg",
            "transcription": "District which has been reorganized. They have been giving us up as dead and I suppose we are so reported in the States. They had made repeated efforts to communicate with us but had failed. As much as $1600 had been offered but the Sergts volunteered without hope of recompence. An order came announcing the 2nd Batt as the 27th U.S. Inf. and owing to the assignment of officer to the other Battalion Col. Kinney is the senior officer with the Regt Lieut. Counselman goes to the 18th Inf. & Lieut. Brewer comes in his place.\nFeby 8th Busy preparing papers to go by the Mail."
        },
        {
            "pageid": 105583,
            "pagefilename": "07bfa2facf5c74d867fbacae5dcd6192.jpg",
            "pageorigfilename": "GR_4099-15_0012r_o2.jpg",
            "transcription": "10\n\nFeby 19th I think this has been one of the coldest days this winter, although the thermometer registers only some 8° or 10° below. There is a steady N.E. wind blowing which makes it so cold. On man had his nose frozen before I got through inspecting the guards.\nFeby 20th Still cold\n\n  \"    21st  Ditto. The Crows camped on the other side of the river moved down to Beauvais Creek. \n\nFeby 22nd  Nothing new.\n\n \"     23rd   It is now two weeks since the couriers left; and the Col. sent word that if they didn't let us hear from them by last Saturday that he would conclude that they had been killed. \n\nFeby 24th  Read in the Bible."
        },
        {
            "pageid": 105584,
            "pagefilename": "3517da3e76e61239dbe6546b80d9ed91.jpg",
            "pageorigfilename": "GR_4099-15_0012_o2.jpg",
            "transcription": "Feby 15th Eight Crows including \"Bad Elk\" came in today I presume it was them that the youngsters saw yesterday. They report the Crow village all split up and a good share of it gone to Stinking Fork.  \nFeby 16th No news from Boyer This was the day he was to be back if he came in advance of the troops. I suppose he will not come now until they get ready to come. \nFeby 17th Read some in the Bible. In rather a bad humor on account of some things that occurred on guard mount\nFeby 18th The few Crow lodges spoken of above came in and camped on the small creek on the other side of the river."
        },
        {
            "pageid": 105585,
            "pagefilename": "e860adf2e6ec437169ea6a7084ee6fdb.jpg",
            "pageorigfilename": "GR_4099-15_0013r_o2.jpg",
            "transcription": "11\n\nwith his life by jumping down a precipice.\nFeby 26th Three Crows were to have gone down to Phil Kearney today but wanted so many things that it was considered a back out.\nFeby 27 The Crow village is coming in and camping all around us.\nFeby 28th Mustered for pay\nMarch 1st Crazy Head sent two or three boys to carry dispatches to Phil Kearney. They left about 1 o'clock P.M.\nMch 2nd I made a mistake in saying that the couriers started yesterday they did not get away until today \nMarch 3rd Most of the indians are leaving the vicinity of the fort & going down the river."
        },
        {
            "pageid": 105586,
            "pagefilename": "53e8243063e7c5d15fd02fda0389ade3.jpg",
            "pageorigfilename": "GR_4099-15_0013_o2.jpg",
            "transcription": "Feby 25th The Col has been talking of sending some Indian couriers down & we have made out copies of our requisitions again. \nFive or six indians came in from the village the other day bringing news of a fight with the Snakes up about the mouth of \"Shell River\". Some Crows stole 50 or 60 head of horses and were followed by eleven Snakes. The Snakes found a Crow away from camp by himself and (the Crows say, smoked with him and then shot him. They then attacked the village and after drawing out some 12 or 15 Crows drove them back. \"Iron Bull\" lost his gun bows & arrows and narrowly escaped"
        },
        {
            "pageid": 105587,
            "pagefilename": "39c228833f5385b6be7c9797b0ca4d04.jpg",
            "pageorigfilename": "GR_4099-15_0014r_o2.jpg",
            "transcription": "12\n\nplenty of buffalo there came back to tell the village. I don't know what ideas they have of running courier.\nMarch 7th Nothing new\n\n  \"       8th \" \"\n  \"       9th Still very cold. Many of the men getting their fingers noses &c &c frozen while on guard.\n\nMch 10th \"The Medicine Wolf Bow\", principal man of the \"Minnasaperries\" and his brother came up bringing news. A Crow had been at the Sioux village and had been told by them that they were all going to move up here and camp around us and were going to fight the Crows as well. That a white man was there who followed him out of camp and told him not to believe the Sioux for they were afraid"
        },
        {
            "pageid": 105588,
            "pagefilename": "b4c0cae4e92f3f4927cc0f9f42f5205a.jpg",
            "pageorigfilename": "GR_4099-15_0014_o2.jpg",
            "transcription": "Some Minnasaperries? came in yesterday saying that the Sioux were at the mouth of Tongue River and that they were coming here within 15 days. That they had sent tobacco to the Arappaho wishing them to join them but the latter had refused to receive it. However the Arappahoes had gone up to the mouth of Clarks Fork and killed three white men that were living there in a log house. I don't know who they could have been.\nMch 4th Nothing new\n\"       5th  \"        \"\n\"       6th  It has been very cold for some days back. The boys who went as couriers went over as far as Grass Lodge Creek and finding"
        },
        {
            "pageid": 105589,
            "pagefilename": "c36b8221e3618513fa64cc1c322aa0fa.jpg",
            "pageorigfilename": "GR_4099-15_0015r_o2.jpg",
            "transcription": "yet returned. He says it would be impossible for wagons to come through on account of the deep snow.\nMch 13th Nothing new.\n\" 14th \"The Iron Bull\" who has been encamped in the immediate vicinity all the time i.e did not move away with the rest, moved his two lodges down close to the stockade.\nMch 15th Seven longer of Minnasaperries moved up and encamped near the sutters house.\nMch 16th A few more Minnasaperries came in. They had been down at some of the other Crow camps and bring news that some Sioux had been in and had such that they had a small war party out last month"
        },
        {
            "pageid": 105590,
            "pagefilename": "c16d290c177a0f57cf4a0ef3d935f427.jpg",
            "pageorigfilename": "GR_4099-15_0015_o2.jpg",
            "transcription": "of the Crows and if the Crows and whites would fight together the Sioux couldn't whip them. They told him that he had better leave the village, as they would have killed him if they had seen him coming into the village, but as he got in there before they saw him he might go. That the day he left a war party of 40 left the village to come up here.\nMch 11th Very cold.\n\n \"    12 Thermometer has been below -10° since retreat last night. At daylight it was 25° below. \"Crazy Head\" and brother came in from his camp on Grass Lodge Creek. Another party have started for Phil Kearney, but none have"
        },
        {
            "pageid": 105591,
            "pagefilename": "a7fa55bca6be45668989d3be83fa96fe.jpg",
            "pageorigfilename": "GR_4099-15_0016r_o2.jpg",
            "transcription": "19\n\nThey bring news that those mail carriers that left in Feb were all killed. Also that the Sioux came upon a train of 6 wagons and 18 men on Tongue River coming this way: that they killed 13 of the men and the other 5 made their escape. They say there are 13 lodges of Sioux in the Pretty Bulls camp about 18 miles below this, and that 8 lodges of Crows have gone to the Sioux: that all the Sioux are moving this way: I think we will have lively times here before long. \nMch 19th. Nothing new.\n\n \"     20th  Some indians came in from down the river who report that the Sioux are scattered to the four winds of heaven and are starving. Some others came in from"
        },
        {
            "pageid": 105592,
            "pagefilename": "43a3be2148b427739f7f7cf24c6dc9c3.jpg",
            "pageorigfilename": "GR_4099-15_0016_o2.jpg",
            "transcription": "who discovered tracks on the road from here to Phil Kearney, that they followed and came upon Boyers party on Tongue River That the whites started for the mountains leaving their pack mules, that going up the mountain their horses gave out and they took to the pines That as they had thrown away most of their clothing and as a storm was brewing they concluded they would freeze to death so they didn't follow them. So if that is true my mail for three months is all gone up.\nMch 17th Was officer of the day. Read some in the Bible.\nMch 18th Another lodge of Minnasaperries came in."
        },
        {
            "pageid": 105593,
            "pagefilename": "0b7a0280066c4d8af2434693f441e905.jpg",
            "pageorigfilename": "GR_4099-15_0017r_o2.jpg",
            "transcription": "15\n\nI did of him.\nMach 22nd Two couriers left at 11.30 for Fort Phil Kearney by way of the mountains. They are going up the other side of the river to the mouth of Stinking and then go up The other side of the mountain and will cross over at Phil Kearney.\nMch 23rd The couriers (Burnett & George) came back about 9 P.M. and reported the snow too deep also that on their way back they discovered that they had been tracked by 6 indians. I guess Burnett was afraid.\nMarch 24th - The Colonel is talking of sending some more indians down. A young mexican in Q.M. employ offers to go alone.\nMarch 25th Sent off 5 indians with dispatches. \"The Medicine Wolf Bow\" reports that the Crows are preparing to join the Sioux."
        },
        {
            "pageid": 105594,
            "pagefilename": "310ab9a0d1236be6d6239777228ee580.jpg",
            "pageorigfilename": "GR_4099-15_0017_o2.jpg",
            "transcription": "Crazy Head's camp. They say that the Sioux that came to the Crow camp was \"The Roman Nose\" that he had thrown the other Sioux away and that they had thrown him away, and they would fight him wherever they found him. He has always been more friendly to the whites than the others have. Among all the stories I believe none of them.\nMarch 21st Some one has been throwing poisoned meat around for the benefit of the dogs in the garrison. My little dog \"Tip\" was one of the sufferers. I am very sorry to lose him, as he was a fine little fellow and had some good traits in him. He was the favourite of the garrison I didn't think I could ever think so much of a dog as"
        },
        {
            "pageid": 105595,
            "pagefilename": "a920f4ffdf0b575d67ec38c02a8eb16f.jpg",
            "pageorigfilename": "GR_4099-15_0018r_o2.jpg",
            "transcription": "they saw down there. Mitch, Boyer got through but they lost their horses and all their mail.\nMch 27th Maj Burrows assumed command of the Post and assigned me to the command of D. Co.\nMch 28th Capt Burrows says Lieut. Stearns has resigned.\nMch 29th I think I can notice a difference in the demeanour of the indians since the return of the couriers. They seem to think that there are more white people than they had any idea of.\nMarch 29th Nothing new\n\n  \"      30th     \"      \"\n  \"      31st Had the required monthly inspection.\n\nApril 1st Employed a Mountaineer as \"Post Hunter\" he went out and killed two elk and a"
        },
        {
            "pageid": 105596,
            "pagefilename": "b80238da40862e8ee0dbaf520f0da69a.jpg",
            "pageorigfilename": "GR_4099-15_0018_o2.jpg",
            "transcription": "That they are going to keep on good terms until after the wagons come up and are going to trade all the powder they can for the Sioux and then will move over the mountains and send parties to join the Sioux.\nMch 26th Great excitement came by the arrival of a mail carried by the indians first sent. Recd about 30 private letters. Capt Burrows recd 62. Capt recd his commission as Bat Maj, and the Cols resignation has been accepted. They did not send any personal mail and but a portion of the letters. They at Phil Kearney wanted the indians to remain four days longer and see the troops that would arrive then. They seem to be pretty well impressed with what"
        },
        {
            "pageid": 105597,
            "pagefilename": "9309748fc5e29bc67e469a057ca05d97.jpg",
            "pageorigfilename": "GR_4099-15_0019r_o2.jpg",
            "transcription": "of the men beat tom-toms and one performed occasionally on a kind of whistle. Three or four women dressed in yellow dresses stood opposite the musicians & performed a kind of dance if you could call it so when they did not move their feet from the ground. It consisted of a series of rapid curtsies. Some of them held a switch in their hand with which they imitated the growth of the tobacco &c &c others held otter skins and other articles of \"medicine\". All chanted in a kind of screeching monotonous tone.\nApr. 6th Nothing new.\n\" 7th was on duty. Read a good deal in the Bible have commenced to read it through.\nApr 8th Had a horse race between one of our horses and an indian pony. The pony came in 2nd best. All were thrown into a state"
        },
        {
            "pageid": 105598,
            "pagefilename": "6ab09f0660ab719a3de9d979be854c56.jpg",
            "pageorigfilename": "GR_4099-15_0019_o2.jpg",
            "transcription": "buffalo and brought the two former and the best parts of the latter.\nApril 2nd The mail couriers returned from Phil Kearney bringing considerable mail. No more troops have arrived at P.K. and we need not expect reinforcements until the middle of May. Most of the snow has melted off and we may look for visitors any day.\nApril 3rd Nothing stirring but the wind.\nApril 4th Very busy with my papers. This has been a very fine day. Most of the snow is of the prairie.\nApril 5th Witnessed the tobacco dance in one of the lodges camped close to the stockade. The inside of the lodge was lined around with indian men and women. Three"
        },
        {
            "pageid": 105599,
            "pagefilename": "fc2ee99a69040cf2c8c1425655e15c4d.jpg",
            "pageorigfilename": "GR_4099-15_0020r_o2.jpg",
            "transcription": "18\nfrom the mouth of Little Horn where they are encamped. They seem to be a much better class of indians. They make some pretence of keeping themselves clean.\nApril 11th The Long Horse and some other indians came up intending to go down to Phil. Kearney with the Colonel.\nApril 12th Had a council with the indians and the Major read them the letter from Genl Wessells inviting them down to Phil Kearney. A number of them started about noon. They are not intending to have a council now as they want it held on this river.\nApril 13th Nothing new.\n\" 14th \"Joe the tailor\" had a difficulty with an indian and knocked him down."
        },
        {
            "pageid": 105600,
            "pagefilename": "b81a816ebe24e65b64874c5855f4b3b9.jpg",
            "pageorigfilename": "GR_4099-15_0020_o2.jpg",
            "transcription": "of excitement by the appearance of 6 indians with led horses in the bluffs on the other side of the river. The Crows said they were not Crows, and we didn't know what to make of their maneuvres. They proved to be some Crows from Beauvais Fork. Their Camp had lost some horses the night before, by the the Snakes and they were trailing them it seems the Snakes had driven them right down to the river just opposite the Camp of \"Bear's Tooth\", and had then turned and gone through the Bad Pass.\nApril 9th The Crows say that those encamped on Beauvais lost some more horses last night.\nApril 10th Three \"Nes Perces and their squaws came up the river"
        },
        {
            "pageid": 105601,
            "pagefilename": "d8f530f03f67074d7e1ccf69a256f292.jpg",
            "pageorigfilename": "GR_4099-15_0021r_o2.jpg",
            "transcription": "19\n\ncome back with their lodges. \nApril 16th The indians are still coming in. In the afternoon learn that those persons seen yesterday were Crows moving this way from the Little Horn. \nApr. 17th Some 30 lodges camped in the immediate vicinity.\nApr 18th Most of the indians move over to Warm Creek.\nApril 19th, 20th & 21st Nothing new.\n\n\"      22nd   The \"Long Horse\" returned from Fort Phil Kearney bringing a pair of slippers for Lt Counselman but leaving the important papers out at his camp, as he said his horse gave out.\n\nApril 23rd Another indian came in bringing a package of mail but no letters for me.\nApril 24, 25, 26 An indian came in each day bringing a small package of mail each. There are still two packages away"
        },
        {
            "pageid": 105602,
            "pagefilename": "6f63912d3bf8c15e71ad221e9e1f85a6.jpg",
            "pageorigfilename": "GR_4099-15_0021_o2.jpg",
            "transcription": "The indian came up for redress, and not geting it from the military proceeded to gather a few young men & take it himself. He cut at Joe with a knife cutting his coat. Joe then fired at him with his gun the ball passing just over his head.\nApr 15th Had a great excitement this evening caused by an indian bringing in word that he saw 400 persons on Grass Lodge Creek, coming this way. He supposed they were Sioux. All the indians moved in close to the fort and we were busy watching them as well as for the Sioux. I was in doubt whether the Crows are not playing a game to get in to have a better chance to beg. The \"Nes Perces\" went away in a great hurry intending to"
        },
        {
            "pageid": 105603,
            "pagefilename": "eb67de99f58cfcfb5a2e57b37a3a01f6.jpg",
            "pageorigfilename": "GR_4099-15_0022r_o2.jpg",
            "transcription": "20\n\non the 26th inst. It is them that is now returning.\nMay 3rd Mitch. Boyer came in about 10. PM last night. All alone had traveled so all way from Phil. K. No mail had arrived at P.K. since Mch 5th Rumor of 300 men being killed in Fort at Mouth of Yellowstone.\nMay 4th Nothing new. Boyer talked with a Sioux in a Crow camp on his way up. The Sioux told him that the Sioux were collecting on Powder River to dance the \"Sun Dance\" after which they would come here.\nMay 5th Boyer is to go to Gallatin Valley tomorrow to send flour down.\nMay 6th Mr. Richard, accompanied by three men came in about daylight. They had come to the river at 2 a.m. The left Gallatin Valley 6 days ago. Mr. R comes as agt for Mr. Croon about supplying the posts with flour."
        },
        {
            "pageid": 105604,
            "pagefilename": "f6bf0be7fa5058f3e262ed74d3f4ab33.jpg",
            "pageorigfilename": "GR_4099-15_0022_o2.jpg",
            "transcription": "but they say that the indians who have them have gone hunting.\nApril 27 & 28th Nothing new.\n\n \"     29th   The Bear in the water brought up a package that one thought contained the official and officers mail, but it only contained some copies of \"Casey's Tactics\". \n\nApril 30th Mustered unclear\nMar 1st \"The dog that bats his eye\" brought in the package said to be the last one containing a few papers.\nMay 2nd Some Nes Perces came in stating that they left the mail party and Mitch Boyer and another white man on Tongue River and that they would be in today. A mail party of Three of Iron Bulls men went down to Phil Kearney"
        },
        {
            "pageid": 105605,
            "pagefilename": "142f809f3d83d543624edb2d90a629da.jpg",
            "pageorigfilename": "GR_4099-15_0023r_o2.jpg",
            "transcription": "21\n\nflowers in, in front of my house, but the bears and dogs seem determined to tear it up. The former think it a gay place to play in\nMay 10th Are preparing a mail and thought of sending it today but did not.\nMay 11th Started a large mail in charge of \"The Iron Bull\" and one young man. Just as they were starting it commenced raining and continued all day, blowing violently all the time. I  never saw such a disagreeable lonesome day. The mail carriers came back, as the mail was getting wet.\nMay 12th The mail started again, as the weather has cleared up nicely.\nMay 13th Lieut C. and the mounted men have been away all day up in the mountains"
        },
        {
            "pageid": 105606,
            "pagefilename": "597ec343e1153a33d82444e90813e7d5.jpg",
            "pageorigfilename": "GR_4099-15_0023_o2.jpg",
            "transcription": "Mr. C. and Mr. Bozeman started down some time ago, but these five Blackfeet boys came to them pretending to be Crows and after shaking hands shot Mr. B. and wounded Mr. C. The latter fought them three hours when they left him and he made his way home swimming the Yellowstone with his gun straped on his back. These Blackfeet live with the Crows and are now encamped within 15 miles of here.\nMay 7th Mr. R. , Boyer and another man started back about 3 P.M. Mr. R. says he will be back in 16 days with a train of eight wagons.\nMay 8th Are issuing corn to the troops as rations. They seem to like it pretty well.\nMar 9th Witnessed a fine buffalo chase on the other side of the river. Made a bed to put"
        },
        {
            "pageid": 105607,
            "pagefilename": "97ec83e4337d4d0ba9a682b6fd015950.jpg",
            "pageorigfilename": "GR_4099-15_0024r_o2.jpg",
            "transcription": "on the other side of the river.\nMay 16th The Col. took all the citizens strikers cooks &c and went up on the mountain and brought down the log that the Lt had cut for the flag staff. Two crows came in from the village. They say they know nothing of there being Arapahoes over on the road.\nMay 17th The camp was all astir just after daylight from seeing 6 men coming down the road from Phil Kearney. All supposed they were bringing a mail. They proved to be deserters from Ble 18th, the same ones that Genl W? sent us word about. They left P.K. on the 1st inst. and had been wandering around since, stoping 3 days in the Crow Camp. Soon 6 more came from"
        },
        {
            "pageid": 105608,
            "pagefilename": "5439be56feb4d0faa43a43b4b5f80c83.jpg",
            "pageorigfilename": "GR_4099-15_0024_o2.jpg",
            "transcription": "getting out a flag staff.\nMay 14th The Col took some men and went up in the Canon with the boat. They went up some 4 or 5 miles and came back in the evening. They could not find any timber that they could get. Killed a mountain sheep and brought it in.\nMay 15th A woman came in yesterday from the Bear's Tooth camp and says there were some young men started to come in here and were charged on by a large war party of Arrapahoes, who are on their way to watch the road between this and Virginia City. She says they took everything the boys had except their horses. She thinks that they had been hanging around the fort for several days as she saw horse tracks all over the prairie"
        },
        {
            "pageid": 105609,
            "pagefilename": "2166a38a0e0a6a1c0627199ef3f94080.jpg",
            "pageorigfilename": "GR_4099-15_0025r_o2.jpg",
            "transcription": "23\n\nthe 27th will stay on this line.\nMay 22nd Nothing new\nMay 23rd Three more deserters surrendered themselves up. They are from G\"leo\"? 18th and said two others came as far as Tongue River and then turned back. \nMay 24th Colonel and a party went up the river again in the boat, on an exploring expedition\nMay 25th The exploring party returned about noon completely tired out.\nMay 26th I had scarcely turned over the guard this morning when the cry of \"injuns\" was raised and 6 or 8 came dashing across the prairie from the Creek west of the fort. They passed within two hundred yds of the stockade, and passing down ran off Leighton's herd of mules and Shane's & the indians' horses. The herds were"
        },
        {
            "pageid": 105610,
            "pagefilename": "e22a9146eedb87061e557dfead486ca1.jpg",
            "pageorigfilename": "GR_4099-15_0025_o2.jpg",
            "transcription": "the same place, making up the full number of twelve.\n18th Nothing new.\nMay 19th Rained all last night and this morning it is snowing.\n\" 20th Continues to rain and snow.\n\" 21st Cleared up during the day\n\"The Iron Bull\" came back before sundown with a small snail? and some blanks. No tobacco. New is that Col Smith is on his way with recruits and Genl Augur is coming out with some 2000 men. Genl  Mes?? is retired at his own request, but is coming up here as soon as Col. Smith arrives with 4 cos of the 18th and one co of the 27th the latter to remain here and the others to return to PK. to be ready to go against the indians. It is probable that"
        },
        {
            "pageid": 105611,
            "pagefilename": "89e7a6948ad149ad1d838e141bb9e1e3.jpg",
            "pageorigfilename": "GR_4099-15_0026r_o2.jpg",
            "transcription": "the Crows who went out and talked with them say there were about 60 and a large party on Warm Creek of some 300 or 400. The \"Wolf Bow\" went out to try and get his horses back, but did not succeed. He started in the afternoon with 5 others saying they were going to steal others from their camps, but they are going to the village to beg them back.\nMay 27th, 28th, 29th & 30th nothing new.\nMay 31st Were inspected by the Post Commander.\nJune 1st Raised the flag staff.\n\" 2nd The Stars and Stripes were unfurled to the breeze today for the first time. The \"Long Horse\" and a number of Crows and \"Nes Perces\" came in to trade.\nNo sign of Richard yet."
        },
        {
            "pageid": 105612,
            "pagefilename": "b7b6405ecfd6d0fb6579e38b0ef77b71.jpg",
            "pageorigfilename": "GR_4099-15_0026_o2.jpg",
            "transcription": "not more than 200 yds from the fort, but before any soldiers could get out they were gone. I think Mr Leighton and two or three men that were in his house at the time could have saved them had they ran out and fired at the indians but they were so much taken by surprise that they didn't know what to do.\nThe mounted men followed them to the creek on the south east, but indians came running in from all sides and everything had the appearance of a general attack on the fort so they were recalled. Had they crossed the creek, I have no doubt most of them would have been killed. I counted 40 indians at one time but"
        },
        {
            "pageid": 105613,
            "pagefilename": "d1d28e3a213a51b59de269040ebe4403.jpg",
            "pageorigfilename": "GR_4099-15_0027r_o2.jpg",
            "transcription": "25\n\nbe in tomorrow about 10 a.m.\nJune 11th  The train arrived on time. They consist of 2 companies of 2nd Cav. Cmd. by Col. Green. 3 Companies of 18th Inf. Cmd by Captain Ogden and one company of the 24th Inf. (E). The latter remains here. Captain McCleery is along. They return tomorrow. Brought 7 wagons with Cav & 2 M supplies, and two wagons with Sutler supplies. A great carnival is being held by the men in tobacco and flour. \n\n   Col. Kinney & Bridges and Dr Matthewes intend returning with them.\n\nJune 12th The escort returned early this morning. Sent a Lieut back with the information that one of"
        },
        {
            "pageid": 105614,
            "pagefilename": "8522d517e57e04ba8804806da6382cdb.jpg",
            "pageorigfilename": "GR_4099-15_0027_o2.jpg",
            "transcription": "Teuksbury killed a mountain sheep and brought in the horns for me.\nJune 3rd Nothing new\n\n  \"  4th do  do\n  \"  5th do  do\n  \"  6th  The \"Yellow Face\" and some others came in bringing news that the \"Swan\" had been sent from Phil Kearney to bring the Crows down there to see the Commissioner. They also say that there is a pack train on the way to this place. That it left P.K. on the 4th. Can't believe the pack part of the story.\n\nJune 7th Nothing new\n\n \"   8th      do       do\n \"   9th No signs of the train\n \"  10th Al. Leighton rode in about 8 P.M bringing news that he left the train camped on \"Warm Creek; and that they will"
        },
        {
            "pageid": 105615,
            "pagefilename": "b12c840a2216c2db9f26629f7a222884.jpg",
            "pageorigfilename": "GR_4099-15_0028r_o2.jpg",
            "transcription": "26\n\nabout 150 bushels potatoes & purchased the flour, beans salt & pepper.\nJune 17th Richard started about 6 P.M. for Phil Kearney alone. Expects to get in about 10 am tomorrow\nJune 18th The militia and Richards train left this morning. It seems they have received authority to raise 800 militia. Every one seems to be trying to see how much he can make off the government in fitting them out. \nJune 19th, 20th 21st 22nd 23rd & 24th Nothing new.\nJune 25th About 4 P.M. twelve indians came down the river bank and passing the pickets came over graveyard hill and ran off the mule herd, which was grazing between there and the fort. The mules ran"
        },
        {
            "pageid": 105616,
            "pagefilename": "ce54c1227279b3eedfef624165da6df0.jpg",
            "pageorigfilename": "GR_4099-15_0028_o2.jpg",
            "transcription": "The cavalry had deserted. Caught him about 3 P.M. About noon Mitch Boyers came in saying he had left Richard on Clarks' Fork and that he would be in day after tomorrow. \nJune 13th nothing new\nJune 14th Richard came in. He is escorted by a company of Mountain Militia. They are a hard set, and although they have a Colonel, a Capt and two Lts, they dont mind any of them, but do just about as they please. The Major did not allow any of them to come on this side the river.\nJune 15th & 16th Rained.\n\n   \"   16th Richard crossed his supplies over including"
        },
        {
            "pageid": 105617,
            "pagefilename": "240ba2241910cb05182156714db71404.jpg",
            "pageorigfilename": "GR_4099-15_0029r_o2.jpg",
            "transcription": "27\nwith 20 mounted men and after chasing them 15 miles their horses gave out and they had to return.\nThe mules shouldn't have been out, without the mounted men being along, as a guard. This is first cause; and then the unfortunate circumstances that I have spoken of above are others. \nThe Crows were ordered away immediately.\nJune 26th Nothing new\n\" 27th  \"  \"\n\" 28th No word of Richard yet. \"The Black Foot\" came in today and says those four Blackfeet boys who killed Bozeman are still in the Crow camp."
        },
        {
            "pageid": 105618,
            "pagefilename": "f7b5f18c822e0e70b7b97bafa0876855.jpg",
            "pageorigfilename": "GR_4099-15_0029_o2.jpg",
            "transcription": "for the fort but they are said to have been headed off by some Crows, who were around, and who ran out whooping and yelling. They then ran around the south side of the fort all the time trying to get to the stables, but when they were within 100 yds of the Sutters some one was unfortunate to fire at the indians who had by this time left the herd. This shot frightened the mules away and three indians whirled and ran around them and away they went for good. 39 mules and one horse belonging to the government and 3 private horses were their spoils.\nLieut Counselman followed"
        },
        {
            "pageid": 105619,
            "pagefilename": "d2596e7f9501121081c1e143eda492e6.jpg",
            "pageorigfilename": "GR_4099-15_0030r_o2.jpg",
            "transcription": "march, having neither food nor arms.\nJuly 5th Nothing new.\n\" 6th Richard returned to Crow camp.\n\" 7th Some Crows cam in singing and firing off their guns about 10 P.M. I thought they were Crows until they came close to the stockade when they fired a gun the ball passing over us. We then fired on them, thinking they were Sioux. Had all the men out lying along the stockade.\nJuly 8th Eight or ten Crows came in this morning and said it was them that came up last night. They say/ the came near being killed by our firing. They have been after Snake horses, and say they killed an Arapahoe, who belonged to a party that they met.\nJuly 9th & 10th nothing new.\n\" 11th About 40 Crows came in from Crazy Head's camp. Richard, Raphael and a miner came along. They were afraid to stay any longer lest the"
        },
        {
            "pageid": 105620,
            "pagefilename": "6592dca3eb0ff52502054e2c45acdd82.jpg",
            "pageorigfilename": "GR_4099-15_0030_o2.jpg",
            "transcription": "June 29th & 30th Nothing new.\nJuly 1st Nineteen indians came out of the creek west of the fort about an hour after daylight and charged across south of the fort. I ran out and got two or three shots at them at long range, at the same time 10 more appeared on the bluffs to the S.E.\nJuly 2nd Nothing new\n\" 3rd Richard cam in. He has been employed by the U.S to stay in the Crow camp and watch their movements. The Crows have been to Phil Kearney and received some presents.\nJuly 4th I wonder when I will spend a 4th at Home, I have not done so for 5 years. One of our prisoners - a deserter made his escape this morning through the carelessness of the Corp. I sent some men out but they could not find him. Went out about 10am and had the good fortune to find him. He was poorly provided for a"
        },
        {
            "pageid": 105621,
            "pagefilename": "0b2280180d407f00965e805388948ee6.jpg",
            "pageorigfilename": "GR_4099-15_0031r_o2.jpg",
            "transcription": "The camp is only a few miles distant. It is something strange.\nJuly 15th Quite a number of Crows under Long Horse came in. They are very busy trading for tobacco and seem to be hiding something that they should tell. Towards evening \"The Swan\" called Richard aside and told him that the Crows were telling lies and hiding the truth. That there were 600 Sioux warriors in the Crow camp under Red Cloud Roman Nose &c: that they the Sioux were camped on the Little Horn. and numbered some 300 lodges: that they were going to send about 3000 or 4000 warriors to fight us within a few days. that they had sent a party to prevent reinforcements from coming up and expected to kill us all before they could push through, that he ran a risk of getting a floging and"
        },
        {
            "pageid": 105622,
            "pagefilename": "dd44cc08ef1cc6597c21460d03af1a17.jpg",
            "pageorigfilename": "GR_4099-15_0031_o2.jpg",
            "transcription": "Sioux jump them and kill them. They report that the Sioux are only about 40 miles from here: that they say they are coming in force to fight us, before any more troops can come up. The latter they say are near Fort Phil Kearney.\nJuly 12th Richard received the contract for putting up hay.\nthe indians left and numbers of young men are crossing from the camps on the other side of the river and going to Crazy Head's camp, as they expect the Sioux to attack them or run off their horses and they want to be as strong as possible.\nThe miner who came in left us as mail courier at dark.\nJuly 13th Indians Crows passing back and forward.\nJuly 14th Not an indian to be seen although it was a lovely day &"
        },
        {
            "pageid": 105623,
            "pagefilename": "8d210bf3ca4b5c2794b2b7c66872034b.jpg",
            "pageorigfilename": "GR_4099-15_0032r_o2.jpg",
            "transcription": "the Sioux and join them to fight the whites,. I am not afraid of all the Sioux, but I fear the Crows, as they know so much of our Post.\nJuly 19th Nothing new.\n\" 20th Mich Boyer and a man named Parker came in about 9P.M from Phil Kearney they left the train under Lieut Col & Bat Brig Genl Bradley at Goose Creek. He had unclear with him, but Mich's dispatches caused Genl Smith to send Major Gordon's company of cavalry to come with them.\nJuly 21st No Crows came in today\n\" 22nd Genl Bradley said he would be here today, but I don't look for him until tomorrow or next day.\nJuly 28rd The train came in sight about noon, and all got in before dark."
        },
        {
            "pageid": 105624,
            "pagefilename": "5502d268aed804ecb6e6bb677e2f458c.jpg",
            "pageorigfilename": "GR_4099-15_0032_o2.jpg",
            "transcription": "of having his horses all killed by telling these things such a law having been adopted by the Dog soldiers.\n16th The Crows all left this morning. At dark sent Boyer down as courier to Phil Kearney. Mr Jim Leighton accompanied him of his own accord. They expect to get through tomorrow forenoon sometime.\n17th The Iron Bull and White Mouth came in this afternoon. They give no satisfaction in public, but in private conversation the former confirms the story of \"The Swan\". A cold rain falling all day and night.\n18th Cleared up during the forenoon. There is evidently something going on in the Crow Camp, that they are not willing to tell. I am afraid they will get involved with"
        },
        {
            "pageid": 105625,
            "pagefilename": "7265b06c9d4aaa78227fd4fcf4718bc2.jpg",
            "pageorigfilename": "GR_4099-15_0033r_o2.jpg",
            "transcription": "erted from H.G last night.\n30th Nothing new.\n31st Very busy all day. Did not go to bed as Maj. Gordon expects to go away with the train about 2 am.\nAug 1st. About noon a large body of indians made their appearance around the hay field, where Lieut. Sternberg had gone as a guard to hay party on the 30th inst. Some of them came up this way and threatened the wood train coming in from the mountains. I ran out and got two or three shots at them with the new gun at long range, which caused them to pause in their mad career. they then all gathered around the hat party who were in a kind of bush corral, and fought them four or five hours, before we learned from a man"
        },
        {
            "pageid": 105626,
            "pagefilename": "1fe73a6bb0f7f6164305f488925c1218.jpg",
            "pageorigfilename": "GR_4099-15_0033_o2.jpg",
            "transcription": "There is Capt Hartz, Lieut Fenton, Lieut. McCauley Lieut. Palmer & Lt Sternberg, for this Post besides Gen; B. Alex. Wishert of Washington is a 2nd Lieut. in our Regt. Co. F. but is temporarily attached to the Cavalry Company. I tell you I was glad to see him. I had not seen any one that I know for the past year or more.\n24th Very busy.\n25th & 26th Ditto. Am to be relieved of duties in Subsistence Department by Lieut. Shirley. He has relieved Lt Counselman of Q. Master's duties.\n27th The Genl took the Cavalry and rode down the river several miles.\n28th Went the other direction and all are highly pleased with the scenery in the canõn.\n29th One Corpl & 5 privates des-"
        },
        {
            "pageid": 105627,
            "pagefilename": "be75f6c6038de7141c144b1535cf2af8.jpg",
            "pageorigfilename": "GR_4099-15_0034r_o2.jpg",
            "transcription": "charge, expecting to meet the captain and 2nd Lieut at Phil Kearney, who would bring them back.\nAug 2nd The citizen who was wounded died this afternoon Lieut S & the soldier were buried with military honors this P.M.\nAug 3rd Nothing stirring\nAug 4th The ox train came in sight about breakfast time and got in soon. Lieuts Hallack & Harwood G & D Cos with it - My Co. came back having relieved K. Co. who came from Phil Kearney with it.\nAug 5th The train was unloaded today and expects to start back tomorrow.\nAug 6th Train left at 5 P.M. Lieuts Watson & Palmer and E Company in charge."
        },
        {
            "pageid": 105628,
            "pagefilename": "9dd76f310889c3e9a35b757bfa1a6652.jpg",
            "pageorigfilename": "GR_4099-15_0034_o2.jpg",
            "transcription": "who ran the gauntlet, the true state of affairs. Lieut Shirley had gone out about the same time with 20 mounted men but was surrounded and driven back. Maj. Burrows then was sent out with his own company and H Co. & Lt Fenton and one howitzer. He relieved the party, who had been fighting all afternoon and had lost Lieut. S and one man killed, and one Sergt, two privates and one citizen wounded. 19 out of 22 mules had been shot but most of them will recover. They had killed about 25 indians, and took one scalp. No doubt they punished the indians severely as the? rode up very close, and seemed very reckless of life\nLieut Counselman left with the train D. Co. went in his"
        },
        {
            "pageid": 105629,
            "pagefilename": "b6323664d8c5b5072109e663545f1c20.jpg",
            "pageorigfilename": "GR_4099-15_0035r_o2.jpg",
            "transcription": "and started for the hayfield with the wagons. \nBefore they arrived about 60 indians charged on the rear wagon and some stragglers causing them to double quick into the corral. They then surrounded them but did not attempt to fight them. Lt F threw a shell among a group of them causing them to scatter very hastily. Some rode up towards the fort and Richard went out and talked with them. They asked him if he was Richard, and wanted him to go out and talk with them. Threw two shells at them and they moved away.\nAug 12th Nothing new.\n\" 13th Indians charged on the men mowing?morning? but were driven off without any trouble. They then followed the train up toward"
        },
        {
            "pageid": 105630,
            "pagefilename": "dc63665d4135d8a464542e6f4886cd5c.jpg",
            "pageorigfilename": "GR_4099-15_0035_o2.jpg",
            "transcription": "Lieut Fenton & 50 men have gone to the hay field, indians made their appearance in the afternoon and burned a good deal of grass.\n7th The grass still burning.\n8th Richard and two men came, in followed by his train of 6 wagons. They had a fight with 15 indians on the Rosebud and chased them 6 miles until they plunged into a very rocky, dangerous stream and made their escape.\nGovernor Meagher was drowned while drunk at Fort Benton N.Y.\n\nGov. Smith has arrived, the militia were encamped on 25 yd. River, and were in a fearful state of demoralization, and were leaving for home every day taking, horses, guns &c with them.\n\nAug 9th Richard crossed the river and went to the hayfield.\nAug 10th Nothing new.\n\" 11th \"The Black Foot\" came in"
        },
        {
            "pageid": 105631,
            "pagefilename": "e2be11edb72527192b6fb6fc2618f616.jpg",
            "pageorigfilename": "GR_4099-15_0036r_o2.jpg",
            "transcription": "Aug 23rd Ditto.\n\" 24th The Genl. Capt Hartz and myself with some mounted men joined by Richard Boyer and McKenzie went across the river at the lower ford for the purpose of looking for hay. As soon as we got on the plateau we saw herds of buffaloes, and made preparations to run them. Ran in among a herd and killed four. Richard, Boyer and McKenzie being the \"nimrods\". Came back loaded with meat. While fording at the ford just below the fort Sergt Murphy was drowned.\nAug 25th Read some in my bible.\nAug 26th Nothing new.\n\" 27th The hay party finished cutting hay, and moved up.\nAug 28th The train started for the woods in charge of Maj Burrows. Egan & Corpl Jackson were arrested and confined on a charge of"
        },
        {
            "pageid": 105632,
            "pagefilename": "6505165d3b598bd2d611ecaaa1f6db4b.jpg",
            "pageorigfilename": "GR_4099-15_0036_o2.jpg",
            "transcription": "the Post, but only fired one or two shots.\nAug 14th. Corporal Gorley , Ret's? Lee Johnson & Burk, left a few days ago and went up the river. I guess they found they could not cross the river and saw they were not joined by a number of others that they expected, so came back about 10 P.M.\nAug 15th Nothing new\n\" 16th \" \"\n\" 17th \" \"\n\" 18th Read a good deal in the Bible. It is strange that although I have read the bible a great deal yet I can find things in it every day that I had no idea were in it and I then think strange I did not notice them before.\nAug 19th Nothing new.\n\" 20th \" \"\n\" 21st Privates Burns, C. Campbell & Thomas deserted. Cause - too hard work for the pay -\nAug 22nd Nothing new"
        },
        {
            "pageid": 105633,
            "pagefilename": "27ca63d53ce46f6ce74ec7e235d0c030.jpg",
            "pageorigfilename": "GR_4099-15_0037r_o2.jpg",
            "transcription": "35\nsome fine scenery.\nAug 30th Nothing new, except that Jack Steed and Raphael came in about 3 am having left Lieut Watson and a large train last evening on Little Horn. Steed had come from Phil Kearney with dispatches to the effect that all indians were wanted at Fort Laramie during the full moon of this month. Received a few letters by him. They had a fight at Phil. Kearney between about 1000 indians and 30 of a wood party. Lieut James? Jeuness? & 2 men killed and 2 wounded and 3 missing. Five indians left dead on the field.\nAug 31st Muster &c inspection.\nLieut Halleck, Harwood & Shirley and the mounted men rode out and met the train and brought in the mail.\nSept 1st Read in the Bible. Part of the train got in."
        },
        {
            "pageid": 105634,
            "pagefilename": "a5fc6914debcf2d9d2c28b5a79793617.jpg",
            "pageorigfilename": "GR_4099-15_0037_o2.jpg",
            "transcription": "intention to desert. Circumstance strong against them but no positive proof. The bear followed the wood party to the timber 7 miles distant and when they came away he could not be found. I am very sorry as he was a great pet.\nAug 29th Jack Steed came at 3 am with dispatches from Phil Kearney, directing the Genl to send word to all indians to go to Laramie in Sept, to hold a treaty,. Started Boyer & Lanie Richard to the Crow Camp and from there to the Sioux. The bear came in about 6 am on a gallop. Seemed to be glad to get back. Went with the Genl. and a few men up on the mountain ten miles. Saw one antelope and"
        },
        {
            "pageid": 105635,
            "pagefilename": "4f2348e237e0c3f096c11a6a68e6d6fa.jpg",
            "pageorigfilename": "GR_4099-15_0038r_o2.jpg",
            "transcription": "36 \nabout a doz of the principal Crows with them, and on the 11th the Col talked with them and invited them to attend the treaty at Laramie, but they declined on account of this being too far.\nSept 13th The rest of the train that Maj G. had left on Little Horn, escorted by Bat Col. Switzer & three Cos. of 2nd Cav came in. They have a train of fifty wagons. The cav have been ordered here for the purpose of scouting along the road and securing the safety of the trains. The officers are in addition to those mentioned. Maj. Noyes? Capt Spaulding, & Lieuts Gregg, Cahill & Steele. Rode out & met them and got plenty of the finest plums.\nSept 14th The Q.M & Alex busy unloading stores."
        },
        {
            "pageid": 105636,
            "pagefilename": "4bc6c516812e6e341cbf6d6d64fdc322.jpg",
            "pageorigfilename": "GR_4099-15_0038_o2.jpg",
            "transcription": "Sept 2nd All the train arrived safely. Lieut Watson had been sent to Fort Reno. with the train he took down. He lost one Corporal between Phil Kearney & Reno.\nSept 3rd 4th 5th 6th Nothing new.\n\" 7th Maj. B. detailed to go to Phil Kearney. Does not seem to relish it very much.\nSept 8th, train escorted by G. Co. started about 5 am.\nSept 9th 10th & 11th Nothing new.\nSept 12th Was somewhat surprised to see a small train come over the hill from the direction of Phil Kearney. Proved to be Maj. Gordon and his company escorting Dr Matthewes who comes as Special Agent of the Peace Commission. He comes from the grand Com. to treat with the Crows. I forgot to say that Boyer, Babtiste & Louis Richard came back on the 10th bringing"
        },
        {
            "pageid": 105637,
            "pagefilename": "86b8c25338e233d5214bc5c5dadff8e0.jpg",
            "pageorigfilename": "GR_4099-15_0039r_o2.jpg",
            "transcription": "37 \nSept 20th The Iron Bull's wife and another woman came in. They say the camp has been close all the time but that soldiers would not let them come in, and that they had stolen away. They also say that there will be some soldiers in tomorrow.\nSept 21st Some Crows under the \"Long Horse\" came in: and had a talk with the Dr. He talked so saucy that he was told to keep quiet. He immediately jumped up and left the council, taking all with him.\nSept 22nd The indians left in the afternoon and took Gooley with them.\nSept 23. Hurley & Burk deserted from the picket post at the hay stacks last night taking with them one government horse & mule, and one pony belonging to the indians"
        },
        {
            "pageid": 105638,
            "pagefilename": "9c807029fe92df705bf2e1a9418310f6.jpg",
            "pageorigfilename": "GR_4099-15_0039_o2.jpg",
            "transcription": "Sept 15th Read in the Bible & the \"Golden Treasury\".\nSept 16th We are planning an excursion to the cãnon to camp out all night. Thousands of buffaloes on the prairies on the other side of the river.\nSept 17th intended to start to the cãnon this morning but the officers of the Cav. thought it was too cold.\nSept 18th The cav. left about noon for Phil Kearney. Major Burrows brought his Comp back from Phil K. arriving last night. Came through in three days & a half. Ten days since he left here.\n19th Sept. The weather is pretty cool: had rain on night of the 17th, but we are not having such disagreeable weather as we did this time last year."
        },
        {
            "pageid": 105639,
            "pagefilename": "b5ebd9dc22b1f8df4747b83a82264d3b.jpg",
            "pageorigfilename": "GR_4099-15_0040r_o2.jpg",
            "transcription": "Sept 25th Genl B Lieut Harwood, Dr Matthews, a few mounted men and myself went down to the Crow camp. Found them below \"unclear creek about 15 miles from the Fort. Most of the village was moving up towards the fort, so that we met them. As I had been in their camps before it was nothing new for me, but there were many things to interest a person. One is surprised at the beauty of some of the children, especially the little boys. They are busy now making new lodges, and have great quantities of plums, and buffalo berries in process of drying. The \"Shot int he face invited us into his lodge, and gave us some plums and talked away for a while. After staying about an hour we came back having been away about seven hours."
        },
        {
            "pageid": 105640,
            "pagefilename": "d589be122f9c03a3753e23c493246585.jpg",
            "pageorigfilename": "GR_4099-15_0040_o2.jpg",
            "transcription": "The General sent Iron Bull and another indian after them and found them on the road to Va City; they coaxed them to go to the Crow camp and then took them prisoners, and brought them in, and left them on the river bank. They took advantage of the circumstance and hid themselves. A vigorous search failed to find them. Hurley came in at taps and Burk next morning. The \"Long Horse\" brought in Gooley & Bravo of E Co. who were in the camp.\nSept. 24th The Iron Bull was hired at $100 per month to carry a mail twice a month to Phil K. He and his family expect to live here this winter. I am much afraid that from what \"Blackfoot\" says John Richard has been killed."
        },
        {
            "pageid": 105641,
            "pagefilename": "2f6754084b403c966e903473c4a58340.jpg",
            "pageorigfilename": "GR_4099-15_0041r_o2.jpg",
            "transcription": "39\n-tain militia, whose murdering and robbing in the most reckless manner. In a few hours Lieut Fenton, and 36 men with one howitzer were on the way, infantry in wagons.\nSept 30th Battalion Inspection at 6.30 am.\nOct 1st Commenced my Co. Barracks, so far as laying them out are concerned, and also hauled some stone, sand and lime. The indian couriers started with mail for Phil. Kearney at dark last evening.\nOct 2nd Commenced digging the foundation for the barracks. They are to be 30 feet wide which is six feet wider than those of the other companies.\nOct 3rd Laying stone for foundation.\nOct 4th Richard's train came in"
        },
        {
            "pageid": 105642,
            "pagefilename": "2183e99c69403f570478fdb672b91728.jpg",
            "pageorigfilename": "GR_4099-15_0041_o2.jpg",
            "transcription": "Sept 26th The remainder of the Crows moved up, camping near the Post. In the afternoon the Dr had a talk with the principal men, telling them that as he saw a disposition among them to split up into small bands he would advise them to all keep together and cross the river. They seemed in a better humor than they have been for some time.\nSept 27th All the Crows except The Iron Bull & family crossed the river and are heading for Clarks Fork.\nSept 28th Nothing new\n\" 29th Richard and another man came in about guard mounting. They came for assistance, their train of ten wagons, loaded with vegetables &c &c being threatened with capture by 100 disbanded mon-"
        },
        {
            "pageid": 105643,
            "pagefilename": "5b4b58b86f77bcedf5a56ee0d62b1189.jpg",
            "pageorigfilename": "GR_4099-15_0042r_o2.jpg",
            "transcription": "40\n\nconclusion that it could not be gotten down until the river would raise.\nOct 8th & 9th Nothing new.\n\n \"  10th About 15 lodges of Crows came in under Bear's Tooth. While mouth & Blackfoot & Crazy Head, \n\nOct 11th The Dr had a talk with them and gave them quite a lot of supplies.\nOct 12th Indians still here. Some have agreed to go to Laramie and Dr. M. starts tomorrow with them.\nOct 13th The Dr started about 10 a.m. taking sergt Pendergest and 15 men as escort. A band of 45 Cheyennes & Arapahoes are over the river about 12 miles. supposed to be watching for the horses of the militia who cam down and we camped close to the river.\nLee and Wm Smith deserted at 3 am yesterday but Sergt Twasmegarr and four men after them and got them 10 miles on the way to mon"
        },
        {
            "pageid": 105644,
            "pagefilename": "2c8a96f6ce292c826ad4267db1cb0229.jpg",
            "pageorigfilename": "GR_4099-15_0042_o2.jpg",
            "transcription": "in all night not having seen any of the militia. \n\n   I rode across the river in among the bluffs looking for plums but there were but few as the indians had passed that way and had gathered them all up.\n\nOct 5th Rode out with the General and some others on the Phil Kearney road and found plenty of plums but they were not ripe. Met the mail courier with a large mail for our Post\nOct 6th Read in different of the books sent in my box.\nOct 7th Richard started for the mountains to haul in timber for saw mill. McKenzie and two men came down the river in a boat to see how their timber that they had  thrown in, was coming on. Found it lodged and came with"
        },
        {
            "pageid": 105645,
            "pagefilename": "eabd95d4d7ed9204f2dc9c31525879b8.jpg",
            "pageorigfilename": "GR_4099-15_0043r_o2.jpg",
            "transcription": "41\n\nbelonging to gov. besides some private property. Two men came in and reported the state of the case. when the Genl sent \"E\" amd \"I\" cos out to bring in the train which they did about 1 am. They found the train all in corral the indians having abandoned the wagons as soon as they had taken all they wanted. \nOct. 17th 18th been windy for past three days ending up with a rain and snow storm during the night \nOct 19th Pleasant\n\n \"   20th        \"      Read in the Bible\n\nOct 21st Genl. B. Lieuts Luther Harwood Matson & myself Col Smith. Dr Thatcher (who is a new asst Surgeon come to relieve Dr Gusdorff) and enough men to make 14 of a party and Teuksberry as guide"
        },
        {
            "pageid": 105646,
            "pagefilename": "8051d46c79797cd24b2fd9b027f520e6.jpg",
            "pageorigfilename": "GR_4099-15_0043_o2.jpg",
            "transcription": "Mr Story & Mr McAdow left for the valley yesterday, having taken contracts for vegetables & chopped wheat. Read in the Bible. and other books\nOct 14th Nothing new.\n\n  \"   15th Some Crows came in and bring a report that the Crows had killed a party of 13 Blackfeet, who came to steal horses.\n\nOct 16th A train of 100 wagons under charge of Bot St Col Smith, and with detachments of the 27th 18th & 4th Inf muster Lieuts Wishert 27th & Luther 18th came in. They left about one half of the train back with 20 men as guard. and about dark that portion was attacked by indians and the two rear wagons captured and plundered. They are evil to have taken 35 sacks of corn and one bundle of shovels"
        },
        {
            "pageid": 105647,
            "pagefilename": "32d2a2d7d58ace135ebe2d91b8c947a3.jpg",
            "pageorigfilename": "GR_4099-15_0044r_o2.jpg",
            "transcription": "clear stream at the bottom of the cañon. but they did not get a bite.  After resting an hour or so, we started back, and while ascending my horse steped on a slippery rock and lost his footing and was going down when I caught a saplin and pulled him and myself unclear into the path again. Started after two bears (an old one and a cub) when we had reached the top. Harwood chased the old one and headed it off but the bear made for him and as his revolver missed fire he had to retreat. Teuksberry killed the cub. and as his horse got away while he was dressing it he stuck his gun up with his coat on it, and says that will keep the wolves from touching the carcass. Arrived in camp after a ride of nearly 40 miles at 6 p.m."
        },
        {
            "pageid": 105648,
            "pagefilename": "91fb1c155371d27e459652aff5dfa98e.jpg",
            "pageorigfilename": "GR_4099-15_0044_o2.jpg",
            "transcription": "visited the cañon. We entered by a gulch about 12 miles from the Post. winding down one of the narrowest and steepest paths I ever saw. The scenery was grand. There were about 4 inches of snow on the ground and the dark pine tree tops were covered with it looking very fine. One of the men was leading his horse down when, the horse steped on a stone, which threw him off the path and he rolled about 60 yards down into rivulet at the bottom of the gulch. He was not hurt much. As soon as we got down had lunch & while preparing it Col T Shot a large rattlesnake having 13 rattles and a button on his tail. After lunch the Genl. & the Col. went fishing for trout in a very fine little"
        },
        {
            "pageid": 105649,
            "pagefilename": "3ea126fef2fc03d2aec1ea66a10a41b7.jpg",
            "pageorigfilename": "GR_4099-15_0045r_o2.jpg",
            "transcription": "43\n\nOct 25. Lieut Hallick rode out to Warm Creek for the mail but found there was nothing there except a few letters from Phil. Kearney.\nOct 26th The train of 26 wagons* arrived escorted by Sergt Pendergast & 15 men. On Tongue River he saw about 300 Sioux, who were the party on the way to the Snakes. They sent a Crow in to tell the Sergeant to not be afraid but to move along in safety, as they were not going to trouble him.\nOct 27th Train all unloaded and leaves tomorrow, under charge of Lieut Shirley & detail of forty men from different companies. About 8 am. a train is reported on the hill. Get ready to ride out to meet it thinking it is the government train looked for. Have gone"
        },
        {
            "pageid": 105650,
            "pagefilename": "bda10001b83988ecb67d9837f63d812b.jpg",
            "pageorigfilename": "GR_4099-15_0045_o2.jpg",
            "transcription": "Oct 22 A fine warm day. The train pulled out, taking all the militia with them.\nOct 23rd The \"White Forehead\" who was sent by Dr Matthews to the Sioux Camp came back and reports: that the Sioux Cheyennes & Arapahoes are camped near the road. That The Red Cloud with 20 lodges is the only one for war. That Charlie Richard had come up from Laramie and taken a great many Sioux down with him. That a war party of Sioux Cheyennes, Arapahoes and Crows had started to war against the Snakes. That \"The war this is afraid of his horses says they will not send out any more war parties against the whites until they hear from Laramie. He also reports Sergt. Pendergest near the Post with a train.\nOct 24th nothing new"
        },
        {
            "pageid": 105651,
            "pagefilename": "b9224fde24e1726acc01c53323c92935.jpg",
            "pageorigfilename": "GR_4099-15_0046r_o2.jpg",
            "transcription": "44\n\nTroops were paid after muster. Had my Co. books inspected by Col. Merrill. He paid me a very good compliment on my business in general. Lieuts Cahill & Steel came up with a drove of cattle for the Commissary.\nThe Inspectors and Paymaster all pulled out on the Creek (Kinney's Fork) intending to make an early start in the morning.\nNov 1st and 2nd Nothing new. The mountains are covered with snow and there is a little in the valley but it will not remain long.\nNov 3rd I am 26 years old today, if all reports are correct. I begin to feel as if I was getting old. \nNov 4th The court martial which had adjourned from the 30th unclear of which I am J.A. met today and tried the men.\nNov 5th. Court in session"
        },
        {
            "pageid": 105652,
            "pagefilename": "053332cc3acb7cbd0ff78c13f765a595.jpg",
            "pageorigfilename": "GR_4099-15_0046_o2.jpg",
            "transcription": "but a short distance when we meet Col. Merrill, Major Cushing, Major Grimes, Capt Comly & Jim Leighton. These officers belong to Genl Augur's Staff and are on an inspecting tour. They are escorted by two cos of 2nd Cav. under Col Green, Lieut Tranless & Norton are along also Major Clark, the Paymaster. Leighton's goods will be along in about ten days. They have a large mail. The largest ever received at the Post.\nOct 28th Rode down to Camp & received my Pay. Had my Adjutants books inspected.\nOct 29th Nothing new.\n\n  \" 30th Col Green and a party rode up on a visit to the canõn.\n\nOct 31st Inspection & muster in the morning. It was a most disagreeable, dusty windy day."
        },
        {
            "pageid": 105653,
            "pagefilename": "03c21d81d78c0ffc7ac78986f7c9c4f0.jpg",
            "pageorigfilename": "GR_4099-15_0047r_o2.jpg",
            "transcription": "45 \n\ndistant, yet as Genl Smith says, they had not enterprise enough to find out what was going on, but said they thought the indians were killing buffaloes. The Cavalry were sent out and found Lieut S had had quite a battle. That underline he end underline was wounded. Pvt Partenheimer G. Co. Killed. Corpls. Donnelly H. & Fitzgerald I. wounded, the first since dead, and two or three wagons lost. One a U.S wagon with mens' blankets & mail & the other a sutler wagon belonging to Leighton.\nNov 9th The court was not in session today. Maj Gordon is now in charge of the train. Lieut S having been taken back to Phil K. He had a painful wound through the foot, shot clear through with an arrow.\nNov 10th Read in the Bible. Maj Gordon is reported within ten miles of here."
        },
        {
            "pageid": 105654,
            "pagefilename": "affbabe5ba8a728a94517a8a44497dba.jpg",
            "pageorigfilename": "GR_4099-15_0047_o2.jpg",
            "transcription": "Nov 6th. The weather was so unpleasant that the court could not hold its sessions today.\nNov 7th & 8th The court in session until noon of the 8th. The indian boys came in with a mail. \n\n  They bring news that Lt MC?? started from Phil Kearney with a obscured train with instructions to exchange with any one he might meet. He was corraled 6 miles from the Fort and kept there until relieved by Genl Smith and sent on. Met Lieut Shirley four miles further on and after exchanging trains returned to the Post. In a day or two Shirley sent them word that he had been attacked. Cols Green & Merrill had just arrived & had heard the firing as they passed the train on the other or new road, and were only a few mls"
        },
        {
            "pageid": 105655,
            "pagefilename": "50ef07ac7d158640551ad6acd091cb45.jpg",
            "pageorigfilename": "GR_4099-15_0048r_o2.jpg",
            "transcription": "45\n\nFive of them crossed the river and made for Teuksbury's scratch out? wagons that were over there after hay but 3 or four men went across from this side and they kept at a good distance.\n19th Mr Story's train of 28 wagons came in from the valley loaded with potatoes. McAdow's train of 12 wagons will be in tomorrow. They have not been troubled by indians.\n20th Mr McAdows train arrived all right about midnight. Story's train crossed the river and commenced unloading.\n21st 22nd Nothing new\n23rd The mail couriers came back with the news that that Maj. Bust was going to camp on Warm Creek tonight; that he had recruits and about 25 wagons. Maj sent a letter in which he said they were somewhat demoralized. & that he would like to see some"
        },
        {
            "pageid": 105656,
            "pagefilename": "be53b25235e889f3dd56c7360198728d.jpg",
            "pageorigfilename": "GR_4099-15_0048_o2.jpg",
            "transcription": "Nov 11th Proceeded with the court.\n\" 12th Major G. came in with the train.\nNov 13th Finished up the court, having tried 14 cases. Lieut. Belden is along with the train. He is Maj. G's 2nd Lt. Leighton's loss is about $15000.00\nNov 14th Major G. left with the train.\n\" 15th There are rumors that there are six white men in the Crow camp who are bringing news that Richard, Dr M. & party are at Phil K. on their way back. I don't believe it.\n16th Charlie Smith came in with three or four men. They say they heard that Dr M. was on his way back,\n17th We have the finest weather.\n18th About 40 Sioux charged up from below the Crow camp, which is in the timber below the Post, i.e. 40 lodges under \"Thin Belly,\" and ran around trying to get some stock., but did not succeed.."
        },
        {
            "pageid": 105657,
            "pagefilename": "9b14d67b556fc9f51eccadaa4e00d6a5.jpg",
            "pageorigfilename": "GR_4099-15_0049r_o2.jpg",
            "transcription": "47\n\nserving at Phil Kearney.\n29th Nothing new\n30th Inspection although it was very cold\nDec 1st Nothing new\n\n 2nd & 3rd \"     \"\n  4th Lt Matson & Mr Harwood went out a few days ago and killed 7 deer bringing in 6 and going for the 7th next day.\n  5th Mail couriers that left on the 2nd arrived at Retreat?. Maj Gordon had gone to relieve a train that had been corraled at Crazy Woman's Fork for three days. The escort had lost 2 killed and four wounded. Capt Harding has been retired on one years pay & allowances; to date Oct 19th but as the rumor is that Lt Stearns has been re instated I may not receive any promotion.\n\n6 7 & 8 Nothing new.\n9th A Crow came in from hunting and said a party of Sioux had surrounded"
        },
        {
            "pageid": 105658,
            "pagefilename": "2e2030563f1ca6baff7597d7e406c1dd.jpg",
            "pageorigfilename": "GR_4099-15_0049_o2.jpg",
            "transcription": "of the old troops.\nNov. 25th Capt Hartz with \"I\" Co. was sent out to meet the Maj. Met him on the big hill The party consists of Maj B's wife and two children & Miss Reynolds -- Mrs B's sister -- Lt Miller and wife. Dr Frantz -- and 88 recruits that have been culled at Phil Kearney. Their arrival causes quite a stir among the bachelors, as they have to move out of their new quarters.\n26th I received 17 recruits in D. Co.\n27th Nothing new\n28th Snowed about 3 inches last night. Capt Hartz and comp escorts train to Phil K. Lieuts McCaullay and Palmer accompany it having been promoted to 1st Lieuts unclear in Cos"
        },
        {
            "pageid": 105659,
            "pagefilename": "88a84e763507057e1c1bd8b3d7fc8a80.jpg",
            "pageorigfilename": "GR_4099-15_0050r_o2.jpg",
            "transcription": "48\n\nP.K. for the presents that the Dr is bringing for the Crows. Smith has located at North Platte and is not coming up here.\n14th H Co. under Fenton detailed as escort, Richard talked of starting today but did not get ready. Started the indians for the mail said to be with Dr M. and sent a small mail with them. Maj Burrows has authority to go to Omaha where he will receive 30 days leave. Expects to go with this train. \n15th Nothing new.\n16th Train started 7 a.m.\n17th   \"     returned 11 a.m. Say the snow is too deep.\n18th  N. N. 19th mail couriers returned but only a few letters with them\nWishnot is Bot Capt.\n20th 21st Nothing new\n22 23         Ditto.\n24th Sergt Schwarmegar & ten men went out yesterday and soon"
        },
        {
            "pageid": 105660,
            "pagefilename": "d84833b91d47d8db82bf26d8edc47265.jpg",
            "pageorigfilename": "GR_4099-15_0050_o2.jpg",
            "transcription": "him about 4 miles south of the Fort and had threatened to take his horse from him. He had a horse belonging to Charlie Smith & told them they would have to kill him to get it. They struck him over the head inflicting a wound and he says he returned the stroke breaking the stock of his gun. He brought in a horse belonging to an old man who has been living at about this place. Trapping. I am afraid there's some mystery connected with this.\n10th Some indians came in who say they are come to take The Iron Bull away with them as he is slightly unwell and they are afraid he will die here\n11th The Iron Bull would not go with his friends, but remained here.\n12th Nothing new.\n13th Richard and a small party rode in from Phil Kearney. R left Dr Matthews & party at Reno & came on to get wagons to go to"
        },
        {
            "pageid": 105661,
            "pagefilename": "df55f6d80101cb6b0b06a85591d629f5.jpg",
            "pageorigfilename": "GR_4099-15_0051r_o2.jpg",
            "transcription": "49\n\nNewspaper clipping\nAGED INDIAN DIES.\nFERNANDINA, Fla., (AP)\nDeath of Jimmy Drummond, 107-year-old Seminole Indian and veteran of the civil war, marked the passing of the last of a hostile tribe of red men that once inhabited Amelia island."
        },
        {
            "pageid": 105662,
            "pagefilename": "1da0fd0cf2b159a133c330cb770550ed.jpg",
            "pageorigfilename": "GR_4099-15_0051_o2.jpg",
            "transcription": "came back with a fine deer \n25th Had quite a fine dinner in the company, consisting of roast venison, soup, vegetables &c &c.\n26th Nothing new.\n27th Capt Hartz & I. Co. returned from Phil. Kearney. No mail.\n28th Sent mail couriers for the mail expected at Phil Kearney.\n29th & 30th Nothing new.\n31st Troops mustered and inspected by Gener Bradley. Here ends another year. I wonder where and who I will be this time next year\n94 pp"
        },
        {
            "pageid": 105663,
            "pagefilename": "29cb72d8329436934f548827bf5b83b9.jpg",
            "pageorigfilename": "GR_4099-15_0053_o2.jpg",
            "transcription": "[Back cover - appears to be brown leather]"
        }
    ]
}