{
    "id": "1402",
    "cataloglink": "https://archives.newberry.org/repositories/2/resources/6",
    "pages": [
        {
            "pageid": 121273,
            "pagefilename": "4919fffeb63613205e44452c921f11b6.jpg",
            "pageorigfilename": "992747888805867_midwest_ms_anderson_box_00001_fl_00002_000002.jpg",
            "transcription": "crossed out  2  As you know I am writing to lay before you a plan to increase the social value of the country papers\n2)\nI want to get at a typical case of sorts. It should be emphasized that I bought two papers, not one.\n1)\n\nI have talked to you of my plan to call attention to their field. I think these country papers might be made a real cultural influence, a force for decency. I want to start some\n\npropoganda to this end. I have unclear any  plans for doing this. I want to tell you also, rather in detail, of my own experience,"
        },
        {
            "pageid": 121274,
            "pagefilename": "e5340f7888958a3e82ad3f079637c339.jpg",
            "pageorigfilename": "992747888805867_midwest_ms_anderson_box_00001_fl_00002_000006.jpg",
            "transcription": "The weekly is handed about from neighbor to neighbor.   Subscribers, after reading, mail it to relatives."
        },
        {
            "pageid": 121275,
            "pagefilename": "4d7b1b76e57d94fd6a83e7a66e89c5d9.jpg",
            "pageorigfilename": "992747888805867_midwest_ms_anderson_box_00001_fl_00002_000013.jpg",
            "transcription": "11\nestablished and a well organized propaganda began to show young men and women the possibilities of this field.\n\nI have myself done what I can in this matter. Already a good many young men write to me [ crossed out:  [about the matter. If not myself -]]  Some man I heard begin going about and lecturing on the subject in schools and colleges calling attention to the country newspaper field as a possibility.\n Those who are already in should be encouraged. It is ?2 unclear words? of your Mr  Alexander  to go to a state meeting of those country editors.  As you will see by the attached article on this subject I believe that crossed out the country papers have in so many cases got into the hands of second"
        },
        {
            "pageid": 121276,
            "pagefilename": "8feec9930b020cfec4af9ab141a3faa8.jpg",
            "pageorigfilename": "992747888805867_midwest_ms_anderson_box_00001_fl_00002_000014.jpg",
            "transcription": "12\nrate men because of the city ? movement that they for so  long a time drained off the brighter young men and women.\n\n There are however young men and women already in the field and they like the work.\n However they feel isolated. They should be brought together in some sort of spiritual cause.   I myself think two things should be done, first pecuniary and ? wants provided\n\nand to get better men and women into the field, ensuring its ? and then all of  the men and women now are made to feel they are a part of  some thing.\n\n The whole thing should be built on broad cultural"
        },
        {
            "pageid": 121277,
            "pagefilename": "dcb008d55a5cd0c2e842d0c7cd000e90.jpg",
            "pageorigfilename": "992747888805867_midwest_ms_anderson_box_00001_fl_00002_000015.jpg",
            "transcription": "13\nlines, as force for discovery - a possible force for discovery being developed."
        },
        {
            "pageid": 121278,
            "pagefilename": "4d335aab9337d71c41333d99f28ddaec.jpg",
            "pageorigfilename": "992747888805867_midwest_ms_anderson_box_00001_fl_00009_000001.jpg",
            "transcription": "[[[letterhead]]    THE ROYALTON     44 West Forty Fourth Street   NEW YORK\nFeb 2  40\nDear Florence V Anderson -\n\n Your letter delighted me. Now you must arrange that I have a photograph of the Maine Sherwood  to hang in my Virginia house.\n I am taking the liberty of sending one for him - a fair trade.   I will be at the above address until spring.  In the summer\n\nI live in the Mountains of Southwest Virginia.  My best to Thenas?\n\n   Sherwood Anderson\n\nsymbol of NY World's Fair  footnote to letterhead \"Visit the World's Fair - New York\""
        },
        {
            "pageid": 121279,
            "pagefilename": "3aacc10de38b4a3aa296175c5ec17016.jpg",
            "pageorigfilename": "992747888805867_midwest_ms_anderson_box_00001_fl_00010_000001.jpg",
            "transcription": "letterhead  THE ROYALTON   44 West Forty Fourth Street   New York\n\n\n    Nov - 26  - 40\n\nDear Reverend Anderson\n\n The boys sometimes called me Andy. However the name given me, in my Ohio town\n\nwhen I was a boy and by which I was almost altogether known until\nI grew up and left the town was Jobby.\n\n I presume it was because I was always after any job that came up in the town.\n Good fortune to you  I was delighted to get your letter.\n             Sherwood Anderson\n\nsymbol of NY World's Fair  footnote to letterhead  \"Visit the New York World's Fair in 1940\""
        },
        {
            "pageid": 121280,
            "pagefilename": "2c5589c82e3634eb2508dab1c4b8374a.jpg",
            "pageorigfilename": "992747888805867_midwest_ms_anderson_box_00001_fl_00013_000001.jpg",
            "transcription": "E?  Apr 25, 1932 in pencil\nDear Valenti Angelo\n\n There is more I wanted to say to you. I think their notion - of going to the factories for more ? experiences is so much the word? of the future.\n I had the conception myself, long ago and tried to express it in Machinery Men  but later got swept aside from it.  I had some success.  Perhaps that poisoned me.\n The pictures and the?  must be the new road.\n I think artists in all fields must follow this  road now and am very happy that your foot is in the stirrup.  Keep it there now. Keep exclusively your own close contact \n\nwith men  at work in factories and the machines they handle"
        },
        {
            "pageid": 121281,
            "pagefilename": "5c84773fca4b869f204ee46dc821f4c1.jpg",
            "pageorigfilename": "992747888805867_midwest_ms_anderson_box_00001_fl_00013_000002.jpg",
            "transcription": "2\nman. It is the way of the  new man.\n\n There is something personal. There is a woman here with whom I am in love.\n\nIt is not known that I am in love with her. She is a working woman, concerned\nnow with women and girls in factories. At present she has  a job in the industrial\ndepartment of a philanthropic organization. She is about 35, rather small and\ndark, with a big head, like your own child and with eyes like your child.  I would\nlike to have a head made of her, for a present to her old father and mother. Would\nit be possible. How much would it cost? How much time would it be likely to take?"
        },
        {
            "pageid": 121282,
            "pagefilename": "628d3a375eba2daaa8b50ee2f7dc0adc.jpg",
            "pageorigfilename": "992747888805867_midwest_ms_anderson_box_00001_fl_00013_000003.jpg",
            "transcription": "3\nI have to ask because she does not have much time away from her work.\n\n I am particularly anxious not to have talk about my being in love with her\n It might actually cause her to lose her job -\n We will be married later but I dont want that known either.\n   When a man becomes a little what is called famous there are too many \n\nwho dabble in his personal life.\n\n Anyway I would like to have you see her and see how you feel about\n\ntrying to make a head of her.\n\n   Sincerely\n   Sherwood Anderson"
        },
        {
            "pageid": 121283,
            "pagefilename": "57421248280aa73c707b0b358b9ad222.jpg",
            "pageorigfilename": "992747888805867_midwest_ms_anderson_box_00001_fl_00013_000009.jpg",
            "transcription": "Dear Angelo\n\n Eleanor & I are married and living for the winter in New York at 56 Washington Mews.*\n When you get here drop me a line \n\nhave to L & G.\n\n Sherwood Anderson\n\n* a private street"
        },
        {
            "pageid": 121284,
            "pagefilename": "aad36fdf89c5b957b032304ca481c1f1.jpg",
            "pageorigfilename": "992747888805867_midwest_ms_anderson_box_00001_fl_00013_000011.jpg",
            "transcription": "Dear Valenti .\n\n I just got back to New York, after an absence and got the \n\nannouncement of yours then. Unfortunately I have to go to\nWest Virginia tonight.\n\nI'll be back before the show closes.  I'm anxious to see it.\n  Sincerely\n Sherwood Anderson"
        },
        {
            "pageid": 121285,
            "pagefilename": "dbeb0c06e18bb676a9a87be98fa08af5.jpg",
            "pageorigfilename": "992747888805867_midwest_ms_anderson_box_00001_fl_00017_000001.jpg",
            "transcription": "letterhead  Ripshin Farm  Troutdale, VA.\nSaturday\nDear Alice.\nWhat a grand letter. No, Alice I did not know what you told me. I once had some such an experience myself, of which I will some day tell you.\nWe make a bid now for you to come to us next summer. You are such a lovely person. I have written Randolph to tell him that he would never get a chance at you but that I love my Eleanor. Do write, from time to time. You made us love you.\nI had to write Glover, telling him I did not want"
        },
        {
            "pageid": 121286,
            "pagefilename": "6f58320ca2faf7c283d3ee69bfde9719.jpg",
            "pageorigfilename": "992747888805867_midwest_ms_anderson_box_00001_fl_00017_000002.jpg",
            "transcription": "letterhead   RIPSHIN FARM  TROUTDALE, VA.\nhim to unclear. on the proposed book.   He may be too young for it and then I may do it later myself, in some other form.\nHowever do not speak of my having said this to you. \nWith my love,\nSherwood\nGive my love to Virginia and the others when you are again in Olivet?."
        },
        {
            "pageid": 121287,
            "pagefilename": "c03a974eec1d44c2ea0a8796d07c581d.jpg",
            "pageorigfilename": "992747888805867_midwest_ms_anderson_box_00001_fl_00017_000004.jpg",
            "transcription": "letterhead  THE ROYALTON  44 WEST FORTY-FOURTH STREET NEW YORK\nTuesday\nDear Alice\nI am here in New York with Eleanor still in Marion, trying to settle up her Mother's affairs.  It was a pretty unsuccessful Christmas.\n\n Alice we did both appreciate your lovely greet and I am embarrassed we have not thanked you sooner.\n  I hope we may 2 unclear words whether or not we will have to abandon our trip.\n I do hope you had a happy visit here.\n\nLove\nSherwood Anderson"
        },
        {
            "pageid": 121288,
            "pagefilename": "33391ebbaf17ff618b3b2b0226ce1646.jpg",
            "pageorigfilename": "992747888805867_midwest_ms_anderson_box_00001_fl_00019_000001.jpg",
            "transcription": "n.d.\nMy Dear Mary Austin.\n\n I have been for some months at the steps of the desert and have found your books.   They have been such a relief to me after all the other books of the mountain country I have read.  What Terrain and Hants? missed your News Journal and set down with such fine understanding.\n The books have been a real joy to me.\n\nSincerely\nSherwood Anderson\nMail address.\n℅ Max Radin\n2597 Buena Vista Way.\nBerkeley \nCalif."
        },
        {
            "pageid": 121289,
            "pagefilename": "77b649eb709c1d9014383100aeef3ee3.jpg",
            "pageorigfilename": "992747888805867_midwest_ms_anderson_box_00001_fl_00019_000003.jpg",
            "transcription": "Dear Mary Austin -\n\n  Perhaps I had to be for a time out in the west before I could know the people and things you write about.   I shall look up American Rhythm the next time I am in some place where the book may be had.   I may see you before I leave the west - but when that may be I do not know.\n  I like particularly your own writing about wandering people and there was one thing of yours called the Field I loved very much.\n  Do not be annoyed that I have been so long finding you out - will you.   I am such a long time finding anything out."
        },
        {
            "pageid": 121290,
            "pagefilename": "ebb8358cbf9faf60b038e58560010c8d.jpg",
            "pageorigfilename": "992747888805867_midwest_ms_anderson_box_00001_fl_00019_000005.jpg",
            "transcription": "Jacques Copeau and several others have tried to get me interested in writing drama but whenever I go to the theater I shudder at the notion.   ? I fancy myself that anything I have to give ? be given as a tale teller as much as any other way.   God knows I have yet enough to learn about that.\n\n  I am sorry you have been ill.   Have been myself recovering from nerves.  They go along more steadily now.  You may be sure I shall write you when I have got my hand on The American Rhythm.\n  May I thank both Mabel Lujan Luhan? and yourself for the invitation to come in and see you.  I may, one of these days, be wandering past.\n\nSincerely\nSherwood Anderson"
        },
        {
            "pageid": 121291,
            "pagefilename": "e42d98fa38d69f6de62569d5508f78a0.jpg",
            "pageorigfilename": "992747888805867_midwest_ms_anderson_box_00001_fl_00019_000007.jpg",
            "transcription": "Dear Mary Austin -                                        n.d.\n\n I know it is too bad of me. I'm an awful writer \n\nabout such things. Do forgive me and be assured I'll always\nbe glad to take the responsibility of anything you say.\n\n I shall see you some day,\n     Sincerely,\n     Sherwood Anderson"
        },
        {
            "pageid": 121292,
            "pagefilename": "f80f40dde9a67596010642018936ef6c.jpg",
            "pageorigfilename": "992747888805867_midwest_ms_anderson_box_00001_fl_00019_000009.jpg",
            "transcription": "n.d.\nMy Dear Mrs Mary Austin -\n\n I am sure I know nothing at all of this matter and to tell the\n\ntruth know very little of literary clubs.\n\n Anyway I am sure that what ever you may do will have my\n\napproval.\n\n Will you therefore go ahead with my O.K.  A committee of one is the only\n\neffective sort anyway.\n\n  Sincerely\n    Sherwood Anderson"
        },
        {
            "pageid": 121293,
            "pagefilename": "424f555896e2cf05d52094c8e1eaceeb.jpg",
            "pageorigfilename": "992747888805867_midwest_ms_anderson_box_00001_fl_00020_000001.jpg",
            "transcription": "Chicago  Dec 3 - 1921.\ncircled in right margin  see over\nMy Dear  Mr John Eakins\nAnd Franklin H Giddings.\nThe Authors Club\nSeventh Ave & 56th Street\nNew York\n\n I should be delighted, I'm\n\nsure, to be a member of the\nAuthor's Club. If after my\nname is presented you want\nme let me know what I\nwill be owing. - A Non-Resident Membership.\n\n Thanking you sincerely\n Sherwood Anderson"
        },
        {
            "pageid": 121294,
            "pagefilename": "4f7c539c1ce73fc47030e89cd192af93.jpg",
            "pageorigfilename": "992747888805867_midwest_ms_anderson_box_00001_fl_00022_000001.jpg",
            "transcription": "envelope\nRIPSHIN FARM\nTROUTDALE, VA\n\nWinter Address\n Marion, VA\n\n[[postmark SOUT  DA  JUN 16 19 3 cent postage stamp over top\n\n Miss Emily Barksdale\n50 Monterrey St\nMexico City, D? F.\n\nMexico"
        },
        {
            "pageid": 121295,
            "pagefilename": "7a41ad4131249a96f460e0cf466f7785.jpg",
            "pageorigfilename": "992747888805867_midwest_ms_anderson_box_00001_fl_00022_000003.jpg",
            "transcription": "letterhead  RIPSHIN FARM  Troutdale, VA.   Winter Address     Marion, VA.\nJune 14 1939\n\nDear Emily.\n I have been intending to write you ever since I got home.\n\nYou were so very nice to us in Mexico and it was so\ndelightful seeing you there. -\n\n What are your plans? What are you doing? Are you coming\n\nhome this summer.\n\n We would be so delighted to see you here, on our farm,\n\nhere in the hills. You meant much to us, tell us\nyour news.\n\n As for our selves, when we got home Eleanor went\n\noff to New York while"
        },
        {
            "pageid": 121296,
            "pagefilename": "d31336d7f37bbdd50814ae64fa00843e.jpg",
            "pageorigfilename": "992747888805867_midwest_ms_anderson_box_00001_fl_00022_000004.jpg",
            "transcription": "letterhead  RIPSHIN FARM   Troutdale, VA.    Winter Address         Marion, VA.\n\n I stayed in Marion to work, but about ten days \n\nago, we got our house opened and here we are \nfor the summer.\n\n And it is seriously a very grand summer, everything very\n\ngreen and growing? and the nights cool and pleasant. I\n\nhope you are coming to America this summer and\n\nthat we shall see you.\n\nWe both send love.\n  Sherwood Anderson"
        },
        {
            "pageid": 121297,
            "pagefilename": "1cfc23c3404b727ba5e13298a9c60694.jpg",
            "pageorigfilename": "992747888805867_midwest_ms_anderson_box_00001_fl_00027_000001.jpg",
            "transcription": "in pencil Nov 6'39\nThe Canterbury - San Francisco.\nDear Judge - Monte* - Dorothy\n\n How  you have made me\n\nlove you.  It is wicked. I'll \npay you out by making you\ntry to read my scrawl. It \nhas sent others to the insane\nasylum, why not you?\n\nYou are all so darned beautiful.\n Brigham Young was right.\n I want to marry you Monte\n I want to marry you Dorothy\n I cant make make such a proposal to the judge.\n I'm not working on that side of the street.\n   I'm a mystic about\n\nMonte is a daughter of the Judge (Sherwood's writing often looks like Mante)"
        },
        {
            "pageid": 121298,
            "pagefilename": "1cc84e4be7555863fa1face7c583aa04.jpg",
            "pageorigfilename": "992747888805867_midwest_ms_anderson_box_00001_fl_00027_000002.jpg",
            "transcription": "2\npeople. They always either \npoison you or they giving? you \nnew health -\n\n You all do that  fast to me and very beautifully.\n I kept wanting to ?ay you all.\n We'll be here about two weeks and then at the\n\nHotel Figuero, Los Angeles.\n\n  I do hope we will see you all there.\nLove - a plenty\n Sherwood"
        },
        {
            "pageid": 121299,
            "pagefilename": "2fdb49cd55a0570cc224f47b4091fc1c.jpg",
            "pageorigfilename": "992747888805867_midwest_ms_anderson_box_00001_fl_00027_000003.jpg",
            "transcription": "in pencil in top margin Bartletts\nletterhead  RIPSHIN FARM   Troutdale, VA.\n\nDec 26 - 39\nDear Judge, Monte, Dorothy -\n\n We got home from one long trip on the day before\n\nChristmas and both of us agreed that the thaest? visit\nwe had at your house was about top of the trip.\n\n How I wish we could have stayed on.\nMonte - many thanks for your thoughtfullness in sending\n\nus the Rilke. I  hope you have forgiven me. \n\n Judge - please remember that I want your picture to hang in"
        },
        {
            "pageid": 121300,
            "pagefilename": "5acf77941792d0c43680efd4c78170c4.jpg",
            "pageorigfilename": "992747888805867_midwest_ms_anderson_box_00001_fl_00027_000004.jpg",
            "transcription": "RIPSHIN FARM \nTroutdale, VA.\n\nWinter Address\nMarion, VA.\n\nmy house. Wes Popler sent me a fine one of Han. When it is\nso long between deni?s with the men friends I most admire\nI like a picture of them hanging where I cam get a daily look.\n\n Have they - Job - the Judge about his picture. When we\n\nwere in San Antonio Eleanor got some dope to send you\nabout the beautification of the eauec? there. She'll be sending\nit to you.\n\n Have to go all. I wish I were in your house right now.\n  Sherwood Anderson"
        },
        {
            "pageid": 121301,
            "pagefilename": "a4ad10809125ccf12baa371833750989.jpg",
            "pageorigfilename": "992747888805867_midwest_ms_anderson_box_00001_fl_00028_000006.jpg",
            "transcription": "We both went to Robert Coche's? house  What a lovely woman he has got. She seemed very\n\nfine and beautiful to us both.\n\n And what a beautiful woman Dorothy is. She stays so very sharply in my mind.\n I am glad you are launched? in the book. If you can think and recite? just\n\nabout the people who have come and gone tell it will be wonderful.\n\n Again love to you all."
        },
        {
            "pageid": 121302,
            "pagefilename": "9d88bfab23e120bd7943f626ac6c204a.jpg",
            "pageorigfilename": "992747888805867_midwest_ms_anderson_box_00001_fl_00028_000012.jpg",
            "transcription": "If you will take back the nasty suggestion of your letter and stacyments? \n\nwe and  may go to the Pioneer Hotel - Tucson. Ariz.\n\n If you still feel I am the impossible ass the letter suggests, forget it."
        },
        {
            "pageid": 121303,
            "pagefilename": "cb421d8f7dfcd3eacc64c7016bc4f7b8.jpg",
            "pageorigfilename": "992747888805867_midwest_ms_anderson_box_00001_fl_00028_000013.jpg",
            "transcription": "Bartlett - in pencil\nThe Virginian Hotel        Cafe  European   Coffee Shop   Air Conditioned\nLynchburg, Virginia\nimage of building\n\"Sleep in safety in a modern-fireproof homelike hotel\"\nA.F. Young, Lessee\n\n   Jan 6 - 39 -crossed out  40\nDear Monte\n A salute to the Judge and to the beautiful Dorothy.\n Monte I cant in any way figure out how you could think that\n\nanything in your letter could possibly offend me.  Perhaps I did\nthink that - crossed out after reading the little poem that it would\nbe nice if I could take the place, temporarily, of the tall?, between\nyou and the star.\n\n Your anaer? about me,"
        },
        {
            "pageid": 121304,
            "pagefilename": "04c2b3d5d89b9f39283de11dbbfd1003.jpg",
            "pageorigfilename": "992747888805867_midwest_ms_anderson_box_00001_fl_00028_000014.jpg",
            "transcription": "The Virginian Hotel        Cafe  European   Coffee Shop   Air Conditioned\nLynchburg, Virginia\nimage of building\n\"Sleep in safety in a modern-fireproof homelike hotel\"\nA.F. Young, Lessee\n\n 2\n\ninstead of the tall?, etc.\n\n Does Dorothy ever do any such star gazing.  I\n\nmight come out.\n\n As it is we are still westward bound, to West Virginia\n\nand then New York. We will be, for the next 2 or 3 months\nat Hotel Royalton - 44 West 44 St.\n\n I think you might all enjoy my piece in the next? Readers Digest.\n I didn't go so strong for Rilke - nan, an?  I"
        },
        {
            "pageid": 121305,
            "pagefilename": "0e9125d5031d9e3993acf8780eac8eb4.jpg",
            "pageorigfilename": "992747888805867_midwest_ms_anderson_box_00001_fl_00028_000015.jpg",
            "transcription": "3\n\nperhaps take your Jan Aldus Huxley's\nLos Angeles. That lads a nice fellow but too  damn clever... Rilke\n\nto attennated for me.\n\n Had a nice Ohrman? sed from Mrs? Popler. She sent me a \n\npersonal? picture of Dan.\n\n Love to all of you,\nDo come to see us if any of you come to New York.\n  Sherwood."
        },
        {
            "pageid": 121306,
            "pagefilename": "b6caacd7c3e11c2bf7dfd087b403d1a8.jpg",
            "pageorigfilename": "992747888805867_midwest_ms_anderson_box_00001_fl_00028_000016.jpg",
            "transcription": "[[in pencil:  Bartlett [?]  1940]]\n\nDear Monte.\n Well, I think your poem for the post or the papers. It is beautiful.\n I am at Wa?ts all my Memories - a general task that I love doing  It is grand fun.\n  Sometime Monte, when you and young ? y all\n\nmust come to see us here. You would love the hills.\n\n Now, ? we will be closing the house. Eleanor will go to New York at the end of\n\nthe month and I will move into Marion where I have a swell apartment, staying"
        },
        {
            "pageid": 121307,
            "pagefilename": "e67b1c9f5f306b1b3ed5ecd4ebdbf8fc.jpg",
            "pageorigfilename": "992747888805867_midwest_ms_anderson_box_00001_fl_00028_000017.jpg",
            "transcription": "2\nthere until November 1st.\n\n I was go to South America the winter.\n Please do send my best to Gene and be?\n\nWayland?. I'll make it a point to call there\nwhen I get in New York.\n\n And all my love to the Judge and Dorothy.\n Love also to you\n  Sherwood A."
        },
        {
            "pageid": 121308,
            "pagefilename": "94c4fa2f72038bd60a419e1d8153f90f.jpg",
            "pageorigfilename": "992747888805867_midwest_ms_anderson_box_00001_fl_00028_000018.jpg",
            "transcription": "Dear Monte.\n As I know very little - (really nothing) of the Actniqus\n\nof  verse making I must stand aside on it.\n\n Once I had a conversation with Henry  Mencken - He had been writing about poetry.\n \"I really know nothing about poetry\" he said\n  Me - \"Then why the hell do you write about it?\n  Menk - laughing - \"Oh, hell, I don't know. Its a lusivrr - Lucifer? with me.\"\n   You are right in thinking I wouldn't particularly like Lucifer's Angels.  I"
        },
        {
            "pageid": 121309,
            "pagefilename": "96c5635ff73e16dc9902ddff2b0b0c86.jpg",
            "pageorigfilename": "992747888805867_midwest_ms_anderson_box_00001_fl_00028_000019.jpg",
            "transcription": "did like very much Familiar Fruit.\n\n Eleanor has gone to New York but I stay w here, at waet? The\n\nCountry is Oh so beautiful now.\n\n I have to go to Detroit & Ann Arbor at the end of November. \n\nI wont get to New York until after the Putnams have gone.\n\n Love to all of you Ubres?.\n   Sherwood"
        },
        {
            "pageid": 121310,
            "pagefilename": "9bb35ec2e86b159ff404ec2fc890d32c.jpg",
            "pageorigfilename": "992747888805867_midwest_ms_anderson_box_00001_fl_00028_000020.jpg",
            "transcription": "in pencil:  Bartlett  12  2p.                 Nov ? 1940\nTHE ROYALTON\n44 West Forty-Fourth Street\nNew York\nDear Monte -\n\n All eny? At Monte but you must know, my\n\ndear, that I cannot thank\nyou for doing what I asked you not to do.\nI dare say you thought yourin erlst? kind enough\ndear woman, but it was not kind.\n\n You see Monte I am quite grown up and\n\nhave been about in this American literary\nworld a long time. I don't want the Weeks?"
        },
        {
            "pageid": 121311,
            "pagefilename": "01f3727450f2ba735e41b2f6f27f88a2.jpg",
            "pageorigfilename": "992747888805867_midwest_ms_anderson_box_00001_fl_00028_000021.jpg",
            "transcription": "THE ROYALTON\n44 West Forty-Fourth Street\nNew York\nand am quite sure he don't?\nwant me.  I have no desire to be a tail to that Kite.\n\n Oh Monte, why would you?\n   Sherwood A\n\nThe sase? letter sounds as though I had put you up to it.\n\n If you were here I would spank you most soundly?.\n\n\"Visit the World's Fair - New York\""
        },
        {
            "pageid": 121312,
            "pagefilename": "cd40dec4e96107a499eebaad38aa18c0.jpg",
            "pageorigfilename": "992747888805867_midwest_ms_anderson_box_00001_fl_00028_000022.jpg",
            "transcription": "in pencil:  13  2p.         Bartlett   Nov 7  40\nTHE ROYALTON\n44 West Forty-Fourth Street\nNew York\n\n Thursday\n\nDear Monte\n\n  I called the Putnams but they had checked out at the Carlyle.  Too bad.\n\nI was delayed as I had to go out of Town. How I would have liked much to see them.\n\n Well, Monte, the hullabaloo is over here and the city news strangely quiet now\n\nthat? the election campaign is over.\n\n I guess we'll all live on - no? mull.. which was ??.. fun."
        },
        {
            "pageid": 121313,
            "pagefilename": "a7e325fe65b19a416511e9ed592ef6fd.jpg",
            "pageorigfilename": "992747888805867_midwest_ms_anderson_box_00001_fl_00028_000023.jpg",
            "transcription": "2\nTHE ROYALTON\n44 West Forty-Fourth Street\nNew York\nTed Weeks at Atlantic called up and wants me\nto go on the air with him on the evening of\nthe 19th\n\n I guess I will.\n Just the same Monte I'm not so  happy\n\nbeing in the city, rather than in my own? hills.\n\n Give a wave for me to Judge & to Dorothy.\n   Love\nSherwood A\n\nand to the yas? O Dan"
        },
        {
            "pageid": 121314,
            "pagefilename": "780f3639cc34d9b7cb5ef856c4ba2881.jpg",
            "pageorigfilename": "992747888805867_midwest_ms_anderson_box_00001_fl_00028_000024.jpg",
            "transcription": "THE ROYALTON\n44 West Forty-Fourth Street\nNew York\nFriday\nDarling Monte -\n\n I am afraid dear Monte that the   \n\nprogram will not prove very exciting... and\nI do not know at just what ?  it\ncauses me. All I know is that it is on Tuesday\nevening and from Radio City..  a 17 minute talk\nabout life in American small towns with Ted Weeks\n\n Ted used to be an employee, at"
        },
        {
            "pageid": 121315,
            "pagefilename": "86df756a04a030b7576b110d9a9bce19.jpg",
            "pageorigfilename": "992747888805867_midwest_ms_anderson_box_00001_fl_00028_000025.jpg",
            "transcription": "2\nTHE ROYALTON\n44 West Forty-Fourth Street\nNew York\nfive eights? live nights? where there were my public ?\n\n I assume the program will be in the Sunday paper\n Am sorry I do not know any more.\n Did the election suit you.\n Why fame? is all in the house.\n   National Bes..d? Posting? was to have had one of\n\nmy stories enterd? last night for it has been put"
        },
        {
            "pageid": 121316,
            "pagefilename": "8cca4610b290f53113684429ad67ee8f.jpg",
            "pageorigfilename": "992747888805867_midwest_ms_anderson_box_00001_fl_00028_000026.jpg",
            "transcription": "3\nTHE ROYALTON\n44 West Forty-Fourth Street\nNew York\noff until Dec 11\n\n Eleanor and I will go there January? 4th\n\ngo to South America after Christmas.\n\n Sherwood.\n\nIt was sweet of you to want to\nhear the broadcast. Wish it could\nbe ended? in a piloing?\n\n Love again,"
        },
        {
            "pageid": 121317,
            "pagefilename": "f8caf24ff7e323a04d3599e0c798e7c2.jpg",
            "pageorigfilename": "992747888805867_midwest_ms_anderson_box_00001_fl_00028_000028.jpg",
            "transcription": "in pencil in top margin  Bartlett  Dec 28 '40\nletterhead  PRIVATE OFFICE    HOTEL FARRAGUT    KNOXVILLE, TENN.\nSaturday\nDear Monte -\nWe came home to a sad Christmas.  Eleanor's mother a very beautiful and remarkable woman, we all loved, had been found dead in her bed.\nIt is a grand way to die and she was old and tired but something inside her never had tired.  Her death wrecked us.\nMonte dear, your confession of love is the finest Christmas gift I could have.  I shall hang it up on a peg in my inner mind"
        },
        {
            "pageid": 121318,
            "pagefilename": "c8ca8ef12e3be2923a7ee6b66591df0f.jpg",
            "pageorigfilename": "992747888805867_midwest_ms_anderson_box_00001_fl_00028_000029.jpg",
            "transcription": "letterhead  PRIVATE OFFICE    HOTEL FARRAGUT    KNOXVILLE, TENN.\n2\nBut you must be very beautiful?  I insist upon that.\n\nOnce, in New York, when you came into the room, very slender and smart, in a little black hat, you were the most beautiful I had seen you.\n\nWhat a lucky man, the judge, to have two beautiful daughters.\nI must send you all one of my new books.  I will, as soon as I am ? from N.Y.\nLove to you and the others too\n\n   S.A."
        },
        {
            "pageid": 121319,
            "pagefilename": "9aa34adb7297584250e6d75e520ee364.jpg",
            "pageorigfilename": "992747888805867_midwest_ms_anderson_box_00001_fl_00029_000001.jpg",
            "transcription": "in right margin in pencil Release EA May 2' 75\nDear Barton -\n\n I have sent you some more scenes of the play  - as they form themselves in my mind and will go right on with it. I hope, by the time you have got your new play produced, we may have it in such working? I hope that you can come down here and we can thrash it out - scene by scene.\n I do not think we need worry about following the details of lives in Winesburg too carefully. What difference does it make what becomes of Doctor Parcival - whether Seth \n\nRichmonds father"
        },
        {
            "pageid": 121320,
            "pagefilename": "1027c57a67572606f2fa32eb892cf160.jpg",
            "pageorigfilename": "992747888805867_midwest_ms_anderson_box_00001_fl_00029_000002.jpg",
            "transcription": "2\ndies or lives.\n\n As I conceive the play there is - as the theme - the two boys - Seth and George - the whole difference in their outlook on life - Seth the careful shrewd self-centered boy and George the imaginative, lovable one.\n The points of view of the father and mother and their struggle for the boy's mind -\n This to become the central theme of the play.\n Then the struggle of the two boys for Helen White.\n You can't pack Winesburg into a neat hand package"
        },
        {
            "pageid": 121321,
            "pagefilename": "d96423fe9c581080544a038a7ff38933.jpg",
            "pageorigfilename": "992747888805867_midwest_ms_anderson_box_00001_fl_00029_000003.jpg",
            "transcription": "3\nBarton.\n\n The whole question about the interduction of characters - Doctor Parcival, Joe Welling and other is as to whether they bely develope the whole feel of the drama.\n I don't want a hard sharp smooth story one I believe we can get plenty of intensity and feeling without it.\n But any way I will plow right on and hope to be ready for you when you are ready.\n Sherwood Anderson"
        },
        {
            "pageid": 121322,
            "pagefilename": "e2525f80244bb7e2d5af9244b17fc9dc.jpg",
            "pageorigfilename": "992747888805867_midwest_ms_anderson_box_00001_fl_00029_000004.jpg",
            "transcription": "P.S.\n\n It has occurred to me that you may not want me to do what I am doing - that is to say going right ahead in this way and putting down my own conception of these people. the story - the play.\n If you would rather I didn't send the scenes to you as I go through them leaving your own revised stories from your own conception - I  won't\n Write and tell me about this -\n     S.A."
        }
    ]
}