{
    "id": "1399",
    "cataloglink": "https://i-share-nby.primo.exlibrisgroup.com/permalink/01CARLI_NBY/i5mcb2/alma9911420048805867",
    "pages": [
        {
            "pageid": 120917,
            "pagefilename": "06ca1381f1871bb443d16d74629c83d0.jpg",
            "pageorigfilename": "mms_163_017_o2.jpg",
            "transcription": "The Midget City\npostcard  36A50    Midget City, Chicago World's Fair\nMidget City storefronts-image\nKaufmann-Fabry Photo  4A-H1017\nThe Midget City last year was not the Midget city but the Midget Village.\nIn it is a Midget Cafe where the Midgets eat, a Barber shop & Beauty shops where the Midget cut"
        },
        {
            "pageid": 120918,
            "pagefilename": "0a98b9a4908d6abbe217f6fb5b95a1cd.jpg",
            "pageorigfilename": "mms_163_018_o2.jpg",
            "transcription": "real people's hair & the girls give them manicures & wash & set their hair, There is a hotel where the Midget people stay called the Eagle Hotel, it is very very cunning.\nThere is also a grocery shop where they sell canned goods and there is a Baby Ruth shop where they sell Baby Ruth candy.\nThere is a Standard oil Co. there where the Midget's cars are"
        },
        {
            "pageid": 120919,
            "pagefilename": "0698c1f7e2694160b82008d2bc96082b.jpg",
            "pageorigfilename": "mms_163_019_o2.jpg",
            "transcription": "supposed to be filled with oil. Right in frount [sic] of the station is a Good Humor Wagon where they sell Good Humors.\nThey have the have the smallest man in the world Capt. Werner who is 18 inches tall who I saw and thought he was very cute. There is also the smallest woman in the world whom I didn't see.\nThey have a"
        },
        {
            "pageid": 120920,
            "pagefilename": "e310437ebba21de9ce65a09771e8cfde.jpg",
            "pageorigfilename": "mms_163_020_o2.jpg",
            "transcription": "show where Midgets who look like Laurel & Hardy do acrobatic trucks & act like Laurel & Hardy.\nThere is also a girl and two men who do tap dances acrobatic tricks, & sing, and are really wonderful.\nI liked the city very much."
        },
        {
            "pageid": 120921,
            "pagefilename": "86087331594dcf34f1790344378939ba.jpg",
            "pageorigfilename": "mms_163_021_o2.jpg",
            "transcription": "The Midway\nChild looking at large mural of a circus car with animal heads- image \nA Jungletown Bus\nLittle boy sitting on large dragon head display- image \nA Ride on Bozo the Dragon\nLarge grass hut with empty queue and sign reading Florida Show Alligator Wrestling- image \nThe Alligator Farm"
        },
        {
            "pageid": 120922,
            "pagefilename": "b1782843b9d578e3e8a255e93c72f76b.jpg",
            "pageorigfilename": "mms_163_022_o2.jpg",
            "transcription": "The Midway Continued\n\nCrowd gathered at ticket lines outside of theater with many flags waving and a sign reading The Pantheon- image\nThe Pantheon"
        },
        {
            "pageid": 120923,
            "pagefilename": "b6a16c6d1bc14073dcadad08a5e28ef7.jpg",
            "pageorigfilename": "mms_163_023_o2.jpg",
            "transcription": "The Midway Continued\nBozo\nThe first thing I went on in the Midway was Bozo. It was awfully thrilling.  When you got inside you ride around a little bit with the curtains up, then they go down and everything is pitch black. It is something like a roller coaster but it is not as high or as big, but it goes around more times.\nThe Rapids\nThe Rapids is a big barrel that you get in and away you go over the Rapids. Every time we went over a bump, I nearly fell off my seat. It was real dark all the time and it went faster then [sic] Bozo did, it took my breath away."
        },
        {
            "pageid": 120924,
            "pagefilename": "55977bd7bbc13660904986990fb36589.jpg",
            "pageorigfilename": "mms_163_024_o2.jpg",
            "transcription": "The Midget Village\nIn the Midget Village they have very small midgets. \nThey have midgets who sell candy, cut hair, they have a zoo and a show. The show was awfully nice they had a band, tap dancing, singing and a man who did tricks with a piece of rope. They also have a restaurant.\nRipleys Believe It Or Not\nIn Ripleys we saw a man forty five years old turning to stone. A baby with perfectly normal parents with three arms and four legs. A half girl that was fourteen years old. A man that could balance ten billiard balls in each hand, and later nine legal baseballs in each hand. A man that could swallow a light, a watch, and some money and make them all come up again one at a time. A man with a Lepoardskin [sic]. A man with Elephant skin. A lady with skin that when she"
        },
        {
            "pageid": 120925,
            "pagefilename": "2f7e55844069def38862ae2c305a2b9d.jpg",
            "pageorigfilename": "mms_163_025_o2.jpg",
            "transcription": "pulled it snapped right back into place so she is called the lady with rubber skin. There was a chair made out of corks. The word count written 1000 times on a grain of rice and a great many other interesting things.\nWhile we were watching one of the performances the usher said, \"Where Rog and Billy,\" they came to the ushers and he said, \"Your mother and father are waiting outside with some Ice cream cones for you.\"\nAfterwards he told us they had been in Ripleys for four hours. \nThe Mirror House\nI went in the Mirror House alone and was it fun. \nThere was a boy there that came up to me and said \"Are you the genuine\"? There are nothing but mirrors"
        },
        {
            "pageid": 120926,
            "pagefilename": "b91ebca8b0fa4d983a262d1693577ab4.jpg",
            "pageorigfilename": "mms_163_026_o2.jpg",
            "transcription": "Once when I was trying to get out in a hurry to see \"Wings of a Century\" I bumped smack into a mirror but I kept wandering around. I thought I wouldn't ever get out but I finally did.\nAn Airplane Ride\nOne Sunday when I was down at the Fair I went for a ride on an airplane in the Midway.\nWe went up, up, up, in the airplane finally we got so high and it got real breezy that my good Sunday hat blew off. We found it later. \nWe could make the airplane dive, tip its wings, or go very high.\nThe Pantheon\nThe Pantheon has in it a great circlerama which has pictures of the countries in the war  Some of the pictures of"
        },
        {
            "pageid": 120927,
            "pagefilename": "85d74b9ca32e5c53131a798642b4f19b.jpg",
            "pageorigfilename": "mms_163_027_o2.jpg",
            "transcription": "the countries are, France, Belgium, Germany, Serbia, Great Britain, United States, and many others.\nIt is 120 ft long and 60 ft high. Two great men painted it besides 118 other artists. It came from France for a Century of Progress and took many years to paint.\nThe Battle of Gettysburg\nThe Battle of Gettysburg is something like the Pantheon but it does not tell about the circlerama itself but the Battle of Gettysburg. It shows marvelous illumination of how the soldiers were and what they were doing at morning, day-time, and a [sic] night, also the sunset was beautiful."
        },
        {
            "pageid": 120928,
            "pagefilename": "4c28e538ce24fdb645b11de482acc97a.jpg",
            "pageorigfilename": "mms_163_028_o2.jpg",
            "transcription": "Laff in the Dark\nLaff in the Dark is a very thrilling ride in which whenever you least suspect it a goblin skelton or ghost jump's at you. It is dark and spooky and three people ride at once in a little car -like.\nThe Monsters\nThe Monsters is a place where they have big poisonous snakes and Chinese Dragons. There is a man there that lets himself get bitten by poisonous snakes he does not die and he is always in with the snakes. \nHe said to a woman \"For a dime I will tell you your first name.\" The woman gave him a dime because she didn't think"
        },
        {
            "pageid": 120929,
            "pagefilename": "a78db67d1d2d43d693a84399ca9c1378.jpg",
            "pageorigfilename": "mms_163_029_o2.jpg",
            "transcription": "that he could guess her first name and he said that if he didn't guess it right he would give her back her dime.\nHe said raise your right hand and swear that you'll tell the truth about it, the woman did, and he said \"your first name was baby.\"\nAfrica\nAfrica is a big place where the natives of Africa are. There are Pigmies and other savages. They do many ceremonial dances. There was an African Prince there who could talk our language.\nIt was very interesting to see the savages ways."
        },
        {
            "pageid": 120930,
            "pagefilename": "8c97977701b7cab9d9dabf1510f414d5.jpg",
            "pageorigfilename": "mms_163_030_o2.jpg",
            "transcription": "The Midway of 1934\nThe Midway this year is at the north end of the island.\nThe Ferris Wheel\nThere is a big ferris wheel in the Midway which goes very high and it gives you a big thrill to ride in it. I thought it was grand. \nThe Bug\nThe bug is a big catapiller which goes very fast and is very thrilling. \nIt goes around in a circle about ten times and goes over lots of bumps and in and out. I had a grand time on it."
        },
        {
            "pageid": 120931,
            "pagefilename": "afeb25aa305bf27023b8377fb83016bf.jpg",
            "pageorigfilename": "mms_163_031_o2.jpg",
            "transcription": "Image - postcard   photograph of lots of baboons on a stone temple display that is moated with water\n\nºx-133   Frank Buck's Jungle Camp on the Midway Boardwalk"
        },
        {
            "pageid": 120932,
            "pagefilename": "203a173a1a8c8a3588cccee317d21dea.jpg",
            "pageorigfilename": "mms_163_038_o2.jpg",
            "transcription": "The Travel + Transport Building\nAn outside view of the building in sepia tones- image\nTravel and Transport Bldg.\nA Century of Progress\nChicago - 1933\nIn the Travel and Transport Building they have many different ways of transportation.\nThey have the oldest train and the newest train that is made of aluminium and hasn't been used yet   It has the oldest airplane and the newest airplane the first car and the new car. \nBesides transportation they have a Denmark, a Irish, and a exhibit from Jerusalem. \nThe building itself is very pretty. The colors are"
        },
        {
            "pageid": 120933,
            "pagefilename": "c479b86b622387f7217814d342bf2c8c.jpg",
            "pageorigfilename": "mms_163_039_o2.jpg",
            "transcription": "The Travel + Transport Building Continued\ngreen, blue, and yellow it has a sky hung dome.\nInside they have perserves, [sic] they have fruits and vegetables. The vegetables are peas, beans, carrots and other things. The fruits are peaches, pears, and other things. \nThey have some owls there and I thought I'd touch one so I did it was real soft and downy.\nThey have dioramas of the things that happened while making cars, trains, and airplanes. They move too.\nThey have two minature trains. One runs half way around the top of the top floor and the other runs on another little track under bridges, to stations, and everything, its swell.\nBefore the exhibits were put in the building if you talked there would be an echo 150 times of what you said."
        },
        {
            "pageid": 120934,
            "pagefilename": "328de862fefc137c3782eed002c563c0.jpg",
            "pageorigfilename": "mms_163_040_o2.jpg",
            "transcription": "This year at the Fair of 1934 in the Travel + Transport Bldg. they have the largest car in the world which is a \nUnder it they have a theater"
        },
        {
            "pageid": 120935,
            "pagefilename": "a33bdb71b693ce83c06defba8cd9e9a5.jpg",
            "pageorigfilename": "mms_163_041_o2.jpg",
            "transcription": "The House of Tomorow + Houses of Today\nFile:A three story home from the outside with futuristic shapes being used in the architecture, sepia toned"
        },
        {
            "pageid": 120936,
            "pagefilename": "d5e53d60fff3c93be80c2f6ae9564e57.jpg",
            "pageorigfilename": "mms_163_043_o2.jpg",
            "transcription": "File:Full page brightly colored advertisement of train labeled Union Pacific The Overland Route"
        },
        {
            "pageid": 120937,
            "pagefilename": "739047bd4326589d3887190dec53b7e2.jpg",
            "pageorigfilename": "mms_163_047_o2.jpg",
            "transcription": "File:A colorful overview of a city with two stickers reading 1933 A Century of Progress"
        },
        {
            "pageid": 120938,
            "pagefilename": "677772c28af75ba015adc76d9f5bdcd0.jpg",
            "pageorigfilename": "mms_163_048_o2.jpg",
            "transcription": "The Fair\nThe Fair is on the lake front from 18th street to 31st street. It can be reached by train, bus, car, or street-car. It took three years to build it.\nThe Fair is gorgeous, splendifferous, but garish. The buildings are beautiful as well as the Fair.\nAt nighttime around 8.30 P.M. they light up the Fair by sending a ray from the Hall of Science to every point. Everything is beautifully lighted.\nThe colors are magnificent and very bright. It is like Fairy-land come true.\nThe sight of the lagoon in the center is very pretty for the eyes to see the motor boats, speed boats, and Gondolas to ride in.\nThey used to have a little bit of an Island for the planetarium but now they have a great big one for the Fair. It is called the Northerly Island."
        },
        {
            "pageid": 120939,
            "pagefilename": "86aa601a9a10deb751dc67e218a3f02d.jpg",
            "pageorigfilename": "mms_163_049_o2.jpg",
            "transcription": "The Fair Continued\nJust some of the Fair is on the Island. The Island the Planetarium is on was made bigger so part of the Fair could be built there too.\nBesides the exhibits, buildings, the Enchanted Island, and other things they have a barge that has a free show in it.\nWhen the Fair opened they had fireworks every night which were beautiful.\nI like the Fair so much that I can't wait to see all of it.\nThe buildings in the Fair are not like the buildings in the old Fair but are more cheaply made\nThe Fair is going to be carried over to 1934 because it was such a success in 1933."
        },
        {
            "pageid": 120940,
            "pagefilename": "89df5ec5c6c93054f63fc61d9ce7968f.jpg",
            "pageorigfilename": "mms_163_050_o2.jpg",
            "transcription": "The Fair Continued\nThe president of the Fair is Rufus C. Dawes.\nThe Fair has put thousands of men to work.\nFor 1934 many new buildings will be put up.\nThe Midway is going to be moved to the island and in its place are going to be put many villages. \nAt the Fair of 1893 the ferris wheel which was the largest in the world was the main attraction. At the Fair of 1933 the Sky Ride was the main attraction. At the Fair of 1934 the"
        },
        {
            "pageid": 120941,
            "pagefilename": "ea8809ebaa5ca9aac64eb6e1093ca50b.jpg",
            "pageorigfilename": "mms_163_051_o2.jpg",
            "transcription": "The Fair Continued\nlargest fountain in the world is the main attraction."
        },
        {
            "pageid": 120942,
            "pagefilename": "84735fa4ef766794d1893293e5c4d95a.jpg",
            "pageorigfilename": "mms_163_052_o2.jpg",
            "transcription": "The Administration Building\nFile:Front of modern building  \"Main Entrance to Administration Building\"\nThe Administration Building is where the officials of the Fair meet. It is only permanent building in the Fair. It is said that after the fair it will be used for the Jackson Park police."
        },
        {
            "pageid": 120943,
            "pagefilename": "e2f5a7f9f971b937592bec886ae5bb8a.jpg",
            "pageorigfilename": "mms_163_056_o2.jpg",
            "transcription": "The Avenue of Flags\n[Image: [postcard]]    \nWF-50     Avenue of Flags, Chicago World's Fair     3A-H650\nThe Avenue of Flags is so called because it is an Avenue of Flags.\n\n  It extends from from sic Italia to way past Sears and Roebucks.\n  The flags are red yellow as shown in the picture above."
        },
        {
            "pageid": 120944,
            "pagefilename": "f11e424ece8543c9aff568ebf1267ab2.jpg",
            "pageorigfilename": "mms_163_057_o2.jpg",
            "transcription": "The Fountain\nFile:Postcard\n36A24     Fountain, Chicago World's Fair     Kaufmann-Fabry Photo   4A-H969\nThe fountain at the fair is the largest in the world. \nIt is situated in Lake Michigan 12th and 18th streets. \nIt is beautifully illuminated at night like the rest of the fair with all"
        },
        {
            "pageid": 120945,
            "pagefilename": "dcebad3113a8f30e087d4681b59058b9.jpg",
            "pageorigfilename": "mms_163_058_o2.jpg",
            "transcription": "the different colors of the rainbow.\nIt is very beautiful even in the daytime."
        },
        {
            "pageid": 120946,
            "pagefilename": "8eb5a638b3a463f95008f10114966fda.jpg",
            "pageorigfilename": "mms_163_059_o2.jpg",
            "transcription": "The Hall of Science\nFile:Stamp  Chicago World's Fair 1933 \nFile:Postcard  The Hall of Science    A Century of Progress    Chicago - 1933\nAt the Hall of Science they have oodles of science and chemistry.\nThey have a transparent man which shows the appendix, the lungs, the brain,"
        },
        {
            "pageid": 120947,
            "pagefilename": "a3f881b6be5da17a69878c0d33d33a3b.jpg",
            "pageorigfilename": "mms_163_060_o2.jpg",
            "transcription": "& others organs of body.\n\n  They also have a small replica of the Temple of Jehol or the Lama temple. \n  They have a Mayo exibet [sic] which shows how the appendix are taken out & many other interesting things dealing with sicknesses.\n  They have a case showing how pigs, turtles, ect. look during the early stages and when they are being formed.\n  They also have a case showing baby's when they are being formed."
        },
        {
            "pageid": 120948,
            "pagefilename": "b81a6a3fa89cfcee6dc0805e8646f68f.jpg",
            "pageorigfilename": "mms_163_061_o2.jpg",
            "transcription": "Time and Fortune\n[Image: postcard}   ©1933    R H D CO.      Time and Fortune Building at the Century of Progress"
        },
        {
            "pageid": 120949,
            "pagefilename": "43135c8ac1b49d2ebd0ecaa8ef127181.jpg",
            "pageorigfilename": "mms_163_062_o2.jpg",
            "transcription": "Time and Fortune Continued\nTime and Fortune was put up by the magazines Time and Fortune.\nIt is like the Havoline Thermometer in the way that it is a rest room with every magazine printed in the U.S. Also there are desks to write on Outside there is a big porch where      the [sic] serve drinks and your can rest outside too."
        },
        {
            "pageid": 120950,
            "pagefilename": "4d7e2523a3576b5136e3c4ba8cf86a6a.jpg",
            "pageorigfilename": "mms_163_063_o2.jpg",
            "transcription": "The Exhibits Buildings\n[[Image:  postcard]}   W.F. 38     General Exhibits Group, Chicago World's Fair     3A-H477"
        },
        {
            "pageid": 120951,
            "pagefilename": "47669e2daadc6e441df977a696943a55.jpg",
            "pageorigfilename": "mms_163_066_o2.jpg",
            "transcription": "The Electrical Group Continued\nIn the Electrical Bldg. they have a Bell Telephone exibet [sic] where you can sit in a little booth and you see a man talk to a dummy and it is all glassed in and you can hear them with earphones but not without.  And also you can talk to almost any place or anybody in the U.S. free of charge for three minutes but you have to let anybody that wants to [crossed out: can] listen in.\nOn the second floor they have a Robut [sic] or mechanical man which can stand up, sit down, and smoke [crossed out: a] cigarettes."
        },
        {
            "pageid": 120952,
            "pagefilename": "d68b503985010741b668c8039f0de268.jpg",
            "pageorigfilename": "mms_163_067_o2.jpg",
            "transcription": "They also have a lot of cases showing modern stores, schoolrooms, & other things and you light each section up by pressing different buttons and it's loads of fun."
        },
        {
            "pageid": 120953,
            "pagefilename": "bc316afe289b66a706fae3d90e28df6d.jpg",
            "pageorigfilename": "mms_163_068_o2.jpg",
            "transcription": "The Federal Building\nFile:Picture of building\nFederal and States Pavilion"
        },
        {
            "pageid": 120954,
            "pagefilename": "539f6c9af41005556488663e5f464548.jpg",
            "pageorigfilename": "mms_163_069_o2.jpg",
            "transcription": "The Horticultural Bldg.\nFile:Postcard of building in background, boat with passengers in foreground\n36A43       Horticultural Building, Chicago World's Fair\nKaufmann-Fabry Photo     4A-H972"
        },
        {
            "pageid": 120955,
            "pagefilename": "4b3b07f064aeb3899f600056d9ff9dd9.jpg",
            "pageorigfilename": "mms_163_070_o2.jpg",
            "transcription": "The Agricultural Building\nFile:Picture of building with people entering and exiting\nThe Agricultural Building\nA Century of Progress Exposition-- in which is found the Exhibit of Heinz 57 varieties"
        },
        {
            "pageid": 120956,
            "pagefilename": "922b6f5ad80a84b5345e60790ec6f1a0.jpg",
            "pageorigfilename": "mms_163_071_o2.jpg",
            "transcription": "The Agricultural Building Continued\nIn the Agricultural Bldg. they have different samples of foods which they give away free. \nHeinz's give away most of the food but Cunags give a a sample of their candy and they also have samples of Junket.  \nThey also have many different exhibits of food including Aunt Jemima's, Coca Cola, Quaker, & others.  \nIn another part of the Agricultural Bldg. they have farm machinery (the latest)."
        },
        {
            "pageid": 120957,
            "pagefilename": "c37f1180fe35e8ab6d3d6d59d313c249.jpg",
            "pageorigfilename": "mms_163_072_o2.jpg",
            "transcription": "The Enchanted Island\nFile:Postcard - people standing in front of the building and exhibits\nWF-13   Enchanted Island, Chicago World's Fair       3A-H636\nAt the Enchanted Island there is the largest wagon in the world and they also have a very big replica of the Tin Woodman & the Scarecrow of Oz.\nThere is a minature train that goes around the"
        },
        {
            "pageid": 120958,
            "pagefilename": "31a8b96d3b7b97333b913711d96299e3.jpg",
            "pageorigfilename": "mms_163_073_o2.jpg",
            "transcription": "The Enchanted Island Continued\nEnchanted Island and the little kids have a grand time also the big kids including me.\nBut what is the most fun are the little racers that go 1/4 way around the Enchanted Island twice and you have to steer them and start them yourselves and they are like real cars only smaller.\nThe Hey Dey & Lindy Loop which were in the Midway last year are on the Enchanted Island this year and I went on both of them. The Hey Dey is"
        },
        {
            "pageid": 120959,
            "pagefilename": "d9f52b64e88aea218fce81b3986cfc00.jpg",
            "pageorigfilename": "mms_163_074_o2.jpg",
            "transcription": "A car that turns around & around four people or five can sit in it and you can't steer it and it's loads of fun.\nThe Lindy Loop is a car in which four people sit and it goes up down and around. And all it gives you is a headache or a stomach ache. \nLast year I went on another car ride which was electric & not nearly as much fun as the one this year but still it was lots of fun.\nLast year I went up the magic mountain and slid down the longest"
        },
        {
            "pageid": 120960,
            "pagefilename": "c47d5c2f376d1d363cb291e217ff3dfd.jpg",
            "pageorigfilename": "mms_163_075_o2.jpg",
            "transcription": "slide in the world and it was loads of fun.\nI also went in Adventureland this year and it was real scarey and there were little holes in the wall that blew your dresses when you went by it.  There were also little rooms where the floor slanted and you couldn't get around the room.\nLast year I went in the childrens [sic] theater and saw a magician do lots of tricks with different kinds of animals which"
        },
        {
            "pageid": 120961,
            "pagefilename": "0ea7975bf5346a8dc82224c2b7177e0f.jpg",
            "pageorigfilename": "mms_163_076_o2.jpg",
            "transcription": "were very enjoyable.\nOne the Enchanted Island they have a Free playground where all the little children play.\nThey also have many more amusements for littler children."
        },
        {
            "pageid": 120962,
            "pagefilename": "8b6c09778bb8d3ee7eda288dca0a1f7a.jpg",
            "pageorigfilename": "mms_163_077_o2.jpg",
            "transcription": "The Havoline Thermometer\nFile:Picture of Havoline Waxfree Motor Oil building with giant thermometer on top\nHavoline Thermometer      Century of Progress International Exposition     Chicago 1933"
        },
        {
            "pageid": 120963,
            "pagefilename": "967936dfcf88c8fb38f761683a002c59.jpg",
            "pageorigfilename": "mms_163_078_o2.jpg",
            "transcription": "The Havoline Thermometer Continued\nThe Havoline Thermometer is biggest thermometer in the world and can be seen at \"The Century of Progress\"\nInside there is a lovely rest room where you can rest when you are tired."
        },
        {
            "pageid": 120964,
            "pagefilename": "aeb574a74c3c628615029ea9119a37e4.jpg",
            "pageorigfilename": "mms_163_079_o2.jpg",
            "transcription": "The Firestone Building\nFile:Picture of building with pedestrians\nCaption\nFirestone   See Gum-Dipped Firestone Tires Made\nA Century of Progress  Chicago"
        },
        {
            "pageid": 120965,
            "pagefilename": "306efb4fd6ec9bc4b3b95444f75a2129.jpg",
            "pageorigfilename": "mms_163_081_o2.jpg",
            "transcription": "The Sincalir Exhibit\nFile:Picture of several kinds of dinosaurs and rocks and trees with water in background\nDiorama of The Dinosaur\nIn the Sinclar exhibit they have all the prehistoric animals and lots of different kinds of dinosaurs."
        },
        {
            "pageid": 120966,
            "pagefilename": "75e9540bb725e221be788da6c014ca9a.jpg",
            "pageorigfilename": "mms_163_083_o2.jpg",
            "transcription": "The Colonial Village\nFile:Postcard    36A45         Colonial Village, Chicago World's Fair\n\nKaufmann-Fabry Photo    4A-H1016\n\nAt the Colonial Village I saw many different things.  I saw Mt. Vernon which was very interesting. \nAll the rooms were exact replicas of G. Washingtons but all the furniture was not but it was used during that period. The house & rooms are"
        },
        {
            "pageid": 120967,
            "pagefilename": "fd1777a53aa97c96b1203ebd4a7d82ef.jpg",
            "pageorigfilename": "mms_163_084_o2.jpg",
            "transcription": "smaller than the real Mt. Vernon. In another room there are the flags of each & every state, and there is also very important pictures dealing with Washington.\n\n  They also have a village square in which many dressed up girls like men of that time have a parade, a little later they come out again half dressed like men half dressed like women of that time and they do an \"old fashioned\" dance.  Later on the square colored boys come out and tap dance."
        },
        {
            "pageid": 120968,
            "pagefilename": "e6b38142872cfe4992426fe5434d26ce.jpg",
            "pageorigfilename": "mms_163_085_o2.jpg",
            "transcription": "and play peices [sic] on crazy instraments [sic] such as a wash tub for a drum and a wash board but it is very enjoyable. \n\n In another part of the village there is a Blacksmith shop where they make all sorts of iron wares.\n They also have the home of Priscilla Mullins & Miles Standish & also the Village school.\n There was also the house where Betsy Ross made the first U.S. flag.\n They also have Ben. Franklin's printing press.\n In still an-"
        },
        {
            "pageid": 120969,
            "pagefilename": "a4f7c537721143edceacdbcb632b7252.jpg",
            "pageorigfilename": "mms_163_087_o2.jpg",
            "transcription": "The Black Forest & Village\nFile:On card\nVillage of the German Black Forest, Clad in Snow\nThe Black Forest is a replica of a real German Village in the winter and whatever the temperature is the snow and ice on the village roof-tops never melts.\nThere is a frozen pond where six German people"
        },
        {
            "pageid": 120970,
            "pagefilename": "b2390eb8edfd86626da6afc6d0aa5dfc.jpg",
            "pageorigfilename": "mms_163_088_o2.jpg",
            "transcription": "do lovely fancy ice scating [sic].\n\n There are also places to eat and many little shops selling German wares.\n There is also a taboggan [sic] slide you have to climb loads of stairs and then you slide down again and that is loads of fun so that is your reward for climbing all those stairs."
        },
        {
            "pageid": 120971,
            "pagefilename": "5c5a4f63f554039ee2dc97ebd05cecad.jpg",
            "pageorigfilename": "mms_163_089_o2.jpg",
            "transcription": "The Belgian Village\n[[Image:  postcard.  Crowd of people approaching entrance to village] \n36A21 Approaching Entrance to the Belgian Village,\nChicago World's Fair    4A-H587"
        },
        {
            "pageid": 120972,
            "pagefilename": "f817024fee8360c0d35e11226b081e0f.jpg",
            "pageorigfilename": "mms_163_090_o2.jpg",
            "transcription": "File:Postcard. Holland Village with pedestrians\n36A44   Dutch Village, Chicago World's Fair\nKaufmann-Fabry Photo     4A-H1019"
        },
        {
            "pageid": 120973,
            "pagefilename": "148ab1391f3949b7107791158dbb1a09.jpg",
            "pageorigfilename": "mms_163_091_o2.jpg",
            "transcription": "The Italian Village\nFile:Postcard. Entrance to Italian village with pedestrians\n36A40   Italian Village, Chicago World's Fair\nKaufmann-Fabry Photo     4A-H1015\n\nIn the Italian Village"
        },
        {
            "pageid": 120974,
            "pagefilename": "bb2cd41095f02aa0f34abb23465ed578.jpg",
            "pageorigfilename": "mms_163_092_o2.jpg",
            "transcription": "The Swiss Village\nFile:Postcard. Looking down on the entrance to the Swiss Village\n36A48   Swiss Village, Chicago World's Fair\nKaufmann-Fabry Photo    4A-H1010"
        },
        {
            "pageid": 120975,
            "pagefilename": "cfe9ed32f7294e43a5bd78d1608b4aa0.jpg",
            "pageorigfilename": "mms_163_093_o2.jpg",
            "transcription": "Merrie England\nFile:Postcard. Entrance and towers of England exhibit with a few pedestrians.\n36A41    Merrie England, Chicago World's Fair\nKaufmann-Fabry Photo    4A-H1014"
        },
        {
            "pageid": 120976,
            "pagefilename": "b7a4417daf7548b5ac6d9360eb1a2625.jpg",
            "pageorigfilename": "mms_163_095_o2.jpg",
            "transcription": "The Irish Village\nFile:Postcard. Entrance to Irish Village with a few pedestrians\n36A42     Irish Village, Chicago World's Fair\nKaufmann-Fabry Photo    4A-H1013"
        },
        {
            "pageid": 120977,
            "pagefilename": "8212dc14ed6f9424c438bf51da354d0e.jpg",
            "pageorigfilename": "mms_163_097_o2.jpg",
            "transcription": "The Oriental Village\nFile:Postcard. Entrance to Oriental Village with blimp overhead\nWF- 33 Oriental Village, Chicago World's Fair\n3A-H633\nThe Oriental Village has many shops in it, you can have camel ride. They have many dancing shows there and they also have a minature zoo."
        },
        {
            "pageid": 120978,
            "pagefilename": "e69825ec85d9ef24e6c7bc2026f5feca.jpg",
            "pageorigfilename": "mms_163_098_o2.jpg",
            "transcription": "Morocco\nFile:Postcard. Entrance to the Morocco exhibit through a key-hole gate\nWF.45 Looking Through Morocco With The Belgian Village In The Background,\nChicago World's Fair    3A-H584"
        },
        {
            "pageid": 120979,
            "pagefilename": "525823216f749cee56181cf5d0cdf036.jpg",
            "pageorigfilename": "mms_163_099_o2.jpg",
            "transcription": "Morocco Continued\n\n Morocco at the Fair is a replica of Morocco. \n It is a desert and has many shops in it.\n It is situated between the A&P carnival and the Belgian Village."
        }
    ]
}