{
    "id": "1287",
    "cataloglink": "https://i-share-nby.primo.exlibrisgroup.com/permalink/01CARLI_NBY/i5mcb2/alma999572188805867",
    "pages": [
        {
            "pageid": 103607,
            "pagefilename": "938865c0c8e8c2071830643651b9d03c.jpg",
            "pageorigfilename": "ruggles_498_001_o2.jpg",
            "transcription": "The following is an extract from the speech of John D. Bemo the son of a chief of the Seminoles One of the most savage and warlike tribe of Indians in the world. His age is nineteen years. He left his natives country when nine years of age and followed the sea for as many more. Nine months ago, he could neither read or write. Now he is an unrivaled orator in the Christian field. He is preparing himself for a missionary and a prophet to his native tribe to which he is the lawful heir of the chieftainship, and to which office he has since been clearly his unclear but rejected it telling them that while fighting was their only pleasure, and was the business of their braves he could not except it. But when your fighting is over then will I be your prophet your priest and you chief; exclamid the"
        },
        {
            "pageid": 103608,
            "pagefilename": "138feb0725b73520af67e60cd1e7a547.jpg",
            "pageorigfilename": "ruggles_498_002_o2.jpg",
            "transcription": "noble youth! He just arrived at Easton this week a tour through this state (Pa) the object of which was to unclear means for him and to do good by showing what the Lord had done for a poor benighted Savage. He seems to have been called of God for some great purpose as you will readily be convinced after unclear his life and convertion: the latter of which was second only to that of St. Paul himself. Before the largest congregation that I ever witnessed in Easton, he arose with all the dignity and spleandors in native appearance of a Demosthenes or a Cicero and with all the humility and firmness of Stephen or a Paul; he exclaimed! I am happy to see that so many of you, my dir friends have taken it into your hearts tonight to come out for the purpose of worshiping the great god. I do not expect to teach"
        },
        {
            "pageid": 103609,
            "pagefilename": "f22771de7cbc72526b8f8cfe6957f977.jpg",
            "pageorigfilename": "ruggles_498_003_o2.jpg",
            "transcription": "by my speaking but I want to tell you what the Lord has done for me and exhort you to turn an seek the Lord Jesus Christ. When I was at home in the forest, I spent nearly all of my time Holoring and whooping; fighting and scratching of faces, puling hair and trying to dig out eyes and hunting fishing &c. We knew nothing about the bible we know nothing about Jesus. When I was about nine years  just out one morning with a party to hunt in the forest for game as we were all eagerly pursuing the game through the forest upon  a sudden I heard a voice say unto me John! go and tell it! I turned me? and looked toward heaven from whence the voice proceeded but could see no one. I then turned to my fellows and asked them if they heard it but they seemed not to notice me but continued to follow the game. I"
        },
        {
            "pageid": 103610,
            "pagefilename": "47b835845ce7db070de1ff42ec3f17f0.jpg",
            "pageorigfilename": "ruggles_498_004_o2.jpg",
            "transcription": "was greatly troubled and tried to follow my companions but seemed as if I could not leave the place. I stood with my eyes towards heaven gazing with fear wondering who it was that spoke to me. As I stood wondering I heard the voice again say to me John, go and tell it to thy friends. What sorrow was then in my heart as thus I stood in the forest. I was alone: my friends had gone far from me in pursuit of the game; and I knew not what to do. There I was, I could not get away. I had often heard that there was a great spirit who would come upon the earth and that we must then die and be buried under the ground and that would be the end of us and I thought that this must be he who was thus speaking to me. But I could not get away. I was lost and far away from home in the forest and I was great unclear for I should have to stay in the forest all night"
        },
        {
            "pageid": 103611,
            "pagefilename": "21cb704c8eae9b36b99a82f55247528a.jpg",
            "pageorigfilename": "ruggles_498_005_o2.jpg",
            "transcription": "alone which I had never done before. My parents taught me never to go out of the reach of the wigwam but always to be there at night. How dred- were my feelings. I began then think of my mother and friends. I thought more of them than ever and thought to myself that could I get home again I should never get out of the sight of the wigwam. I staid here till morning and when the sun rose in the East Oh what joy filled heart, I that soon I should get home again to my friends. I set out as I thought towards home I would go as I supposed in a straight line from the place but would soon find myself back again upon the very same spot. This I did for a number of times and to be sure that I was not deceived, I set down a stick in the ground and started off in a straight line from it. I went"
        },
        {
            "pageid": 103612,
            "pagefilename": "74c224ba5ba9228b1fe3c2a9ac410e50.jpg",
            "pageorigfilename": "ruggles_498_006_o2.jpg",
            "transcription": "as I supposed for 4 or 5 hour straight from it but great was my astonishment as finding myself close by the stick which I had set up. I then set of again but before sunset I found that I was again back upon the ground where I left, close by the stick which I had stuck in the ground. So I could not get away and I began to look to see if I could not some one that could not lead me out of the fest to my mother and friends. When I saw the sun go down, I was troubled in my heart. I was very hungry for I had had nothing to eat for almost two days. I gave up all hope of ever getting home again. O how great was the sorrow that was in my heart. I thought that the Great Spirit was come upon the earth and that I must die. But immediately looking I saw a light and thought that it was in"
        },
        {
            "pageid": 103613,
            "pagefilename": "c87c707704d251b0a41faa5ebc327cbf.jpg",
            "pageorigfilename": "ruggles_498_007_o2.jpg",
            "transcription": "the hands of some one who was coming for me. I jumped up and ran after it but it seemed to go crooked first one way and then an other but I still followed after it till to my great astonishment, I butted up against my fathers wigwam. The light then sailed off in the forest out of my sight. I then new that that great spirit had sent it to lead me to my home. I then went into the shantee and they were all glad to see me. I told them that the Great Spirit was coming on earth and that I had heard a great voice from the forest but they were so rejoice at my return that they did not notice. After about three month I heard the same voice saying to me \"go and tell it.\" I told my friends but they did not notice it as before. After about three months more I heard the voice again louder and more distinct than ever"
        },
        {
            "pageid": 103614,
            "pagefilename": "a5c39e0bb3ffc328f78ee64ef1803746.jpg",
            "pageorigfilename": "ruggles_498_008_o2.jpg",
            "transcription": "speaking the same thing. I told my father and mother that surely the Great Spirit Spirit was coming on the Earth but they would not listen to me. About this time my father said to my mother \"I will collect all of my furs and skins and and to take them to St. Augustine and take John along with me. At this my mother was troubled and I said no! not so take any one out of the 16 except John, leave him with me. But my father would not listen to her. He said that John was the apple of his eye and that he should go with him to St. Augustine. So presently he got all of his furs and skins ready and we were going to start but my mother begged him to leave me and take one of the others but he would. I must go. When we were about to go my mother placed her hands upon my head and prayed the Great Spirit to take care of"
        },
        {
            "pageid": 103615,
            "pagefilename": "28d618298bc9c574db9fadd41be24e48.jpg",
            "pageorigfilename": "ruggles_498_009_o2.jpg",
            "transcription": "9\nher babe for I was the youngest. That prayer was an unclear although we were all heathen and never heard of the Saviour or the bible. O what sorrow must have been in my mothers heart when we started but she believed that the great spirit would take care of her child. A length my father an I arrived at St. Augustine and sold off all of our skins and furs and we wer about to set out for home- my father met king Philip. They were very very glad to see each other and concluded to go into a hous and as they thought have some pleassure. It was one of those which we always see in large towns at the corner of the streets which have fire water in them staring every in the face which they sell to every body that wants. O I pray God every day that He will take it all away so that there may be no more left to tempt people and kill them. When King Philip and my father had got in there they began"
        },
        {
            "pageid": 103616,
            "pagefilename": "8dac5f0ecb67cd1da0622ad861fcd3ae.jpg",
            "pageorigfilename": "ruggles_498_010_o2.jpg",
            "transcription": "to drink the fire water and after a little I began to craze the brains of both, and when I got possesion of their brains they quarrelled a fought till the blood run from their face and hands and the skin was knocked off in pieces upon the ground. And there the Pale faces stood setting them on. I tried to get to home to get my father away. But there stood the pale face I shooul think two or three hundred of them and they would not let go to my father. I go near him once or tuice but they pulled me back again. They fought for six or seven hours I should Think, when both gave out. I went up to my father; he was nearly dead his face was knocked in pieces the skin hung in pieces about him and even pieces wer to be seen upon the ground. The pale faces then took"
        },
        {
            "pageid": 103617,
            "pagefilename": "66c2d113b646a3d0676aa4a9ba82f913.jpg",
            "pageorigfilename": "ruggles_498_011_o2.jpg",
            "transcription": "him and carried him by the fence at the side of the street. I set down by his side O what sorrow was in my heart I thought of my dear mother and the distance we were from home. I thought of that miserable fire water which had mad my father so miserable. I thought great Spirit would come upon the earth and see my father in this condition. I then talked with my father and told him that the great Spirit would come upon the Earth and see him looking so bad. At evening he was carried into a house and laid upon a floor I laid myself by his side. Some time during the night I heard a voice which said to me \"you father shall be takend but I will be a father to you\" There was no light in the room I got up and walked all around feeling to see if I could find"
        },
        {
            "pageid": 103618,
            "pagefilename": "5bc16d6464369f2b5374890acb3b07b6.jpg",
            "pageorigfilename": "ruggles_498_012_o2.jpg",
            "transcription": "him that spoke unto me saying father shall be taken from thee but I will be a father unto thee. If I could find no one so I laid me down again untill the morning as soon as it was light I arose and looked upon my father his lips were pale and his eyes were closed. I felt of his body, it was cold; Sure enough my father was taken his limbs were chilled in death! O! what sor filled my heart! O! I had no more a father I wept over his dead body till the pale faces came and dragged him out and took in a cart to bury him. I followed the tracks of the horse and cart to his grave and commenced to dig him up  but a man seeing me followed and took me back to the house again. I sometimes wandering in the streets and some"
        },
        {
            "pageid": 103619,
            "pagefilename": "4a361b7e5e772a0a2009c65f23842dfa.jpg",
            "pageorigfilename": "ruggles_498_013_o2.jpg",
            "transcription": "13\ntimes in the woods wondering who it should be that was to be a father into me. But I could find no one that could become a father into me. So i wandered about till I was almost starved to death; for none gave any thing unto me. There were no doubt hundreds at the same time in St. Augustin that would have given me bread had I asked them for it; but I considered them my enemies and would not do it. I would at that time have died first. Yes sooner that to to beg of them for bread I would have put a dagger into my own heart. But at length I was found by a captain of a vessel who spake kindly into me and gave me a biscuit and at length took me on board of his vessel. That night he set sail and when the morning came I looked about found the deck and could se nothing of the land which I had left."
        },
        {
            "pageid": 103620,
            "pagefilename": "dca7d7ecf2dd5f7ca65d863fca9bec38.jpg",
            "pageorigfilename": "ruggles_498_014_o2.jpg",
            "transcription": "nothing but the heavens above an the vast ocean all around us could be seen. I thought of the promise which had been made to me and looked to see if I could find any one on board who was capable of being my father I then supposed that I was sailing to find him. Thus I sailed upon the ocean for three years ever looking anxiously for that promised father. But I saw no one and all the time I was in great trouble. Yes for three years it seemed that I was the wost being in the world. At last I was so troubled that I could not eat: words couldnot describe my feelings.\nOne day as I was resting upon the railing of the deck of the vessel in the gulf stream off Maida I thought that I would plunge into the sea and drown myself: as a wave had just rolled away I thought within myself that the next one"
        },
        {
            "pageid": 103621,
            "pagefilename": "8789d1821ac8efa8730a2d0bc4196db6.jpg",
            "pageorigfilename": "ruggles_498_015_o2.jpg",
            "transcription": "that come should be the one in which I would throw myself and put and end to all my trouble. But just before I was going to take the fatal hop? I happened to cast my eyes up towards Heaven and see the Sky the Sun and the clouds moveing The though struck me at once that some one must have made all these: and who could it be I though that it must  be the be the Great Spirit and if he could make all these things he could take away all my bad feelings too. So I went down into the Hold of the Ship and shut the door and commenced to pray to to the High Spirit to take all these bad feelings. No sooner was the door shut than it seemed as if I had taken @ flight from the ship into @ delightful region a country where all was beauty; a perfect plain was spread out before me filled with the most delightful prospects"
        },
        {
            "pageid": 103622,
            "pagefilename": "cdd24d3291864a688e333c6cf89e4ed5.jpg",
            "pageorigfilename": "ruggles_498_016_o2.jpg",
            "transcription": "2\nthat mind could conceive and at adistance before I saw @ being in the form of a man shining in such @ manner that these eyes could not behold him. He appeared to comm man to me and seemed smaller. O what were the feeling of my heart! I looked toward the ground and there I saw in one monstrous pile all the sins that I had ever committed in my life Yes every bad deed that I had done was plain before me. I thought of every little boy that I had shot with an arrow or wounded with a tommyhock I thought of every bad deed that I had done in my life and here they all were before me. I looked again and saw the beautiful comeing toward I then thought of that father that was promised to me; and was certain that this was He. O I though that if I could once get hold of him with"
        },
        {
            "pageid": 103623,
            "pagefilename": "062f0949a6ab7a6872b8edb044d8a13d.jpg",
            "pageorigfilename": "ruggles_498_017_o2.jpg",
            "transcription": "these fingers (Holding up his hands) I would never let him go again till he had taken all these bad feelings from me I looked and behold again the sins that lay on the ground before me I look them up one by one and held them up before him confessing what I had done and he took them from my hand and immediately they disappeared; thus I went on giving and confessing till I had confessed every sin. Then the immage came nearer and nearer and the neare he approached the smaller he became. O I thought could I only got hold of him how happy should I be. Immediately he came up but I had not power to move on account of his glory and his brightness. I had to hang down this head for I could not look him in the face"
        },
        {
            "pageid": 103624,
            "pagefilename": "8a8c2b90fd89c4de493f52f4e3ac5ca0.jpg",
            "pageorigfilename": "ruggles_498_018_o2.jpg",
            "transcription": "O! It was the most beautiful image that I had ever seen. It came up and up it appear to me opened a door in my heart and went in and immediately shut the door again. O how happy I was after the beautiful image had entered my breast or hien?. The bad feeling which I had before had all left me. And it was all light from the glory of the beautiful image I looked upon these hands and this body and they seemed changed: they seemed whiter unclear before. O what joy was in my heart! O if I only understood the English better so as to find some words I'd try to tell you better how I felt and of the glory and goodness of God and what he has done for me although I was a poor Heathen When I came to myself. I hastened upon"
        },
        {
            "pageid": 103625,
            "pagefilename": "814a0597c6a433baf5abf7d71b76b714.jpg",
            "pageorigfilename": "ruggles_498_019_o2.jpg",
            "transcription": "and tried to tell Him what a beautiful image was in my breast soon as the captain saw me he cried out John what is the matter with you? You look so strange! O I feel strange too I told Him! and I began to try to open the door that I thought was in my breast to show him my beautiful image; but I could not. I looked at myself to see if I really was the same person it seemed as though I were changed inside and out-side. O how happy I was. But the captain continued to cry out John what is the? What can the matter be! You seem so strange! The tears were streaming down he as he listened while I told him about the beautiful image. The sailors too stood around me with the tears rolling down there faces daring to say nothing to me only to ask me about the beautiful image. O if ever I was happy in the"
        },
        {
            "pageid": 103626,
            "pagefilename": "9e9c306fbdad6581050134c4fda3e8e5.jpg",
            "pageorigfilename": "ruggles_498_020_o2.jpg",
            "transcription": "world I was thin! Then I knew what was meant by the words \"Your father shall be taken but I will be a father unto you.\" As I taked the words seemed to flow from my mouth themselves without any trouble.\nThe captain then went and got the bible and read it. This was the first time that I had ever seen a bible in my life to know it from any other book but there was something in me that bore witness to it.\nThis was the first time too, that I had ever heard of the Lord Jesus Christ. We know of a Great being among us Indians but the great or higher Spirit as we called him (which I mentioned before) O how changed was I in my feelings then I felt that I loved everybody I loved the Red man, the Black man and"
        },
        {
            "pageid": 103627,
            "pagefilename": "21569e90a20c75cf60971ffd8b192a75.jpg",
            "pageorigfilename": "ruggles_498_021_o2.jpg",
            "transcription": "the white man too: I knew no difference. I loved every body I prayed for every body. On every shore we landed whether in the Islands of the ocean in Africa or America these lifes \"never failed to tell what the Great Spirit had done for me and what a beautiful imag I had in my breast. If they could not understand I talked to them by signs as well as I could I would first pound to my breast and then up to the great in Heaven making them understand as well as I could what he had done for me This is all that I can do and it is enough: it will take me all the days of my life to tell it enough. The more I tell it the brighter the better and the newer it seems. It always seemed to me as though"
        },
        {
            "pageid": 103628,
            "pagefilename": "007465f1c51b3ea17a4c109f54804517.jpg",
            "pageorigfilename": "ruggles_498_022_o2.jpg",
            "transcription": "I could not hold this tongue. I thought that I must tell every body. Sometimes when strangers came upon on ship board I would commence talking to them about the Savour (as I had then learned to call him) Sometimes they would hardly take any notice of me: again others would tell me be gone you Indian I dont want to hear you. O then I would pray for them and ask God to pardon their sins. The insta of one man man in South Carolina. I must tell you I recollect that one sunday I was walking I came up to where a rich man lived He was one of these men who have a great many Slaves to till their land. I looked in the field a distance from the house and saw a number of these poor creatures working. I thought at once that I would go to to their master and talk to him. Well I went along towards the house"
        },
        {
            "pageid": 103629,
            "pagefilename": "fb0563165043f64ca02f07602ea635f5.jpg",
            "pageorigfilename": "ruggles_498_023_o2.jpg",
            "transcription": "and I saw their master sitting upon the piazza of his house. I spoke to him and asked him if he knew It was the sabath? he said yes. I asked why then do your slave work upon this holy day. Says he that is my own busines - be gone you Indian go back to your own people and not meddle with the affairs of white men. I told him that I surly wanted to talk to his slaves about the Saviour and to pray with them and asked him if he would not call them out of the field that I might tell them of the goodness of God and what he had done for me. But he was very angry and bid me be gone. O says I old man how can you commit such sin against that being who has given you all that you have and preserved you all your days. Beside you are an old man your head is blossoming"
        },
        {
            "pageid": 103630,
            "pagefilename": "9153b419d80b54e3edd7e20cf158b1a2.jpg",
            "pageorigfilename": "ruggles_498_024_o2.jpg",
            "transcription": "for the grave: you cannot expect to live but @ few days at most and yet you will compell these poor man to break the sabath. O aint you willing to go to hell alone must you compell this poor men to go along with you. But I could not prevail upon? him! He bid me be gone Indian! and so I went off praying that God might change his heart. I had not gone far before a boy came running after crying come back Indian came back come back! master says so. I turned and went and found him walking his piazza to and from in the greatest destress: his eyes were streaming with tears. He had called his slaves and they were seated near the piazza Says he you may talk to them I asked him to read in his bible He went and halled down all the books he had in his but there was not a bible to be"
        },
        {
            "pageid": 103631,
            "pagefilename": "176177e2e87ab565906594b040d87d3f.jpg",
            "pageorigfilename": "ruggles_498_025_o2.jpg",
            "transcription": "found amongst them. He started a boy off immediately to a neighbor on hor[se]back for one. I then commenced talking them about The Saviour and what he had done for me I told them how he had died for them, and that they must pray to God to forgive them or they would be eternally miserable Thus I went on preaching to them as well as I could for some time. They gazed at me with astonishment as I told them all about Jesus Christ and his suffering for us poor guilty sinners: and I verily believe it was the first time that they ever heard such thing in all their lives. When I was done talking to them all good by telling them to look to the Saviour. About three months (I think it was) after we landed our vessel near his residence and I went one morning to see him and dont you believe there he was in his house with his slaves all around him pour-"
        },
        {
            "pageid": 103632,
            "pagefilename": "2950eab114b290e36e3022a8a409c0b2.jpg",
            "pageorigfilename": "ruggles_498_026_o2.jpg",
            "transcription": "pouring out his soul to God in Prayer. O how how thanked me it seemed as if he could not do enough for me. He offered me a farm and slaves to till it; but I told I did not want his land, I did not want his Slave: I wanted no reward but that which my father would give me if I continued faithful unto the end. \nO my dear brother and sister how much good we might all do if we we only would If instead of telling every thing we hear and picking flaws with our neighbours and making strife amongst them we would exort them to forsake their sins and turn to God! If we would pray with and for him and never let them alone till they would come to the Saviour If at all times we belive we met a sinner we"
        },
        {
            "pageid": 103633,
            "pagefilename": "29a6eac41ce8ea9e247b8b4b4013ea5e.jpg",
            "pageorigfilename": "ruggles_498_027_o2.jpg",
            "transcription": "would warn him and ask him stands the case between you and your God; O how much better times would we have. Even in this city this gospel city what a change there would be. O Brethren if you have friends if you friends if you children pray for him plead with them to come to the Savior and Sisters too pray for your children! Rember the prayer of the poor heathen mother. Like hers, your prayers may be blessed to the saving of your children. And now O sinners if there are any among you I would ask you how stand the case between you and your God. If you were to be called away this night what would be your condition! Think of these things and before you suffer you unclear to expose in unclear make your peace with God but some say how shall I know say some where my heart is changed: how can I tell. O if the heart be effectually changed;"
        },
        {
            "pageid": 103634,
            "pagefilename": "70bf7ec97b47dd1e6a79c5b79e2b8cb0.jpg",
            "pageorigfilename": "ruggles_498_028_o2.jpg",
            "transcription": "if he be truly of the spirit. I unclear believe he will know it. There is something in his breast that hears unclear to it and tells him that he is a child of God! And brethren if you have not this testimony in your hearts I warn you to make your peace with good. Give yourselves no rest nor slumber to your eyelids till you know that you are a child of God. Remember all that it must? be your own work you may come & set upon thes seats as long as you live and it will do you no good. Your parents, your friends and your ministers can do nothing for you: it must be as I said before your own work. The minister upon the walls of Zion can do nothing more than to point out the way to eternal happiness, the road to Heaven: but remember if you ever get there you must travel that way yourselves and that through much unclear"
        },
        {
            "pageid": 103635,
            "pagefilename": "f68b73a6da01709eaa04a7d96a146146.jpg",
            "pageorigfilename": "ruggles_498_029_o2.jpg",
            "transcription": "unclear There are many things in the way of the christian he has the world to contend with; he has the Devil to contend with and worst of all his own wickid heart. I find that the worst enemy that I have to contend with is my own heart. Sometimes before I am aware I begin to feel puffed up with pride: it sums whereever I go as though the white man thought so much of me and this before I know it sometimes makes me proud! O how I have to pray to keep down these feelings. O the christian must pray: if he don't his mind is soon fell off I can't think of words to tell you what I mean; so I will try to make it plain to your minds by a comparison. It seems to me like of many in a boat out at sea with the tide against him, if he puts down the oars , in a moment he begins to float with the tide; and if does not apply his oars again he will soon find himself far from the land."
        },
        {
            "pageid": 103636,
            "pagefilename": "0b39d6d9c33fd80fbeb138e5abb4ec80.jpg",
            "pageorigfilename": "ruggles_498_030_o2.jpg",
            "transcription": "and it will be with great toil? unclear and with much danger that he will again come to the land. So it is with the christian who neglects to pull the oar? or people. O there are a great many thing to be a man of christian men so astray. And one of  the greatest that I have seen is this thing called unclear. How much hard feeling and unclear it brings with it. What bad examples too it caused to be let before the world. And men see the Christians unclear with one-an-other and they say at once that there is nothing in religion. I do not believe that unclear belongs to the religion of the Love Jesus Christ at all. Christians that true christains are brothers wherever they unclear let them be of what name they will. They are all aiming for one place; they have lost one captain"
        },
        {
            "pageid": 103637,
            "pagefilename": "7dda0e9f9921a3f9434ec9f988b30136.jpg",
            "pageorigfilename": "ruggles_498_031_o2.jpg",
            "transcription": "at their head. And no matter whether Methodist, Baptist, Presbyterians, Lutherans, German reform or whether they have any name at all or not; or whether they be White men black men or red men; I believe if there hearts be right and they do their duty here, that they all get to heaven at last and receive their reward. I come among you without any names I feel that I love you all no matter who you if you only are christians. In short I love everybody. Without a name I offer? to love you I am going to join the unclear and of my brethren beyond the unclear people in the forest unclear if the Lord spares me a few months longer. This blessed book in my hand (holding up the Bible) and the religion of the Savior in my soul us enough for me with them I can have the danger of the forest and the lessons of the unclear tommyhock and unclear"
        },
        {
            "pageid": 103638,
            "pagefilename": "04119cc2042650fb0cdb431aceb7e956.jpg",
            "pageorigfilename": "ruggles_498_032_o2.jpg",
            "transcription": "ing knife or the frowns of all the heathens in the world. My only wish is to spend the four day I have to spend here one earth in the service of the Lord Duty call on to my brethren the red men I shall go and spend my service? and my life amongst them telling what the Lord has done for me, praying for them and unclear them to the Savior. I have another unclear. Pray brethren that unclear may live unclear I got there I have Brothers there I have Sisters there; I want to see them all connected and on their way to heaven. I want to see all the red men turning to the Lord. I cannot bear that anybody should be lost. If I get to heaven I want to meet every body there. But the time is near Brethren where I must? part with you perhaps never to see you again upon earth. The thought pained my heart for I how kindly unclear the people of Earth"
        },
        {
            "pageid": 103639,
            "pagefilename": "22d3880cd1ee76db7d6aa0aeb511ee70.jpg",
            "pageorigfilename": "ruggles_498_033_o2.jpg",
            "transcription": "treated me ever since my arrival here! it seems as though they could not do too much for me. Long will I remember you dear friends; and unclear unclear you my brethren and sisters: often will strive to our out my heart in unclear to God on your behalf. One poor woman who earned all her living by washing and ^ other hard work came to me yesterday morning and made me a present of a dollar; telling me that she was poor at the same time but that she was willing to give that or to aid me in my undertaking for me brothers if it would be of any service to me. I know not but she may be here how if so I would say that it is not impossible but that unclear dollar may be a unclear of one hundred unclear upon her unclear unclear she gets up to glory. Long shall I remember that good woman unclear you rich men how much good you might you might do with your money"
        },
        {
            "pageid": 103640,
            "pagefilename": "1fafa182cd9d3e56218fb3bf9d27df5b.jpg",
            "pageorigfilename": "ruggles_498_036_o2.jpg",
            "transcription": "or that part of it which you do not need if you only would. How many bribes? you might put into the hands of those who are not all to buy them for themselves. How many starving souls among the poor heathens you might unclear with the unclear of life! In unclear Easton think of theses things. Think while enjoying all the comforts which unclear life and a rich and fertile country afford that there are millions of you unclear who are destitute of everything as it were knowing nothing of the Savior nothing of the bible. Remember the African? remember the unclear of your own country? Remember the red man of the forest! He too has unclear after your [unclear]. Dear friend do not get angry with me if I do unclear plain for when I began to speak upon the claims of my brethren. I earned help but think of the sufferings and the agony of the Indians"
        },
        {
            "pageid": 103641,
            "pagefilename": "656c5658530770fe5c27ad5885327aeb.jpg",
            "pageorigfilename": "ruggles_498_037_o2.jpg",
            "transcription": "my brethren! Once they were unclear! They were seen in all your forests and along all your rivers they once owned all your land! but where are they now? they are nearly all dead! the pale faced heathen driving them back farther and farther till their land are nearly all taken away from them. O when I think of these thing how can I help blaming? the white man! How do I know but that the bones of some of my fathers are resting beneath the floor of the Indian?. They had a unclear place here once; and it was as likely to behave as any place else. I once though that If ever I became a man I would go and revenger the unclear of my brethren I thought I could kill a pale face let me eaten him when I would; but I do not feel so now. This religion of the Savior has taught me to love every body; and to forgive every body.  I wish you"
        },
        {
            "pageid": 103642,
            "pagefilename": "d0d091ad4a68f23417cf56eb5710ef9b.jpg",
            "pageorigfilename": "ruggles_498_038_o2.jpg",
            "transcription": "and my greatest object is to do you good. I want not your land I want not your hearts; I want not your money; all that I ask is enough to me to my brethren and your hearty prayer to God for my success?. I ask nothing more in this world than the unclear of life I labor for no earthly reward I expect to suffer every thing a unclear unclear but death and that continually. But my reward lies at the end of the race. unclear a year or two will lose my unclear upon the earth; but the four days I have to live I want to spend in the service of my God. True unclear out will bring and if my life be spared upon the piece of my labours; the pace? of my warfare. I am going to fight like a good soldier in the cause of my Master. This Blessed Book (holding up the Bible) shall be my tomahawk and my arrows It will cut in the face in the rear and on all sides. With it an"
        },
        {
            "pageid": 103643,
            "pagefilename": "94230e116446b09691a462df187e66d4.jpg",
            "pageorigfilename": "ruggles_498_039_o2.jpg",
            "transcription": "and the unclear of God himself and my soul in the work I hope to unclear souls to the Saviors and be an instrument in the hands of God in saving many of my brethren from an eternal death. O remember me then dear brethren and let your prayers ascend? to Heaven on my behalf. O the christian should pray always. He should pray for himself, he should pray for his children; he should pray for every every body and that continually. God has said in his holy word that the prayer of the righteous man availeth much: and he knows the christian but that the prayer he is daily offering for his child; his neighbor or his friend will be quickly answered in his souls salvation. Remember the prayer of the poor heathen mother! Remember too how quickly it was answered! A few thoughts more and I must close! one in particular unclear on very forcibly unclear unclear! This unclear land; this free and enlightened land; strang as it may seem has"
        },
        {
            "pageid": 103644,
            "pagefilename": "181ed40abf8186392863b6ea6864cb2d.jpg",
            "pageorigfilename": "ruggles_498_040_o2.jpg",
            "transcription": "many very many in it who are truly heathen\nand as the worst kind of heathen too they enjoy every thing that\nis necessary to make them comfortable and happy; they have\nbarns they have houses they have lands and every thing\nthat heart can wish, and yet they scarce think that\nGod has bestowed all these upon them let alone to\npour out their heart in thankfulness to Him for mercies\nso great! O how was I amazed astonished when I\nfirst came upon the shores of your Northern states, and\nparticularly when I entered the city of Philadelphia (which\nwas the first city that ever I entered in the U.S. after I went\nto sea: for there was still a recollection of the past in me\nand I feard that if I went on shore I should be\nkilled) I was struck with awe at the magnificence\nand the beauty of the structures of the Pale faces\nBut my astonishment was still greater when I\nbeheld them in in the enjoyment of them all"
        },
        {
            "pageid": 103645,
            "pagefilename": "a451c0017512811a3f0bc832d51d60d4.jpg",
            "pageorigfilename": "ruggles_498_041_o2.jpg",
            "transcription": "and [beheld (crossed out)] saw them so unthankful. I thought them\nworse than the poor benighted Indian for wicked\nand ferocious as he is; still for the most\ntriffling of favours he will look up to heaven and\nthank the great spirit for it. If he kills a\ndeer or any other game in the forest he vintures\nnot to touch it till he has lifted ^up his^ soul in\nthankfulness to the Great Giver of all thing for\nhis kindness and regard. But not so I fear with\nmany of you my dear friends Are you in health do you\nthank God for it? Are you in the enjoyment of all\nthat is necessary to promote your happiness; are you\nwealthy; and do you thank God for all these things?"
        },
        {
            "pageid": 103646,
            "pagefilename": "f345e663a06161a2c39d020af97addff.jpg",
            "pageorigfilename": "ruggles_498_042_o2.jpg",
            "transcription": "in which you enjoy, and just think to use  O you who live in spleandor and at your ease think of these things?\nBut a word to the children with pleasure have I noticed the good conduct on close attention of these dear children; it seems as though they had drawn in every word that I have said. Let me go where I will tell them of the attention on pretty behavior of the children of Easton?!  Yes children when I look around upon you I cannot help but feel deeply for you welfare!  You my little boys must soon fill the places of your fathers they will soon be in their graves and you must take their places and perform the duties which they now perform.  Little girls too how musty you take the place of your mothers.  O strive to be good child that you may grow up good men and women.  Shun all bad company keep away from those places where they sell fire water for they can do you no good there.  Do not swear or cheat or steal"
        },
        {
            "pageid": 103647,
            "pagefilename": "7bc08b2ab338be6e503d75acd5a42ae2.jpg",
            "pageorigfilename": "ruggles_498_043_o2.jpg",
            "transcription": "41\nor lie; Obey you parents, love your brothers and sisters; keep the holly Sabbath; and you Bibles & and attend the sabbath school, and the church Strive to do what is right and prepare for Heaven that you may meet you dear good parents and all other good people there! Should I got to Heaven children I want to meet you all there I cannot bear the thought that any of your precious souls should be lost! but believe me [crossed out: you] children if you live wickedly you cannot die happily; and where God and the righteous are you can never go ~X"
        }
    ]
}