{
    "id": "1324",
    "cataloglink": "https://i-share-nby.primo.exlibrisgroup.com/permalink/01CARLI_NBY/i5mcb2/alma991230488805867",
    "pages": [
        {
            "pageid": 108972,
            "pagefilename": "06e2d57b8dc7709d2c8e15ded659f5c0.jpg",
            "pageorigfilename": "Ayer_MS_1193-1_VL01_000001r_o2.jpg",
            "transcription": "BLANK PAGE"
        },
        {
            "pageid": 108973,
            "pagefilename": "1faf73042d9b838b06d94e407004f888.jpg",
            "pageorigfilename": "Ayer_MS_1193-1_VL01_000002_o2.jpg",
            "transcription": "Noticias dela Nueva California\nParte 1a\nCalifornia \nnoticias + unclear"
        },
        {
            "pageid": 108974,
            "pagefilename": "78818631fd037c5771b78e8963d52a9f.jpg",
            "pageorigfilename": "Ayer_MS_1193-1_VL01_000006_o2.jpg",
            "transcription": "1\nJesus Maria y Josse\nRecopilacion de noticias dela antigua, california del tiempo qe administraron aquellas Miciones, los Micioneros dela regular obserbancia de nuestro serafico Padre San Francisco, del Apostolico Caolxio de San Fernando, de Mexico, y delas nuebas que los dichos Micioneros fundaron en los nuebos establecimientos de San Diego y Monterrey\n\n      Escritas pr el menor (por mas indigno) dedichos Micioneros, que haviendo estado, en la antigua California desde qe entro de cargo de dicho Colegio, hasta su entrega alos reverendos Padres dela sagrada Religion de nuestro unclear Padre Santo Domingo, y uqe despues con otros Micioneros, del mismo Colexio de San Fernando subio alas nuebas Miciones de Monterrey. no tieniendo otro fin de este material trabaxo, que tomo los ratos qe el Ministerio, Apostolico me permiten qe eldejar anotado,"
        },
        {
            "pageid": 108975,
            "pagefilename": "e0136a3ac23bda39b4e0f162d26adb14.jpg",
            "pageorigfilename": "Ayer_MS_1193-1_VL01_000007r_o2.jpg",
            "transcription": "todo lo qe ha contecido, y fuere sucediendo en el tiempo que Dios me preste la vida y salud, para travajar en esta Nueva Viña del Señor pa qe quando el chronista de nuestros Colegios piden al de San Fernando, las nocticias de las Apostolicas Labores las tengan recopiladas en un tomo, o mas si hubiere qe notar, dejando ala avilidad del choronista el ponerlas en el estilo qe puedan salir a luz; Y asu prudencia, y religiocidad, el dejar pa el secreto del Archibo, las que solo se escruben para lo qe pueda combenir, para tapar laboca delos emulos del ministerio Apostolico, qe nunca faltan en las nuevas comverciones por si hablaren algun dia delos hechos de los Micioneros, se tengan dmano todos los acaecimientos, segun y como pasaron en la California, asi antigua, como nueva todo lo qual contodo cinceridad, y verfaf referira enesta recopilacion.\n\n  Divididas en quatro partes: En la primera podra lo acaecido, en la antigua California, los cinco años que corrio a cargo del Colegio. En la segunda dire las expediciones qe se hivieron para la cut word"
        },
        {
            "pageid": 108976,
            "pagefilename": "e3318adb1ea6ba4da37128fed63d9bed.jpg",
            "pageorigfilename": "Ayer_MS_1193-1_VL01_000007_o2.jpg",
            "transcription": "2\nquisa de Monterrey, y la fundacion delas cinco, primeras Miciones. En la tercera elestad de ellas a ultimos de Diciembre de mil cetercientos setenta, y tres, segun el informe qe se remitio desu Exd y en la quarta y ultima, parte se anotara quanto fuere sucediendo digno de nota.\nParte 1a\nDelas noticias dela antigua California Capitulo 1°. Como entro la California a cargo del Colegio de San Fernando\nPor la expatriacion delos reverendos Padres Jesuitas, que por orden de su magcitad el Señor Carlos tercero (que Dios guarde) se hizo en esta Nueva España el dia veinte y cinco de Junio de mil setecientos sesenta y ciete, siendo Virrey, el exmo. Señor Marquez, de Crois, se acordo su Exd. de encomendar al Apostolico Colegio de San Fernando las Miciones dela California y se vio precisado el Reverendo padre Guardian, Frai Tosso Garcia a admitirlas con el permiso por la falta de reales qe leugo se fuese a España atraer religiosos y qe entre, tanto venia, se quedaron en las Cut word miciones?"
        },
        {
            "pageid": 108977,
            "pagefilename": "610d1b88cb03d81d2b4f385987669cb7.jpg",
            "pageorigfilename": "Ayer_MS_1193-1_VL01_000008r_o2.jpg",
            "transcription": "cut word, dela Sierra Tonda, solo cinco Religiosos, uno para cada Micion, y los demas fuesen, para completar el numero dedoce.\n\n  En atencion a esto determino el V. discretorio elque se escriviese a la Sierra, combidando ala Tornada a los Micioneros yque si animaban fuesen en derechura a in coprporarse con los demas qe luego saldrian, del Colegio: Como no setenia Certidunbre, si se comletaria el numero de los cinco, para que no hubiese atraso, se determino saliesen, del Colegio nuebe, y que llegando a Queretaro o Guadalajara, si iban a incorporarse, los cinco se bolbiesen dos, pa la Sierra. Los nombrados por el V. Discretorio que havian de salir del Colegio fueron los siguientes: El Reverendo Padre Predicador Frai Junipero Serra Doctor, y Cathedratico de Prima de Sagrado Theologia, comisario del Santo Oficio y Precidente delas Miciones dela Santa Provinica de Mayorca.\n\nEl Padre Frai Francisco Palsu Hijo dedicha Provincia, y Micionero dedicho Colegio. \nEl Padre Fray Juan Moran dela Provincia de la concepcion, y Micionero."
        },
        {
            "pageid": 108978,
            "pagefilename": "a482b374c156a4d15925f53aeefa2e42.jpg",
            "pageorigfilename": "Ayer_MS_1193-1_VL01_000008_o2.jpg",
            "transcription": "3\nEl Padre Frai Antonio Martinez dela Provincia de Burgos.\nEl Padre Frai Juan Ignacio Gaston hijo de dicha Provinica.\nEl padre Frai Fernando Parnon, hijo dela Provincia de Estremadura.\nEl Padre Frai Juan Sancho dela Forne dela Provincia de Mayorca.\nEl Padre Frai Francisco Gomez, dela Provincia dela Concepcion.\nY el Padre Frai Andres Villumbrales, dela dicha Provincia.\n\n  Salimos todos los dichos de nuestro Colegio, el diez y seis, de Julio dedicho año de sesenta, y siete, corriendo el gasto detodo lo nesesario, de cuenta del Rey. Y llegados a Queretano, no haviendo llegado los dela sierra, ni dandonos lugar a esperarlos, seguimos los nueve dichos hasta Guadalajara, endonde tampoco los encontramos y nos fue presiso seguir hasta el Pueblo de Tepic, endonde llegamos contoda felicidad, y nos ospedamos en el Hospicio dela Santa"
        },
        {
            "pageid": 108979,
            "pagefilename": "3da2511a3a26e4fd577d371a7a67f6dc.jpg",
            "pageorigfilename": "Ayer_MS_1193-1_VL01_000009r_o2.jpg",
            "transcription": "cruz que es de Religiosos obserbantes de Nuestro Orden, de la Santa Provincia de Jalisco.\nEn este Pueblo en contramos la Tropa qe iba para la expedicion del Serro Prieto dela Provincia, de Sonora, que estaba detenida a causa, deno haverse concluido los dos paquetotes?, que se estaban de cuenta del Rey construyendo para pasar la Tropa a el Puerto de Guarimas. En cuanto llegamos a este Pueblo, vino el Tesorero dela dicha Tropa, a vicitarnos, y a decir del Reverendo, Padre Precidente, que tenia Orden del Exmo. Señor Virrey, para prober detodo lo nesesario, para la mannuntencion de los Religiosos, agradeciolo el Reverendo Padre Precidente, diciendole que comeriamos en comunidad con los Religiosos del Hospicio y el Reverendo Padre Precidente del, correria en ello: pues no hacia esta caridad: En atencion aesto, cuido de entrgar el Sindico, del Hospicio la limosna, necesaria pa que el Reverendo Padre Precidente dedicho Hospicio nos diese la comida ordinaria,\n\n\n\nCruz that is the Religious observers of Our Order of the Saint Province of Jalisco.\nIn this town we found the troop that was going to an expedition to the Serro Prieto Prieto Hill in english of the Province of Sonora, that was detained cause they had not concluded de two unclear that were being constructed by the King to pass the troop to Gurimas Port. As soon as we arrived at this port, the treasurer of said troop, came to visit us, and to tell us of the Reverend Priest President that had order from his Mr. Excellency the Viceroy to approve of all the needs of the maintenance of the clergy?, the Reverend Priest President thanked him saying that we would start"
        },
        {
            "pageid": 108980,
            "pagefilename": "39be1f6f7165556b5d815946f7715d4f.jpg",
            "pageorigfilename": "Ayer_MS_1193-1_VL01_000009_o2.jpg",
            "transcription": "4\nde religiosos: Yassi lo hizo quedando todos, mui contentos, y agradecidos ala caridad, de Nuestro rey, que husaba con nosotros, sus menores Capellanes.\nCapitulo Segundo\nMicion en Tepic, y lo que sucedio en el tiempo deella\nPocos dias despues de haver llegado a Tepic, supo, el Reverendo Padre Precidente dela Micion, que se estava disponiendo una Balandrita, para salir para California, con el Governador, nombrado deella Don Gaspar de Portola con alguna Tropa de soldados Dragones, y Miguetes, consu Alteres, y un Capellan dela Tropa llamado el Bachiller, Donde Pedro Fernandez:  En vista de esto fue el Reverendo Padre Precidente a ver ael Señor Coronel, y comandante detoda la Tropa, Don Domingo Elizondo; En solicitud de conseguir qe se embarcasen tambien algunos Religiosos, y alcanso qe fuesen dos aunqe se siguiese incomodidad,"
        },
        {
            "pageid": 108981,
            "pagefilename": "44d8fa7d3d41c073cd7d814932d73711.jpg",
            "pageorigfilename": "Ayer_MS_1193-1_VL01_000010r_o2.jpg",
            "transcription": "por ser chica La Balandria; con este permiso determino que yo me embarcase con el padre, Fria Juan Ignacio Gasten;\n\n  Dia veinte y quatro de Agosto por la tarde, nos embarcamos en Matanchel los dos reliosos con los demas expresados arriba, y la misma tarde  se hizo a la vela La Balandrita, acompañada de una lanch, en que iban todas las sillas, y equipaxe, delos soldados, con cinco de los Dragones, que se embarcaron en ella; como era tiempo de las furbunadas, no nos faltaron, buenos sustos por ser el buque tan chico, y mui selozo; principalmente la noche del veinte y ocho que estando mar adentro, sobre el cubo de corrientes selevanto, una recia tempestas como alas seis, dela tarde que duro hasta serca de media noche, con la que nos vimos a el peligro de perdernos, disponeindose todos para morir, (y ciertamente pense que nos perdieramos) en la maior afliccion\n\n\n\n\nbecause The Balandria was small; with this permit he detemined that I was to embark with Priest Fray Juan Ignacio Gasten;\n\n Day 24 of August in the afternoon we embarked in Matanchel the two clierks and the others mentioned above, that same afternoon the Balandrita started their voyage joined by a small boat that carried all the chairs and bagagge of the solidiers along with five of the dragones that embark in it; Because it was time of Furbunadas, we had several scares in account of our boat being small; most important was the night of the 28th when we were in deep ocean, above several currents a big storm started around six in the afternoon and lasted almost till midnight, we were in danger of getting lost, we were getting ready to die, (I really thought we were lost)"
        },
        {
            "pageid": 108982,
            "pagefilename": "707631ffc82bd9a9749559b2784e8ab4.jpg",
            "pageorigfilename": "Ayer_MS_1193-1_VL01_000010_o2.jpg",
            "transcription": "me dixoel señor Governador, (que ya lo havia confesado por lo que podia suseder) que hicieremos alguna promesa a algun santo, porque nos liberase de aquella orrible, tempestad; Al decir esto me unclear el Padre compañero, Fray Juan Gaston, el sacate que yo traia dela Santa Cruz del Hospicio de Tepic, y prometiendo cantarle una missa, ala Santa Cruz, y asisitr, todos a ella tire a la Mar unas ebras del sacate (que tienen y aprecian los Tepiqueños como reliquia) y ciertamente puede decir; que en cuantto cayo a la mar dicho sacate se aplaco de modo que se puso en calma, no puedo asegurarlo, de milagro, pero si qe todos los tubimos, por pordigio, y gran misericordia de Dios, y en accion de gracias luego que llegmaos al Hospicio cantamos la missa, alaque asisiteron el Señor Governador con muchos oficiales\n\n\n\n\nMister Governor told me (that he had confessed that is why it could happened) that we should promise to some Saint, to free us from this horrible storm; After saying this Priest Fray Juan Gaston reminded me of the hay I brought from the Holy Cross of the Hospice in Tepic, I promised to give a mass, to the Holy Cross and attend, saying this a threw some straws of hay into the ocean ( that the people from Tepic have and appreciate as relic) and I can surely say : that as soon as said straws of hay fell in the ocean it stopped, it calmed down, I cant say that it was a miracle, but we all saw it, unclear and of the great Mercy of God, and as a thank you after we arrived at the Hospice we gave mass to which the Governor and many other officers assisted"
        },
        {
            "pageid": 108983,
            "pagefilename": "17e1cd71a452a1d667148e8f40d3a14d.jpg",
            "pageorigfilename": "Ayer_MS_1193-1_VL01_000011r_o2.jpg",
            "transcription": "de la tropa y todos los soldados que se habian embarcado; lo que se hizo en el tospicio, porque con lista de las continuas furbunadas, mando el senor gobernador, bolbiesemos a Matanchel por consebinuno era tiempo para el uiaso e, aunque lo fue para la lancha que en once dias estaba ya en el puerto escondido de la california, como ciete leguas del Real Precidio de Loreto: aunque no desembarcaron, esperando la Balandra: Como llebaba la orden; pero biendo no parecia despues de handar toda la costa interior, de la California desde dicho puerto hasta el cabo de san Lucas, no hallandola, se bolbio a matanchel. \nCon la llegada de dicha lancha del puerto escondido llego noticia de los Padres Jesuitas, que iba el gobernador de la Peninsula, y que lo acompanaban dos religiosos misioneros del colegio de San Fernando; que es lo unico que los"
        },
        {
            "pageid": 108984,
            "pagefilename": "54cb0b64b98f8de91cd9670d0cb4c4d4.jpg",
            "pageorigfilename": "Ayer_MS_1193-1_VL01_000011_o2.jpg",
            "transcription": "6\nde la lancha, dijeron aun Indio que bieron, endicho Puerto, escondido, callandole todo lo demas(que es vien se admiran en la gente de mar, y mas siendo los marieneros, los mas deellos criollos de la california) Por estas confusas noticias, exejeron los padres Misioneros Jesuitas, que se les havia admitido la renuncia que a˜õs antes havian hecho de dichas Misiones, del Exmo Señor Marquez de Cruillas, Virrey dela Nueva Espa˜ã; Pero jamas pensaron el golpe dela expatriacion; al saber qe yban Padres Micioneros de San Fernando, hicieron muchas, demostraciones de alegria, como me aseguraron assi Indios, como soldados mereciendoles, que alabasen nuestro Apostolico, Ynstituto que sirvio mucho para que los Yndios nos reciviesen bien, y no les fuese tan sencible la salidade los Padres, que los havian criado, y que no havian visto, ni conosido a otros.\nA"
        },
        {
            "pageid": 108985,
            "pagefilename": "f6520aa1e8db1d631357400310b1aaf3.jpg",
            "pageorigfilename": "Ayer_MS_1193-1_VL01_000012r_o2.jpg",
            "transcription": "A los seis dias del mes de septiembre bolbimos a estar de buelta en Tepic, y encontramos, en el hospicio, ya mayor numero de micioneros, pues estaban ya alojados en el catorce colegio de la santa cruz de Queretaro, que iban para las Primerias de la Provincia de Sonora; y once obserbantes de la Provincia de Jalisco que con otro que faltaba habia de pasar tambien a las misiones, de Sonora; Y pocos dis despues, llegaron otros siete de la misma Provincia que Iba a ocupar las Miciones, de Nayarith, asi mismo encontramos los cinco de nuestro Colegio de San Fernando que venian de la Sierrra Gorda y que fueron los Padres Frai Josse Murguia, Frai Juan Ramos de Cora, Frai Juan Crespi, Frai Miguel de la campa y Frai Fermin Lazuen. Y aunque estabamos dos mas del numero pedido pero como el Ilustrisimo senor obispo de Guadalajara, nos dijo que no tenia"
        },
        {
            "pageid": 108986,
            "pagefilename": "834ccf22376d5297c227b83893033d58.jpg",
            "pageorigfilename": "Ayer_MS_1193-1_VL01_000012_o2.jpg",
            "transcription": "clerigos, que embiar, y que ya le havia escrito a su ExA determino el precidente, no despachar a ninguno para la sierra, conciderandolos a todos necesarios, y que aun faltaban dos, para completar el numero de los misioneros Jesuitas, que havia en la California. \nEra la orden de su ExA. que todos los micioneros, y sus tropas fuese por Max, asi los de la california (que era presiso) como los que iban para sonora y que se hiciese con los dos paquebotas, que se estaban fabricando en el Rio de Santiago; Estavan estos mui atrasados, y asi havia de ser mucha la demora. Atendiendo a esto, y el ver a tantos micioneros, en alguna manera osiosos, pretendio el Reverendo Padre Precidente de nuestra, micion, de San Fernando el que se hiciese Micion en Tepie; hablolo al Reverendo Padre Precidente de la micion de Queretaro, y haciendo tratado el asunto, re"
        },
        {
            "pageid": 108987,
            "pagefilename": "de1d85356a78dcef760b9cf481f2e2f1.jpg",
            "pageorigfilename": "Ayer_MS_1193-1_VL01_000013r_o2.jpg",
            "transcription": "solbieron suspenderlo juzgando no estaba dicho Pueblo en dispocicion de Micion, y que poco, o ningun fructo se sacaria, juzgando mejor, el suspenderlo, hasta tanto se desaogase algo de la Tropa, que los ___ que quedase, despues de la salida esta, podrian hacer la micion. \nA principio de octubre despues de pasao el equinoccio, Determino el comandante, de la Tropa Don Domingo Elizondo, se dispusiese la Tropa que havia de marchar para la California, con el senor Governador, pasando recado a nuestro Padre Precidente, que se embarcaria con sus Religiosos; Que tenia determinado saliesen amediados de dicho mes con la Balandrita, y una Lancha que estaba en matanchel, propia de un minero de la California, Don Manuel de Ocio; En quanto recivio, ester recauso, passo el Padre Precidente, a terse con los senores, comandante y Governador, que se havian de Embarcar"
        },
        {
            "pageid": 108988,
            "pagefilename": "095987b6c97b1d50998c24ac4a0998e7.jpg",
            "pageorigfilename": "Ayer_MS_1193-1_VL01_000013_o2.jpg",
            "transcription": "y diciendole estre que escojia para so, y la tropa, la balandrita, y que en la lancha, yrian los micioneros, determino hir personalmente a verla, y rejistrar si habia, lugar para los catorce, Religiosos como defactofue, y estando en matanchel, llego correo de Mexico con la novedad, de que su Eja. mandaba fuera la micion de san Fernando a la Provincia de Sonora, junto con la de Queretaro, y la de Jalisco, pasase a la California, cuia orden me intimaron (porque dar, Yo de Precidente nombrado de Colegio, en aucencia del Reverendo Padre, Frai Junipero Serra) entregandome a el mismo tiempo, una carta de nuestro Padre, Guardian, en que nos decia que por haver tenido noticia, el mui Reverendo Padre Comisario General Frai Manuelde Nagera, que los misioneros de la Micion del colegio de Santa Cruz de Queretaro, por lo que de ellos se havia ejprimentado, en el hospicio de Tepic"
        },
        {
            "pageid": 108989,
            "pagefilename": "ef5cfc46187378499c9c8fdc48996351.jpg",
            "pageorigfilename": "Ayer_MS_1193-1_VL01_000014r_o2.jpg",
            "transcription": "no havian de tener en la sonora, union y armonia (que el tan importante) con los Religiosos de Jalisco, havia pedido a asu EjA que los obserbantes pasasen a la california, y los micioneros de los dos colegios, pasasen a sonora, que siendo, de un mismo Instituto se llebaran me mejor. \nEn cuanto resivi la carta, y me ente con la novedad desoache correo a Matanchel avisar del Padre Precidente quien luego se bolbio del Hospicio, sintiendo mucha la Independencia novedad el mismo efecto causo a todos nosotros como tambien a los micioneros de Queretaro, cuio precidente viendo lacrado el honor, de su micion, no remoliendole en lo mas minimo la conciencia de que Religioso alguno hubiese dado motibo para presumir habia de faltar la union, y armonia entre sus micioneros, y los de la provincia, se presento con"
        },
        {
            "pageid": 108990,
            "pagefilename": "656f6c0e2463a8c1d0f8a31f546a1d02.jpg",
            "pageorigfilename": "Ayer_MS_1193-1_VL01_000014_o2.jpg",
            "transcription": "con una peticion a los dos precidentes del hospicio, y de la micion de la provincia; suplicandoles, que el piee della de clarsen si havian visto, alguna cosa en alguno de los micioneros que indicare lo mas minimo de desunion, a lo que respondieron, que no havian visto lo mas minimo, antes vien havian exprimentado entodos ellos, mucha caridad, y afecto, y queno tenian el menor motibo, sospecha, faltaria la buena armonia, y union. \nAl mismo tiempo que corria esta diligencia el Reverendo Padre Precidente, del colegio de Queretaro, llego el nuestro de Matanchel, y viendo de sus micioners desconvoladosm assi por la variacion del destino como por el motivo que se havia alegado determino, que Yo con otro companero pasase a la ciudad de Guanajuato, a verme con el senor Vicitadpr, general a fin de saber si havia mudado de intencion en cuanto a nuestro, destino, y que en casso que hasi fuese"
        },
        {
            "pageid": 108991,
            "pagefilename": "28566985285753a0c635eea97ba5db96.jpg",
            "pageorigfilename": "Ayer_MS_1193-1_VL01_000015r_o2.jpg",
            "transcription": "Le satisfaciese de que los padres micioneros de Queretaro, no havian dado motivo para que los de la Provincia de Jalisco pretendiesen el no ir, con ellos a la Sonora, sino a la California; Llebando para ello las certificaciones , de los dos REverendos Padres Precidentes, observantes del Hospicio, y de la Micion, de la Provincia, sacrifiqueme adicho viaje, tomando de companero del Padre Frai Miguel de la campacos, criollo de Durango en la Nueba, Viscalla e Hijo del colegio, y tomada, la vendicion del ReverendoPadre Precidente, salimos del Hospicio el dia diez, y nuebe de Octubre, del mismo tiempo que salian para Matanchel, los Padres, obserbantes, que iban a embarcarse, para ir a la California que por no haver llegado el uno que faltava para completar el numero de doce, llebaron para suplir, un colegio del obispadode Guaxaca, Don Isidro Ibarsabal, que habia venido arrimado a la tropa, con el fin de pasar a sonora; embarcaronse de los dichos, en la"
        },
        {
            "pageid": 108992,
            "pagefilename": "1949439daa3ad472519ecf87769b500a.jpg",
            "pageorigfilename": "Ayer_MS_1193-1_VL01_000015_o2.jpg",
            "transcription": "lancha, y el senor Governador con las tropas de la Balandra, condicho capellan Don Pedro Fernandez; Y yo con mi companero camine para Guanajuato. \nLlegamos a dicha Ciudad el dia primero de noveimbre, al medio dia, yendo a parar al convento, de los Reverendos Padres Descalsos, de vuestra orden, y despues a las tres fuimos a Vicitar al senor Vicitador general y aproponerle el motivo de nuestra venida quien luego dijo que lla sabia lo que habia susedido, y que era contra su voluntad, y que no era esta la intencion de su majestad que enquanto el hubiese llegado a mexico habria ablado a su EjA y sin la menor duda, no habria mandado transportar de la sonora, a la california: Y de esta a los Padres, observantes, del destino de la sonora Pero que suspuesto havian tomando el trabajo de benir del Fipec, lotomasemos tambien en pasar hasta Mexico, que el nos darian cartas para su Exa y que en cuanto llegasemos."
        },
        {
            "pageid": 108993,
            "pagefilename": "de5325cb41f634ca9892201f3acff8e3.jpg",
            "pageorigfilename": "Ayer_MS_1193-1_VL01_000016r_o2.jpg",
            "transcription": "nos despacharia, Combenimos a ellos, y el dia siguiente nos entrego las cartas, y depsues de Missa, nos salimos para Mexico, a donde, llegamos, el dia nuebe de dicho mes, Y haciendo referencia a el reberendo Padre Guardian y V. Discretorio lo que havia pasado nos remitio a su \"EjA?\" Quien enquanto vio la cartra del senor Vicitador General, y referido lo susedido, en Tepic y la causa de la dentencion, dio luego \"unclear\" rebocando el que habia dado, mandado de nuebo que nosotros pasasemos a la california, y los obserbantes, a su primer destino de Sonora. entregaronme, este DCcreto, el dia once, y pasando a dar las gracias de el a su \"ExA\" nos dijo que lo despachasemos por correo, y descansasemos algunos dias del dilatado viaje, lo mismo, parecio del Reverendo Padre Guardian y asi se ejecuto embiando correo a Guadalajara, con dicho DCcreto, y quedamos descansando unos dias. \nEn estos dias se celebro el capitulo del colejio, en el que salio de Guardian el Re"
        },
        {
            "pageid": 108994,
            "pagefilename": "8d602f55ea405bf04952e602f56be29d.jpg",
            "pageorigfilename": "Ayer_MS_1193-1_VL01_000016_o2.jpg",
            "transcription": "berendo Padre Frai Juan Andres, a quien pedi, permitiese viniese otros dos Micioneros, mas, supuesto que lla no hiban clarigos y que eran nesesarios diez, y seis saserdotes, propusolo en Discretorio, y habiendo combenido, fueron nombrados los Padres Predicador, Frai DConicio Barterra, y Frai Juan de Medina Beitia, ambos de la Provincia, de Cantabria, y juntos los cuatro saliamos, del colegio para Tepic el dia seis de Diciembre, sin haver tenido entanto caino, la menor nobedad; llegamos del Hospicio, de dicho Pueblo, el ultimo dia de dicho mes, siendo recividos de los demas con extraordinarias demostraciones de Alegria. \nCapitulo 3#\nProsigue la materia del antecedente La dije en el capitulo inmediato, que se embarcaron, los Padres observantes para la california, saliendo el mismo del Hospicio, para embarcarse, que nosotros para Mexico;  Quedando, en el Hospicio las dos Miciones de los"
        },
        {
            "pageid": 108995,
            "pagefilename": "d703dbd3fd9f443b995fa933174b8775.jpg",
            "pageorigfilename": "Ayer_MS_1193-1_VL01_000017r_o2.jpg",
            "transcription": "colegios, en donde se mantubieron sin la menor nobedad en este tiempo se concluio el \"Paquebot?\" nombrado San Carlos, y determino el comandante, Elizondo, el Embarcarse en el con todos los soldados Dragones, y Caballeria dejando ordenado que despues en el otro barco, o con los que vinieren de la California se embarcaria lo restante de la Tropa, y los Padres, Micioneros; Salio dicho comandante, con dicho Barco por la pasqua, de noche buena, ya los ocho dias bolbio de arribada a San Blas, por cuio motibo determinoise por Tierra con todos los Dragones dejando el de San Carlos, para que se embarcase lo restante de la Tropa para Quaimas, y que fuesen tambien los micioneros que cupiesen de los que iban para Sonora, que eran los del colegio de Queretaro. Aeste tiempo llego a San Blas, el Baquebot nombrado nuestra senora de Loreto, que venia de la california embiado del senor Governador Don Gaspar, de Portola que habia llegado del cabo de"
        },
        {
            "pageid": 108996,
            "pagefilename": "f4db6eb036170d7c7c6ebf7b0f76d4db.jpg",
            "pageorigfilename": "Ayer_MS_1193-1_VL01_000017_o2.jpg",
            "transcription": ""
        },
        {
            "pageid": 108997,
            "pagefilename": "ec5ba6f5dbb7d6584c578fc020a7ddcf.jpg",
            "pageorigfilename": "Ayer_MS_1193-1_VL01_000018r_o2.jpg",
            "transcription": ""
        },
        {
            "pageid": 108998,
            "pagefilename": "93f0ab1508a20121b968683cad4e6046.jpg",
            "pageorigfilename": "Ayer_MS_1193-1_VL01_000018_o2.jpg",
            "transcription": "dispuso, el viaje, embiando el Reverendo Padre Precidente, a dos de los Religiosos a San Blas por delante, para que resibieren las cargas, y dispusiesen, lo nesesario para el Barco, aunque esto no fue nesesario, porque corrio todo de cuenta del Rey, y a cargo de Don Manuel, De Ribero, comisario de San Blas, quien cuido; de poner todo el Rancho nesesario para el viaje, nombrando para conductor que cuidase de todo a Don Antonio Taroca, comandante, de Artilleria, para que nos companase, junto, con un Alferez, y ocho soldados. Luego, que nos dieron el haviso salimos de Tepic que fue el dia trece de Marzo, y el catorce, a medio dia, estabamos, ya todos en San Blas; En donde haiamos antlado al Paquebot, de San Carlos que venia de arrivada, despues de quarenta dis de navegacion, y al Reverendo Padre Precidente de la Micionde Queretaro, con otros cinco Religiosos, de su Micion, refiriendos los trabajos, que habian padecido los quaretna dias, de navegacion, sin hacer viaje, que"
        },
        {
            "pageid": 108999,
            "pagefilename": "b6ae1bc6e5e7716c5e6331a83986a0df.jpg",
            "pageorigfilename": "Ayer_MS_1193-1_VL01_000019r_o2.jpg",
            "transcription": ""
        },
        {
            "pageid": 109000,
            "pagefilename": "2515720ffcbeb1461b1276d33e279d2a.jpg",
            "pageorigfilename": "Ayer_MS_1193-1_VL01_000019_o2.jpg",
            "transcription": ""
        },
        {
            "pageid": 109001,
            "pagefilename": "f808ff3ea6dcd0fc60adfabe6825259c.jpg",
            "pageorigfilename": "Ayer_MS_1193-1_VL01_000020r_o2.jpg",
            "transcription": ""
        },
        {
            "pageid": 109002,
            "pagefilename": "874e8454b1c3cb3341039809bb3a6bdf.jpg",
            "pageorigfilename": "Ayer_MS_1193-1_VL01_000020_o2.jpg",
            "transcription": ""
        },
        {
            "pageid": 109003,
            "pagefilename": "719bbdde8fabccbe8115aa51391380fb.jpg",
            "pageorigfilename": "Ayer_MS_1193-1_VL01_000021r_o2.jpg",
            "transcription": ""
        },
        {
            "pageid": 109004,
            "pagefilename": "8b5b2dba686cb5fa3e97613b65060740.jpg",
            "pageorigfilename": "Ayer_MS_1193-1_VL01_000021_o2.jpg",
            "transcription": ""
        },
        {
            "pageid": 109005,
            "pagefilename": "0e0be5b96d54bced90cb84473c82a837.jpg",
            "pageorigfilename": "Ayer_MS_1193-1_VL01_000022r_o2.jpg",
            "transcription": ""
        },
        {
            "pageid": 109006,
            "pagefilename": "273f402e7ee1f1dec721027503919cc7.jpg",
            "pageorigfilename": "Ayer_MS_1193-1_VL01_000022_o2.jpg",
            "transcription": ""
        },
        {
            "pageid": 109007,
            "pagefilename": "411223b8a91ce7c902bcb4fa01af8ce1.jpg",
            "pageorigfilename": "Ayer_MS_1193-1_VL01_000023r_o2.jpg",
            "transcription": ""
        },
        {
            "pageid": 109008,
            "pagefilename": "7338d458512022cd6f8f1df56abbf314.jpg",
            "pageorigfilename": "Ayer_MS_1193-1_VL01_000023_o2.jpg",
            "transcription": ""
        },
        {
            "pageid": 109009,
            "pagefilename": "1eec2bb4ede243a0e6910716cf0e85db.jpg",
            "pageorigfilename": "Ayer_MS_1193-1_VL01_000024r_o2.jpg",
            "transcription": ""
        },
        {
            "pageid": 109010,
            "pagefilename": "2a53cb39868310948e6dc16bcb53ee63.jpg",
            "pageorigfilename": "Ayer_MS_1193-1_VL01_000024_o2.jpg",
            "transcription": ""
        },
        {
            "pageid": 109011,
            "pagefilename": "078c4f8979edaff3bcd6813859dd6e06.jpg",
            "pageorigfilename": "Ayer_MS_1193-1_VL01_000025r_o2.jpg",
            "transcription": ""
        },
        {
            "pageid": 109012,
            "pagefilename": "88dda54b383c9488721f99736dc3ae55.jpg",
            "pageorigfilename": "Ayer_MS_1193-1_VL01_000025_o2.jpg",
            "transcription": ""
        },
        {
            "pageid": 109013,
            "pagefilename": "ef35b352081fc24caf100c336c998616.jpg",
            "pageorigfilename": "Ayer_MS_1193-1_VL01_000026r_o2.jpg",
            "transcription": ""
        },
        {
            "pageid": 109014,
            "pagefilename": "d8b287a9844b4ad000ce06104ef7329c.jpg",
            "pageorigfilename": "Ayer_MS_1193-1_VL01_000026_o2.jpg",
            "transcription": ""
        },
        {
            "pageid": 109015,
            "pagefilename": "0b474892893161c4dcc08d4e0f02ea87.jpg",
            "pageorigfilename": "Ayer_MS_1193-1_VL01_000027r_o2.jpg",
            "transcription": ""
        },
        {
            "pageid": 109016,
            "pagefilename": "c4df813e024f5f3018c7ed9dcce18121.jpg",
            "pageorigfilename": "Ayer_MS_1193-1_VL01_000027_o2.jpg",
            "transcription": ""
        },
        {
            "pageid": 109017,
            "pagefilename": "761acfd09ec7d2bc7a3d6ccf91d8da07.jpg",
            "pageorigfilename": "Ayer_MS_1193-1_VL01_000028r_o2.jpg",
            "transcription": ""
        },
        {
            "pageid": 109018,
            "pagefilename": "5cc2db6301b6f28c0e53889aa5097373.jpg",
            "pageorigfilename": "Ayer_MS_1193-1_VL01_000028_o2.jpg",
            "transcription": ""
        },
        {
            "pageid": 109019,
            "pagefilename": "cb2183a46a18baca7af79a70f577d3e5.jpg",
            "pageorigfilename": "Ayer_MS_1193-1_VL01_000029r_o2.jpg",
            "transcription": ""
        },
        {
            "pageid": 109020,
            "pagefilename": "375c4d9947b775b6ce0986e3aace966b.jpg",
            "pageorigfilename": "Ayer_MS_1193-1_VL01_000029_o2.jpg",
            "transcription": ""
        },
        {
            "pageid": 109021,
            "pagefilename": "4385c1450bfec627025ab1f3f2fab61c.jpg",
            "pageorigfilename": "Ayer_MS_1193-1_VL01_000030r_o2.jpg",
            "transcription": ""
        },
        {
            "pageid": 109022,
            "pagefilename": "c28fd5ab00adc8c996b3fcbd5d9bbb56.jpg",
            "pageorigfilename": "Ayer_MS_1193-1_VL01_000030_o2.jpg",
            "transcription": ""
        },
        {
            "pageid": 109023,
            "pagefilename": "e90807b112b73c6e21d173b131e38673.jpg",
            "pageorigfilename": "Ayer_MS_1193-1_VL01_000031r_o2.jpg",
            "transcription": "Indios, hastsa ponerlos en todos santos. Assi se executo, por el mes de Septiembre, havecindandose en todos santos, los dos pueblos de dolores, y san Luis, que eran como ochocientas Almas; A la de Santiago, se mudaron los pocos que havian, en todos santos, y a san Josse del cabo, paso de San Javier, una Pancheria de quarenta, y cuatro almas, con que quedaron bien completas estas, tres miciones, del sur. Y en el paraje de San Luiz, se mudo la Familia de Felipe Romero, soldado reformado con todos sus hijos dnadole pocecion de la tierra dejando para aquella Iglecia, todos los Hornamentos nesesarios, para que dijesen Missa, quando pudiese ir, el Padre Micionero de San Javier, dejando encagado, que quando hubiese dos micioneros, fuese el uno una vez del mes a decir, Missa; todos los demas Hornamentos vasos sagrados, y utencilios de Iglecia, y sacristia, les dio el destino, para las nuebas miciones, de Monterrey, de lo que hablare mas adelante. \nCapitulo 8#"
        },
        {
            "pageid": 109024,
            "pagefilename": "d6fafb54490ba603d85054a438e1a2e5.jpg",
            "pageorigfilename": "Ayer_MS_1193-1_VL01_000031_o2.jpg",
            "transcription": "26\nViaje del Reberendo Padre Precidente, al Real de Santa Anna, llamado del senor Vicitador General y de lo que entre los dos se determino a serca de las miciones. \nDEsde que puso el senor vicitador los pies en la Pen-insula, fue mui amenudo escriviendo al Reverendo Padre Precidente sobre las dispociciones, de las Miciones de la Pen-insula, y del encargo que trahia de su Magestad, de las expediciones de Monterrey, a cuias Cartas, respondia el Reberendo, Padre Precidente, pero deceando su unclear. tratar, boca a boca, estos importantes asuntos, le escrivio tomase el travajo de pasar al Real de Santa Anna, para resolver, entre los dos lo que se jusgase por mas combeniente del vien, de la Pen-insula, y propagacion de nuetra, santa fe. En vista de la carta de su unclear passo a el Real de Santa Anna, el Reverndo Padre Precidente llegando a el el ultimp dia, de octubre de dicho ano de mil setecientos sesenta"
        },
        {
            "pageid": 109025,
            "pagefilename": "a3f087251c5a8042e46bd38b1bca28cc.jpg",
            "pageorigfilename": "Ayer_MS_1193-1_VL01_000032r_o2.jpg",
            "transcription": "y ocho; comunicaronse entresi, y resolbieron algunos puntos, asi por lo que tocaba a las miciones, antiguas como a las nuebas. \nResolvieron que sinodos habian de dar para los micioneros, que fue para las antiguas, y que tenian las miciones con que pasar, se les diese, por los dos micioneros, quatrocientos pesos anuales, para las otras que estvan mas pobres aquatrocientos, y cinquenta para las mas necesitadas, quinientos pesos; y para la de Santa Maria que era novisima, y para las demas que fueren fundadndo, asetecientos pesos, amas de que sedarian todos los Hornamentos, Basos, sagrados, y utencilios, necessarios de Iglecia, y Sacristia, Y que mas, de esto, sedaria un mil pesos para que se gastasen en lo que se jusgase, necesario para su fundacion. \nPropusele su Illma. la horden quetenia de la corte, y en cargo de su \"ExA?\" de despachar una expedicion por mar para la conquista, y Poblacion, de los Puertos de San Diego, y Monterrey para cuio efecto estaba aguardando los dos"
        },
        {
            "pageid": 109026,
            "pagefilename": "00085f826a21031b6662098e7b9a5ab4.jpg",
            "pageorigfilename": "Ayer_MS_1193-1_VL01_000032_o2.jpg",
            "transcription": "27 \nPaquebotes, de su Magestad nombrados SanCarlos y San Antonio alias el Principe, que venian cargados de Vienes, y de todo lo necesario para la empresa; Assimismo declaro como tenia resuleto, el Despachar tambien por tierra, otra expedicion que fuese Caminando desde la micion de Santa Maria, frontera de la Gentilidad hasta San Diego, y que Poblando San Diego, siguiese su viaje hasta Monterrey y para eso le parecia combeniente el que fuese Micioneros, por Mar, y tierra para que se juntasen las tres miciones la una en el puerto de San diego, la otra entre esta y Monterrey, y que si fuera pocible se fundase, otra mas halla de Santa Maria camino de San Diego, pero que para esto eran nesesarios, mas Micioneros. \nOida esta propuesta por el Reverendo Padre, precidente, se ofrecio gustoso air en Persona, con una de las expediciones, y que tamcut word"
        },
        {
            "pageid": 109027,
            "pagefilename": "ffb08083c705d1f7888343dbf7f496b7.jpg",
            "pageorigfilename": "Ayer_MS_1193-1_VL01_000033r_o2.jpg",
            "transcription": ""
        },
        {
            "pageid": 109028,
            "pagefilename": "c136091b92c1eac50c21160d81ca5a71.jpg",
            "pageorigfilename": "Ayer_MS_1193-1_VL01_000033_o2.jpg",
            "transcription": ""
        },
        {
            "pageid": 109029,
            "pagefilename": "135b00efa4920d5b8181c3bcbb1aaf75.jpg",
            "pageorigfilename": "Ayer_MS_1193-1_VL01_000034r_o2.jpg",
            "transcription": ""
        },
        {
            "pageid": 109030,
            "pagefilename": "f2966ec81054f1b12bc2fae396a3c10f.jpg",
            "pageorigfilename": "Ayer_MS_1193-1_VL01_000034_o2.jpg",
            "transcription": ""
        },
        {
            "pageid": 109031,
            "pagefilename": "bda3cce62e1b5d5c44c153fd5a71a136.jpg",
            "pageorigfilename": "Ayer_MS_1193-1_VL01_000035r_o2.jpg",
            "transcription": ""
        },
        {
            "pageid": 109032,
            "pagefilename": "e64a9c0b7e1061eedf420742aa6b1524.jpg",
            "pageorigfilename": "Ayer_MS_1193-1_VL01_000035_o2.jpg",
            "transcription": ""
        },
        {
            "pageid": 109033,
            "pagefilename": "be0553f389f63cf7c901248dd81006e3.jpg",
            "pageorigfilename": "Ayer_MS_1193-1_VL01_000036r_o2.jpg",
            "transcription": ""
        },
        {
            "pageid": 109034,
            "pagefilename": "bb3718571ec768b69d9a4b40b1eb1b09.jpg",
            "pageorigfilename": "Ayer_MS_1193-1_VL01_000036_o2.jpg",
            "transcription": ""
        },
        {
            "pageid": 109035,
            "pagefilename": "f832b5f22f4c9f4950f5c79b8e146430.jpg",
            "pageorigfilename": "Ayer_MS_1193-1_VL01_000037r_o2.jpg",
            "transcription": ""
        },
        {
            "pageid": 109036,
            "pagefilename": "c8959df71736ece10cfac9c274590b9e.jpg",
            "pageorigfilename": "Ayer_MS_1193-1_VL01_000037_o2.jpg",
            "transcription": ""
        },
        {
            "pageid": 109037,
            "pagefilename": "e6fd72c4c7517aa3b16f54ad1decd395.jpg",
            "pageorigfilename": "Ayer_MS_1193-1_VL01_000038r_o2.jpg",
            "transcription": ""
        },
        {
            "pageid": 109038,
            "pagefilename": "076390ce53f5b6d3e708200673fe948c.jpg",
            "pageorigfilename": "Ayer_MS_1193-1_VL01_000038_o2.jpg",
            "transcription": ""
        },
        {
            "pageid": 109039,
            "pagefilename": "a15f213e010ebe3f9de678ac064a1825.jpg",
            "pageorigfilename": "Ayer_MS_1193-1_VL01_000039r_o2.jpg",
            "transcription": ""
        },
        {
            "pageid": 109040,
            "pagefilename": "c77090541312dbb78f41b0fb096abb21.jpg",
            "pageorigfilename": "Ayer_MS_1193-1_VL01_000039_o2.jpg",
            "transcription": ""
        },
        {
            "pageid": 109041,
            "pagefilename": "0561add493fae65cdde72a7f8b9c2945.jpg",
            "pageorigfilename": "Ayer_MS_1193-1_VL01_000040r_o2.jpg",
            "transcription": ""
        },
        {
            "pageid": 109042,
            "pagefilename": "8a00492d075938c14bc86c257e747fd5.jpg",
            "pageorigfilename": "Ayer_MS_1193-1_VL01_000040_o2.jpg",
            "transcription": ""
        },
        {
            "pageid": 109043,
            "pagefilename": "a91204cbc8cb332bca0013f8a97e3271.jpg",
            "pageorigfilename": "Ayer_MS_1193-1_VL01_000041r_o2.jpg",
            "transcription": ""
        },
        {
            "pageid": 109044,
            "pagefilename": "e47ad8bb05f25daa960b86cfed9957c5.jpg",
            "pageorigfilename": "Ayer_MS_1193-1_VL01_000041_o2.jpg",
            "transcription": ""
        },
        {
            "pageid": 109045,
            "pagefilename": "f45e9440bd4f3f3e433822ff27f1d02b.jpg",
            "pageorigfilename": "Ayer_MS_1193-1_VL01_000042r_o2.jpg",
            "transcription": ""
        },
        {
            "pageid": 109046,
            "pagefilename": "1cb81fca564b90945eb67e6bdef5f4a1.jpg",
            "pageorigfilename": "Ayer_MS_1193-1_VL01_000042_o2.jpg",
            "transcription": ""
        },
        {
            "pageid": 109047,
            "pagefilename": "4b35a951ae930d17677dc2edacbb929b.jpg",
            "pageorigfilename": "Ayer_MS_1193-1_VL01_000043r_o2.jpg",
            "transcription": ""
        },
        {
            "pageid": 109048,
            "pagefilename": "286b843eaaefe8dc46b10f5a6d60d008.jpg",
            "pageorigfilename": "Ayer_MS_1193-1_VL01_000043_o2.jpg",
            "transcription": ""
        },
        {
            "pageid": 109049,
            "pagefilename": "93ee536dab074bb2e621762dc63bb72e.jpg",
            "pageorigfilename": "Ayer_MS_1193-1_VL01_000044r_o2.jpg",
            "transcription": ""
        },
        {
            "pageid": 109050,
            "pagefilename": "d2c48841dc12cf0d9f974dd17c06aa87.jpg",
            "pageorigfilename": "Ayer_MS_1193-1_VL01_000044_o2.jpg",
            "transcription": ""
        },
        {
            "pageid": 109051,
            "pagefilename": "6f7289cf2945f72a1e75df0645fdac90.jpg",
            "pageorigfilename": "Ayer_MS_1193-1_VL01_000045r_o2.jpg",
            "transcription": ""
        },
        {
            "pageid": 109052,
            "pagefilename": "0ac981a913351ac1b3002559ec278a5e.jpg",
            "pageorigfilename": "Ayer_MS_1193-1_VL01_000045_o2.jpg",
            "transcription": ""
        },
        {
            "pageid": 109053,
            "pagefilename": "262b3523267221c63f5a93e90b65d026.jpg",
            "pageorigfilename": "Ayer_MS_1193-1_VL01_000046r_o2.jpg",
            "transcription": ""
        },
        {
            "pageid": 109054,
            "pagefilename": "07c83b2e89c66e68158b5d3d1e25c00d.jpg",
            "pageorigfilename": "Ayer_MS_1193-1_VL01_000046_o2.jpg",
            "transcription": ""
        },
        {
            "pageid": 109055,
            "pagefilename": "f24248626405ab564fede690f3bceaec.jpg",
            "pageorigfilename": "Ayer_MS_1193-1_VL01_000047r_o2.jpg",
            "transcription": ""
        },
        {
            "pageid": 109056,
            "pagefilename": "9fbb81df0e39c28d1dd0435271023cfc.jpg",
            "pageorigfilename": "Ayer_MS_1193-1_VL01_000047_o2.jpg",
            "transcription": ""
        },
        {
            "pageid": 109057,
            "pagefilename": "20222c07422dc13c2f758183e56e5fa7.jpg",
            "pageorigfilename": "Ayer_MS_1193-1_VL01_000048r_o2.jpg",
            "transcription": ""
        },
        {
            "pageid": 109058,
            "pagefilename": "c425cdf28e054c5383cbd87964f34710.jpg",
            "pageorigfilename": "Ayer_MS_1193-1_VL01_000048_o2.jpg",
            "transcription": ""
        },
        {
            "pageid": 109059,
            "pagefilename": "68dc15e3ccc1191ab3ec36460c10d96c.jpg",
            "pageorigfilename": "Ayer_MS_1193-1_VL01_000049r_o2.jpg",
            "transcription": ""
        },
        {
            "pageid": 109060,
            "pagefilename": "6ce745746d5f765822d8cf77f00170fc.jpg",
            "pageorigfilename": "Ayer_MS_1193-1_VL01_000049_o2.jpg",
            "transcription": ""
        },
        {
            "pageid": 109061,
            "pagefilename": "dcdc5e253e2f1a1dbed8d46fc19aec08.jpg",
            "pageorigfilename": "Ayer_MS_1193-1_VL01_000050r_o2.jpg",
            "transcription": ""
        },
        {
            "pageid": 109062,
            "pagefilename": "598d31ad54a90811ab53c4a5732f39c4.jpg",
            "pageorigfilename": "Ayer_MS_1193-1_VL01_000050_o2.jpg",
            "transcription": ""
        },
        {
            "pageid": 109063,
            "pagefilename": "391655117fc451156b69113e9ca7f971.jpg",
            "pageorigfilename": "Ayer_MS_1193-1_VL01_000051r_o2.jpg",
            "transcription": ""
        },
        {
            "pageid": 109064,
            "pagefilename": "a4594b80d2f5906b82c25cf0a5b8b3a7.jpg",
            "pageorigfilename": "Ayer_MS_1193-1_VL01_000051_o2.jpg",
            "transcription": ""
        },
        {
            "pageid": 109065,
            "pagefilename": "76def3ca816b09ed81e58a8100c03a03.jpg",
            "pageorigfilename": "Ayer_MS_1193-1_VL01_000052r_o2.jpg",
            "transcription": ""
        },
        {
            "pageid": 109066,
            "pagefilename": "6cfe0ce31545e6acf7e10e2b802b4636.jpg",
            "pageorigfilename": "Ayer_MS_1193-1_VL01_000052_o2.jpg",
            "transcription": ""
        },
        {
            "pageid": 109067,
            "pagefilename": "94e3fa436ff6caca5b147700e68bd766.jpg",
            "pageorigfilename": "Ayer_MS_1193-1_VL01_000053r_o2.jpg",
            "transcription": ""
        },
        {
            "pageid": 109068,
            "pagefilename": "81169d7f32f2267b7d0ffaa60ccd4acc.jpg",
            "pageorigfilename": "Ayer_MS_1193-1_VL01_000053_o2.jpg",
            "transcription": ""
        },
        {
            "pageid": 109069,
            "pagefilename": "607c2cdffea580c4913529c316b17936.jpg",
            "pageorigfilename": "Ayer_MS_1193-1_VL01_000054r_o2.jpg",
            "transcription": ""
        },
        {
            "pageid": 109070,
            "pagefilename": "7525f7c072862bd1326f7c075dbdda2a.jpg",
            "pageorigfilename": "Ayer_MS_1193-1_VL01_000054_o2.jpg",
            "transcription": ""
        },
        {
            "pageid": 109071,
            "pagefilename": "31bb9ec673d524a6c768191fbcfd09ce.jpg",
            "pageorigfilename": "Ayer_MS_1193-1_VL01_000055r_o2.jpg",
            "transcription": ""
        },
        {
            "pageid": 109072,
            "pagefilename": "e982212f8e6a4272b4a05afe2c916ccc.jpg",
            "pageorigfilename": "Ayer_MS_1193-1_VL01_000055_o2.jpg",
            "transcription": ""
        },
        {
            "pageid": 109073,
            "pagefilename": "cc8e32adf8d935f3ff0528e6d4d38be6.jpg",
            "pageorigfilename": "Ayer_MS_1193-1_VL01_000056r_o2.jpg",
            "transcription": ""
        },
        {
            "pageid": 109074,
            "pagefilename": "5fd543c75a2221487ff1b1b0213b209c.jpg",
            "pageorigfilename": "Ayer_MS_1193-1_VL01_000056_o2.jpg",
            "transcription": ""
        },
        {
            "pageid": 109075,
            "pagefilename": "bff2c2cf9f5cd68959b21b76dd5610d8.jpg",
            "pageorigfilename": "Ayer_MS_1193-1_VL01_000057r_o2.jpg",
            "transcription": ""
        },
        {
            "pageid": 109076,
            "pagefilename": "86bb42e09991d0f70cbb9b61c295d4aa.jpg",
            "pageorigfilename": "Ayer_MS_1193-1_VL01_000057_o2.jpg",
            "transcription": ""
        },
        {
            "pageid": 109077,
            "pagefilename": "5e6314e711dc3b693efea96f514d3fd4.jpg",
            "pageorigfilename": "Ayer_MS_1193-1_VL01_000058r_o2.jpg",
            "transcription": ""
        },
        {
            "pageid": 109078,
            "pagefilename": "bd805745ff5c3c38c63ac50955f02285.jpg",
            "pageorigfilename": "Ayer_MS_1193-1_VL01_000058_o2.jpg",
            "transcription": ""
        },
        {
            "pageid": 109079,
            "pagefilename": "95abfc7218db7c472fda21cc341a471e.jpg",
            "pageorigfilename": "Ayer_MS_1193-1_VL01_000059r_o2.jpg",
            "transcription": ""
        },
        {
            "pageid": 109080,
            "pagefilename": "05d70b4a0ca99eb46d3191b9b971178e.jpg",
            "pageorigfilename": "Ayer_MS_1193-1_VL01_000059_o2.jpg",
            "transcription": ""
        },
        {
            "pageid": 109081,
            "pagefilename": "4a9d2bdee1605cba600f1d30f7a6ccba.jpg",
            "pageorigfilename": "Ayer_MS_1193-1_VL01_000060r_o2.jpg",
            "transcription": ""
        },
        {
            "pageid": 109082,
            "pagefilename": "8f4e85ff3f8335415319bbde7fb2a152.jpg",
            "pageorigfilename": "Ayer_MS_1193-1_VL01_000060_o2.jpg",
            "transcription": ""
        },
        {
            "pageid": 109083,
            "pagefilename": "a299acdf9f4fad39c45a6ad051c68d68.jpg",
            "pageorigfilename": "Ayer_MS_1193-1_VL01_000061r_o2.jpg",
            "transcription": ""
        },
        {
            "pageid": 109084,
            "pagefilename": "8a7e5ddc82ba592a5ef848d856e448f0.jpg",
            "pageorigfilename": "Ayer_MS_1193-1_VL01_000061_o2.jpg",
            "transcription": ""
        },
        {
            "pageid": 109085,
            "pagefilename": "fa139f63c42fe27b095a7909a41f220c.jpg",
            "pageorigfilename": "Ayer_MS_1193-1_VL01_000062r_o2.jpg",
            "transcription": ""
        },
        {
            "pageid": 109086,
            "pagefilename": "d5477134771431f4fbd6b5f9777884b9.jpg",
            "pageorigfilename": "Ayer_MS_1193-1_VL01_000062_o2.jpg",
            "transcription": ""
        },
        {
            "pageid": 109087,
            "pagefilename": "9f0ad9d2048402babd93e4845f55912c.jpg",
            "pageorigfilename": "Ayer_MS_1193-1_VL01_000063r_o2.jpg",
            "transcription": ""
        },
        {
            "pageid": 109088,
            "pagefilename": "2caa0a67b649aba9cba10f2db92c218b.jpg",
            "pageorigfilename": "Ayer_MS_1193-1_VL01_000063_o2.jpg",
            "transcription": ""
        },
        {
            "pageid": 109089,
            "pagefilename": "412af83529d62c146308156cf5696924.jpg",
            "pageorigfilename": "Ayer_MS_1193-1_VL01_000064r_o2.jpg",
            "transcription": ""
        },
        {
            "pageid": 109090,
            "pagefilename": "f46a8ea2f4f36456d49f7017bbc29f69.jpg",
            "pageorigfilename": "Ayer_MS_1193-1_VL01_000064_o2.jpg",
            "transcription": ""
        },
        {
            "pageid": 109091,
            "pagefilename": "6099a6a3a375dff0833f2c70fb5733ba.jpg",
            "pageorigfilename": "Ayer_MS_1193-1_VL01_000065r_o2.jpg",
            "transcription": ""
        },
        {
            "pageid": 109092,
            "pagefilename": "957300c8cbc95ce9f75732e08bc80402.jpg",
            "pageorigfilename": "Ayer_MS_1193-1_VL01_000065_o2.jpg",
            "transcription": ""
        },
        {
            "pageid": 109093,
            "pagefilename": "179a10a0254514e7275501728ae1db70.jpg",
            "pageorigfilename": "Ayer_MS_1193-1_VL01_000066r_o2.jpg",
            "transcription": ""
        },
        {
            "pageid": 109094,
            "pagefilename": "2f2a892921976a110335ded055f840e5.jpg",
            "pageorigfilename": "Ayer_MS_1193-1_VL01_000066_o2.jpg",
            "transcription": ""
        },
        {
            "pageid": 109095,
            "pagefilename": "0af61f57c0e93aa06065826cb9239191.jpg",
            "pageorigfilename": "Ayer_MS_1193-1_VL01_000067r_o2.jpg",
            "transcription": ""
        },
        {
            "pageid": 109096,
            "pagefilename": "271f451ade681a0e7e3827fe64c78ea6.jpg",
            "pageorigfilename": "Ayer_MS_1193-1_VL01_000067_o2.jpg",
            "transcription": ""
        },
        {
            "pageid": 109097,
            "pagefilename": "2b609266658f8cb873651b179f52a4e8.jpg",
            "pageorigfilename": "Ayer_MS_1193-1_VL01_000068r_o2.jpg",
            "transcription": ""
        },
        {
            "pageid": 109098,
            "pagefilename": "97cf31ca51dc14f9478e1487570d9ff5.jpg",
            "pageorigfilename": "Ayer_MS_1193-1_VL01_000068_o2.jpg",
            "transcription": ""
        },
        {
            "pageid": 109099,
            "pagefilename": "644f977eedf66da9e2f427e6f9726f91.jpg",
            "pageorigfilename": "Ayer_MS_1193-1_VL01_000069r_o2.jpg",
            "transcription": ""
        },
        {
            "pageid": 109100,
            "pagefilename": "36823ac21838591ce877c45d8b9381cf.jpg",
            "pageorigfilename": "Ayer_MS_1193-1_VL01_000069_o2.jpg",
            "transcription": ""
        },
        {
            "pageid": 109101,
            "pagefilename": "1299b70c97c4b565deb8a7872efa1556.jpg",
            "pageorigfilename": "Ayer_MS_1193-1_VL01_000070r_o2.jpg",
            "transcription": ""
        },
        {
            "pageid": 109102,
            "pagefilename": "bff0f7fb0e3c934f26c4fa2a11c7dade.jpg",
            "pageorigfilename": "Ayer_MS_1193-1_VL01_000070_o2.jpg",
            "transcription": ""
        },
        {
            "pageid": 109103,
            "pagefilename": "41a560f8d2634601c5c6acec969a3ff1.jpg",
            "pageorigfilename": "Ayer_MS_1193-1_VL01_000071r_o2.jpg",
            "transcription": ""
        },
        {
            "pageid": 109104,
            "pagefilename": "4d34bb8c9f28f995e3933a1314cbd1cf.jpg",
            "pageorigfilename": "Ayer_MS_1193-1_VL01_000071_o2.jpg",
            "transcription": ""
        },
        {
            "pageid": 109105,
            "pagefilename": "4991c79176ef4f9d84a639e763f23105.jpg",
            "pageorigfilename": "Ayer_MS_1193-1_VL01_000072r_o2.jpg",
            "transcription": ""
        },
        {
            "pageid": 109106,
            "pagefilename": "052ecd077930c30498c018f2701f2e09.jpg",
            "pageorigfilename": "Ayer_MS_1193-1_VL01_000072_o2.jpg",
            "transcription": ""
        },
        {
            "pageid": 109107,
            "pagefilename": "bed457e671a276852d7fae1586ce4032.jpg",
            "pageorigfilename": "Ayer_MS_1193-1_VL01_000073r_o2.jpg",
            "transcription": ""
        },
        {
            "pageid": 109108,
            "pagefilename": "f25afd458f15509a013c21f61fc80f93.jpg",
            "pageorigfilename": "Ayer_MS_1193-1_VL01_000073_o2.jpg",
            "transcription": ""
        },
        {
            "pageid": 109109,
            "pagefilename": "de5a68c9ec73a2846b141d1458988394.jpg",
            "pageorigfilename": "Ayer_MS_1193-1_VL01_000074r_o2.jpg",
            "transcription": ""
        },
        {
            "pageid": 109110,
            "pagefilename": "c70a8dccc450cac9839c9193a1c9f4f0.jpg",
            "pageorigfilename": "Ayer_MS_1193-1_VL01_000074_o2.jpg",
            "transcription": ""
        },
        {
            "pageid": 109111,
            "pagefilename": "0e818ac46079ff8ab2d8418f8f9f5215.jpg",
            "pageorigfilename": "Ayer_MS_1193-1_VL01_000075r_o2.jpg",
            "transcription": ""
        },
        {
            "pageid": 109112,
            "pagefilename": "74e699cd2829cf33c48953e1d3a35365.jpg",
            "pageorigfilename": "Ayer_MS_1193-1_VL01_000075_o2.jpg",
            "transcription": ""
        },
        {
            "pageid": 109113,
            "pagefilename": "07eaf5d2bfcb09dd8dfb9f020c66d733.jpg",
            "pageorigfilename": "Ayer_MS_1193-1_VL01_000076r_o2.jpg",
            "transcription": ""
        },
        {
            "pageid": 109114,
            "pagefilename": "bea1b49a8db1a001d3304dc2e3d7b574.jpg",
            "pageorigfilename": "Ayer_MS_1193-1_VL01_000076_o2.jpg",
            "transcription": ""
        },
        {
            "pageid": 109115,
            "pagefilename": "edd882a663c1543c81467d0550719aee.jpg",
            "pageorigfilename": "Ayer_MS_1193-1_VL01_000077r_o2.jpg",
            "transcription": ""
        },
        {
            "pageid": 109116,
            "pagefilename": "22e2803d71103115ef6466595d054f76.jpg",
            "pageorigfilename": "Ayer_MS_1193-1_VL01_000077_o2.jpg",
            "transcription": ""
        },
        {
            "pageid": 109117,
            "pagefilename": "f57834553d8990e233f908a63f1458bf.jpg",
            "pageorigfilename": "Ayer_MS_1193-1_VL01_000078r_o2.jpg",
            "transcription": ""
        },
        {
            "pageid": 109118,
            "pagefilename": "687cc04b36b5e2b35570fc853eb802a5.jpg",
            "pageorigfilename": "Ayer_MS_1193-1_VL01_000078_o2.jpg",
            "transcription": ""
        },
        {
            "pageid": 109119,
            "pagefilename": "8a81d149fd8a1c54e2f10b59b265f113.jpg",
            "pageorigfilename": "Ayer_MS_1193-1_VL01_000079r_o2.jpg",
            "transcription": ""
        },
        {
            "pageid": 109120,
            "pagefilename": "18186d237860b0c2ab27f2c4567c9994.jpg",
            "pageorigfilename": "Ayer_MS_1193-1_VL01_000079_o2.jpg",
            "transcription": ""
        },
        {
            "pageid": 109121,
            "pagefilename": "86dde55a5e05108f81d480dc9d0bcc1a.jpg",
            "pageorigfilename": "Ayer_MS_1193-1_VL01_000080r_o2.jpg",
            "transcription": ""
        },
        {
            "pageid": 109122,
            "pagefilename": "f2a46cb9e68a2fc7375a77e24dd7b6f8.jpg",
            "pageorigfilename": "Ayer_MS_1193-1_VL01_000080_o2.jpg",
            "transcription": ""
        },
        {
            "pageid": 109123,
            "pagefilename": "9a6d4574caa66b8bded2c65cddc27858.jpg",
            "pageorigfilename": "Ayer_MS_1193-1_VL01_000081r_o2.jpg",
            "transcription": ""
        },
        {
            "pageid": 109124,
            "pagefilename": "680fe930e7d8ded8f1d858f0f12f13d3.jpg",
            "pageorigfilename": "Ayer_MS_1193-1_VL01_000081_o2.jpg",
            "transcription": ""
        },
        {
            "pageid": 109125,
            "pagefilename": "22ff20a5e735b90371a16bd66366bb0c.jpg",
            "pageorigfilename": "Ayer_MS_1193-1_VL01_000082r_o2.jpg",
            "transcription": ""
        },
        {
            "pageid": 109126,
            "pagefilename": "bbedafe53e53fa1074c8fdd423b4c8f6.jpg",
            "pageorigfilename": "Ayer_MS_1193-1_VL01_000082_o2.jpg",
            "transcription": ""
        },
        {
            "pageid": 109127,
            "pagefilename": "7c9e6fdd9c8d0931a92abc7366ef84ab.jpg",
            "pageorigfilename": "Ayer_MS_1193-1_VL01_000083r_o2.jpg",
            "transcription": ""
        },
        {
            "pageid": 109128,
            "pagefilename": "d811b1aab59d79c3419545389e3d31fb.jpg",
            "pageorigfilename": "Ayer_MS_1193-1_VL01_000083_o2.jpg",
            "transcription": ""
        },
        {
            "pageid": 109129,
            "pagefilename": "ffe13da27b96785a77ae940c349f097f.jpg",
            "pageorigfilename": "Ayer_MS_1193-1_VL01_000084r_o2.jpg",
            "transcription": ""
        },
        {
            "pageid": 109130,
            "pagefilename": "240828e3eeb1bbd8271f556606adb0ea.jpg",
            "pageorigfilename": "Ayer_MS_1193-1_VL01_000084_o2.jpg",
            "transcription": ""
        },
        {
            "pageid": 109131,
            "pagefilename": "5c16505dac34e269b1ed39da692a03b4.jpg",
            "pageorigfilename": "Ayer_MS_1193-1_VL01_000085r_o2.jpg",
            "transcription": ""
        },
        {
            "pageid": 109132,
            "pagefilename": "23e53a6fcff638ca67dafb0ae512136e.jpg",
            "pageorigfilename": "Ayer_MS_1193-1_VL01_000085_o2.jpg",
            "transcription": ""
        },
        {
            "pageid": 109133,
            "pagefilename": "e2ebf51e98a5b90c950ac95c2fce1c20.jpg",
            "pageorigfilename": "Ayer_MS_1193-1_VL01_000086r_o2.jpg",
            "transcription": ""
        },
        {
            "pageid": 109134,
            "pagefilename": "8f987c88f0775d5efe2a5d25cf1f70ff.jpg",
            "pageorigfilename": "Ayer_MS_1193-1_VL01_000086_o2.jpg",
            "transcription": ""
        },
        {
            "pageid": 109135,
            "pagefilename": "2ca57aeeea096dd1783d6d67d1db70a6.jpg",
            "pageorigfilename": "Ayer_MS_1193-1_VL01_000087r_o2.jpg",
            "transcription": ""
        },
        {
            "pageid": 109136,
            "pagefilename": "495ea33d43861d4a9f8fedf58fc5c566.jpg",
            "pageorigfilename": "Ayer_MS_1193-1_VL01_000087_o2.jpg",
            "transcription": ""
        },
        {
            "pageid": 109137,
            "pagefilename": "c3ac4ee398dbce6e72556e5e562a76e3.jpg",
            "pageorigfilename": "Ayer_MS_1193-1_VL01_000088r_o2.jpg",
            "transcription": ""
        },
        {
            "pageid": 109138,
            "pagefilename": "9b25d4477c8016462e297c1a47abf8ef.jpg",
            "pageorigfilename": "Ayer_MS_1193-1_VL01_000088_o2.jpg",
            "transcription": ""
        },
        {
            "pageid": 109139,
            "pagefilename": "cdd874266d06ee94794f88773b318032.jpg",
            "pageorigfilename": "Ayer_MS_1193-1_VL01_000089r_o2.jpg",
            "transcription": ""
        },
        {
            "pageid": 109140,
            "pagefilename": "af02e479644830e3aa7e79f7a3b24e04.jpg",
            "pageorigfilename": "Ayer_MS_1193-1_VL01_000089_o2.jpg",
            "transcription": ""
        },
        {
            "pageid": 109141,
            "pagefilename": "db3adf65b0f6ee75f7c60e6ae8d88c63.jpg",
            "pageorigfilename": "Ayer_MS_1193-1_VL01_000090r_o2.jpg",
            "transcription": ""
        },
        {
            "pageid": 109142,
            "pagefilename": "97da2ea62df4d59f6154fa28d98d7016.jpg",
            "pageorigfilename": "Ayer_MS_1193-1_VL01_000090_o2.jpg",
            "transcription": ""
        },
        {
            "pageid": 109143,
            "pagefilename": "9b76d260d534b434cb00ba472a30d875.jpg",
            "pageorigfilename": "Ayer_MS_1193-1_VL01_000091r_o2.jpg",
            "transcription": ""
        },
        {
            "pageid": 109144,
            "pagefilename": "1ea4081cc92e8fb4ae1d65e5fcdc6513.jpg",
            "pageorigfilename": "Ayer_MS_1193-1_VL01_000091_o2.jpg",
            "transcription": ""
        },
        {
            "pageid": 109145,
            "pagefilename": "19e61c7296be970fdc7f3c6ccbd5fd1c.jpg",
            "pageorigfilename": "Ayer_MS_1193-1_VL01_000092r_o2.jpg",
            "transcription": ""
        },
        {
            "pageid": 109146,
            "pagefilename": "12aba087208dc8fe7869245e980e224a.jpg",
            "pageorigfilename": "Ayer_MS_1193-1_VL01_000092_o2.jpg",
            "transcription": ""
        },
        {
            "pageid": 109147,
            "pagefilename": "56f3d08ce35a1b75592b3b6fb091621e.jpg",
            "pageorigfilename": "Ayer_MS_1193-1_VL01_000093r_o2.jpg",
            "transcription": ""
        },
        {
            "pageid": 109148,
            "pagefilename": "3b1405df644db9d16a7ea278f80a164d.jpg",
            "pageorigfilename": "Ayer_MS_1193-1_VL01_000093_o2.jpg",
            "transcription": ""
        },
        {
            "pageid": 109149,
            "pagefilename": "1f4e14913616dd38b95d23f37786d3f4.jpg",
            "pageorigfilename": "Ayer_MS_1193-1_VL01_000094r_o2.jpg",
            "transcription": ""
        },
        {
            "pageid": 109150,
            "pagefilename": "165cc339408b7edc657522c9e1ac85a0.jpg",
            "pageorigfilename": "Ayer_MS_1193-1_VL01_000094_o2.jpg",
            "transcription": ""
        },
        {
            "pageid": 109151,
            "pagefilename": "9a170c3a54af5366eae0df5653526990.jpg",
            "pageorigfilename": "Ayer_MS_1193-1_VL01_000095r_o2.jpg",
            "transcription": ""
        },
        {
            "pageid": 109152,
            "pagefilename": "4ddef01bf6d957a7d393847a2845cf66.jpg",
            "pageorigfilename": "Ayer_MS_1193-1_VL01_000095_o2.jpg",
            "transcription": ""
        },
        {
            "pageid": 109153,
            "pagefilename": "4872b37726b98030081ecd41959d3011.jpg",
            "pageorigfilename": "Ayer_MS_1193-1_VL01_000096r_o2.jpg",
            "transcription": ""
        },
        {
            "pageid": 109154,
            "pagefilename": "71c45068b4869123c454ea7fdf9d8f24.jpg",
            "pageorigfilename": "Ayer_MS_1193-1_VL01_000096_o2.jpg",
            "transcription": ""
        },
        {
            "pageid": 109155,
            "pagefilename": "d654439e5a1041390b2f222937cfe1e7.jpg",
            "pageorigfilename": "Ayer_MS_1193-1_VL01_000097r_o2.jpg",
            "transcription": ""
        },
        {
            "pageid": 109156,
            "pagefilename": "a34e9f8cf98d93f18b596878700c5fe3.jpg",
            "pageorigfilename": "Ayer_MS_1193-1_VL01_000097_o2.jpg",
            "transcription": ""
        },
        {
            "pageid": 109157,
            "pagefilename": "524e3c37927a73644917e6606d085805.jpg",
            "pageorigfilename": "Ayer_MS_1193-1_VL01_000098r_o2.jpg",
            "transcription": ""
        },
        {
            "pageid": 109158,
            "pagefilename": "76c13dafdecb40f79ff45fc0f9a47e6b.jpg",
            "pageorigfilename": "Ayer_MS_1193-1_VL01_000098_o2.jpg",
            "transcription": ""
        },
        {
            "pageid": 109159,
            "pagefilename": "31b4384c4bc92237fca1d5d863699ed6.jpg",
            "pageorigfilename": "Ayer_MS_1193-1_VL01_000099r_o2.jpg",
            "transcription": ""
        },
        {
            "pageid": 109160,
            "pagefilename": "33664cc2286b1ce3e4ddd2ab46d0851a.jpg",
            "pageorigfilename": "Ayer_MS_1193-1_VL01_000099_o2.jpg",
            "transcription": ""
        },
        {
            "pageid": 109161,
            "pagefilename": "48417fb2248a4bad8efd93d73e64ec89.jpg",
            "pageorigfilename": "Ayer_MS_1193-1_VL01_000100r_o2.jpg",
            "transcription": ""
        },
        {
            "pageid": 109162,
            "pagefilename": "5577940b62b353e0d078ded7448fc8bf.jpg",
            "pageorigfilename": "Ayer_MS_1193-1_VL01_000100_o2.jpg",
            "transcription": ""
        },
        {
            "pageid": 109163,
            "pagefilename": "8d648c94468d4ccab9e9d42ee913ff15.jpg",
            "pageorigfilename": "Ayer_MS_1193-1_VL01_000101r_o2.jpg",
            "transcription": ""
        },
        {
            "pageid": 109164,
            "pagefilename": "938640ffb88a2986e3ec88014d79efd7.jpg",
            "pageorigfilename": "Ayer_MS_1193-1_VL01_000101_o2.jpg",
            "transcription": ""
        },
        {
            "pageid": 109165,
            "pagefilename": "ac515815fa396f360e1c78894fbb545e.jpg",
            "pageorigfilename": "Ayer_MS_1193-1_VL01_000102r_o2.jpg",
            "transcription": ""
        },
        {
            "pageid": 109166,
            "pagefilename": "dee45722aaed5e33708b710289192c17.jpg",
            "pageorigfilename": "Ayer_MS_1193-1_VL01_000102_o2.jpg",
            "transcription": ""
        },
        {
            "pageid": 109167,
            "pagefilename": "74b72607b2d1ce38bda5e47dcdc72701.jpg",
            "pageorigfilename": "Ayer_MS_1193-1_VL01_000103r_o2.jpg",
            "transcription": ""
        },
        {
            "pageid": 109168,
            "pagefilename": "5cdd4b0cb66d8a33e35f3433d591111a.jpg",
            "pageorigfilename": "Ayer_MS_1193-1_VL01_000103_o2.jpg",
            "transcription": ""
        },
        {
            "pageid": 109169,
            "pagefilename": "00ec11bdaed2b1ad345ea4ac4b870744.jpg",
            "pageorigfilename": "Ayer_MS_1193-1_VL01_000104r_o2.jpg",
            "transcription": ""
        },
        {
            "pageid": 109170,
            "pagefilename": "50f67fb19c4364a62554efa018019629.jpg",
            "pageorigfilename": "Ayer_MS_1193-1_VL01_000104_o2.jpg",
            "transcription": ""
        },
        {
            "pageid": 109171,
            "pagefilename": "42d7fa882bf2005f9d2b7f0ae0413f60.jpg",
            "pageorigfilename": "Ayer_MS_1193-1_VL01_000105r_o2.jpg",
            "transcription": ""
        },
        {
            "pageid": 109172,
            "pagefilename": "932832e235ac526e1221a25338576a89.jpg",
            "pageorigfilename": "Ayer_MS_1193-1_VL01_000105_o2.jpg",
            "transcription": ""
        },
        {
            "pageid": 109173,
            "pagefilename": "00521894e16ba5bcff7f9c0d4d8669b8.jpg",
            "pageorigfilename": "Ayer_MS_1193-1_VL01_000106r_o2.jpg",
            "transcription": ""
        },
        {
            "pageid": 109174,
            "pagefilename": "2dc84930e9f035ffd7252ad8a77cf511.jpg",
            "pageorigfilename": "Ayer_MS_1193-1_VL01_000106_o2.jpg",
            "transcription": ""
        },
        {
            "pageid": 109175,
            "pagefilename": "2aa5114db8e6977b1b7097ca80b77d8d.jpg",
            "pageorigfilename": "Ayer_MS_1193-1_VL01_000107r_o2.jpg",
            "transcription": ""
        },
        {
            "pageid": 109176,
            "pagefilename": "6838c66395fe13bad0ec1cff99339d9b.jpg",
            "pageorigfilename": "Ayer_MS_1193-1_VL01_000107_o2.jpg",
            "transcription": ""
        },
        {
            "pageid": 109177,
            "pagefilename": "ac23b9c0eda9a5fcfa819be1c6f073ed.jpg",
            "pageorigfilename": "Ayer_MS_1193-1_VL01_000108r_o2.jpg",
            "transcription": ""
        },
        {
            "pageid": 109178,
            "pagefilename": "26f907f722ac3725a55b2a72f3acfe20.jpg",
            "pageorigfilename": "Ayer_MS_1193-1_VL01_000108_o2.jpg",
            "transcription": ""
        },
        {
            "pageid": 109179,
            "pagefilename": "5dce259e84faad629cee24a3008e1d78.jpg",
            "pageorigfilename": "Ayer_MS_1193-1_VL01_000109r_o2.jpg",
            "transcription": ""
        },
        {
            "pageid": 109180,
            "pagefilename": "3cc651af9e1c8346ad92b5c1eabce423.jpg",
            "pageorigfilename": "Ayer_MS_1193-1_VL01_000109_o2.jpg",
            "transcription": ""
        },
        {
            "pageid": 109181,
            "pagefilename": "d1ad57e33d834732807aaff064bf2f62.jpg",
            "pageorigfilename": "Ayer_MS_1193-1_VL01_000110r_o2.jpg",
            "transcription": ""
        },
        {
            "pageid": 109182,
            "pagefilename": "a827840ed75909dbd95d475f42d89def.jpg",
            "pageorigfilename": "Ayer_MS_1193-1_VL01_000110_o2.jpg",
            "transcription": ""
        },
        {
            "pageid": 109183,
            "pagefilename": "b1b3b1086d0b7f6f029517e476dd2c5c.jpg",
            "pageorigfilename": "Ayer_MS_1193-1_VL01_000111r_o2.jpg",
            "transcription": ""
        },
        {
            "pageid": 109184,
            "pagefilename": "1969f2a09f80ab4ee29ea4c40477b2c1.jpg",
            "pageorigfilename": "Ayer_MS_1193-1_VL01_000111_o2.jpg",
            "transcription": ""
        },
        {
            "pageid": 109185,
            "pagefilename": "a3ac2e73b27396a1182e7fd7d813b4b0.jpg",
            "pageorigfilename": "Ayer_MS_1193-1_VL01_000112r_o2.jpg",
            "transcription": ""
        },
        {
            "pageid": 109186,
            "pagefilename": "760cc1e0b2df37ee38eafa830adca17c.jpg",
            "pageorigfilename": "Ayer_MS_1193-1_VL01_000112_o2.jpg",
            "transcription": ""
        },
        {
            "pageid": 109187,
            "pagefilename": "839cd0bbc1c86f8bde6f5c9f2d36dda3.jpg",
            "pageorigfilename": "Ayer_MS_1193-1_VL01_000113r_o2.jpg",
            "transcription": ""
        },
        {
            "pageid": 109188,
            "pagefilename": "95e640bb962da34807e0f3cd93402065.jpg",
            "pageorigfilename": "Ayer_MS_1193-1_VL01_000113_o2.jpg",
            "transcription": ""
        },
        {
            "pageid": 109189,
            "pagefilename": "c4b4868c0da9dbe5cae10c188e56c6e6.jpg",
            "pageorigfilename": "Ayer_MS_1193-1_VL01_000114r_o2.jpg",
            "transcription": ""
        },
        {
            "pageid": 109190,
            "pagefilename": "62ee38c103f93cb9081a1f4c4cd7aef5.jpg",
            "pageorigfilename": "Ayer_MS_1193-1_VL01_000114_o2.jpg",
            "transcription": ""
        },
        {
            "pageid": 109191,
            "pagefilename": "d3091b31390758fc8e1f03449a1ec36d.jpg",
            "pageorigfilename": "Ayer_MS_1193-1_VL01_000115r_o2.jpg",
            "transcription": ""
        },
        {
            "pageid": 109192,
            "pagefilename": "b19abcbbfe4fb302bb4f55e8004df626.jpg",
            "pageorigfilename": "Ayer_MS_1193-1_VL01_000115_o2.jpg",
            "transcription": ""
        },
        {
            "pageid": 109193,
            "pagefilename": "e16e2f542a4cf327bb2481687ef8b2de.jpg",
            "pageorigfilename": "Ayer_MS_1193-1_VL01_000116r_o2.jpg",
            "transcription": ""
        },
        {
            "pageid": 109194,
            "pagefilename": "5470e5dca08ad109cbf779227cc86fc2.jpg",
            "pageorigfilename": "Ayer_MS_1193-1_VL01_000116_o2.jpg",
            "transcription": ""
        },
        {
            "pageid": 109195,
            "pagefilename": "09dd271df1404e24aee26cd1de2f9950.jpg",
            "pageorigfilename": "Ayer_MS_1193-1_VL01_000117r_o2.jpg",
            "transcription": ""
        },
        {
            "pageid": 109196,
            "pagefilename": "e0eb22969ac35b5c923cb13ca027a0a5.jpg",
            "pageorigfilename": "Ayer_MS_1193-1_VL01_000117_o2.jpg",
            "transcription": ""
        },
        {
            "pageid": 109197,
            "pagefilename": "c6e5567b7afe646e5d09c2e726a3a707.jpg",
            "pageorigfilename": "Ayer_MS_1193-1_VL01_000118r_o2.jpg",
            "transcription": ""
        },
        {
            "pageid": 109198,
            "pagefilename": "4df3842464883fb7be7cec68dd350818.jpg",
            "pageorigfilename": "Ayer_MS_1193-1_VL01_000118_o2.jpg",
            "transcription": ""
        },
        {
            "pageid": 109199,
            "pagefilename": "68b23556e2c3607f6c2bc8e4e08d254e.jpg",
            "pageorigfilename": "Ayer_MS_1193-1_VL01_000119r_o2.jpg",
            "transcription": ""
        },
        {
            "pageid": 109200,
            "pagefilename": "c2ee20fa7413ecf75cf303d9749793cb.jpg",
            "pageorigfilename": "Ayer_MS_1193-1_VL01_000119_o2.jpg",
            "transcription": ""
        },
        {
            "pageid": 109201,
            "pagefilename": "12f89b69fea01ad5081f7a315bd1dfeb.jpg",
            "pageorigfilename": "Ayer_MS_1193-1_VL01_000120r_o2.jpg",
            "transcription": ""
        },
        {
            "pageid": 109202,
            "pagefilename": "52502e2240c21cca2a909888a1fcc01d.jpg",
            "pageorigfilename": "Ayer_MS_1193-1_VL01_000120_o2.jpg",
            "transcription": ""
        },
        {
            "pageid": 109203,
            "pagefilename": "a83f6eecec8c83016947a0d38297541d.jpg",
            "pageorigfilename": "Ayer_MS_1193-1_VL01_000121r_o2.jpg",
            "transcription": ""
        },
        {
            "pageid": 109204,
            "pagefilename": "556e51ca3e89be3a173e397fadaec0a5.jpg",
            "pageorigfilename": "Ayer_MS_1193-1_VL01_000121_o2.jpg",
            "transcription": ""
        },
        {
            "pageid": 109205,
            "pagefilename": "b2358949f04ea2be6479d512ef2b0ce4.jpg",
            "pageorigfilename": "Ayer_MS_1193-1_VL01_000122r_o2.jpg",
            "transcription": ""
        },
        {
            "pageid": 109206,
            "pagefilename": "d4bbe40500a34e89a72e9ff685ae7a51.jpg",
            "pageorigfilename": "Ayer_MS_1193-1_VL01_000122_o2.jpg",
            "transcription": ""
        },
        {
            "pageid": 109207,
            "pagefilename": "523c0c1e945fe7bb4a0747aeb2e5207f.jpg",
            "pageorigfilename": "Ayer_MS_1193-1_VL01_000123r_o2.jpg",
            "transcription": ""
        },
        {
            "pageid": 109208,
            "pagefilename": "6bf929e5c6e0a5a2b8e49b9e606d6487.jpg",
            "pageorigfilename": "Ayer_MS_1193-1_VL01_000123_o2.jpg",
            "transcription": ""
        },
        {
            "pageid": 109209,
            "pagefilename": "6e6fd5dd4694f136d2f815a39dc31f17.jpg",
            "pageorigfilename": "Ayer_MS_1193-1_VL01_000124r_o2.jpg",
            "transcription": ""
        },
        {
            "pageid": 109210,
            "pagefilename": "99ddd38579d41f46e929926da494c88f.jpg",
            "pageorigfilename": "Ayer_MS_1193-1_VL01_000124_o2.jpg",
            "transcription": ""
        },
        {
            "pageid": 109211,
            "pagefilename": "85e6f3f83c12af5a27e3af7bdce18f2c.jpg",
            "pageorigfilename": "Ayer_MS_1193-1_VL01_000125r_o2.jpg",
            "transcription": ""
        },
        {
            "pageid": 109212,
            "pagefilename": "71e0facc175fcd37b1af03d7a589a8cb.jpg",
            "pageorigfilename": "Ayer_MS_1193-1_VL01_000125_o2.jpg",
            "transcription": ""
        },
        {
            "pageid": 109213,
            "pagefilename": "ba54ee248022147d9d726f97259b1d2f.jpg",
            "pageorigfilename": "Ayer_MS_1193-1_VL01_000126r_o2.jpg",
            "transcription": ""
        },
        {
            "pageid": 109214,
            "pagefilename": "fe3936f121ce9822d3683ed818ed237b.jpg",
            "pageorigfilename": "Ayer_MS_1193-1_VL01_000126_o2.jpg",
            "transcription": ""
        },
        {
            "pageid": 109215,
            "pagefilename": "fc6689bf0ec80e68429b2ca3019d530f.jpg",
            "pageorigfilename": "Ayer_MS_1193-1_VL01_000127r_o2.jpg",
            "transcription": ""
        },
        {
            "pageid": 109216,
            "pagefilename": "84a913f16bfdcde352ed17be55171b70.jpg",
            "pageorigfilename": "Ayer_MS_1193-1_VL01_000127_o2.jpg",
            "transcription": ""
        },
        {
            "pageid": 109217,
            "pagefilename": "dab386f9b2e782e0b450f2fce5155847.jpg",
            "pageorigfilename": "Ayer_MS_1193-1_VL01_000128r_o2.jpg",
            "transcription": ""
        },
        {
            "pageid": 109218,
            "pagefilename": "e048f1cc21f9733ca16f75fc59bdb687.jpg",
            "pageorigfilename": "Ayer_MS_1193-1_VL01_000128_o2.jpg",
            "transcription": ""
        },
        {
            "pageid": 109219,
            "pagefilename": "8f93e72577a358e068d596df7e5bcff1.jpg",
            "pageorigfilename": "Ayer_MS_1193-1_VL01_000129r_o2.jpg",
            "transcription": ""
        },
        {
            "pageid": 109220,
            "pagefilename": "402fa110aa8bb7960d6f50b8df1bedd9.jpg",
            "pageorigfilename": "Ayer_MS_1193-1_VL01_000129_o2.jpg",
            "transcription": ""
        },
        {
            "pageid": 109221,
            "pagefilename": "d1428f947ce192ce41ce1afeb964579c.jpg",
            "pageorigfilename": "Ayer_MS_1193-1_VL01_000130r_o2.jpg",
            "transcription": ""
        },
        {
            "pageid": 109222,
            "pagefilename": "34fe9a01d685a55145f907b9d2b9edbc.jpg",
            "pageorigfilename": "Ayer_MS_1193-1_VL01_000130_o2.jpg",
            "transcription": ""
        },
        {
            "pageid": 109223,
            "pagefilename": "206d8522bc979962354bbb2079277fd3.jpg",
            "pageorigfilename": "Ayer_MS_1193-1_VL01_000131r_o2.jpg",
            "transcription": ""
        },
        {
            "pageid": 109224,
            "pagefilename": "47d0440e729fb42eeac5b95651cd7705.jpg",
            "pageorigfilename": "Ayer_MS_1193-1_VL01_000131_o2.jpg",
            "transcription": ""
        },
        {
            "pageid": 109225,
            "pagefilename": "5296dad56f5461ef26c4cdc1266e689e.jpg",
            "pageorigfilename": "Ayer_MS_1193-1_VL01_000132r_o2.jpg",
            "transcription": ""
        },
        {
            "pageid": 109226,
            "pagefilename": "84089237a1960e4050bc3c887c8670a0.jpg",
            "pageorigfilename": "Ayer_MS_1193-1_VL01_000132_o2.jpg",
            "transcription": ""
        },
        {
            "pageid": 109227,
            "pagefilename": "b53718d3da6b04dcff4ee27b06982810.jpg",
            "pageorigfilename": "Ayer_MS_1193-1_VL01_000133r_o2.jpg",
            "transcription": ""
        },
        {
            "pageid": 109228,
            "pagefilename": "f603beeff5e210aee378164ec19c162e.jpg",
            "pageorigfilename": "Ayer_MS_1193-1_VL01_000133_o2.jpg",
            "transcription": ""
        },
        {
            "pageid": 109229,
            "pagefilename": "473438f29820042e36307d98ec9ddfdb.jpg",
            "pageorigfilename": "Ayer_MS_1193-1_VL01_000134r_o2.jpg",
            "transcription": ""
        },
        {
            "pageid": 109230,
            "pagefilename": "1365d3a9af5473d091a55d20a37ddb0b.jpg",
            "pageorigfilename": "Ayer_MS_1193-1_VL01_000134_o2.jpg",
            "transcription": ""
        },
        {
            "pageid": 109231,
            "pagefilename": "d7cad829e0922edfad09b1b9671457f4.jpg",
            "pageorigfilename": "Ayer_MS_1193-1_VL01_000135r_o2.jpg",
            "transcription": ""
        },
        {
            "pageid": 109232,
            "pagefilename": "08589135395a8d76a5fed4723b8037fa.jpg",
            "pageorigfilename": "Ayer_MS_1193-1_VL01_000135_o2.jpg",
            "transcription": ""
        },
        {
            "pageid": 109233,
            "pagefilename": "14ce662f2c45bf645f177f352c43d350.jpg",
            "pageorigfilename": "Ayer_MS_1193-1_VL01_000136r_o2.jpg",
            "transcription": ""
        },
        {
            "pageid": 109234,
            "pagefilename": "0034f78952f7bed2f1446848bf61572a.jpg",
            "pageorigfilename": "Ayer_MS_1193-1_VL01_000136_o2.jpg",
            "transcription": ""
        },
        {
            "pageid": 109235,
            "pagefilename": "f5193262be78f7d1463edf1fb77aecd6.jpg",
            "pageorigfilename": "Ayer_MS_1193-1_VL01_000137r_o2.jpg",
            "transcription": ""
        },
        {
            "pageid": 109236,
            "pagefilename": "9eb484781de4f70ee9df54117aeaf17b.jpg",
            "pageorigfilename": "Ayer_MS_1193-1_VL01_000137_o2.jpg",
            "transcription": ""
        },
        {
            "pageid": 109237,
            "pagefilename": "6ca5300365729b3c29b0fc695744a575.jpg",
            "pageorigfilename": "Ayer_MS_1193-1_VL01_000138r_o2.jpg",
            "transcription": ""
        },
        {
            "pageid": 109238,
            "pagefilename": "00ab7cdad732013c1008ffa9fc4749cf.jpg",
            "pageorigfilename": "Ayer_MS_1193-1_VL01_000138_o2.jpg",
            "transcription": ""
        },
        {
            "pageid": 109239,
            "pagefilename": "4697342bb58f098341a2b36b305b391f.jpg",
            "pageorigfilename": "Ayer_MS_1193-1_VL01_000139r_o2.jpg",
            "transcription": ""
        },
        {
            "pageid": 109240,
            "pagefilename": "6a3f5a3264331e9b8b17a8a840cf8d6e.jpg",
            "pageorigfilename": "Ayer_MS_1193-1_VL01_000139_o2.jpg",
            "transcription": ""
        },
        {
            "pageid": 109241,
            "pagefilename": "4f0dd5f3367b2ebaa31101432f2cc6c9.jpg",
            "pageorigfilename": "Ayer_MS_1193-1_VL01_000140r_o2.jpg",
            "transcription": ""
        },
        {
            "pageid": 109242,
            "pagefilename": "f186dbfb72180dcd855dff2c336294d0.jpg",
            "pageorigfilename": "Ayer_MS_1193-1_VL01_000140_o2.jpg",
            "transcription": ""
        },
        {
            "pageid": 109243,
            "pagefilename": "06933a55450266377d1d2188e80f6e29.jpg",
            "pageorigfilename": "Ayer_MS_1193-1_VL01_000141r_o2.jpg",
            "transcription": ""
        },
        {
            "pageid": 109244,
            "pagefilename": "eaa93704ebfd383fcb2b83d88450da86.jpg",
            "pageorigfilename": "Ayer_MS_1193-1_VL01_000141_o2.jpg",
            "transcription": ""
        },
        {
            "pageid": 109245,
            "pagefilename": "4abfec6d01380755ef9103ed955abaa9.jpg",
            "pageorigfilename": "Ayer_MS_1193-1_VL01_000142r_o2.jpg",
            "transcription": ""
        },
        {
            "pageid": 109246,
            "pagefilename": "e9e023a9cfd16e4d9ed63fa98a30fec1.jpg",
            "pageorigfilename": "Ayer_MS_1193-1_VL01_000142_o2.jpg",
            "transcription": ""
        },
        {
            "pageid": 109247,
            "pagefilename": "37904dfdc3b21fc292b73927a09187b6.jpg",
            "pageorigfilename": "Ayer_MS_1193-1_VL01_000143r_o2.jpg",
            "transcription": ""
        },
        {
            "pageid": 109248,
            "pagefilename": "dffd46513dc2e409d8342c34b50db901.jpg",
            "pageorigfilename": "Ayer_MS_1193-1_VL01_000143_o2.jpg",
            "transcription": ""
        },
        {
            "pageid": 109249,
            "pagefilename": "0375167d9d7512e0a663fcca3a152a76.jpg",
            "pageorigfilename": "Ayer_MS_1193-1_VL01_000144r_o2.jpg",
            "transcription": ""
        },
        {
            "pageid": 109250,
            "pagefilename": "cb160e41b054df7ab6d362819a04ff68.jpg",
            "pageorigfilename": "Ayer_MS_1193-1_VL01_000144_o2.jpg",
            "transcription": ""
        },
        {
            "pageid": 109251,
            "pagefilename": "3bc967ddd8b5997c3bce29fe5821ad99.jpg",
            "pageorigfilename": "Ayer_MS_1193-1_VL01_000145r_o2.jpg",
            "transcription": ""
        },
        {
            "pageid": 109252,
            "pagefilename": "401c8cc28b0b54538e9f48f969b35e90.jpg",
            "pageorigfilename": "Ayer_MS_1193-1_VL01_000145_o2.jpg",
            "transcription": ""
        },
        {
            "pageid": 109253,
            "pagefilename": "4ebffcce148acb9f65238903e7bef2ab.jpg",
            "pageorigfilename": "Ayer_MS_1193-1_VL01_000146r_o2.jpg",
            "transcription": ""
        },
        {
            "pageid": 109254,
            "pagefilename": "06b20dd4394e1008e649b86693632234.jpg",
            "pageorigfilename": "Ayer_MS_1193-1_VL01_000146_o2.jpg",
            "transcription": ""
        },
        {
            "pageid": 109255,
            "pagefilename": "f8dfa5326cebe42fa10b4fcaa0a403b2.jpg",
            "pageorigfilename": "Ayer_MS_1193-1_VL01_000147r_o2.jpg",
            "transcription": ""
        },
        {
            "pageid": 109256,
            "pagefilename": "5c51ab514a2249323e8b81f5c38d9e29.jpg",
            "pageorigfilename": "Ayer_MS_1193-1_VL01_000147_o2.jpg",
            "transcription": ""
        },
        {
            "pageid": 109257,
            "pagefilename": "a716ddb2bd29f8690eeed9729b850c22.jpg",
            "pageorigfilename": "Ayer_MS_1193-1_VL01_000148r_o2.jpg",
            "transcription": ""
        },
        {
            "pageid": 109258,
            "pagefilename": "d7f63864ac81ab603fab275d5650015f.jpg",
            "pageorigfilename": "Ayer_MS_1193-1_VL01_000148_o2.jpg",
            "transcription": ""
        },
        {
            "pageid": 109259,
            "pagefilename": "838183cac809473b24fc074db623f7f3.jpg",
            "pageorigfilename": "Ayer_MS_1193-1_VL01_000149r_o2.jpg",
            "transcription": ""
        },
        {
            "pageid": 109260,
            "pagefilename": "60c86ecbe1cdb37449f70716978ed8bb.jpg",
            "pageorigfilename": "Ayer_MS_1193-1_VL01_000149_o2.jpg",
            "transcription": ""
        },
        {
            "pageid": 109261,
            "pagefilename": "925209847867b096ec9c65fcc0720a11.jpg",
            "pageorigfilename": "Ayer_MS_1193-1_VL01_000150r_o2.jpg",
            "transcription": ""
        },
        {
            "pageid": 109262,
            "pagefilename": "216ef24e3c0744e3c88814ae5e3bd282.jpg",
            "pageorigfilename": "Ayer_MS_1193-1_VL01_000150_o2.jpg",
            "transcription": ""
        },
        {
            "pageid": 109263,
            "pagefilename": "8150b197a343021bfe2d7b64ab08edb2.jpg",
            "pageorigfilename": "Ayer_MS_1193-1_VL01_000151r_o2.jpg",
            "transcription": ""
        },
        {
            "pageid": 109264,
            "pagefilename": "76a41aecd79bb2e5260d9e68c53a1be8.jpg",
            "pageorigfilename": "Ayer_MS_1193-1_VL01_000151_o2.jpg",
            "transcription": ""
        },
        {
            "pageid": 109265,
            "pagefilename": "d132bf36049b9614325fc4b381806656.jpg",
            "pageorigfilename": "Ayer_MS_1193-1_VL01_000152r_o2.jpg",
            "transcription": ""
        },
        {
            "pageid": 109266,
            "pagefilename": "4fda737a8ac11d1dbc71d1f888974cf7.jpg",
            "pageorigfilename": "Ayer_MS_1193-1_VL01_000152_o2.jpg",
            "transcription": ""
        },
        {
            "pageid": 109267,
            "pagefilename": "46fc171d05bf73783c03ef0f9de3e609.jpg",
            "pageorigfilename": "Ayer_MS_1193-1_VL01_000153r_o2.jpg",
            "transcription": ""
        },
        {
            "pageid": 109268,
            "pagefilename": "62841954e7e096dc2a3ee275b8941083.jpg",
            "pageorigfilename": "Ayer_MS_1193-1_VL01_000153_o2.jpg",
            "transcription": ""
        },
        {
            "pageid": 109269,
            "pagefilename": "a7a2c1182e71a7baa96c812d39bcefc5.jpg",
            "pageorigfilename": "Ayer_MS_1193-1_VL01_000154r_o2.jpg",
            "transcription": ""
        },
        {
            "pageid": 109270,
            "pagefilename": "a2bba6c7fbe7b338b684b2eef0d23161.jpg",
            "pageorigfilename": "Ayer_MS_1193-1_VL01_000154_o2.jpg",
            "transcription": ""
        },
        {
            "pageid": 109271,
            "pagefilename": "18d02fcc9b0077e597ed05c272600623.jpg",
            "pageorigfilename": "Ayer_MS_1193-1_VL01_000155r_o2.jpg",
            "transcription": ""
        },
        {
            "pageid": 109272,
            "pagefilename": "5400832cba5c3e891bf6cabee89d3a33.jpg",
            "pageorigfilename": "Ayer_MS_1193-1_VL01_000155_o2.jpg",
            "transcription": ""
        },
        {
            "pageid": 109273,
            "pagefilename": "a02133db0a9abd42f0dc8d4e7351346b.jpg",
            "pageorigfilename": "Ayer_MS_1193-1_VL01_000156r_o2.jpg",
            "transcription": ""
        },
        {
            "pageid": 109274,
            "pagefilename": "0b1d5acaf912f810c8cc44f267e10df9.jpg",
            "pageorigfilename": "Ayer_MS_1193-1_VL01_000156_o2.jpg",
            "transcription": ""
        },
        {
            "pageid": 109275,
            "pagefilename": "b15ee1ab7fd5814546cb95b27fe9ddc8.jpg",
            "pageorigfilename": "Ayer_MS_1193-1_VL01_000157r_o2.jpg",
            "transcription": ""
        },
        {
            "pageid": 109276,
            "pagefilename": "f6f8cfa9f7fad18a11657bdd76c58feb.jpg",
            "pageorigfilename": "Ayer_MS_1193-1_VL01_000157_o2.jpg",
            "transcription": ""
        },
        {
            "pageid": 109277,
            "pagefilename": "690d5e94c01319bc4ec4bc1c7c46cde2.jpg",
            "pageorigfilename": "Ayer_MS_1193-1_VL01_000158r_o2.jpg",
            "transcription": ""
        },
        {
            "pageid": 109278,
            "pagefilename": "c3bd9e0de3f393f400f05b467f6b4ea5.jpg",
            "pageorigfilename": "Ayer_MS_1193-1_VL01_000158_o2.jpg",
            "transcription": ""
        },
        {
            "pageid": 109279,
            "pagefilename": "c864b0c95952295c99ff1863c30392ee.jpg",
            "pageorigfilename": "Ayer_MS_1193-1_VL01_000159r_o2.jpg",
            "transcription": ""
        },
        {
            "pageid": 109280,
            "pagefilename": "5462cb403613d3da2aa61e15fe23d4da.jpg",
            "pageorigfilename": "Ayer_MS_1193-1_VL01_000159_o2.jpg",
            "transcription": ""
        },
        {
            "pageid": 109281,
            "pagefilename": "3bc61529e6aa6a6500f4ce26b7c83ea6.jpg",
            "pageorigfilename": "Ayer_MS_1193-1_VL01_000160r_o2.jpg",
            "transcription": ""
        },
        {
            "pageid": 109282,
            "pagefilename": "7e0fa0d47ae167afe8bde407c7950955.jpg",
            "pageorigfilename": "Ayer_MS_1193-1_VL01_000160_o2.jpg",
            "transcription": ""
        },
        {
            "pageid": 109283,
            "pagefilename": "179c47c75e4bc61726b4ff9a7d89d210.jpg",
            "pageorigfilename": "Ayer_MS_1193-1_VL01_000161r_o2.jpg",
            "transcription": ""
        },
        {
            "pageid": 109284,
            "pagefilename": "56d6dddcec3d28ecad716df2f5058d6e.jpg",
            "pageorigfilename": "Ayer_MS_1193-1_VL01_000161_o2.jpg",
            "transcription": ""
        },
        {
            "pageid": 109285,
            "pagefilename": "9785c5cf5efec258d553c9f9b94bae1b.jpg",
            "pageorigfilename": "Ayer_MS_1193-1_VL01_000162r_o2.jpg",
            "transcription": ""
        },
        {
            "pageid": 109286,
            "pagefilename": "f053b4557c817938eea4b543dd8ea7dd.jpg",
            "pageorigfilename": "Ayer_MS_1193-1_VL01_000162_o2.jpg",
            "transcription": ""
        },
        {
            "pageid": 109287,
            "pagefilename": "6d6abdb0e6584c7ad01327c078ed9177.jpg",
            "pageorigfilename": "Ayer_MS_1193-1_VL01_000163r_o2.jpg",
            "transcription": ""
        },
        {
            "pageid": 109288,
            "pagefilename": "fd7d1fd1165aed2dea90838521ff3353.jpg",
            "pageorigfilename": "Ayer_MS_1193-1_VL01_000163_o2.jpg",
            "transcription": ""
        },
        {
            "pageid": 109289,
            "pagefilename": "8d1b2e6295c03cf45df4d61dc6276da5.jpg",
            "pageorigfilename": "Ayer_MS_1193-1_VL01_000164r_o2.jpg",
            "transcription": ""
        },
        {
            "pageid": 109290,
            "pagefilename": "fff41162293a8b2bcc4408e9280f0c5d.jpg",
            "pageorigfilename": "Ayer_MS_1193-1_VL01_000164_o2.jpg",
            "transcription": ""
        },
        {
            "pageid": 109291,
            "pagefilename": "8d850b66861212b032176dfb1a3ed3b2.jpg",
            "pageorigfilename": "Ayer_MS_1193-1_VL01_000165r_o2.jpg",
            "transcription": ""
        },
        {
            "pageid": 109292,
            "pagefilename": "2730f6d0af379682752a32b2ebd652cd.jpg",
            "pageorigfilename": "Ayer_MS_1193-1_VL01_000165_o2.jpg",
            "transcription": ""
        },
        {
            "pageid": 109293,
            "pagefilename": "c5d7dc6cdf02db05b85dacb7fa374e09.jpg",
            "pageorigfilename": "Ayer_MS_1193-1_VL01_000166r_o2.jpg",
            "transcription": ""
        },
        {
            "pageid": 109294,
            "pagefilename": "3e6815a05109d781fa94dbbb9d911c91.jpg",
            "pageorigfilename": "Ayer_MS_1193-1_VL01_000166_o2.jpg",
            "transcription": ""
        },
        {
            "pageid": 109295,
            "pagefilename": "0666ed3ff9dc081efb9526905652f976.jpg",
            "pageorigfilename": "Ayer_MS_1193-1_VL01_000167r_o2.jpg",
            "transcription": ""
        },
        {
            "pageid": 109296,
            "pagefilename": "693164578e7783e9fe8d842be9740b36.jpg",
            "pageorigfilename": "Ayer_MS_1193-1_VL01_000167_o2.jpg",
            "transcription": ""
        },
        {
            "pageid": 109297,
            "pagefilename": "6a7f8d1227a65978a45ea362eebc2962.jpg",
            "pageorigfilename": "Ayer_MS_1193-1_VL01_000168r_o2.jpg",
            "transcription": ""
        },
        {
            "pageid": 109298,
            "pagefilename": "68a47993fc1a27e8ba1ab3417e95ccb7.jpg",
            "pageorigfilename": "Ayer_MS_1193-1_VL01_000168_o2.jpg",
            "transcription": ""
        },
        {
            "pageid": 109299,
            "pagefilename": "a4dc8255fb1f01e5eb794efe035c59ef.jpg",
            "pageorigfilename": "Ayer_MS_1193-1_VL01_000169r_o2.jpg",
            "transcription": ""
        },
        {
            "pageid": 109300,
            "pagefilename": "4660de417fef54356a492708a2a6580a.jpg",
            "pageorigfilename": "Ayer_MS_1193-1_VL01_000169_o2.jpg",
            "transcription": ""
        }
    ]
}