{
    "id": "962",
    "cataloglink": "https://webvoyage.carli.illinois.edu/nby/cgi-bin/Pwebrecon.cgi?DB=local&v1=1&BBRecID=137232",
    "pages": [
        {
            "pageid": 61684,
            "pagefilename": "1c3035bb42e001b0169d01f02e72b17a.jpg",
            "pageorigfilename": "Ayer_MS_208_00001_o2.jpg",
            "transcription": "A meeting of the Officers of the Seventh U.S. Cavalry, was held in the Camp of the Regiment on the North Fork of Canadian River, Indian Territory, the fourth day of December 1868, to take into Consideration the untimely death of Captain Louis M. Hamilton of the Regiment, who was killed in the battle of the Washita November 27, 1868, and to testify by resolution the respect and estimation in which the deceased was held by his Comrades in Arms.\n\n     Brevet Major General Geo. A. Custer was chosen to preside over the Meeting, and a Committee was appointed to draft resolutions.\n     The following was reported by the Committee:\n\nResolved-\n\n    That the death in battle of our late Comrade Captain Louis M. Hamilton has bereft us of a dear and valued friend who, while living, we cherished as a rare and gifted gentleman of unsullied honor and spotless fame,\n    That we miss the genial face, the sparkling wit, the well tried warm and trusty heart of him whose loss we mourn more deeply than words can tell. \n\nResolved-\n\n    That by the death of the heroic Hamilton, the Army has lost one of its brightest ornaments: that\n\n\n\n[in pencil]  * boy Ayer N. A. MS 208"
        },
        {
            "pageid": 61685,
            "pagefilename": "09b3efd0947454b6a9189ece36761f2e.jpg",
            "pageorigfilename": "Ayer_MS_208_00002_o2.jpg",
            "transcription": "Death of Captain Hamilton ---\nOriginal Resolution"
        },
        {
            "pageid": 61686,
            "pagefilename": "6903a179d01a35dcff999dd7b66271ad.jpg",
            "pageorigfilename": "Ayer_MS_208_00003_o2.jpg",
            "transcription": "he was a thorough, gallant Soldier, with heart and hand in his work: whose highest aim was to be perfect \"without fear, and without reproach\" in all things pertaining to his profession.\n\n    That among the brilliant soldiers, who were selected after the closest scrutiny from the Armies of the East, and of the West for the new Army which was organized at the close of the late war, our lamented Hamilton stood in the foremost rank: that the genius of his mind, and the qualities of his heart stamped him as one of the purest and brightest soldiers of his Year and time: that his blameless life and glorious death, entitle him to a place among the departed heroes of his race.\n\nResolved-\n\n    That the patriotic Ardor, and devotion to Country and duty, which rendered the Grandsire Alexander Hamilton illustrious, were truthfully perpetuated in the Grandson, tho best efforts of whose life were directed towards the re-establishment of the Government, which his progenitor had aided to build: whose life's blood was shed in visiting just retribution upon those who had savagely outraged every principle of humanity, and who had persistently refused to recognize the Authority of that government\n\n2\n\n\n[in pencil]  *box Ayer N. A. MS 208"
        },
        {
            "pageid": 61687,
            "pagefilename": "2c692d7b0f464fa17104a1d1b5b53e5f.jpg",
            "pageorigfilename": "Ayer_MS_208_00004_o2.jpg",
            "transcription": "which he had learned from infancy to Venerate, and for the Supremacy of which he had fought on many famous fields.\nResolved\n\n    That the Officers and Soldiers of the Seventh Cavalry, do hereby express their heartfelt sympathy with all who mourn the loss of the deceased: Especially do they tender the same to his relatives and family friends.\n\nResolved\n\n     That the Secretary of this meeting be directed to transmit a Copy these proceedings to the relations of the deceased and that he also be directed to transmit a copy of the same for publication to the Army and Navy Journal, and to the Daily Eagle, a paper published in Poughkeepsie N.Y. where the deceased resided. \n\nThe report of the Committee was approved, and the meeting adjourned \"sine die\".\n\n                                                 G A Custer\n                                                  B Maj Genl\n                                                      U.S.A.\n                                                            President\n\nRob M West\nBvt Colones USA\nSecretary\n\n\n3 end\n\nAyer N. A. MS. 208"
        }
    ]
}