[["id","item_id","original_filename"],
["116414","1370","Ayer_MS_83f_FL001_00001_o2.jpg"],
["116415","1370","Ayer_MS_83f_FL001_00002_o2.jpg"],
["116416","1370","Ayer_MS_83f_FL001_00003_o2.jpg"],
["116417","1370","Ayer_MS_83f_FL001_00004_o2.jpg"],
["116418","1370","Ayer_MS_83f_FL001_00005_o2.jpg"],
["116419","1370","Ayer_MS_83f_FL001_00006_o2.jpg"],
["116420","1370","Ayer_MS_83f_FL001_00007_o2.jpg"],
["116421","1370","Ayer_MS_83f_FL001_00008_o2.jpg"],
["116422","1370","Ayer_MS_83f_FL001_00009_o2.jpg"],
["116423","1370","Ayer_MS_83f_FL001_00010_o2.jpg"],
["116424","1370","Ayer_MS_83f_FL001_00011_o2.jpg"],
["116425","1370","Ayer_MS_83f_FL001_00012_o2.jpg"],
["116426","1370","Ayer_MS_83f_FL001_00013_o2.jpg"],
["116427","1370","Ayer_MS_83f_FL002_00001_o2.jpg"],
["116428","1370","Ayer_MS_83f_FL002_00002_o2.jpg"],
["116429","1370","Ayer_MS_83f_FL002_00003_o2.jpg"],
["116430","1370","Ayer_MS_83f_FL002_00004_o2.jpg"],
["116431","1370","Ayer_MS_83f_FL002_00005_o2.jpg"],
["116432","1370","Ayer_MS_83f_FL002_00006_o2.jpg"],
["116433","1370","Ayer_MS_83f_FL002_00007_o2.jpg"],
["116434","1370","Ayer_MS_83f_FL002_00008_o2.jpg"],
["116435","1370","Ayer_MS_83f_FL002_00009_o2.jpg"],
["116436","1370","Ayer_MS_83f_FL002_00010_o2.jpg"],
["116437","1370","Ayer_MS_83f_FL003_00001_o2.jpg"],
["116438","1370","Ayer_MS_83f_FL003_00002_o2.jpg"],
["116439","1370","Ayer_MS_83f_FL003_00003_o2.jpg"],
["116440","1370","Ayer_MS_83f_FL003_00004_o2.jpg"],
["116441","1370","Ayer_MS_83f_FL003_00005_o2.jpg"],
["116442","1370","Ayer_MS_83f_FL003_00006_o2.jpg"],
["116443","1370","Ayer_MS_83f_FL003_00007_o2.jpg"],
["116444","1370","Ayer_MS_83f_FL003_00008_o2.jpg"],
["116445","1370","Ayer_MS_83f_FL003_00009_o2.jpg"],
["116446","1370","Ayer_MS_83f_FL003_00010_o2.jpg"],
["116447","1370","Ayer_MS_83f_FL003_00011_o2.jpg"],
["116448","1370","Ayer_MS_83f_FL003_00012_o2.jpg"],
["116449","1370","Ayer_MS_83f_FL004_00001_o2.jpg"],
["116450","1370","Ayer_MS_83f_FL004_00002_o2.jpg"],
["116451","1370","Ayer_MS_83f_FL004_00003_o2.jpg"],
["116452","1370","Ayer_MS_83f_FL004_00004_o2.jpg"],
["116453","1370","Ayer_MS_83f_FL004_00005_o2.jpg"],
["116454","1370","Ayer_MS_83f_FL004_00006_o2.jpg"],
["116455","1370","Ayer_MS_83f_FL004_00007_o2.jpg"],
["116456","1370","Ayer_MS_83f_FL004_00008_o2.jpg"],
["116457","1370","Ayer_MS_83f_FL004_00009_o2.jpg"],
["116458","1370","Ayer_MS_83f_FL004_00010_o2.jpg"],
["116459","1370","Ayer_MS_83f_FL005_00001_o2.jpg"],
["116460","1370","Ayer_MS_83f_FL005_00002_o2.jpg"],
["116461","1370","Ayer_MS_83f_FL005_00003_o2.jpg"],
["116462","1370","Ayer_MS_83f_FL005_00005_o2.jpg"],
["116463","1370","Ayer_MS_83f_FL005_00006_o2.jpg"],
["116464","1370","Ayer_MS_83f_FL005_00007_o2.jpg"],
["116465","1370","Ayer_MS_83f_FL005_00008_o2.jpg"],
["116466","1370","Ayer_MS_83f_FL005_00009_o2.jpg"],
["116467","1370","Ayer_MS_83f_FL005_00010_o2.jpg"],
["116468","1370","Ayer_MS_83f_FL005_00011_o2.jpg"],
["116469","1370","Ayer_MS_83f_FL005_00012_o2.jpg"],
["116470","1370","Ayer_MS_83f_FL005_00013_o2.jpg"],
["116471","1370","Ayer_MS_83f_FL005_00014_o2.jpg"],
["116472","1370","Ayer_MS_83f_FL005_00015_o2.jpg"],
["116473","1370","Ayer_MS_83f_FL006_00001_o2.jpg"],
["116474","1370","Ayer_MS_83f_FL006_00002_o2.jpg"],
["116475","1370","Ayer_MS_83f_FL006_00003_o2.jpg"],
["116476","1370","Ayer_MS_83f_FL006_00004_o2.jpg"],
["116477","1370","Ayer_MS_83f_FL006_00005_o2.jpg"],
["116478","1370","Ayer_MS_83f_FL006_00006_o2.jpg"],
["116479","1370","Ayer_MS_83f_FL006_00007_o2.jpg"],
["116480","1370","Ayer_MS_83f_FL006_00009_o2.jpg"],
["116481","1370","Ayer_MS_83f_FL006_00011_o2.jpg"],
["116482","1370","Ayer_MS_83f_FL006_00012_o2.jpg"],
["116483","1370","Ayer_MS_83f_FL006_00013_o2.jpg"],
["116484","1370","Ayer_MS_83f_FL006_00014_o2.jpg"],
["116485","1370","Ayer_MS_83f_FL006_00015_o2.jpg"],
["116486","1370","Ayer_MS_83f_FL007_00001_o2.jpg"],
["116487","1370","Ayer_MS_83f_FL007_00002_o2.jpg"],
["116488","1370","Ayer_MS_83f_FL007_00003_o2.jpg"],
["116489","1370","Ayer_MS_83f_FL007_00004_o2.jpg"],
["116490","1370","Ayer_MS_83f_FL007_00005_o2.jpg"],
["116491","1370","Ayer_MS_83f_FL007_00006_o2.jpg"],
["116492","1370","Ayer_MS_83f_FL007_00007_o2.jpg"],
["116493","1370","Ayer_MS_83f_FL007_00008_o2.jpg"],
["116494","1370","Ayer_MS_83f_FL007_00010_o2.jpg"],
["116495","1370","Ayer_MS_83f_FL007_00011_o2.jpg"],
["116496","1370","Ayer_MS_83f_FL007_00012_o2.jpg"],
["116497","1370","Ayer_MS_83f_FL008_00001_o2.jpg"],
["116498","1370","Ayer_MS_83f_FL008_00003_o2.jpg"],
["116499","1370","Ayer_MS_83f_FL008_00004_o2.jpg"],
["116500","1370","Ayer_MS_83f_FL008_00006_o2.jpg"],
["116501","1370","Ayer_MS_83f_FL008_00007_o2.jpg"],
["116502","1370","Ayer_MS_83f_FL008_00009_o2.jpg"],
["116503","1370","Ayer_MS_83f_FL008_00011_o2.jpg"],
["116504","1370","Ayer_MS_83f_FL008_00012_o2.jpg"],
["116505","1370","Ayer_MS_83f_FL008_00013_o2.jpg"],
["116506","1370","Ayer_MS_83f_FL008_00014_o2.jpg"],
["116507","1370","Ayer_MS_83f_FL009_00001_o2.jpg"],
["116508","1370","Ayer_MS_83f_FL009_00002_o2.jpg"],
["116509","1370","Ayer_MS_83f_FL009_00004_o2.jpg"],
["116510","1370","Ayer_MS_83f_FL009_00005_o2.jpg"],
["116511","1370","Ayer_MS_83f_FL009_00006_o2.jpg"],
["116512","1370","Ayer_MS_83f_FL009_00007_o2.jpg"],
["116513","1370","Ayer_MS_83f_FL009_00008_o2.jpg"],
["116514","1370","Ayer_MS_83f_FL009_00009_o2.jpg"],
["116515","1370","Ayer_MS_83f_FL009_00010_o2.jpg"],
["116516","1370","Ayer_MS_83f_FL009_00011_o2.jpg"],
["116517","1370","Ayer_MS_83f_FL010_00001_o2.jpg"],
["116518","1370","Ayer_MS_83f_FL010_00002_o2.jpg"],
["116519","1370","Ayer_MS_83f_FL010_00003_o2.jpg"],
["116520","1370","Ayer_MS_83f_FL010_00004_o2.jpg"],
["116521","1370","Ayer_MS_83f_FL010_00005_o2.jpg"],
["116522","1370","Ayer_MS_83f_FL010_00006_o2.jpg"],
["116523","1370","Ayer_MS_83f_FL010_00007_o2.jpg"],
["116524","1370","Ayer_MS_83f_FL010_00008_o2.jpg"],
["116525","1370","Ayer_MS_83f_FL010_00009_o2.jpg"],
["116526","1370","Ayer_MS_83f_FL010_00010_o2.jpg"],
["116527","1370","Ayer_MS_83f_FL010_00011_o2.jpg"],
["116528","1370","Ayer_MS_83f_FL011_00001_o2.jpg"],
["116529","1370","Ayer_MS_83f_FL011_00002_o2.jpg"],
["116530","1370","Ayer_MS_83f_FL011_00003_o2.jpg"],
["116531","1370","Ayer_MS_83f_FL011_00004_o2.jpg"],
["116532","1370","Ayer_MS_83f_FL011_00005_o2.jpg"],
["116533","1370","Ayer_MS_83f_FL011_00006_o2.jpg"],
["116534","1370","Ayer_MS_83f_FL011_00008_o2.jpg"],
["116535","1370","Ayer_MS_83f_FL011_00009_o2.jpg"],
["116536","1370","Ayer_MS_83f_FL011_00010_o2.jpg"],
["116537","1370","Ayer_MS_83f_FL011_00011_o2.jpg"],
["116538","1370","Ayer_MS_83f_FL012_00001_o2.jpg"],
["116539","1370","Ayer_MS_83f_FL012_00002_o2.jpg"],
["116540","1370","Ayer_MS_83f_FL012_00003_o2.jpg"],
["116541","1370","Ayer_MS_83f_FL012_00004_o2.jpg"],
["116542","1370","Ayer_MS_83f_FL012_00005_o2.jpg"],
["116543","1370","Ayer_MS_83f_FL012_00007_o2.jpg"],
["116544","1370","Ayer_MS_83f_FL012_00008_o2.jpg"],
["116545","1370","Ayer_MS_83f_FL012_00009_o2.jpg"],
["116546","1370","Ayer_MS_83f_FL012_00010_o2.jpg"],
["116547","1370","Ayer_MS_83f_FL012_00011_o2.jpg"],
["116548","1370","Ayer_MS_83f_FL012_00012_o2.jpg"],
["116549","1370","Ayer_MS_83f_FL012_00013_o2.jpg"]
]