[
    ["NL15OI1","1378","117556"],
    ["NL15OHY","1378","117557"],
    ["NL15OHK","1378","117558"],
    ["NL15OHT","1378","117559"],
    ["NL15OHC","1378","117560"],
    ["NL15OHU","1378","117561"],
    ["NL15OHA","1378","117562"],
    ["NL15OHO","1378","117563"],
    ["NL15OHF","1378","117564"],
    ["NL15OQC","1378","117565"],
    ["NL15OQE","1378","117566"],
    ["NL15OIG","1378","117567"],
    ["NL15OQG","1378","117568"],
    ["NL15OIU","1378","117569"],
    ["NL15OQ1","1378","117570"],
    ["NL15OIO","1378","117571"],
    ["NL15OIV","1378","117572"],
    ["NL15OQ8","1378","117573"],
    ["NL15OIZ","1378","117574"],
    ["NL15OQJ","1378","117575"],
    ["NL15OJR","1378","117576"],
    ["NL15OJM","1378","117577"],
    ["NL15OJU","1378","117578"],
    ["NL15OJC","1378","117579"],
    ["NL15OJO","1378","117580"],
    ["NL15OJJ","1378","117581"],
    ["NL15OJW","1378","117582"],
    ["NL15OKB","1378","117583"],
    ["NL15OLS","1378","117584"],
    ["NL15OLG","1378","117585"],
    ["NL15OLN","1378","117586"],
    ["NL15OL6","1378","117587"],
    ["NL15OLI","1378","117588"],
    ["NL15OLL","1378","117589"],
    ["NL15OLX","1378","117590"],
    ["NL15OLV","1378","117591"],
    ["NL15OJ9","1378","117592"],
    ["NL15OQA","1378","117593"],
    ["NL15OJ4","1378","117594"],
    ["NL15OJ7","1378","117595"],
    ["NL15OQ5","1378","117596"],
    ["NL15OQ3","1378","117597"],
    ["NL15OJ0","1378","117598"],
    ["NL15OM2","1378","117602"],
    ["NL15OM9","1378","117603"],
    ["NL15OM7","1378","117604"],
    ["NL15OMB","1378","117605"],
    ["NL15OMG","1378","117606"],
    ["NL15OME","1378","117607"],
    ["NL15OM4","1378","117608"],
    ["NL15OMJ","1378","117609"],
    ["NL15ON4","1378","117610"],
    ["NL15ON2","1378","117611"],
    ["NL15ON6","1378","117612"],
    ["NL15OMZ","1378","117613"],
    ["NL15ONA","1378","117614"],
    ["NL15ONB","1378","117615"],
    ["NL15OMR","1378","117616"],
    ["NL15OMM","1378","117617"],
    ["NL15OOM","1378","117618"],
    ["NL15ONV","1378","117619"],
    ["NL15ONR","1378","117620"],
    ["NL15ONM","1378","117621"],
    ["NL15ONI","1378","117622"],
    ["NL15ONZ","1378","117623"],
    ["NL15OOD","1378","117624"],
    ["NL15OOB","1378","117625"],
    ["NL15OO4","1378","117626"],
    ["NL15OO1","1378","117627"],
    ["NL15OO8","1378","117628"],
    ["NL15OIW","1378","117629"],
    ["NL15ONQ","1378","117630"],
    ["NL15OQ0","1378","117631"],
    ["NL15OQB","1378","117632"],
    ["NL15OZ2","1378","117633"],
    ["NL15OXF","1378","117634"],
    ["NL15OY0","1378","117635"],
    ["NL15OXX","1378","117636"],
    ["NL15OXL","1378","117637"],
    ["NL15OUY","1378","117638"],
    ["NL15OV0","1378","117639"],
    ["NL15OYZ","1378","117640"],
    ["NL15OSY","1378","117641"],
    ["NL15OSM","1378","117642"],
    ["NL15OSQ","1378","117643"],
    ["NL15OWA","1378","117644"],
    ["NL15OVZ","1378","117645"],
    ["NL15OW4","1378","117646"],
    ["NL15OVH","1378","117647"],
    ["NL15OVC","1378","117648"],
    ["NL15OVP","1378","117649"],
    ["NL15OW3","1378","117650"],
    ["NL15OVG","1378","117651"],
    ["NL15OVL","1378","117652"],
    ["NL15OVW","1378","117653"],
    ["NL15P14","1378","117654"],
    ["NL15OYR","1378","117655"],
    ["NL15OS1","1378","117656"],
    ["NL15OVQ","1378","117657"],
    ["NL15OVU","1378","117658"],
    ["NL15OTW","1378","117659"],
    ["NL15OUC","1378","117660"],
    ["NL15OU4","1378","117661"],
    ["NL15OU8","1378","117662"],
    ["NL15OTE","1378","117663"],
    ["NL15OU0","1378","117664"],
    ["NL15OY4","1378","117665"],
    ["NL15OYO","1378","117666"],
    ["NL15P6D","1378","117667"],
    ["NL15P82","1378","117668"],
    ["NL15P47","1378","117669"],
    ["NL15P5W","1378","117670"],
    ["NL15P7Z","1378","117671"],
    ["NL15P7X","1378","117672"],
    ["NL15P2G","1378","117673"],
    ["NL15P2J","1378","117674"],
    ["NL15P7P","1378","117675"],
    ["NL15P8S","1378","117676"],
    ["NL15P95","1378","117677"],
    ["NL15P8W","1378","117678"],
    ["NL15P90","1378","117679"],
    ["NL15P8V","1378","117680"],
    ["NL15P37","1378","117681"],
    ["NL15P3E","1378","117682"],
    ["NL15P3L","1378","117683"],
    ["NL15P4S","1378","117684"],
    ["NL15P5D","1378","117685"],
    ["NL15P6B","1378","117686"],
    ["NL15P79","1378","117687"],
    ["NL15P8D","1378","117688"],
    ["NL15P5J","1378","117689"],
    ["NL15P89","1378","117690"],
    ["NL15P8J","1378","117691"],
    ["NL15P8U","1378","117692"],
    ["NL15P5C","1378","117693"],
    ["NL15P58","1378","117694"],
    ["NL15P1Y","1378","117695"],
    ["NL15P25","1378","117696"],
    ["NL15P20","1378","117697"],
    ["NL15P8P","1378","117698"],
    ["NL15P2Y","1378","117699"],
    ["NL15P3O","1378","117700"],
    ["NL15P40","1378","117701"],
    ["NL15P4Q","1378","117702"],
    ["NL15P4W","1378","117703"],
    ["NL15P5O","1378","117704"],
    ["NL15P80","1378","117705"],
    ["NL15P97","1378","117706"],
    ["NL15P76","1378","117707"],
    ["NL15P7G","1378","117708"],
    ["NL15P39","1378","117709"],
    ["NL15P48","1378","117710"],
    ["NL15P4D","1378","117711"],
    ["NL15PA3","1378","117712"],
    ["NL15P7R","1378","117713"],
    ["NL15P7K","1378","117714"],
    ["NL15P7O","1378","117715"],
    ["NL15P7Y","1378","117716"],
    ["NL15P83","1378","117717"],
    ["NL15P21","1378","117718"],
    ["NL15P29","1378","117719"],
    ["NL15P24","1378","117720"],
    ["NL15P9M","1378","117721"],
    ["NL15P8C","1378","117722"],
    ["NL15P2I","1378","117723"],
    ["NL15P2O","1378","117724"],
    ["NL15P57","1378","117725"],
    ["NL15P6K","1378","117726"],
    ["NL15P46","1378","117727"],
    ["NL15P9C","1380","117859"],
    ["NL15P8H","1380","117860"],
    ["NL15P81","1380","117861"],
    ["NL15P5Y","1380","117862"],
    ["NL15P3K","1380","117863"],
    ["NL15P3F","1380","117864"],
    ["NL15P3H","1380","117865"],
    ["NL15P3S","1380","117866"],
    ["NL15P7B","1380","117867"],
    ["NL15P7E","1380","117868"],
    ["NL15P7W","1380","117869"],
    ["NL15P6N","1380","117870"],
    ["NL15P6U","1380","117871"],
    ["NL15P5H","1380","117872"],
    ["NL15P96","1380","117873"],
    ["NL15P7J","1380","117874"],
    ["NL15P7U","1380","117875"],
    ["NL15P9A","1380","117876"],
    ["NL15P99","1380","117877"],
    ["NL15P9F","1380","117878"],
    ["NL15P56","1380","117879"],
    ["NL15P51","1380","117880"],
    ["NL15P4Y","1380","117881"],
    ["NL15P4V","1380","117882"],
    ["NL15P8X","1380","117883"],
    ["NL15P8T","1380","117884"],
    ["NL15PA1","1380","117885"],
    ["NL15P9N","1380","117886"],
    ["NL15P9J","1380","117887"],
    ["NL15P9X","1380","117888"],
    ["NL15P9Y","1380","117889"],
    ["NL15P7T","1380","117890"],
    ["NL15P4H","1380","117891"],
    ["NL15P4K","1380","117892"],
    ["NL15P5T","1380","117893"],
    ["NL15P5Z","1380","117894"],
    ["NL15P6V","1380","117895"],
    ["NL15P3I","1380","117896"],
    ["NL15P3G","1380","117897"],
    ["NL15P3C","1380","117898"],
    ["NL15P8K","1380","117899"],
    ["NL15P8M","1380","117900"],
    ["NL15P61","1380","117901"],
    ["NL15P5X","1380","117902"],
    ["NL15P5U","1380","117903"],
    ["NL15P5Q","1380","117904"],
    ["NL15P45","1380","117905"],
    ["NL15P3N","1380","117906"],
    ["NL15P3Q","1380","117907"],
    ["NL15P3V","1380","117908"],
    ["NL15P6T","1380","117909"],
    ["NL15P8O","1380","117910"],
    ["NL15P98","1380","117911"],
    ["NL15P4O","1380","117912"],
    ["NL15P2B","1380","117913"],
    ["NL15P8N","1380","117914"],
    ["NL15P8G","1380","117915"],
    ["NL15P8L","1380","117916"],
    ["NL15P9W","1380","117917"],
    ["NL15P9T","1380","117918"],
    ["NL15P9Z","1380","117919"],
    ["NL15P4G","1380","117920"],
    ["NL15P2T","1380","117921"],
    ["NL15P43","1380","117922"],
    ["NL15P2Q","1380","117923"],
    ["NL15P35","1380","117924"],
    ["NL15P31","1380","117925"],
    ["NL15P2X","1380","117926"],
    ["NL15P2U","1380","117927"],
    ["NL15P38","1380","117928"],
    ["NL15P6G","1380","117929"],
    ["NL15P6M","1380","117930"],
    ["NL15P6C","1380","117931"],
    ["NL15P68","1380","117932"],
    ["NL15P6Q","1380","117933"],
    ["NL15P65","1380","117934"],
    ["NL15P4U","1380","117935"],
    ["NL15P7A","1380","117936"],
    ["NL15P5N","1380","117937"],
    ["NL15P7F","1380","117938"],
    ["NL15P53","1380","117939"],
    ["NL15P7D","1380","117940"],
    ["NL15PA4","1380","117941"],
    ["NL15P1Z","1380","117942"],
    ["NL15P3M","1380","117943"],
    ["NL15PG8","1380","117944"],
    ["NL15PG5","1380","117945"],
    ["NL15PH1","1380","117946"],
    ["NL15PH4","1380","117947"],
    ["NL15PH8","1380","117948"],
    ["NL15PGY","1380","117949"],
    ["NL15PGA","1380","117950"],
    ["NL15PGD","1380","117951"],
    ["NL15PGJ","1380","117952"],
    ["NL15PHS","1380","117953"],
    ["NL15PHN","1380","117954"],
    ["NL15PHW","1380","117955"],
    ["NL15PDK","1380","117956"],
    ["NL15PGP","1380","117957"],
    ["NL15PEK","1380","117958"],
    ["NL15PEN","1380","117959"],
    ["NL15PEP","1380","117960"],
    ["NL15PEG","1380","117961"],
    ["NL15PB1","1380","117962"],
    ["NL15PB5","1380","117963"],
    ["NL15PBX","1380","117964"],
    ["NL15PC1","1380","117965"],
    ["NL15PBC","1380","117966"],
    ["NL15PB9","1380","117967"],
    ["NL15PAV","1380","117968"],
    ["NL15PAR","1380","117969"],
    ["NL15PHY","1380","117970"],
    ["NL15PAK","1380","117971"],
    ["NL15PAN","1380","117972"],
    ["NL15PAX","1380","117973"],
    ["NL15PG4","1380","117975"],
    ["NL15PDS","1380","117976"],
    ["NL15PE3","1380","117977"],
    ["NL15PE7","1380","117978"],
    ["NL15PDW","1380","117979"],
    ["NL15PIG","1380","117980"],
    ["NL15PA6","1380","117981"],
    ["NL15PGF","1380","117982"],
    ["NL15PCD","1380","117983"],
    ["NL15PBG","1380","117984"],
    ["NL15PCN","1380","117985"],
    ["NL15PC2","1380","117986"],
    ["NL15PB3","1380","117987"],
    ["NL15PF0","1380","117988"],
    ["NL15PF4","1380","117989"],
    ["NL15PB0","1380","117990"],
    ["NL15PAW","1380","117991"],
    ["NL15PCE","1380","117992"],
    ["NL15PCJ","1380","117993"],
    ["NL15PEW","1380","117994"],
    ["NL15PFB","1380","117995"],
    ["NL15PF7","1380","117996"],
    ["NL15PBZ","1380","117997"],
    ["NL15PAU","1380","117998"],
    ["NL15PC9","1380","117999"],
    ["NL15PCZ","1380","118000"],
    ["NL15PCV","1380","118001"],
    ["NL15PCS","1380","118002"],
    ["NL15PCO","1380","118003"],
    ["NL15PD3","1380","118004"],
    ["NL15PD6","1380","118005"],
    ["NL15PF8","1380","118006"],
    ["NL15PAG","1380","118007"],
    ["NL15PFH","1380","118008"],
    ["NL15PFN","1380","118009"],
    ["NL15PFW","1380","118010"],
    ["NL15PFQ","1380","118011"],
    ["NL15PHM","1380","118012"],
    ["NL15PHR","1380","118013"],
    ["NL15PH6","1380","118014"],
    ["NL15PGO","1380","118015"],
    ["NL15PGS","1380","118016"],
    ["NL15PHA","1380","118017"],
    ["NL15PGZ","1380","118018"],
    ["NL15PHK","1380","118019"],
    ["NL15PH2","1380","118020"],
    ["NL15PGV","1380","118021"],
    ["NL15PHG","1380","118022"],
    ["NL15PHO","1380","118023"],
    ["NL15PAB","1380","118024"],
    ["NL15PAP","1380","118025"],
    ["NL15PAF","1380","118026"],
    ["NL15PAL","1380","118027"],
    ["NL15PED","1380","118028"],
    ["NL15PE9","1380","118029"],
    ["NL15PFP","1380","118030"],
    ["NL15PFU","1380","118031"],
    ["NL15PGK","1380","118032"],
    ["NL15PG2","1380","118033"],
    ["NL15PCT","1380","118034"],
    ["NL15PBU","1380","118035"],
    ["NL15PCY","1380","118036"],
    ["NL15PCM","1380","118037"],
    ["NL15PCW","1380","118038"],
    ["NL15PFE","1380","118039"],
    ["NL15PB6","1380","118040"],
    ["NL15PDC","1380","118041"],
    ["NL15PCG","1380","118042"],
    ["NL15PAZ","1380","118043"],
    ["NL15PD2","1380","118044"],
    ["NL15PD9","1380","118045"],
    ["NL15PBL","1380","118046"],
    ["NL15PD5","1380","118047"],
    ["NL15PCP","1380","118048"],
    ["NL15PB2","1380","118049"],
    ["NL15PCC","1380","118050"],
    ["NL15PBY","1380","118051"],
    ["NL15PC3","1380","118052"],
    ["NL15PC7","1380","118053"],
    ["NL15PCQ","1380","118054"],
    ["NL15PCH","1380","118055"],
    ["NL15PBQ","1380","118056"],
    ["NL15PBI","1380","118057"],
    ["NL15PBM","1380","118058"],
    ["NL15PBS","1380","118059"],
    ["NL15PF5","1380","118060"],
    ["NL15PF1","1380","118061"],
    ["NL15PFA","1380","118062"],
    ["NL15PI3","1380","118063"],
    ["NL15PHX","1380","118064"],
    ["NL15PHZ","1380","118065"],
    ["NL15PI6","1380","118066"],
    ["NL15PF2","1381","118067"],
    ["NL15PDF","1381","118068"],
    ["NL15PDI","1381","118069"],
    ["NL15PG1","1381","118070"],
    ["NL15PFZ","1381","118071"],
    ["NL15PHQ","1381","118072"],
    ["NL15PHT","1381","118073"],
    ["NL15PET","1381","118074"],
    ["NL15PFX","1381","118075"],
    ["NL15PG7","1381","118076"],
    ["NL15PC5","1381","118077"],
    ["NL15PAT","1381","118078"],
    ["NL15PAD","1381","118079"],
    ["NL15PDH","1381","118080"],
    ["NL15PCL","1381","118081"],
    ["NL15PHF","1381","118082"],
    ["NL15PFO","1381","118083"],
    ["NL15PFR","1381","118084"],
    ["NL15PFV","1381","118085"],
    ["NL15PG0","1381","118086"],
    ["NL15PAJ","1381","118087"],
    ["NL15PBW","1381","118088"],
    ["NL15PEX","1381","118089"],
    ["NL15PHJ","1381","118090"],
    ["NL15PHD","1381","118091"],
    ["NL15PC6","1381","118092"],
    ["NL15PBF","1381","118093"],
    ["NL15PGG","1381","118094"],
    ["NL15PDM","1381","118095"],
    ["NL15PDQ","1381","118096"],
    ["NL15PIF","1381","118097"],
    ["NL15PID","1381","118098"],
    ["NL15PIB","1381","118099"],
    ["NL15PHI","1381","118100"],
    ["NL15PEZ","1381","118101"],
    ["NL15PIA","1381","118102"],
    ["NL15PIC","1381","118103"],
    ["NL15PFL","1381","118104"],
    ["NL15PFS","1381","118105"],
    ["NL15PGN","1381","118106"],
    ["NL15PGH","1381","118107"],
    ["NL15PFF","1381","118108"],
    ["NL15PHB","1381","118109"],
    ["NL15PDJ","1381","118110"],
    ["NL15PEL","1381","118111"],
    ["NL15PI4","1381","118112"],
    ["NL15PHH","1381","118113"],
    ["NL15PI8","1381","118114"],
    ["NL15PI7","1381","118115"],
    ["NL15PHC","1381","118116"],
    ["NL15PH9","1381","118117"],
    ["NL15PD4","1381","118118"],
    ["NL15PD7","1381","118119"],
    ["NL15PDB","1381","118120"],
    ["NL15PDG","1381","118121"],
    ["NL15PER","1381","118122"],
    ["NL15PDX","1381","118123"],
    ["NL15PEY","1381","118124"],
    ["NL15PI5","1381","118125"],
    ["NL15PDA","1381","118126"],
    ["NL15PDN","1381","118127"],
    ["NL15PGE","1381","118128"],
    ["NL15PE1","1381","118129"],
    ["NL15PAM","1381","118130"],
    ["NL15PAQ","1381","118131"],
    ["NL15PA9","1381","118132"],
    ["NL15PEQ","1381","118133"],
    ["NL15PC8","1381","118134"],
    ["NL15PGM","1381","118135"],
    ["NL15PDD","1381","118136"],
    ["NL15PGI","1381","118137"],
    ["NL15PFJ","1381","118138"],
    ["NL15PEU","1381","118139"],
    ["NL15PFC","1381","118140"],
    ["NL15PEM","1381","118141"],
    ["NL15PCI","1381","118142"],
    ["NL15PFG","1381","118143"],
    ["NL15PDR","1381","118144"],
    ["NL15PA7","1381","118145"],
    ["NL15PH5","1381","118146"],
    ["NL15PDY","1381","118147"],
    ["NL15PEI","1381","118148"],
    ["NL15PGB","1381","118149"],
    ["NL15PG6","1381","118150"],
    ["NL15PG3","1381","118151"],
    ["NL15PDL","1381","118152"],
    ["NL15PD0","1381","118153"],
    ["NL15PCU","1381","118154"],
    ["NL15PDP","1381","118155"],
    ["NL15PE6","1381","118156"],
    ["NL15PEE","1381","118157"],
    ["NL15PEJ","1381","118158"],
    ["NL15PEO","1381","118159"],
    ["NL15PFK","1381","118160"],
    ["NL15PFT","1381","118161"],
    ["NL15PBR","1381","118162"],
    ["NL15PBN","1381","118163"],
    ["NL15PBH","1381","118164"],
    ["NL15PBK","1381","118165"],
    ["NL15PBV","1381","118166"],
    ["NL15PD8","1381","118167"],
    ["NL15PDE","1381","118168"],
    ["NL15PBB","1381","118169"],
    ["NL15PB7","1381","118170"],
    ["NL15PBP","1381","118171"],
    ["NL15PBT","1381","118172"],
    ["NL15PCK","1381","118173"],
    ["NL15PH3","1381","118174"],
    ["NL15PDU","1381","118175"],
    ["NL15PB4","1381","118176"],
    ["NL15PB8","1381","118177"],
    ["NL15PAY","1381","118178"],
    ["NL15PAS","1381","118179"],
    ["NL15PD1","1381","118180"],
    ["NL15PCX","1381","118181"],
    ["NL15PES","1381","118182"],
    ["NL15PBE","1381","118183"],
    ["NL15PH0","1381","118184"],
    ["NL15PGW","1381","118185"],
    ["NL15PGU","1381","118186"],
    ["NL15PGQ","1381","118187"],
    ["NL15PBO","1381","118188"],
    ["NL15PC0","1381","118189"],
    ["NL15PCR","1381","118190"],
    ["NL15PEC","1381","118191"],
    ["NL15PE8","1381","118192"],
    ["NL15PE4","1381","118193"],
    ["NL15PEF","1381","118194"],
    ["NL15PCF","1381","118195"],
    ["NL15PBJ","1381","118196"],
    ["NL15PCA","1381","118197"],
    ["NL15PC4","1381","118198"],
    ["NL15PEA","1381","118199"],
    ["NL15PE2","1381","118200"],
    ["NL15PA8","1381","118201"],
    ["NL15PI9","1381","118202"],
    ["NL15PAE","1381","118203"],
    ["NL15PI1","1381","118204"],
    ["NL15PBA","1381","118205"],
    ["NL15PI2","1381","118206"],
    ["NL15PBD","1381","118207"],
    ["NL15PAH","1381","118208"],
    ["NL15PCB","1381","118209"],
    ["NL15PAA","1381","118210"],
    ["NL15PJP","1381","118211"],
    ["NL15PIT","1381","118212"],
    ["NL15PJE","1381","118213"],
    ["NL15PJL","1381","118214"],
    ["NL15PJG","1381","118215"],
    ["NL15PJC","1381","118216"],
    ["NL15PJJ","1381","118217"],
    ["NL15PLD","1381","118218"],
    ["NL15PLX","1381","118219"],
    ["NL15PMJ","1381","118220"],
    ["NL15PQ3","1381","118221"],
    ["NL15PPZ","1381","118222"],
    ["NL15POV","1381","118223"],
    ["NL15PP1","1381","118224"],
    ["NL15POX","1381","118225"],
    ["NL15POR","1381","118226"],
    ["NL15PM9","1381","118227"],
    ["NL15PIZ","1381","118228"],
    ["NL15PJ3","1381","118229"],
    ["NL15PM5","1381","118230"],
    ["NL15PLE","1381","118231"],
    ["NL15PML","1381","118232"],
    ["NL15PLS","1381","118233"],
    ["NL15PMR","1381","118234"],
    ["NL15PLI","1381","118235"],
    ["NL15PMV","1381","118236"],
    ["NL15PLO","1381","118237"],
    ["NL15PMG","1381","118238"],
    ["NL15PM1","1381","118239"],
    ["NL15PMZ","1381","118240"],
    ["NL15PLW","1381","118241"],
    ["NL15PMX","1381","118242"],
    ["NL15PN1","1381","118243"],
    ["NL15PM8","1381","118244"],
    ["NL15PMC","1381","118245"],
    ["NL15POB","1381","118246"],
    ["NL15POF","1381","118247"],
    ["NL15PJW","1382","118248"],
    ["NL15PK0","1382","118249"],
    ["NL15PK7","1382","118250"],
    ["NL15PM0","1382","118251"],
    ["NL15PIO","1382","118252"],
    ["NL15POJ","1382","118253"],
    ["NL15PMQ","1382","118254"],
    ["NL15PLL","1382","118255"],
    ["NL15PMT","1382","118256"],
    ["NL15PMN","1382","118257"],
    ["NL15PN5","1382","118258"],
    ["NL15PM4","1382","118259"],
    ["NL15PNJ","1382","118260"],
    ["NL15PN7","1382","118261"],
    ["NL15PNP","1382","118262"],
    ["NL15PN3","1382","118263"],
    ["NL15PN9","1382","118264"],
    ["NL15PLT","1382","118265"],
    ["NL15PNN","1382","118266"],
    ["NL15PMF","1382","118267"],
    ["NL15PNH","1382","118268"],
    ["NL15PND","1382","118269"],
    ["NL15PNL","1382","118270"],
    ["NL15PO7","1382","118271"],
    ["NL15PIX","1382","118272"],
    ["NL15PJ2","1382","118273"],
    ["NL15PJ5","1382","118274"],
    ["NL15PPN","1382","118275"],
    ["NL15PPH","1382","118276"],
    ["NL15PPD","1382","118277"],
    ["NL15PPU","1382","118278"],
    ["NL15PPL","1382","118279"],
    ["NL15PM7","1382","118280"],
    ["NL15PMD","1382","118281"],
    ["NL15PNZ","1382","118282"],
    ["NL15PNV","1382","118283"],
    ["NL15PNR","1382","118284"],
    ["NL15PQ7","1382","118285"],
    ["NL15PQ0","1382","118286"],
    ["NL15PO1","1382","118287"],
    ["NL15POU","1382","118288"],
    ["NL15PJT","1382","118289"],
    ["NL15PP7","1382","118290"],
    ["NL15PMS","1382","118291"],
    ["NL15PPS","1382","118292"],
    ["NL15PPX","1382","118293"],
    ["NL15PP3","1382","118294"],
    ["NL15PO5","1382","118295"],
    ["NL15POZ","1382","118296"],
    ["NL15PJK","1382","118297"],
    ["NL15PKZ","1382","118298"],
    ["NL15PPV","1382","118299"],
    ["NL15PJH","1382","118300"],
    ["NL15PM2","1382","118301"],
    ["NL15PLY","1382","118302"],
    ["NL15POD","1382","118303"],
    ["NL15PJ9","1382","118304"],
    ["NL15POI","1382","118305"],
    ["NL15POQ","1382","118306"],
    ["NL15POE","1382","118307"],
    ["NL15POA","1382","118308"],
    ["NL15PNX","1382","118309"],
    ["NL15PNT","1382","118310"],
    ["NL15PPF","1382","118311"],
    ["NL15PKA","1382","118312"],
    ["NL15PPK","1382","118313"],
    ["NL15PO9","1382","118314"],
    ["NL15PO6","1382","118315"],
    ["NL15PPQ","1382","118316"],
    ["NL15PLU","1382","118317"],
    ["NL15PN2","1382","118318"],
    ["NL15PLH","1382","118319"],
    ["NL15PL7","1382","118320"],
    ["NL15PPB","1382","118321"],
    ["NL15PLV","1382","118322"],
    ["NL15PLK","1382","118323"],
    ["NL15PLF","1382","118324"],
    ["NL15PLB","1382","118325"],
    ["NL15PJU","1382","118326"],
    ["NL15PJB","1382","118327"],
    ["NL15PJ7","1382","118328"],
    ["NL15PPE","1382","118329"],
    ["NL15PPW","1382","118330"],
    ["NL15PPT","1382","118331"],
    ["NL15PNM","1382","118332"],
    ["NL15PNI","1382","118333"],
    ["NL15PLA","1382","118334"],
    ["NL15PL6","1382","118335"],
    ["NL15PP9","1382","118336"],
    ["NL15PO4","1382","118337"],
    ["NL15PN8","1382","118338"],
    ["NL15POG","1382","118339"],
    ["NL15PNK","1382","118340"],
    ["NL15PO8","1382","118341"],
    ["NL15PNS","1382","118342"],
    ["NL15PJV","1382","118343"],
    ["NL15PMP","1382","118344"],
    ["NL15PLR","1382","118345"],
    ["NL15PJY","1382","118346"],
    ["NL15PN0","1382","118347"],
    ["NL15PPO","1382","118348"],
    ["NL15PNC","1382","118349"],
    ["NL15PQK","1382","118350"],
    ["NL15PNG","1382","118351"],
    ["NL15PMW","1382","118352"],
    ["NL15PMO","1382","118353"],
    ["NL15PMK","1382","118354"],
    ["NL15PN4","1382","118355"],
    ["NL15PN6","1382","118356"],
    ["NL15PNA","1382","118357"],
    ["NL15PJS","1382","118358"],
    ["NL15PQD","1382","118359"],
    ["NL15PJO","1382","118360"],
    ["NL15PQA","1382","118361"],
    ["NL15PLP","1382","118362"],
    ["NL15POO","1382","118363"],
    ["NL15PKQ","1382","118364"],
    ["NL15PO2","1382","118365"],
    ["NL15PNY","1382","118366"],
    ["NL15PK1","1382","118367"],
    ["NL15PNU","1382","118368"],
    ["NL15PJM","1382","118369"],
    ["NL15PKP","1382","118370"],
    ["NL15PJI","1382","118371"],
    ["NL15PJF","1382","118372"],
    ["NL15PK3","1382","118373"],
    ["NL15PLJ","1382","118374"],
    ["NL15PIM","1382","118375"],
    ["NL15PLG","1382","118376"],
    ["NL15PPA","1382","118377"],
    ["NL15PLM","1382","118378"],
    ["NL15PL8","1382","118379"],
    ["NL15PLC","1382","118380"],
    ["NL15PJZ","1382","118381"],
    ["NL15PJQ","1382","118382"],
    ["NL15PKM","1382","118383"],
    ["NL15PKF","1382","118384"],
    ["NL15PMH","1382","118385"],
    ["NL15PMB","1382","118386"],
    ["NL15PKI","1382","118387"],
    ["NL15PIY","1382","118388"],
    ["NL15PJ6","1382","118389"],
    ["NL15PJ1","1382","118390"],
    ["NL15PJD","1382","118391"],
    ["NL15PIU","1382","118392"],
    ["NL15PIQ","1382","118393"],
    ["NL15PQ1","1382","118394"],
    ["NL15PQ5","1382","118395"],
    ["NL15PQ8","1382","118396"],
    ["NL15PQE","1382","118397"],
    ["NL15PQB","1382","118398"],
    ["NL15POK","1382","118399"],
    ["NL15PQH","1382","118400"],
    ["NL15PQJ","1382","118401"],
    ["NL15PL4","1382","118402"],
    ["NL15PL3","1382","118403"],
    ["NL15PK5","1382","118404"],
    ["NL15PLQ","1382","118405"],
    ["NL15PIJ","1382","118406"],
    ["NL15PPC","1382","118407"],
    ["NL15PPG","1382","118408"],
    ["NL15PK2","1382","118409"],
    ["NL15PK4","1382","118410"],
    ["NL15PQF","1382","118411"],
    ["NL15PK8","1382","118412"],
    ["NL15PQM","1382","118413"],
    ["NL15PIH","1382","118414"],
    ["NL15PIN","1382","118415"],
    ["NL15PQL","1382","118416"],
    ["NL15PQN","1382","118417"],
    ["NL15PQI","1382","118418"],
    ["NL15PNE","1382","118419"],
    ["NL15PJN","1382","118420"],
    ["NL15PJR","1382","118421"],
    ["NL15POL","1382","118422"],
    ["NL15POH","1382","118423"],
    ["NL15PJX","1382","118424"],
    ["NL15PMI","1382","118425"],
    ["NL15PM3","1382","118426"],
    ["NL15PMM","1382","118427"],
    ["NL15PMY","1382","118428"],
    ["NL15PM6","1382","118429"],
    ["NL15PLN","1382","118430"],
    ["NL15PQ2","1382","118431"],
    ["NL15PQ9","1382","118432"],
    ["NL15PIK","1382","118433"],
    ["NL15PQ6","1382","118434"],
    ["NL15PQC","1382","118435"],
    ["NL15PKH","1382","118436"],
    ["NL15PKE","1382","118437"],
    ["NL15PKS","1382","118438"],
    ["NL15PKL","1382","118439"],
    ["NL15PKW","1382","118440"],
    ["NL15PIR","1382","118441"],
    ["NL15PIV","1382","118442"],
    ["NL15PIP","1382","118443"],
    ["NL15PIW","1382","118444"],
    ["NL15PIL","1382","118445"],
    ["NL15PJ4","1382","118446"],
    ["NL15PPP","1382","118447"],
    ["NL15PKG","1382","118448"],
    ["NL15PNQ","1382","118449"],
    ["NL15PJ8","1382","118450"],
    ["NL15PQ4","1382","118451"],
    ["NL15PPR","1382","118452"],
    ["NL15PKJ","1382","118453"],
    ["NL15PPI","1382","118454"],
    ["NL15PMU","1382","118455"],
    ["NL15PMA","1382","118456"],
    ["NL15PME","1382","118457"],
    ["NL15PLZ","1382","118458"],
    ["NL15PO0","1382","118459"],
    ["NL15PNO","1382","118460"],
    ["NL15POC","1382","118461"],
    ["NL15PL5","1383","118462"],
    ["NL15PKV","1383","118463"],
    ["NL15PL1","1383","118464"],
    ["NL15PL9","1383","118465"],
    ["NL15PIS","1383","118466"],
    ["NL15PJ0","1383","118467"],
    ["NL15PNF","1383","118468"],
    ["NL15PNB","1383","118469"],
    ["NL15PPY","1383","118470"],
    ["NL15PL2","1383","118471"],
    ["NL15PKC","1383","118472"],
    ["NL15PKN","1383","118473"],
    ["NL15PKU","1383","118474"],
    ["NL15PKR","1383","118475"],
    ["NL15PKY","1383","118476"],
    ["NL15PKT","1383","118477"],
    ["NL15PKX","1383","118478"],
    ["NL15PKO","1383","118479"],
    ["NL15PKK","1383","118480"],
    ["NL15PKD","1383","118481"],
    ["NL15PK9","1383","118482"],
    ["NL15POW","1383","118483"],
    ["NL15POS","1383","118484"],
    ["NL15PP0","1383","118485"],
    ["NL15PP4","1383","118486"],
    ["NL15PP6","1383","118487"],
    ["NL15PP8","1383","118488"],
    ["NL15PNW","1383","118489"],
    ["NL15PK6","1383","118490"],
    ["NL15PPJ","1383","118491"],
    ["NL15POT","1383","118492"],
    ["NL15POP","1383","118493"],
    ["NL15POM","1383","118494"],
    ["NL15PQG","1383","118495"],
    ["NL15POY","1383","118496"],
    ["NL15PP2","1383","118497"],
    ["NL15PL0","1383","118498"],
    ["NL15PW2","1383","118499"],
    ["NL15PW0","1383","118500"],
    ["NL15PW1","1383","118501"],
    ["NL15PW7","1383","118502"],
    ["NL15PWC","1383","118503"],
    ["NL15PW9","1383","118504"],
    ["NL15PVW","1383","118505"],
    ["NL15PVV","1383","118506"],
    ["NL15PY8","1383","118507"],
    ["NL15PYK","1383","118508"],
    ["NL15PWW","1383","118509"],
    ["NL15PWV","1383","118510"],
    ["NL15PX9","1383","118511"],
    ["NL15PX6","1383","118512"],
    ["NL15PWQ","1383","118513"],
    ["NL15PWU","1383","118514"],
    ["NL15PWI","1383","118515"],
    ["NL15PWD","1383","118516"],
    ["NL15PWK","1383","118517"],
    ["NL15PWN","1383","118518"],
    ["NL15PV6","1383","118519"],
    ["NL15PRG","1383","118520"],
    ["NL15PUJ","1383","118521"],
    ["NL15PQO","1383","118522"],
    ["NL15PRQ","1383","118523"],
    ["NL15PR8","1383","118524"],
    ["NL15PUR","1383","118525"],
    ["NL15PQZ","1383","118526"],
    ["NL15PTS","1383","118527"],
    ["NL15PTI","1383","118528"],
    ["NL15PU0","1383","118529"],
    ["NL15PT0","1383","118530"],
    ["NL15PSQ","1383","118531"],
    ["NL15PS8","1383","118532"],
    ["NL15PTA","1383","118533"],
    ["NL15PRW","1383","118534"],
    ["NL15PUA","1383","118535"],
    ["NL15PV3","1383","118536"],
    ["NL15PSH","1383","118537"],
    ["NL15PS0","1383","118538"],
    ["NL15PS2","1383","118539"],
    ["NL15PRY","1383","118540"],
    ["NL15PUS","1383","118541"],
    ["NL15PUX","1383","118542"],
    ["NL15PVC","1383","118543"],
    ["NL15PVL","1383","118544"],
    ["NL15PUW","1383","118545"],
    ["NL15PV1","1383","118546"],
    ["NL15PY2","1383","118547"],
    ["NL15PXB","1383","118548"],
    ["NL15PYE","1383","118549"],
    ["NL15PXJ","1383","118550"],
    ["NL15PYI","1383","118551"],
    ["NL15PXG","1383","118552"],
    ["NL15PXE","1383","118553"],
    ["NL15PYL","1383","118554"],
    ["NL15PYO","1383","118555"],
    ["NL15PYQ","1383","118556"],
    ["NL15PRU","1383","118557"],
    ["NL15PS5","1383","118558"],
    ["NL15PTN","1383","118559"],
    ["NL15PRZ","1383","118560"],
    ["NL15PYD","1383","118561"],
    ["NL15PYB","1383","118562"],
    ["NL15PYH","1383","118563"],
    ["NL15PY0","1383","118564"],
    ["NL15PXX","1383","118565"],
    ["NL15PUO","1383","118566"],
    ["NL15PU7","1383","118567"],
    ["NL15PUU","1383","118568"],
    ["NL15PUZ","1383","118569"],
    ["NL15MMM","1391","119480"],
    ["NL15MQQ","1391","119481"],
    ["NL15MQO","1391","119482"],
    ["NL15MMD","1391","119483"],
    ["NL15MOL","1391","119484"],
    ["NL15MOC","1391","119485"],
    ["NL15MN3","1391","119486"],
    ["NL15MPB","1391","119487"],
    ["NL15MP7","1391","119488"],
    ["NL15MPF","1391","119489"],
    ["NL15MM5","1391","119490"],
    ["NL15MMB","1391","119491"],
    ["NL15MTM","1391","119492"],
    ["NL15MTR","1391","119493"],
    ["NL15MTN","1391","119494"],
    ["NL15MTP","1391","119495"],
    ["NL15MMY","1391","119496"],
    ["NL15MMU","1391","119497"],
    ["NL15MMP","1391","119498"],
    ["NL15MMK","1391","119499"],
    ["NL15MNI","1391","119500"],
    ["NL15MNT","1391","119501"],
    ["NL15MNN","1391","119502"],
    ["NL15MNX","1391","119503"],
    ["NL15MO3","1391","119504"],
    ["NL15MNE","1391","119505"],
    ["NL15MOH","1391","119506"],
    ["NL15MO7","1391","119507"],
    ["NL15MQI","1391","119508"],
    ["NL15MQH","1391","119509"],
    ["NL15MTI","1391","119510"],
    ["NL15MTG","1391","119511"],
    ["NL15MN8","1391","119512"],
    ["NL15MN4","1391","119513"],
    ["NL15MWE","1391","119514"],
    ["NL15MW8","1391","119515"],
    ["NL15MXW","1391","119516"],
    ["NL15MXT","1391","119517"],
    ["NL15N1C","1391","119518"],
    ["NL15N0T","1391","119519"],
    ["NL15N46","1391","119520"],
    ["NL15MXZ","1391","119521"],
    ["NL15N49","1391","119522"],
    ["NL15MYR","1391","119523"],
    ["NL15N0P","1391","119524"],
    ["NL15MVT","1391","119525"],
    ["NL15N13","1391","119526"],
    ["NL15MWG","1391","119527"],
    ["NL15MWK","1391","119528"],
    ["NL15MYO","1391","119529"],
    ["NL15MXY","1391","119530"],
    ["NL15MXR","1391","119531"],
    ["NL15MX1","1391","119532"],
    ["NL15N3M","1391","119533"],
    ["NL15N3K","1391","119534"],
    ["NL15N3I","1391","119535"],
    ["NL15N1H","1391","119536"],
    ["NL15N3D","1391","119537"],
    ["NL15N15","1391","119538"],
    ["NL15N0X","1391","119539"],
    ["NL15MY2","1391","119540"],
    ["NL15MY5","1391","119541"],
    ["NL15MYI","1391","119542"],
    ["NL15MYE","1391","119543"],
    ["NL15MXV","1391","119544"],
    ["NL15MXA","1391","119545"],
    ["NL15MX0","1391","119546"],
    ["NL15MX4","1391","119547"],
    ["NL15MX7","1391","119548"],
    ["NL15MWX","1391","119549"],
    ["NL15MWQ","1391","119550"],
    ["NL15MVW","1391","119551"],
    ["NL15MW0","1391","119552"],
    ["NL15MWD","1391","119553"],
    ["NL15MW6","1391","119554"],
    ["NL15MWA","1391","119555"],
    ["NL15MV0","1391","119556"],
    ["NL15MVJ","1391","119557"],
    ["NL15MWT","1391","119558"],
    ["NL15MWN","1391","119559"],
    ["NL15MXK","1391","119560"],
    ["NL15MXD","1391","119561"],
    ["NL15MXJ","1391","119562"],
    ["NL15MW2","1391","119563"],
    ["NL15N3R","1391","119564"],
    ["NL15N3T","1391","119565"],
    ["NL15N47","1391","119566"],
    ["NL15N19","1391","119567"],
    ["NL15N4I","1391","119568"],
    ["NL15N1B","1391","119569"],
    ["NL15N4D","1391","119570"],
    ["NL15N4H","1391","119571"],
    ["NL15N4N","1391","119572"],
    ["NL15N4L","1391","119573"],
    ["NL15N43","1391","119574"],
    ["NL15N3Y","1391","119575"],
    ["NL15N41","1391","119576"],
    ["NL15N3W","1391","119577"],
    ["NL15MXF","1391","119578"],
    ["NL15NA1","1391","119579"],
    ["NL15NA4","1391","119580"],
    ["NL15NA8","1391","119581"],
    ["NL15NB0","1391","119582"],
    ["NL15NB3","1391","119583"],
    ["NL15NAC","1391","119584"],
    ["NL15NB6","1391","119585"],
    ["NL15NAU","1391","119586"],
    ["NL15NAZ","1391","119587"],
    ["NL15NAA","1391","119588"],
    ["NL15NAE","1391","119589"],
    ["NL15NAH","1391","119590"],
    ["NL15NA5","1391","119591"],
    ["NL15NA0","1391","119592"],
    ["NL15NA2","1391","119593"],
    ["NL15NA9","1391","119594"],
    ["NL15NAO","1391","119595"],
    ["NL15NAJ","1391","119596"],
    ["NL15NBH","1391","119597"],
    ["NL15NB2","1391","119598"],
    ["NL15NB5","1391","119599"],
    ["NL15NDA","1391","119600"],
    ["NL15NDC","1391","119601"],
    ["NL15N8J","1391","119602"],
    ["NL15NAW","1391","119603"],
    ["NL15NAS","1391","119604"],
    ["NL15NAN","1391","119605"],
    ["NL15NAK","1391","119606"],
    ["NL15NDF","1391","119607"],
    ["NL15NDG","1391","119608"],
    ["NL15NDI","1391","119609"],
    ["NL15NCX","1391","119610"],
    ["NL15NDL","1391","119611"],
    ["NL15N9S","1391","119612"],
    ["NL15NAT","1391","119613"],
    ["NL15N9W","1391","119614"],
    ["NL15NCU","1391","119615"],
    ["NL15NA7","1391","119616"],
    ["NL15NAF","1391","119617"],
    ["NL15NAB","1391","119618"],
    ["NL15ND6","1391","119619"],
    ["NL15NAM","1391","119620"],
    ["NL15NAR","1391","119621"],
    ["NL15NAX","1391","119622"],
    ["NL15NBC","1391","119623"],
    ["NL15NBM","1391","119624"],
    ["NL15ND3","1391","119625"],
    ["NL15NCS","1391","119626"],
    ["NL15NCN","1391","119627"],
    ["NL15NBX","1391","119628"],
    ["NL15NB9","1391","119629"],
    ["NL15NBN","1391","119630"],
    ["NL15NBF","1391","119631"],
    ["NL15NBS","1391","119632"],
    ["NL15N8S","1391","119633"],
    ["NL15N8L","1391","119634"],
    ["NL15N8F","1391","119635"],
    ["NL15N9U","1391","119636"],
    ["NL15N8Z","1391","119637"],
    ["NL15N9X","1391","119638"],
    ["NL15N9C","1391","119639"],
    ["NL15N9K","1391","119640"],
    ["NL15N9R","1391","119641"],
    ["NL15N96","1391","119642"],
    ["NL15NC6","1391","119643"],
    ["NL15NC3","1391","119644"],
    ["NL15NCE","1391","119645"],
    ["NL15NCC","1391","119646"],
    ["NL15NBY","1391","119647"],
    ["NL15NCJ","1391","119648"],
    ["NL15NC8","1391","119649"],
    ["NL15NC9","1391","119650"],
    ["NL15NCP","1391","119651"],
    ["NL15NCH","1391","119652"],
    ["NL15NCM","1391","119653"],
    ["NL15NBQ","1391","119654"],
    ["NL15NBU","1391","119655"],
    ["NL15NC1","1391","119656"],
    ["NL15NBJ","1391","119657"],
    ["NL15NEK","1391","119658"],
    ["NL15NEZ","1391","119659"],
    ["NL15NEU","1391","119660"],
    ["NL15NF0","1391","119661"],
    ["NL15NF4","1391","119662"],
    ["NL15NEW","1391","119663"],
    ["NL15NEP","1391","119664"],
    ["NL15NEF","1391","119665"],
    ["NL15NES","1391","119666"],
    ["NL15NF6","1391","119667"],
    ["NL15NF9","1391","119668"],
    ["NL15NHV","1391","119669"],
    ["NL15NHZ","1391","119670"],
    ["NL15NIY","1391","119671"],
    ["NL15NJ2","1391","119672"],
    ["NL15NJX","1391","119673"],
    ["NL15NJU","1391","119674"],
    ["NL15NJG","1391","119675"],
    ["NL15NJ9","1391","119676"],
    ["NL15NJC","1391","119677"],
    ["NL15NKG","1391","119678"],
    ["NL15NK2","1391","119679"],
    ["NL15NJK","1391","119680"],
    ["NL15NJZ","1391","119681"],
    ["NL15NT4","1391","119682"],
    ["NL15NT7","1391","119683"],
    ["NL15NTL","1391","119684"],
    ["NL15NTI","1391","119685"],
    ["NL15NTM","1391","119686"],
    ["NL15NI6","1391","119687"],
    ["NL15NI1","1391","119688"],
    ["NL15NHY","1391","119689"],
    ["NL15NHS","1391","119690"],
    ["NL15NHE","1391","119691"],
    ["NL15NG8","1391","119692"],
    ["NL15NGD","1391","119693"],
    ["NL15NFP","1391","119694"],
    ["NL15NFZ","1391","119695"],
    ["NL15NHO","1391","119696"],
    ["NL15NHA","1391","119697"],
    ["NL15NHD","1391","119698"],
    ["NL15NFN","1391","119699"],
    ["NL15NGA","1391","119700"],
    ["NL15NGG","1391","119701"],
    ["NL15NH7","1391","119702"],
    ["NL15NH2","1391","119703"],
    ["NL15NFW","1391","119704"],
    ["NL15NGU","1391","119705"],
    ["NL15NFD","1391","119706"],
    ["NL15NUK","1393","119945"],
    ["NL15NWI","1393","119946"],
    ["NL15NUG","1393","119947"],
    ["NL15NVV","1393","119948"],
    ["NL15NVQ","1393","119949"],
    ["NL15NVM","1393","119950"],
    ["NL15NU4","1393","119951"],
    ["NL15NTZ","1393","119952"],
    ["NL15O1U","1393","119953"],
    ["NL15NXI","1393","119954"],
    ["NL15O1P","1393","119955"],
    ["NL15NU8","1393","119956"],
    ["NL15O1R","1393","119957"],
    ["NL15NUO","1393","119958"],
    ["NL15NZD","1393","119959"],
    ["NL15O1E","1393","119960"],
    ["NL15O0Y","1393","119961"],
    ["NL15O0U","1393","119962"],
    ["NL15O12","1393","119963"],
    ["NL15NWT","1393","119964"],
    ["NL15NWD","1393","119965"],
    ["NL15O16","1393","119966"],
    ["NL15NVW","1393","119967"],
    ["NL15O1I","1393","119968"],
    ["NL15NWJ","1393","119969"],
    ["NL15NV8","1393","119970"],
    ["NL15O0C","1393","119971"],
    ["NL15O0Q","1393","119972"],
    ["NL15NVB","1393","119973"],
    ["NL15O0H","1393","119974"],
    ["NL15NXA","1393","119975"],
    ["NL15O13","1393","119976"],
    ["NL15O11","1393","119977"],
    ["NL15NYA","1393","119978"],
    ["NL15O0I","1393","119979"],
    ["NL15NX2","1393","119980"],
    ["NL15NX6","1393","119981"],
    ["NL15NW5","1393","119982"],
    ["NL15NWA","1393","119983"],
    ["NL15O1A","1393","119984"],
    ["NL15O1M","1393","119985"],
    ["NL15NYE","1393","119986"],
    ["NL15NXO","1393","119987"],
    ["NL15NYI","1393","119988"],
    ["NL15O07","1393","119989"],
    ["NL15NZU","1393","119990"],
    ["NL15NZP","1393","119991"],
    ["NL15O0A","1393","119992"],
    ["NL15NZR","1393","119993"],
    ["NL15NZO","1393","119994"],
    ["NL15NZ8","1393","119995"],
    ["NL15NZ9","1393","119996"],
    ["NL15NZ2","1393","119997"],
    ["NL15NYJ","1393","119998"],
    ["NL15NYS","1393","119999"],
    ["NL15NYO","1393","120000"],
    ["NL15NZW","1393","120005"],
    ["NL15NZT","1393","120006"],
    ["NL15O1V","1393","120007"],
    ["NL15O1W","1393","120008"],
    ["NL15NUJ","1393","120009"],
    ["NL15O1X","1393","120010"],
    ["NL15NY7","1393","120011"],
    ["NL15NYF","1393","120012"],
    ["NL15NYC","1393","120013"],
    ["NL15NY8","1393","120014"],
    ["NL15NYH","1393","120015"],
    ["NL15NYK","1393","120016"],
    ["NL15NUQ","1393","120017"],
    ["NL15O1T","1393","120018"],
    ["NL15NUB","1393","120019"],
    ["NL15O1N","1393","120020"],
    ["NL15NUX","1393","120021"],
    ["NL15O1S","1393","120022"],
    ["NL15NUU","1393","120023"],
    ["NL15O1Q","1393","120024"],
    ["NL15NW8","1393","120025"],
    ["NL15NW4","1393","120026"],
    ["NL15NXN","1393","120027"],
    ["NL15NYX","1393","120028"],
    ["NL15NZK","1393","120029"],
    ["NL15NZM","1393","120030"],
    ["NL15NY0","1393","120031"],
    ["NL15NXU","1393","120032"],
    ["NL15NXY","1393","120033"],
    ["NL15NY3","1393","120034"],
    ["NL15NZI","1393","120035"],
    ["NL15NZE","1393","120036"],
    ["NL15NVC","1393","120037"],
    ["NL15O19","1393","120038"],
    ["NL15O1C","1393","120039"],
    ["NL15O1O","1393","120040"],
    ["NL15O1G","1393","120041"],
    ["NL15O0K","1393","120042"],
    ["NL15O0R","1393","120043"],
    ["NL15NUP","1393","120044"],
    ["NL15O0B","1393","120045"],
    ["NL15NZ4","1393","120046"],
    ["NL15NYT","1393","120047"],
    ["NL15NYM","1393","120048"],
    ["NL15NYU","1393","120049"],
    ["NL15NYP","1393","120050"],
    ["NL15NWF","1393","120051"],
    ["NL15NWH","1393","120052"],
    ["NL15NW3","1393","120053"],
    ["NL15NW6","1393","120054"],
    ["NL15NW9","1393","120055"],
    ["NL15NWB","1393","120056"],
    ["NL15NVY","1393","120057"],
    ["NL15NW0","1393","120058"],
    ["NL15NWU","1393","120059"],
    ["NL15NWN","1393","120060"],
    ["NL15NWS","1393","120061"],
    ["NL15NWK","1393","120062"],
    ["NL15NWP","1393","120063"],
    ["NL15NX8","1393","120064"],
    ["NL15NXH","1393","120065"],
    ["NL15NXK","1393","120066"],
    ["NL15NXE","1393","120067"],
    ["NL15NX3","1393","120068"],
    ["NL15NX5","1393","120069"],
    ["NL15NXC","1393","120070"],
    ["NL15NWZ","1393","120071"],
    ["NL15NXS","1393","120072"],
    ["NL15NXP","1393","120073"],
    ["NL15O3G","1393","120074"],
    ["NL15O91","1393","120075"],
    ["NL15O94","1393","120076"],
    ["NL15O9A","1393","120077"],
    ["NL15O97","1393","120078"],
    ["NL15O2H","1393","120079"],
    ["NL15O3D","1393","120080"],
    ["NL15O39","1393","120081"],
    ["NL15O23","1393","120082"],
    ["NL15O27","1393","120083"],
    ["NL15O2A","1393","120084"],
    ["NL15O2E","1393","120085"],
    ["NL15O20","1393","120086"],
    ["NL15O9G","1393","120087"],
    ["NL15O8W","1393","120088"],
    ["NL15O2K","1393","120089"],
    ["NL15O2R","1393","120090"],
    ["NL15O2O","1393","120091"],
    ["NL15O2V","1393","120092"],
    ["NL15O9E","1393","120093"],
    ["NL15O2Y","1393","120094"],
    ["NL15O3N","1393","120095"],
    ["NL15O47","1393","120096"],
    ["NL15O3U","1393","120097"],
    ["NL15O3W","1393","120098"],
    ["NL15O4K","1393","120099"],
    ["NL15O6H","1393","120100"],
    ["NL15O6A","1393","120101"],
    ["NL15O7B","1393","120102"],
    ["NL15O81","1393","120103"],
    ["NL15O7F","1393","120104"],
    ["NL15O7J","1393","120105"],
    ["NL15O7Q","1393","120106"],
    ["NL15O6E","1393","120107"],
    ["NL15O8H","1393","120108"],
    ["NL15O5P","1393","120109"],
    ["NL15O7M","1393","120110"],
    ["NL15O5T","1393","120111"],
    ["NL15O8B","1393","120112"],
    ["NL15O67","1393","120113"],
    ["NL15O7X","1393","120114"],
    ["NL15O4H","1393","120115"],
    ["NL15O6Y","1393","120116"],
    ["NL15O4E","1393","120117"],
    ["NL15O5B","1393","120118"],
    ["NL15O4B","1393","120119"],
    ["NL15O84","1393","120120"],
    ["NL15O4V","1393","120121"],
    ["NL15O88","1393","120122"],
    ["NL15O8F","1393","120123"],
    ["NL15O5X","1393","120124"],
    ["NL15O79","1393","120125"],
    ["NL15O4Z","1393","120126"],
    ["NL15O52","1393","120127"],
    ["NL15O58","1393","120128"],
    ["NL15O60","1393","120129"],
    ["NL15O4S","1393","120130"],
    ["NL15O7T","1393","120131"],
    ["NL15O56","1393","120132"],
    ["NL15O6L","1393","120133"],
    ["NL15O3J","1393","120134"],
    ["NL15O6N","1393","120135"],
    ["NL15O4O","1393","120136"],
    ["NL15O75","1393","120137"],
    ["NL15O72","1393","120138"],
    ["NL15O5F","1393","120139"],
    ["NL15O5M","1393","120140"],
    ["NL15O64","1393","120141"],
    ["NL15O3Q","1393","120142"],
    ["NL15O5I","1393","120143"],
    ["NL15O7O","1393","120144"],
    ["NL15O7L","1393","120145"],
    ["NL15O69","1393","120146"],
    ["NL15O6C","1393","120147"],
    ["NL15O7S","1393","120148"],
    ["NL15O6Z","1393","120149"],
    ["NL15O83","1393","120150"],
    ["NL15O85","1393","120151"],
    ["NL15O8D","1393","120152"],
    ["NL15O65","1393","120153"],
    ["NL15O5Y","1393","120154"],
    ["NL15O7Z","1393","120155"],
    ["NL15O5J","1393","120156"],
    ["NL15O6G","1393","120157"],
    ["NL15O6O","1393","120158"],
    ["NL15O6K","1393","120159"],
    ["NL15O62","1393","120160"],
    ["NL15O8G","1393","120161"],
    ["NL15O89","1393","120162"],
    ["NL15O8S","1393","120163"],
    ["NL15O8L","1393","120164"],
    ["NL15O6P","1393","120165"],
    ["NL15O6V","1393","120166"],
    ["NL15O2T","1393","120167"],
    ["NL15O3H","1393","120168"],
    ["NL15O49","1393","120169"],
    ["NL15O9K","1393","120170"],
    ["NL15O9N","1393","120171"],
    ["NL15OA7","1393","120172"],
    ["NL15O86","1393","120173"],
    ["NL15O32","1393","120174"],
    ["NL15O61","1393","120175"],
    ["NL15O5W","1393","120176"],
    ["NL15O3R","1393","120177"],
    ["NL15O34","1393","120178"],
    ["NL15O6D","1393","120179"],
    ["NL15O8C","1393","120180"],
    ["NL15O9J","1393","120181"],
    ["NL15O9Z","1393","120182"],
    ["NL15O7A","1394","120183"],
    ["NL15O73","1394","120184"],
    ["NL15O7E","1394","120185"],
    ["NL15O76","1394","120186"],
    ["NL15O22","1394","120187"],
    ["NL15O26","1394","120188"],
    ["NL15O3L","1394","120189"],
    ["NL15O2C","1394","120190"],
    ["NL15O2Z","1394","120191"],
    ["NL15O4R","1394","120192"],
    ["NL15O4L","1394","120193"],
    ["NL15O38","1394","120194"],
    ["NL15O3S","1394","120195"],
    ["NL15O3Y","1394","120196"],
    ["NL15O43","1394","120197"],
    ["NL15O2I","1394","120198"],
    ["NL15O2N","1394","120199"],
    ["NL15O2U","1394","120200"],
    ["NL15O6J","1394","120201"],
    ["NL15O3A","1394","120202"],
    ["NL15O35","1394","120203"],
    ["NL15O4F","1394","120204"],
    ["NL15O5L","1394","120205"],
    ["NL15O4X","1394","120206"],
    ["NL15O1Z","1394","120207"],
    ["NL15O2D","1394","120208"],
    ["NL15O53","1394","120209"],
    ["NL15O5Q","1394","120210"],
    ["NL15O5E","1394","120211"],
    ["NL15O9B","1394","120212"],
    ["NL15O96","1394","120213"],
    ["NL15O4D","1394","120214"],
    ["NL15O31","1394","120215"],
    ["NL15O4M","1394","120216"],
    ["NL15O4I","1394","120217"],
    ["NL15OA4","1394","120218"],
    ["NL15OA5","1394","120219"],
    ["NL15OA6","1394","120220"],
    ["NL15O70","1394","120221"],
    ["NL15O25","1394","120222"],
    ["NL15O2X","1394","120223"],
    ["NL15O68","1394","120224"],
    ["NL15O93","1394","120225"],
    ["NL15O9U","1394","120226"],
    ["NL15O9S","1394","120227"],
    ["NL15O9W","1394","120228"],
    ["NL15O9Y","1394","120229"],
    ["NL15O2G","1394","120230"],
    ["NL15O29","1394","120231"],
    ["NL15O2L","1394","120232"],
    ["NL15O2P","1394","120233"],
    ["NL15O8Z","1394","120234"],
    ["NL15O8X","1394","120235"],
    ["NL15O9V","1394","120236"],
    ["NL15OA2","1394","120237"],
    ["NL15O9T","1394","120238"],
    ["NL15O9R","1394","120239"],
    ["NL15OA1","1394","120240"],
    ["NL15OA3","1394","120241"],
    ["NL15O3F","1394","120242"],
    ["NL15O3K","1394","120243"],
    ["NL15O3C","1394","120244"],
    ["NL15O3V","1394","120245"],
    ["NL15O42","1394","120246"],
    ["NL15O3Z","1394","120247"],
    ["NL15O8K","1394","120248"],
    ["NL15O8T","1394","120249"],
    ["NL15O6R","1394","120250"],
    ["NL15O6U","1394","120251"],
    ["NL15O40","1394","120252"],
    ["NL15O44","1394","120253"],
    ["NL15O77","1394","120254"],
    ["NL15O7I","1394","120255"],
    ["NL15O7P","1394","120256"],
    ["NL15O7U","1394","120257"],
    ["NL15O7D","1394","120258"],
    ["NL15O5A","1394","120259"],
    ["NL15O8R","1394","120260"],
    ["NL15O8N","1394","120261"],
    ["NL15O80","1394","120262"],
    ["NL15O9Q","1394","120263"],
    ["NL15O9H","1394","120264"],
    ["NL15O9M","1394","120265"],
    ["NL15O9X","1394","120266"],
    ["NL15OA0","1394","120267"],
    ["NL15O6W","1394","120268"],
    ["NL15O6S","1394","120269"],
    ["NL15O7H","1394","120270"],
    ["NL15O8P","1394","120271"],
    ["NL15O9D","1394","120272"],
    ["NL15O98","1394","120273"],
    ["NL15O46","1394","120274"],
    ["NL15O90","1394","120275"],
    ["NL15O8O","1394","120276"],
    ["NL15O8J","1394","120277"],
    ["NL15O8V","1394","120278"],
    ["NL15O5N","1394","120279"],
    ["NL15O5U","1394","120280"],
    ["NL15O7W","1394","120281"],
    ["NL15O5R","1394","120282"],
    ["NL15O4P","1394","120283"],
    ["NL15O57","1394","120284"],
    ["NL15O54","1394","120285"],
    ["NL15O50","1394","120286"],
    ["NL15O4W","1394","120287"],
    ["NL15O4T","1394","120288"],
    ["NL15O78","1394","120289"],
    ["NL15O71","1394","120290"],
    ["NL15O74","1394","120291"],
    ["NL15O7N","1394","120292"],
    ["NL15O7C","1394","120293"],
    ["NL15O4G","1394","120294"],
    ["NL15O41","1394","120295"],
    ["NL15O3X","1394","120296"],
    ["NL15O3T","1394","120297"],
    ["NL15O6B","1394","120298"],
    ["NL15O66","1394","120299"],
    ["NL15O6T","1394","120300"],
    ["NL15O6F","1394","120301"],
    ["NL15O9F","1394","120302"],
    ["NL15O9I","1394","120303"],
    ["NL15O9C","1394","120304"],
    ["NL15O51","1394","120305"],
    ["NL15O55","1394","120306"],
    ["NL15O4Y","1394","120307"],
    ["NL15O4U","1394","120308"],
    ["NL15O4N","1394","120309"],
    ["NL15O4Q","1394","120310"],
    ["NL15O3P","1394","120311"],
    ["NL15O3M","1394","120312"],
    ["NL15O9L","1394","120313"],
    ["NL15O7G","1394","120314"],
    ["NL15O4J","1394","120315"],
    ["NL15O7K","1394","120316"],
    ["NL15O6I","1394","120317"],
    ["NL15O6M","1394","120318"],
    ["NL15O6Q","1394","120319"],
    ["NL15O6X","1394","120320"],
    ["NL15O8I","1394","120321"],
    ["NL15O8Y","1394","120322"],
    ["NL15O8M","1394","120323"],
    ["NL15O92","1394","120324"],
    ["NL15O37","1394","120325"],
    ["NL15O2Q","1394","120326"],
    ["NL15O2W","1394","120327"],
    ["NL15O2S","1394","120328"],
    ["NL15O3E","1394","120329"],
    ["NL15O24","1394","120330"],
    ["NL15O9O","1394","120331"],
    ["NL15O9P","1394","120332"],
    ["NL15O2J","1394","120333"],
    ["NL15O2M","1394","120334"],
    ["NL15O3B","1394","120335"],
    ["NL15O3I","1394","120336"],
    ["NL15O33","1394","120337"],
    ["NL15O30","1394","120338"],
    ["NL15O2B","1394","120339"],
    ["NL15O2F","1394","120340"],
    ["NL15O21","1394","120341"],
    ["NL15O28","1394","120342"],
    ["NL15O8Q","1394","120343"],
    ["NL15O82","1394","120344"],
    ["NL15O99","1394","120345"],
    ["NL15O8E","1394","120346"],
    ["NL15O95","1394","120347"],
    ["NL15O8U","1394","120348"],
    ["NL15O63","1394","120349"],
    ["NL15O5Z","1394","120350"],
    ["NL15O5S","1394","120351"],
    ["NL15O5V","1394","120352"],
    ["NL15O87","1394","120353"],
    ["NL15O7Y","1394","120354"],
    ["NL15O7R","1394","120355"],
    ["NL15O7V","1394","120356"],
    ["NL15O8A","1394","120357"],
    ["NL15O5G","1394","120358"],
    ["NL15O59","1394","120359"],
    ["NL15O5C","1394","120360"],
    ["NL15O5O","1394","120361"],
    ["NL15O5H","1394","120362"],
    ["NL15O5K","1394","120363"],
    ["NL15O5D","1394","120364"],
    ["NL15O48","1394","120365"],
    ["NL15O4C","1394","120366"],
    ["NL15O45","1394","120367"],
    ["NL15OGT","1394","120368"],
    ["NL15OH2","1394","120369"],
    ["NL15OH7","1394","120370"],
    ["NL15OCC","1394","120371"],
    ["NL15OC4","1394","120372"],
    ["NL15OGZ","1394","120373"],
    ["NL15OH5","1394","120374"],
    ["NL15OGR","1394","120375"],
    ["NL15OGW","1394","120376"],
    ["NL15OCW","1394","120377"],
    ["NL15ODO","1394","120378"],
    ["NL15OFD","1394","120379"],
    ["NL15OE1","1394","120380"],
    ["NL15OD2","1394","120381"],
    ["NL15ODU","1394","120382"],
    ["NL15OF2","1394","120383"],
    ["NL15OF7","1394","120384"],
    ["NL15OF6","1394","120385"],
    ["NL15OCI","1394","120386"],
    ["NL15OFB","1394","120387"],
    ["NL15OGF","1394","120388"],
    ["NL15OIC","1394","120389"],
    ["NL15OCP","1394","120390"],
    ["NL15OEI","1394","120391"],
    ["NL15ODA","1394","120392"],
    ["NL15ODG","1394","120393"],
    ["NL15OG6","1394","120394"],
    ["NL15OG1","1394","120395"],
    ["NL15OFX","1394","120396"],
    ["NL15OG4","1394","120397"],
    ["NL15OE4","1394","120398"],
    ["NL15OE9","1394","120399"],
    ["NL15OE6","1394","120400"],
    ["NL15OED","1394","120401"],
    ["NL15OGK","1394","120402"],
    ["NL15OEE","1394","120403"],
    ["NL15OEN","1394","120404"],
    ["NL15OEO","1394","120405"],
    ["NL15OF0","1394","120406"],
    ["NL15OEX","1394","120407"],
    ["NL15OGA","1394","120408"],
    ["NL15OFS","1394","120409"],
    ["NL15OFR","1394","120410"],
    ["NL15OES","1394","120411"],
    ["NL15OFG","1394","120412"],
    ["NL15OFL","1394","120413"],
    ["NL15OFN","1394","120414"],
    ["NL15OFI","1394","120415"],
    ["NL15OFW","1394","120416"],
    ["NL15OEU","1394","120417"],
    ["NL15OGB","1394","120418"],
    ["NL15OEJ","1394","120419"],
    ["NL15OGO","1394","120420"],
    ["NL15OGI","1394","120421"],
    ["NL15OI6","1394","120422"],
    ["NL15OI8","1394","120423"]
]